<?xml version="1.0" encoding="utf-8"?>
<!-- Generator: Adobe Illustrator 16.0.0, SVG Export Plug-In . SVG Version: 6.00 Build 0)  -->
<!DOCTYPE svg PUBLIC "-//W3C//DTD SVG 1.1//EN" "http://www.w3.org/Graphics/SVG/1.1/DTD/svg11.dtd">
<svg version="1.1" id="Layer_1" xmlns="http://www.w3.org/2000/svg" xmlns:xlink="http://www.w3.org/1999/xlink" x="0px" y="0px"
	 width="1024px" height="1024px" viewBox="0 0 1024 1024" enable-background="new 0 0 1024 1024" xml:space="preserve">
<g>
	<g>
		<path fill="#855D2F" d="M533.312,565.902l-46.119-70.554l0.728-1.78c-6.227-2.082-12.431-4.246-18.636-6.411
			c-0.346,7.604-0.839,15.202-1.339,22.802l1.187-0.167l40.821,63.075l-20.515,11.549c0,0-5.554,8.117,5.491,12.369l29.183-9.901
			l35.629,12.877l72.311,84.506c0,0,14.65,9.505,22.083-16.383c-22.479-27.264-79.675-87.345-79.675-87.345L533.312,565.902z"/>
		<path fill="#CE9047" d="M462.654,495.479l48.394,78.7c0,0,4.32,1.073,5.017-4.576c-7.746-12.155-46.968-71.643-46.968-71.643
			L462.654,495.479z"/>
		<path fill="#CE9047" d="M564.676,597.208c-5.262,3.923-1.529,8.327-1.529,8.327l73.27,79.404l3.354-6.402
			C639.77,678.537,569.936,593.284,564.676,597.208z"/>
		<path fill="#141311" d="M648.115,684.756c-1.541,1.405-3.213,2.447-5.016,3.121c-6.639,2.482-12.32-1.127-12.559-1.279
			c-0.224-0.146-0.425-0.323-0.598-0.525l-71.835-83.949l-34.024-12.295l-28.261,9.589c-0.615,0.209-1.284,0.195-1.891-0.039
			c-4.446-1.712-7.221-4.255-8.249-7.562c-1.42-4.564,1.163-8.532,1.463-8.971c0.24-0.352,0.558-0.644,0.93-0.851l17.94-10.1
			L466.8,511.301c-0.834-1.288-0.468-3.011,0.823-3.841c1.287-0.833,3.008-0.467,3.842,0.822l40.821,63.076
			c0.416,0.643,0.547,1.429,0.365,2.174c-0.185,0.743-0.668,1.38-1.336,1.757l-19.846,11.17c-0.367,0.75-0.943,2.269-0.472,3.738
			c0.539,1.675,2.341,2.854,4.033,3.621l28.19-9.564c0.596-0.203,1.244-0.196,1.836,0.018l35.63,12.877
			c0.452,0.162,0.854,0.44,1.167,0.807l72.002,84.145c0.936,0.494,3.982,1.844,7.361,0.55c4.018-1.541,7.402-6.417,9.83-14.141
			c-21.682-26.058-72.763-79.91-78.143-85.572l-40.523-14.419c-0.572-0.204-1.062-0.587-1.395-1.096l-46.119-70.553
			c-0.84-1.285-0.479-3.004,0.805-3.845c1.285-0.842,3.007-0.48,3.846,0.805l45.607,69.768l40.268,14.325
			c0.41,0.146,0.78,0.388,1.081,0.703c0.571,0.602,57.521,60.465,79.806,87.488c0.584,0.708,0.781,1.654,0.527,2.535
			C654.688,676.026,651.775,681.416,648.115,684.756z"/>
	</g>
	<g>
		<path fill="#B5C456" d="M446.353,444.367c-0.192-3.977-0.246-7.805-0.172-11.499c0.782,3.692,1.7,7.454,2.744,11.224
			C448.046,444.061,447.179,444.15,446.353,444.367z"/>
		<path fill="#B5C456" d="M460.855,499.15c-0.438-0.462-0.848-0.961-1.21-1.489c0.31,0.629,0.228,0.471-0.242-0.479
			c-0.381-0.835-0.743-1.682-1.087-2.539c-0.03-0.08-0.065-0.153-0.099-0.232c2.955-5.367,3.457-12.064,3.084-18.249
			c0.343,0.641,0.69,1.275,1.041,1.902c1.667,6.75,1.839,16.261,0.148,24.475C462.239,501.295,461.708,500.121,460.855,499.15z"/>
		<path fill="#B5C456" d="M440.211,453.309c0.091,1.036,0.24,2.285,0.417,3.704c0.095,2.073,0.374,4.159,0.719,6.241
			c0.721,7.261,1.049,16.273-2.02,20.085c-0.359,0.448-0.77,0.785-1.222,1.05c0.552-1.438,1.004-2.933,1.344-4.487
			c0.724-3.356,0.968-6.787,0.988-10.218c0.019-4.163,0.217-7.892-1.192-11.865c-1.716-4.84-8.513-6.369-12.572-3.78
			c-0.538-1.131-1.159-2.215-1.877-3.219c5.584-6.716,7.104-15.556,8.578-24.129c0.646-3.753,1.269-7.356,2.168-10.701
			c1.716,0.151,3.42,0.362,5.118,0.627C439.162,427.416,439.006,439.674,440.211,453.309z"/>
		<path fill="#B5C456" d="M422.085,511.219c0.332,0.153,0.656,0.286,0.97,0.419c-0.569,0.324-1.119,0.694-1.658,1.087
			C421.638,512.246,421.87,511.746,422.085,511.219z"/>
		<path fill="#B5C456" d="M401.826,503.689c-0.13,0.195-0.259,0.388-0.392,0.584c-0.245,0.365-0.446,0.734-0.622,1.107
			c-0.333-0.673-0.641-1.381-0.921-2.123c0.717,0.108,1.428,0.164,2.135,0.188C401.418,504.512,401.346,504.605,401.826,503.689z"/>
		<path fill="#B5C456" d="M523.697,497.186c-2.906-0.888-5.619-2.508-7.234-4.462c-0.688-0.825-1.723-1.247-2.783-1.187
			c-0.09-0.105-0.193-0.199-0.281-0.304c-0.053,0.116-0.107,0.227-0.16,0.342c-1.089,0.209-2.012,0.935-2.457,1.953
			c-0.411,0.938-0.85,1.679-1.316,2.242c-0.75,0.07-1.486,0.382-2.06,0.952c-0.091,0.094-0.158,0.191-0.232,0.282
			c-0.168,0.005-0.337-0.005-0.516-0.028l0.425-0.242l-0.99-0.403c0.005,0.178,0.001,0.356,0.001,0.538
			c-3.372-0.879-8.046-5.412-10.519-8.709c-0.582-0.779-1.473-1.27-2.441-1.344c-0.969-0.073-1.923,0.275-2.616,0.961
			c-2.225,2.167-6.372,4.729-8.039,3.674c-3.145-1.982-6.474-5.164-9.141-8.712c-1.65-2.192-3.232-4.636-4.749-7.272
			c-1.087-3.925-2.671-7.249-4.8-9.458c-6.64-14.734-11.373-32.646-13.236-47.262c0.982,0.289,1.957,0.593,2.936,0.905
			c4.646,12.212,12.183,23.367,26.869,26.503c-0.026,6.429,2.38,13.745,7.695,17.398c3.035,2.085,6.595,2.642,10.311,1.659
			c1.379,4.086,4.471,7.775,8.817,10.363c5.958,3.545,12.758,4.201,17.94,1.781c0.509,0.041,1.062,0.078,1.641,0.108
			c0.098,0.734,0.42,1.441,0.992,1.991c3.219,3.1,9.213,8.865,8.79,12.951c-0.054,0.523-0.212,2.045-2.853,3.894
			C530.943,497.726,527.295,497.974,523.697,497.186z"/>
		<path fill="#B5C456" d="M432.152,493.282c0.613-0.541,1.18-1.135,1.722-1.75c0.566,2.551,0.659,5.162,0.325,7.463
			c-0.108,0.412-0.187,0.825-0.231,1.245c-0.502,2.232-1.439,4.062-2.768,5.054c-0.521,0.392-1.093,0.618-1.696,0.73
			C432.941,502.645,433.263,497.875,432.152,493.282z"/>
		<path fill="#B5C456" d="M420.937,480.412c-0.084,0.076-0.166,0.151-0.24,0.207c-0.066,0.023-0.131,0.043-0.217,0.077
			c-0.006-0.002-0.013,0.003-0.023,0.005c-0.075,0.014-0.158,0.024-0.252,0.041c-1.008,0.168-2.007,0.56-2.939,1.105
			c-0.083-0.196-0.163-0.39-0.253-0.587c1.684-0.438,3.227-1.124,4.613-2.039c-0.078,0.19-0.153,0.379-0.238,0.561
			C421.277,479.929,421.093,480.199,420.937,480.412z"/>
		<path fill="#B5C456" d="M459.8,510.93c-1.249,2.6-2.729,4.487-4.342,5.509c0.387-1.104,0.561-2.31,0.462-3.563
			C457.334,512.592,458.662,511.961,459.8,510.93z"/>
		<path fill="#B5C456" d="M493.744,528.232c0.806-0.336,1.579-0.786,2.295-1.377c1.097-0.906,1.853-1.965,2.589-3.051
			c-0.735,1.524-1.639,2.86-2.759,3.732C495.177,527.869,494.465,528.103,493.744,528.232z"/>
		<path fill="#B5C456" d="M467.916,425.632c0.211,0.117,0.354,0.194,0.472,0.253c0.068,0.047,0.129,0.086,0.214,0.137
			c0.442,0.282,0.885,0.563,1.322,0.856c2.621,1.778,5.118,3.729,7.47,5.854c1.062,0.963,2.11,1.948,3.137,2.955
			c0.131,0.153,1.792,1.855,2.068,2.149c0.694,0.737,1.374,1.491,2.059,2.237c-0.101-0.021-0.197-0.052-0.302-0.068
			c-11.198-1.422-17.766-8.199-22.143-17.002c0.472,0.2,0.942,0.403,1.418,0.602C465.086,424.218,466.528,424.87,467.916,425.632z"
			/>
		<path fill="#B5C456" d="M500.542,457.193c-0.438,0.051-0.865,0.187-1.259,0.406c-2.965,1.665-5.387,1.794-7.413,0.404
			c-3.346-2.303-5.412-8.657-4.607-14.168c0.046-0.298,0.034-0.593,0-0.886c2.427,2.713,4.834,5.437,7.312,8.102
			C496.506,453.125,498.488,455.191,500.542,457.193z"/>
		<path fill="#B5C456" d="M514.773,407.697c-1.391-1.426-2.744-2.797-4.085-4.118c6.009,4.938,11.823,11.553,16.808,20.405
			c1.133,2.033,2.021,4.334,2.729,6.765c-0.088-0.187-0.176-0.386-0.266-0.568C526.105,422.054,521.074,414.156,514.773,407.697z"/>
		<path fill="#B5C456" d="M518.268,472.059c-2.441-0.016-5.145-0.788-7.643-2.274c-3.835-2.282-6.169-5.666-6.305-9.08
			c2.58,2.282,5.274,4.424,8.136,6.297C514.24,468.881,516.184,470.604,518.268,472.059z"/>
		<path fill="#B5C456" d="M404.796,451.785c-1.893,2.723-3.794,5.455-5.727,8.162c-1.77,0.904-3.073,2.296-3.834,3.975
			c-0.458-3.6-0.635-6.92-0.444-9.623c0.719-10.038,4.079-16.721,8.191-26.189c1.759-4.056-0.269-8.914-4.302-10.626
			c-3.005-1.276-6.115-0.537-8.463,1.437c2.237-2.645,4.749-5.205,7.537-7.678c0.058,1.453,0.561,2.918,1.633,4.304
			c0.363,0.473,0.771,0.882,1.213,1.249c0.861,5.667,8.846,9.504,13.723,3.781c0.083-0.096,0.151-0.18,0.21-0.254
			c0.089-0.061,0.202-0.133,0.359-0.248c0.551-0.401,1.102-0.808,1.691-1.15c0.132-0.077,0.233-0.138,0.32-0.189
			c0.064-0.03,0.122-0.061,0.205-0.101c0.618-0.312,1.238-0.618,1.879-0.873c0.656-0.259,1.315-0.515,1.99-0.722
			c0.25-0.078,1.662-0.441,1.368-0.385c0.932-0.204,1.873-0.386,2.821-0.504c1.16-0.156,2.319-0.26,3.482-0.329
			c-0.797,3.241-1.364,6.535-1.914,9.728c-1.533,8.898-2.979,17.305-8.74,22.677c-0.558,0.526-0.904,1.222-1.017,1.974
			C413.315,447.592,407.663,447.664,404.796,451.785z"/>
		<path fill="#B5C456" d="M406.792,488.25c1.139-0.843,2.13-1.984,2.889-3.405c0.286-0.536,0.536-1.082,0.774-1.631
			c1.898,3.319,1.896,6.776-0.109,9.644c-1.545,2.19-4.346,3.877-7.816,3.864c0.58-0.684,1.116-1.413,1.582-2.196
			C405.321,492.48,406.244,490.381,406.792,488.25z"/>
		<path fill="#B5C456" d="M419.763,468.597c0.716-3.866,0.969-8.078,0.673-12.017c2.075,4.055,2.447,9.203,0.667,13.155
			c-0.828,1.854-2.391,3.911-5.285,4.851C417.765,473.403,419.247,471.385,419.763,468.597z"/>
		<path fill="#B5C456" d="M451.682,528.14c1.059-1.372,1.536-2.829,1.6-4.304c0.374,1.109,0.313,2.183-0.206,3.197
			c-0.388,0.768-1,1.442-1.759,1.998c-0.299,0.154-0.608,0.297-0.925,0.426C450.862,529.077,451.297,528.638,451.682,528.14z"/>
		<path fill="#B5C456" d="M417.046,392.784c0-0.066,0.003-0.132,0.007-0.203c0.029,0.056,0.051,0.106,0.081,0.161
			C417.103,392.754,417.076,392.771,417.046,392.784z"/>
		<path fill="#B5C456" d="M506.582,504.727c-7.557-2.299-15.265-0.487-20.086,5.652c-0.438-0.278-0.871-0.559-1.31-0.832
			c-2.095-1.314-4.228-2.572-6.41-3.744c-5.331-2.862-10.764,1.606-11.767,6.733c-0.184-0.015-0.368-0.013-0.551-0.014
			c0.833-1.944,1.56-4.095,2.156-6.495c1.218-4.928,1.834-10.63,1.79-16.245c2.626,2.968,5.556,5.521,8.475,7.368
			c4.782,3.016,10.292,0.151,13.569-2.229c3.304,3.667,9.624,9.497,15.851,8.774c0.287-0.032,0.586-0.086,0.892-0.152
			c2.055,2.718,2.688,5.211,2.516,7.156C511.014,508.021,509.203,505.521,506.582,504.727z"/>
		<path fill="#B5C456" d="M377.993,467.781c-1.112-5.471-1.708-11.535-1.143-17.893c0.6-6.762,2.448-13.177,5.512-19.23
			c-3.175,6.957-4.893,14.776-5.193,22.072C376.957,457.843,377.277,462.845,377.993,467.781z"/>
		<path fill="#B5C456" d="M470,531.362c0-0.004,0-0.004,0-0.004c0-0.285,0.402,0.338,0.895,0.559
			c-0.982,0.236-2.264,0.262-3.26,0.296c0.497-0.304,1.395-0.469,1.798-0.874C470.034,531.614,471,531.798,470,531.362z"/>
		<path fill="#B5C456" d="M385.064,503.227c-1.531,0.767-2.43,1.199-2.43,1.199s-2.555,0.104-5.013-0.449
			c-0.253-0.105-0.471-0.211-0.605-0.324c0.078-0.424,0.618-2.044,4.089-5.316C381.665,500.454,383.04,502.33,385.064,503.227z"/>
		<path fill="#B5C456" d="M465.998,390.445c-0.063-0.068-0.092-0.597-0.126-1.415c0.168,0.079,0.345,0.147,0.529,0.203
			C466.193,389.938,466.026,390.473,465.998,390.445z"/>
		<path fill="#B5C456" d="M417.796,384.149c0.056-0.471,0.114-0.944,0.17-1.416c0.619-0.378,1.477-0.885,2.533-1.454
			c-0.429,0.373-0.841,0.751-1.238,1.139C418.708,382.959,418.218,383.538,417.796,384.149z"/>
		<path fill="#8F9A43" d="M422.345,416.654c0.294-0.057-1.118,0.307-1.368,0.385c-0.675,0.207-1.334,0.463-1.99,0.722
			c-0.641,0.255-1.261,0.561-1.879,0.873c-0.083,0.04-0.141,0.07-0.205,0.101c-0.087,0.052-0.188,0.112-0.32,0.189
			c-0.59,0.343-1.141,0.749-1.691,1.15c-0.157,0.115-0.27,0.188-0.359,0.248c-0.059,0.074-0.127,0.158-0.21,0.254
			c-4.876,5.723-12.862,1.886-13.723-3.781c-0.442-0.367-0.85-0.776-1.213-1.249c-1.072-1.386-1.575-2.851-1.633-4.304
			c5.065-4.492,11.026-8.703,17.889-12.616c0.979-0.56,1.613-1.569,1.691-2.692c0.04-0.563-0.062-1.117-0.286-1.613
			c-0.027-0.354-0.028-0.883-0.002-1.536c0.03-0.013,0.057-0.03,0.087-0.042c-0.03-0.055-0.052-0.105-0.081-0.161
			c0.084-2.054,0.376-5.261,0.743-8.432c0.422-0.611,0.913-1.19,1.464-1.731c0.397-0.388,0.81-0.766,1.238-1.139
			c6.786-3.665,22.008-10.053,38.254-4.705c3.441,7.046,5.588,10.913,5.683,11.088c0.337,0.599,0.843,1.068,1.436,1.368
			c0.034,0.818,0.062,1.347,0.126,1.415c0.029,0.027,0.196-0.507,0.403-1.212c0.422,0.13,0.873,0.184,1.332,0.134
			c1.189-0.12,23.13-2.086,42.956,14.212c1.341,1.321,2.694,2.692,4.085,4.118c6.301,6.459,11.332,14.356,15.186,22.483
			c0.09,0.183,0.178,0.382,0.266,0.568c3.434,11.828,2.365,26.563,2.349,26.742c-0.101,1.321,0.583,2.581,1.743,3.214
			c3.371,1.854,8.082,5.741,8.275,8.611c-1.684,0.934-7.846,2.092-17.652,1.271c-0.527-0.044-1.031,0.047-1.494,0.227
			c-0.293,0.062-0.584,0.152-0.863,0.301c-1.236,0.649-2.721,0.959-4.314,0.944c-2.084-1.454-4.027-3.178-5.812-5.058
			c-2.861-1.873-5.556-4.015-8.136-6.297c-0.002-0.069-0.021-0.139-0.019-0.214c-0.019-1.185-0.659-2.277-1.688-2.87
			c-0.635-0.368-1.364-0.511-2.071-0.427c-2.055-2.002-4.036-4.068-5.966-6.142c-2.479-2.665-4.886-5.389-7.312-8.102
			c-0.073-0.59-0.285-1.156-0.65-1.64c-0.484-0.639-1.183-1.066-1.957-1.236c-0.685-0.746-1.364-1.5-2.059-2.237
			c-0.276-0.294-1.938-1.996-2.068-2.149c-1.026-1.007-2.074-1.992-3.137-2.955c-2.352-2.125-4.849-4.076-7.47-5.854
			c-0.438-0.293-0.88-0.574-1.322-0.856c-0.084-0.051-0.146-0.09-0.214-0.137c-0.118-0.059-0.261-0.136-0.472-0.253
			c-1.387-0.762-2.829-1.414-4.286-2.026c-0.476-0.198-0.946-0.401-1.418-0.602c-3.629-7.301-5.757-15.993-7.757-24.192
			c-0.411-1.674-0.81-3.312-1.21-4.895c-0.016-0.056-0.043-0.101-0.058-0.154c-0.014-0.053-0.019-0.105-0.04-0.156
			c-0.005-0.016-0.015-0.027-0.021-0.042c-0.019-0.057-0.045-0.107-0.072-0.161c-0.042-0.092-0.085-0.187-0.134-0.272
			c-0.03-0.056-0.056-0.11-0.085-0.164c-0.028-0.047-0.066-0.088-0.097-0.133c-0.058-0.082-0.124-0.162-0.189-0.246
			c-0.038-0.047-0.072-0.098-0.112-0.143c-0.039-0.036-0.083-0.07-0.12-0.108c-0.073-0.069-0.149-0.132-0.229-0.196
			c-0.05-0.043-0.095-0.089-0.145-0.124c-0.043-0.03-0.09-0.05-0.136-0.081c-0.084-0.058-0.169-0.105-0.258-0.15
			c-0.062-0.035-0.121-0.074-0.185-0.1c-0.015-0.007-0.024-0.014-0.036-0.023c-0.038-0.018-0.075-0.021-0.11-0.036
			c-0.087-0.033-0.173-0.062-0.265-0.087c-0.062-0.019-0.123-0.045-0.186-0.062c-0.057-0.016-0.113-0.019-0.167-0.03
			c-0.091-0.015-0.184-0.028-0.281-0.034c-0.059-0.005-0.116-0.023-0.174-0.025c-0.064-0.004-0.123,0.002-0.187,0.004
			c-0.087,0.002-0.175,0.004-0.265,0.012c-0.061,0.008-0.122,0.004-0.18,0.012c-0.046,0.004-0.094,0.021-0.138,0.032
			c-0.024,0.004-0.049,0.011-0.074,0.015c-0.052,0.012-0.103,0.01-0.155,0.023c-0.034,0.01-0.059,0.022-0.087,0.031
			c-0.056,0.017-0.117,0.033-0.171,0.051c-0.017,0.006-0.036,0.009-0.053,0.012c-7.626,2.755-12.388,7.145-15.521,12.305
			c-2.239,3.695-3.643,7.777-4.666,11.938c-1.164,0.069-2.322,0.173-3.482,0.329C424.217,416.269,423.276,416.45,422.345,416.654z"
			/>
		<path fill="#8F9A43" d="M449.761,409.881c-0.032-0.689-0.269-1.317-0.649-1.836c0.111-0.469,0.235-0.929,0.354-1.387
			c1.106,4.26,2.383,8.69,4.022,12.994c-0.979-0.312-1.953-0.616-2.936-0.905C450.157,415.622,449.886,412.641,449.761,409.881z"/>
		<path fill="#8F9A43" d="M443.791,401.934c-1.358,4.541-2.403,9.439-3.131,14.683c-1.698-0.265-3.402-0.476-5.118-0.627
			C437.044,410.398,439.319,405.545,443.791,401.934z"/>
		<path fill="#DAE46D" d="M439.245,457.818c1.409,3.974,1.211,7.702,1.192,11.865c-0.021,3.431-0.264,6.861-0.988,10.218
			c-0.34,1.555-0.792,3.049-1.344,4.487c-0.558,0.325-1.19,0.529-1.936,0.6c-1.026,0.097-1.949,0.656-2.512,1.519
			c-0.565,0.868-0.693,1.935-0.367,2.91c0.232,0.694,0.424,1.402,0.583,2.115c-0.542,0.615-1.109,1.209-1.722,1.75
			c1.111,4.593,0.789,9.362-2.648,12.742c-2.378,0.429-5.235-1.07-7.419-2.603c-0.916-0.643-2.089-0.79-3.134-0.388
			c-1.046,0.398-1.824,1.287-2.079,2.376c-0.476,2.027-1.43,4.991-3.166,6.742c-0.279,0.178-0.523,0.389-0.734,0.624
			c-0.661,0.478-1.42,0.785-2.288,0.831c-3.031,0.144-7.208-2.859-9.871-8.227c0.176-0.373,0.377-0.742,0.622-1.107
			c0.132-0.196,0.261-0.389,0.392-0.584c-0.48,0.916-0.408,0.822,0.201-0.244c5.495,0.197,10.624-2.166,13.826-6.707
			c3.124-4.43,3.537-9.844,1.412-14.891c0.932-0.546,1.932-0.938,2.939-1.105c0.095-0.017,0.178-0.027,0.252-0.041
			c0.011-0.002,0.017-0.007,0.023-0.005c0.086-0.034,0.151-0.054,0.217-0.077c0.074-0.056,0.156-0.131,0.24-0.207
			c0.156-0.213,0.34-0.483,0.449-0.63c0.085-0.182,0.16-0.37,0.238-0.561c2.408-1.577,4.335-3.844,5.625-6.722
			c2.542-5.646,2.169-12.701-0.577-18.462C430.732,451.449,437.529,452.979,439.245,457.818z"/>
		<path fill="#DAE46D" d="M418.102,522.781c0.077-0.72,0.303-1.752,0.454-2.449c0.304-1.393,0.602-2.811,0.576-4.17
			c0.8-0.931,1.572-2.058,2.267-3.438c0.539-0.393,1.089-0.763,1.658-1.087c6.007,2.454,10.081,0.625,12.18-0.947
			c4.92-3.684,6.992-11.868,5.359-19.996c1.534-0.71,2.882-1.765,3.982-3.136c5.741-7.141,3.972-21.4,2.803-30.839
			c-0.195-1.588-0.367-2.956-0.459-4.005c-0.252-2.85-0.438-5.631-0.568-8.348c0.826-0.217,1.694-0.307,2.571-0.275
			c3.12,11.293,7.344,22.628,12.378,32.07c0.372,6.185-0.129,12.882-3.084,18.249c0.033,0.079,0.069,0.152,0.099,0.232
			c0.344,0.857,0.706,1.704,1.087,2.539c0.47,0.949,0.552,1.107,0.242,0.479c0.363,0.528,0.772,1.027,1.21,1.489
			c0.853,0.971,1.384,2.145,1.635,3.389c-0.128,0.631-0.266,1.253-0.418,1.867c-0.616,2.496-1.388,4.687-2.271,6.523
			c-1.138,1.031-2.466,1.662-3.88,1.945c0.099,1.254-0.075,2.459-0.462,3.563c-0.43,0.27-0.866,0.486-1.309,0.63
			c-1.014,0.33-1.807,1.127-2.147,2.139c-0.336,1.009-0.172,2.121,0.439,2.996c0.389,0.554,0.66,1.097,0.84,1.633
			c-0.063,1.475-0.541,2.932-1.6,4.304c-0.385,0.498-0.82,0.938-1.29,1.317c-0.186,0.151-0.377,0.293-0.57,0.424
			c-1.12,0.492-2.934,2.454-4.274,2.468c-4.844,0.064-9.77-3.349-13.138-7.349c0,0,0,0-0.002,0l-0.517-3.577
			c-0.295-0.539-0.451-1.792-0.938-2.087c-0.994-0.605-2.142-1.092-3.235-0.493c-1.635,0.892-2.167,2.734-1.274,4.365l0.28,0.349
			c-0.538,0.926-1.373,1.979-2.464,2.24C422.801,526.15,420.602,525.024,418.102,522.781z"/>
		<path fill="#DAE46D" d="M440.693,457.547c0.203,1.639,0.446,3.601,0.653,5.707c-0.345-2.082-0.624-4.168-0.719-6.241
			C440.649,457.192,440.671,457.361,440.693,457.547z"/>
		<path fill="#DAE46D" d="M433.968,500.24c0.044-0.42,0.124-0.833,0.231-1.245C434.139,499.421,434.058,499.835,433.968,500.24z"/>
		<path fill="#DAE46D" d="M467.858,530.178c0,0,0,0-0.002,0.005c2.725,1.698,0.966,0.782,0.367,0.507
			c-0.408,0.406-0.626,0.925-1.12,1.229c-0.15,0.09-0.173,0.28-0.326,0.362c-1.72-0.086-5.329-0.657-6.479-4.277
			c-0.081-0.25-0.164-0.458-0.292-0.677c0.382-1.852,0.285-3.747-0.334-5.607c2.73-1.939,5.011-5.051,6.779-9.197
			c0.185-0.002,0.374,0,0.557,0.015c1.002-5.13,6.438-9.596,11.768-6.735c2.181,1.174,4.316,2.43,6.411,3.746
			c0.438,0.275,0.872,0.554,1.31,0.832c4.819-6.14,12.529-7.951,20.086-5.652c2.621,0.795,4.432,3.295,5.123,5.973
			c-0.083,0.918-0.337,1.719-0.71,2.353c-1.146,2.042-3.543,2.828-6.145,2.101c-0.893-0.254-1.846-0.125-2.639,0.347
			c-0.793,0.476-1.359,1.256-1.561,2.158c-0.445,1.98-1.094,4.212-2.023,6.147c-0.736,1.086-1.492,2.145-2.589,3.051
			c-0.716,0.591-1.489,1.041-2.295,1.377c-0.415,0.172-0.841,0.306-1.271,0.419c-3.457-0.03-7.604-2.594-10.279-4.244l-0.379-0.237
			c-0.889-0.547-1.981-0.654-2.957-0.284c-0.974,0.367-1.726,1.167-2.03,2.164c-0.956,3.094-3.425,4.973-6.111,5.814
			c-0.128-0.056-0.762-0.479-0.894-0.54C469.334,531.108,468.743,530.797,467.858,530.178z"/>
		<path fill="#DAE46D" d="M381.105,498.336c1.028-0.969,2.299-2.074,3.911-3.348c1.164-0.92,1.588-2.49,1.046-3.871
			c-0.302-0.78-0.732-1.765-1.239-2.932c-1.891-4.348-5.039-11.6-6.83-20.404c-0.716-4.937-1.036-9.938-0.824-15.051
			c0.3-7.296,2.018-15.115,5.193-22.072c2.062-4.076,4.682-7.992,7.855-11.738c2.348-1.974,5.458-2.713,8.463-1.437
			c4.033,1.712,6.061,6.57,4.302,10.626c-4.112,9.469-7.473,16.151-8.191,26.189c-0.191,2.703-0.014,6.023,0.444,9.623
			c0.761-1.679,2.065-3.07,3.834-3.975c1.933-2.707,3.834-5.439,5.727-8.162c2.867-4.121,8.519-4.193,12.181-1.586
			c-0.022,0.143-0.05,0.287-0.053,0.441c-0.014,0.912,0.344,1.793,0.994,2.438c1.01,1.002,1.848,2.195,2.518,3.501
			c0.296,3.938,0.043,8.15-0.673,12.017c-0.516,2.788-1.998,4.807-3.944,5.989c-1.237,0.402-2.712,0.606-4.485,0.49
			c-1.367-0.082-2.655,0.664-3.245,1.897c-0.596,1.235-0.387,2.705,0.528,3.722c0.738,0.823,1.349,1.667,1.838,2.519
			c-0.238,0.549-0.488,1.095-0.774,1.631c-0.759,1.421-1.75,2.562-2.889,3.405c-0.548,2.131-1.471,4.23-2.681,6.275
			c-0.466,0.783-1.002,1.513-1.582,2.196c-1.407-0.009-2.92-0.288-4.511-0.942c-1.722-0.707-3.689,0.111-4.395,1.837
			c-0.199,0.486-0.263,0.979-0.236,1.464c-0.222,0.065-0.445,0.152-0.661,0.269c-2.955,1.584-5.58,2.933-7.539,3.923
			c-0.042-0.018-0.081-0.03-0.123-0.045C383.04,502.33,381.665,500.454,381.105,498.336z"/>
		<path fill="#50582C" d="M491.334,385.74c-9.882-3.069-18.155-3.312-22.008-3.204c-1.036-1.952-2.829-5.409-5.122-10.153
			c-0.379-0.79-1.056-1.396-1.872-1.696c-25.688-9.406-48.515,6.658-49.473,7.341c-0.758,0.543-1.253,1.377-1.378,2.295
			c-0.931,7.01-1.25,11.12-1.192,13.619c-14.335,8.503-24.901,18.345-31.624,29.436c-4.853,8-7.702,16.652-8.526,25.918
			c-1.625,18.289,5.216,34.02,8.502,41.579c0.069,0.154,0.137,0.308,0.201,0.452c-7.157,6.045-9.688,10.619-8.184,14.683
			c2.071,5.58,10.851,5.499,12.586,5.427c0.46-0.018,0.914-0.131,1.328-0.333c0.175-0.087,3.983-1.929,9.298-4.73
			c3.472,8.498,10.464,14.282,17.137,13.962c0.204-0.012,0.436-0.033,0.679-0.06c-0.318,1.642-0.521,3.374-0.081,4.969
			c0.16,0.57,0.462,1.094,0.887,1.508c4.776,4.693,9.296,6.554,13.421,5.535c1.993-0.499,3.537-1.575,4.704-2.786
			c4.21,5.172,9.682,8.009,15.555,7.927c3.721-0.054,7.199-1.339,9.774-3.475c2.524,3.281,6.637,5.192,11.519,5.166
			c5.029-0.021,10.794-2.313,14.024-7.277c4.355,2.478,10.209,4.973,15.792,2.627c4.217-1.777,7.225-5.819,9.161-12.309
			c4.305,0.101,8.163-1.952,10.366-5.699c3.107-5.302,1.551-11.166-1.429-15.759c6.458,4.387,15.462,5.373,21.269,1.728
			c3.999-2.514,6.221-5.653,6.6-9.331c0.605-5.893-3.748-11.367-7.877-15.594c6.598-0.388,13.156-1.973,13.861-6.646
			c1.049-6.949-6.195-12.592-9.824-14.946c0.25-6.07,0.35-23.783-6.035-35.22C521.022,398.748,503.697,389.572,491.334,385.74z
			 M523.697,497.186c-2.906-0.888-5.619-2.508-7.234-4.462c-0.688-0.825-1.723-1.247-2.783-1.187c-0.096,0.003-0.186-0.011-0.279,0
			c-0.057,0.011-0.109,0.025-0.162,0.038c-1.089,0.209-2.012,0.935-2.457,1.953c-0.411,0.938-0.85,1.679-1.316,2.242
			c-0.75,0.07-1.486,0.382-2.06,0.952c-0.091,0.094-0.158,0.191-0.232,0.282c-0.168,0.005-0.337-0.005-0.516-0.028
			c-0.182-0.026-0.37-0.059-0.563-0.107c-3.372-0.879-8.046-5.412-10.519-8.709c-0.582-0.779-1.473-1.27-2.441-1.344
			c-0.969-0.073-1.923,0.275-2.616,0.961c-2.225,2.167-6.372,4.729-8.039,3.674c-3.145-1.982-6.474-5.164-9.141-8.712
			c-1.65-2.192-3.232-4.636-4.749-7.272c-1.087-3.925-2.671-7.249-4.8-9.458c-6.64-14.734-11.373-32.646-13.236-47.262
			c-0.396-3.125-0.667-6.106-0.792-8.866c-0.032-0.689-0.269-1.317-0.649-1.836c0.111-0.469,0.235-0.929,0.354-1.387
			c1.106,4.26,2.383,8.69,4.022,12.994c4.646,12.212,12.183,23.367,26.869,26.503c-0.026,6.429,2.38,13.745,7.695,17.398
			c3.035,2.085,6.595,2.642,10.311,1.659c1.379,4.086,4.471,7.775,8.817,10.363c5.958,3.545,12.758,4.201,17.94,1.781
			c0.509,0.041,1.062,0.078,1.641,0.108c0.098,0.734,0.42,1.441,0.992,1.991c3.219,3.1,9.213,8.865,8.79,12.951
			c-0.054,0.523-0.212,2.045-2.853,3.894c-0.197,0.141-0.404,0.279-0.629,0.42C530.596,498.27,527.021,498.211,523.697,497.186z
			 M435.542,415.989c1.502-5.591,3.777-10.444,8.25-14.056c-1.358,4.541-2.403,9.439-3.131,14.683
			c-1.498,10.8-1.653,23.058-0.449,36.692c0.091,1.036,0.24,2.285,0.417,3.704c0.021,0.18,0.043,0.349,0.066,0.534
			c0.203,1.639,0.446,3.601,0.653,5.707c0.721,7.261,1.049,16.273-2.02,20.085c-0.359,0.448-0.77,0.785-1.222,1.05
			c-0.558,0.325-1.19,0.529-1.936,0.6c-1.026,0.097-1.949,0.656-2.512,1.519c-0.565,0.868-0.693,1.935-0.367,2.91
			c0.232,0.694,0.424,1.402,0.583,2.115c0.566,2.551,0.659,5.162,0.325,7.463c-0.06,0.426-0.141,0.84-0.231,1.245
			c-0.502,2.232-1.439,4.062-2.768,5.054c-0.521,0.392-1.093,0.618-1.696,0.73c-2.378,0.429-5.235-1.07-7.419-2.603
			c-0.916-0.643-2.089-0.79-3.134-0.388c-1.046,0.398-1.824,1.287-2.079,2.376c-0.476,2.027-1.43,4.991-3.166,6.742
			c-0.279,0.178-0.523,0.389-0.734,0.624c-0.661,0.478-1.42,0.785-2.288,0.831c-3.031,0.144-7.208-2.859-9.871-8.227
			c-0.333-0.673-0.641-1.381-0.921-2.123c0.717,0.108,1.428,0.164,2.135,0.188c5.495,0.197,10.624-2.166,13.826-6.707
			c3.124-4.43,3.537-9.844,1.412-14.891c-0.083-0.196-0.163-0.39-0.253-0.587c1.684-0.438,3.227-1.124,4.613-2.039
			c2.408-1.577,4.335-3.844,5.625-6.722c2.542-5.646,2.169-12.701-0.577-18.462c-0.538-1.131-1.159-2.215-1.877-3.219
			c5.584-6.716,7.104-15.556,8.578-24.129C434.02,422.938,434.642,419.334,435.542,415.989z M424.276,525.744
			c-1.458,0.352-3.674-0.72-6.174-2.963c0.077-0.72,0.303-1.752,0.454-2.449c0.304-1.393,0.602-2.811,0.576-4.17
			c0.8-0.931,1.572-2.058,2.267-3.438c0.24-0.479,0.472-0.979,0.688-1.506c0.332,0.153,0.656,0.286,0.97,0.419
			c6.007,2.454,10.081,0.625,12.18-0.947c4.92-3.684,6.992-11.868,5.359-19.996c1.534-0.71,2.882-1.765,3.982-3.136
			c5.741-7.141,3.972-21.4,2.803-30.839c-0.195-1.588-0.367-2.956-0.459-4.005c-0.252-2.85-0.438-5.631-0.568-8.348
			c-0.192-3.977-0.246-7.805-0.172-11.499c0.782,3.692,1.7,7.454,2.744,11.224c3.12,11.293,7.344,22.628,12.378,32.07
			c0.343,0.641,0.69,1.275,1.041,1.902c1.667,6.75,1.839,16.261,0.148,24.475c-0.128,0.631-0.266,1.253-0.418,1.867
			c-0.616,2.496-1.388,4.687-2.271,6.523c-1.25,2.604-2.729,4.486-4.346,5.513c-0.426,0.266-0.862,0.482-1.306,0.622
			c-1.015,0.334-1.809,1.131-2.149,2.146c-0.338,1.008-0.176,2.123,0.438,2.992c0.387,0.554,0.652,1.104,0.834,1.64
			c0.374,1.109,0.304,2.188-0.218,3.207c-0.385,0.765-1.021,1.45-1.782,2.009c-0.447,0.327-0.996,0.637-1.539,0.875
			c-1.118,0.492-2.845,2.401-4.186,2.415c-4.844,0.064-9.77-3.349-13.138-7.349c0,0,0,0-0.002,0l-0.517-3.577
			c-0.295-0.539-0.364-1.843-0.852-2.142c-0.996-0.604-2.187-1.063-3.281-0.465c-1.633,0.893-2.187,2.743-1.293,4.374l0.27,0.36
			C426.198,524.475,425.366,525.483,424.276,525.744z M431.473,509.465c0.069-0.004,0.149-0.002,0.25-0.004
			C431.622,509.463,431.542,509.461,431.473,509.465z M467.431,532.382c-0.142,0.002-0.325-0.002-0.529-0.011
			c-1.719-0.087-5.39-0.702-6.544-4.323c-0.08-0.25-0.191-0.481-0.321-0.701c0.38-1.848,0.268-3.759-0.351-5.619
			c2.732-1.936,5.003-5.055,6.771-9.205c0.833-1.944,1.56-4.095,2.156-6.495c1.218-4.928,1.834-10.63,1.79-16.245
			c2.626,2.968,5.556,5.521,8.475,7.368c4.782,3.016,10.292,0.151,13.569-2.229c3.304,3.667,9.624,9.497,15.851,8.774
			c0.287-0.032,0.586-0.086,0.892-0.152c2.055,2.718,2.688,5.211,2.516,7.156c-0.083,0.918-0.337,1.719-0.71,2.353
			c-1.146,2.042-3.543,2.828-6.145,2.101c-0.893-0.254-1.846-0.125-2.639,0.347c-0.793,0.476-1.359,1.256-1.561,2.158
			c-0.445,1.98-1.094,4.212-2.023,6.147c-0.735,1.524-1.639,2.86-2.759,3.732c-0.377,0.299-0.774,0.539-1.2,0.718
			c-0.68,0.283-1.422,0.402-2.196,0.396c-3.457-0.03-7.604-2.594-10.279-4.244l-0.379-0.237c-0.889-0.547-1.981-0.654-2.957-0.284
			c-0.974,0.367-1.726,1.167-2.03,2.164c-0.956,3.094-3.425,4.973-6.111,5.814C469.625,532.203,468.502,532.376,467.431,532.382z
			 M382.297,504.717c-1.77-0.017-3.646-0.323-4.676-0.74c-0.253-0.105-0.471-0.211-0.605-0.324c0.078-0.424,0.618-2.044,4.089-5.316
			c1.028-0.969,2.299-2.074,3.911-3.348c1.164-0.92,1.588-2.49,1.046-3.871c-0.302-0.78-0.732-1.765-1.239-2.932
			c-1.891-4.348-5.039-11.6-6.83-20.404c-1.112-5.471-1.708-11.535-1.143-17.893c0.6-6.762,2.448-13.177,5.512-19.23
			c2.062-4.076,4.682-7.992,7.855-11.738c2.237-2.645,4.749-5.205,7.537-7.678c5.065-4.492,11.026-8.703,17.889-12.616
			c0.979-0.56,1.613-1.569,1.691-2.692c0.04-0.563-0.062-1.117-0.286-1.613c-0.027-0.354-0.028-0.883-0.002-1.536
			c0-0.066,0.003-0.132,0.007-0.203c0.084-2.054,0.376-5.261,0.743-8.432c0.056-0.471,0.114-0.944,0.17-1.416
			c0.619-0.378,1.477-0.885,2.533-1.454c6.786-3.665,22.008-10.053,38.254-4.705c3.441,7.046,5.588,10.913,5.683,11.088
			c0.337,0.599,0.843,1.068,1.436,1.368c0.168,0.079,0.345,0.147,0.529,0.203c0.422,0.13,0.873,0.184,1.332,0.134
			c1.189-0.12,23.13-2.086,42.956,14.212c6.009,4.938,11.823,11.553,16.808,20.405c1.133,2.033,2.021,4.334,2.729,6.765
			c3.434,11.828,2.365,26.563,2.349,26.742c-0.101,1.321,0.583,2.581,1.743,3.214c3.371,1.854,8.082,5.741,8.275,8.611
			c-1.684,0.934-7.846,2.092-17.652,1.271c-0.527-0.044-1.031,0.047-1.494,0.227c-0.293,0.062-0.584,0.152-0.863,0.301
			c-1.236,0.649-2.721,0.959-4.314,0.944c-2.441-0.016-5.145-0.788-7.643-2.274c-3.835-2.282-6.169-5.666-6.305-9.08
			c-0.002-0.069-0.021-0.139-0.019-0.214c-0.019-1.185-0.659-2.277-1.688-2.87c-0.635-0.368-1.364-0.511-2.071-0.427
			c-0.438,0.051-0.865,0.187-1.259,0.406c-2.965,1.665-5.387,1.794-7.413,0.404c-3.346-2.303-5.412-8.657-4.607-14.168
			c0.046-0.298,0.034-0.593,0-0.886c-0.073-0.59-0.285-1.156-0.65-1.64c-0.484-0.639-1.183-1.066-1.957-1.236
			c-0.101-0.021-0.197-0.052-0.302-0.068c-11.198-1.422-17.766-8.199-22.143-17.002c-3.629-7.301-5.757-15.993-7.757-24.192
			c-0.411-1.674-0.81-3.312-1.21-4.895c-0.016-0.056-0.043-0.101-0.058-0.154c-0.014-0.053-0.019-0.105-0.04-0.156
			c-0.005-0.016-0.015-0.027-0.021-0.042c-0.019-0.057-0.045-0.107-0.072-0.161c-0.042-0.092-0.085-0.187-0.134-0.272
			c-0.03-0.056-0.056-0.11-0.085-0.164c-0.028-0.047-0.066-0.088-0.097-0.133c-0.058-0.082-0.124-0.162-0.189-0.246
			c-0.038-0.047-0.072-0.098-0.112-0.143c-0.039-0.036-0.083-0.07-0.12-0.108c-0.073-0.069-0.149-0.132-0.229-0.196
			c-0.05-0.043-0.095-0.089-0.145-0.124c-0.043-0.03-0.09-0.05-0.136-0.081c-0.084-0.058-0.169-0.105-0.258-0.15
			c-0.062-0.035-0.121-0.074-0.185-0.1c-0.015-0.007-0.024-0.014-0.036-0.023c-0.038-0.018-0.075-0.021-0.11-0.036
			c-0.087-0.033-0.173-0.062-0.265-0.087c-0.062-0.019-0.123-0.045-0.186-0.062c-0.057-0.016-0.113-0.019-0.167-0.03
			c-0.091-0.015-0.184-0.028-0.281-0.034c-0.059-0.005-0.116-0.023-0.174-0.025c-0.064-0.004-0.123,0.002-0.187,0.004
			c-0.087,0.002-0.175,0.004-0.265,0.012c-0.061,0.008-0.122,0.004-0.18,0.012c-0.046,0.004-0.094,0.021-0.138,0.032
			c-0.024,0.004-0.049,0.011-0.074,0.015c-0.052,0.012-0.103,0.01-0.155,0.023c-0.034,0.01-0.059,0.022-0.087,0.031
			c-0.056,0.017-0.117,0.033-0.171,0.051c-0.017,0.006-0.036,0.009-0.053,0.012c-7.626,2.755-12.388,7.145-15.521,12.305
			c-2.239,3.695-3.643,7.777-4.666,11.938c-0.797,3.241-1.364,6.535-1.914,9.728c-1.533,8.898-2.979,17.305-8.74,22.677
			c-0.558,0.526-0.904,1.222-1.017,1.974c-0.022,0.143-0.05,0.287-0.053,0.441c-0.014,0.912,0.344,1.793,0.994,2.438
			c1.01,1.002,1.848,2.195,2.518,3.501c2.075,4.055,2.447,9.203,0.667,13.155c-0.828,1.854-2.391,3.911-5.285,4.851
			c-1.237,0.402-2.712,0.606-4.485,0.49c-1.367-0.082-2.655,0.664-3.245,1.897c-0.596,1.235-0.387,2.705,0.528,3.722
			c0.738,0.823,1.349,1.667,1.838,2.519c1.898,3.319,1.896,6.776-0.109,9.644c-1.545,2.19-4.346,3.877-7.816,3.864
			c-1.407-0.009-2.92-0.288-4.511-0.942c-1.722-0.707-3.689,0.111-4.395,1.837c-0.199,0.486-0.263,0.979-0.236,1.464
			c-0.222,0.065-0.445,0.152-0.661,0.269c-2.955,1.584-5.58,2.933-7.539,3.923C383.904,503.92,382.904,504.416,382.297,504.717z"/>
	</g>
	<g>
		<path fill="#855D2F" d="M395.662,347.325l39.226,62.854c-1.262,1.136-2.523,2.28-3.78,3.421
			c-3.445,3.125-6.981,6.061-10.606,8.892l-38.215-66.071c0,0-12.799-22.539-7.966-25.545L395.662,347.325z"/>
		<path fill="#CE9047" d="M374.321,330.875l17.236,25.456l34.705,61.491c-1.895,1.594-3.813,3.148-5.76,4.669l-38.215-66.071
			c0,0-6.466-19.008-11.212-24.514C373.127,330.625,372.269,332.157,374.321,330.875z"/>
		<path fill="#141311" d="M374.25,328.843c0.055,0.063,0.112,0.14,0.168,0.213l23.042,16.358l39.606,62.82
			c-1.637,1.447-3.257,2.91-4.873,4.38l-40.273-63.858l-12.06-8.543c2.605,6.823,4.729,13.929,4.874,14.097
			c0.058,0.066,0.112,0.135,0.163,0.208c0.058,0.078,0.111,0.158,0.162,0.239l37.998,65.708c-1.692,1.361-3.405,2.695-5.135,4.012
			l-38.263-66.154c-1.055-1.219-7.08-21.519-10.959-26.016C370.55,331.154,372.401,329.998,374.25,328.843z"/>
	</g>
</g>
</svg>
