<?xml version="1.0" encoding="utf-8"?>
<!-- Generator: Adobe Illustrator 16.0.0, SVG Export Plug-In . SVG Version: 6.00 Build 0)  -->
<!DOCTYPE svg PUBLIC "-//W3C//DTD SVG 1.1//EN" "http://www.w3.org/Graphics/SVG/1.1/DTD/svg11.dtd">
<svg version="1.1" xmlns="http://www.w3.org/2000/svg" xmlns:xlink="http://www.w3.org/1999/xlink" x="0px" y="0px" width="1200px"
	 height="1200px" viewBox="0 0 1200 1200" enable-background="new 0 0 1200 1200" xml:space="preserve">
<g id="Backgrounds">
</g>
<g id="Find_Elsewhere">
</g>
<g id="Comps">
	<g>
		<g id="Eve_x5F_Boot_14_">
			<path fill="#6A584A" d="M501.248,1014.771l10.621,56.67l-53.125,67.273c0,0,63.732,7.094,92.078-38.952
				c3.539,3.542,24.801,35.427,24.801,35.427l11.131-147.247L501.248,1014.771z"/>
			<path fill="#513C2D" d="M468.055,1147.936L468.055,1147.936c-6.188,0-10.119-0.431-10.283-0.45
				c-3.193-0.353-5.93-2.405-7.168-5.365c-1.24-2.963-0.773-6.361,1.213-8.874l50.637-64.124l-9.877-52.723
				c-0.826-4.396,1.77-8.715,6.027-10.054l85.506-26.826c2.785-0.873,5.834-0.313,8.133,1.508c2.287,1.822,3.531,4.661,3.314,7.581
				l-11.127,147.242c-0.285,3.763-2.928,6.922-6.568,7.878c-3.652,0.951-7.5-0.511-9.588-3.645
				c-5.98-8.981-12.578-18.67-17.357-25.467C525.521,1144.455,485.344,1147.936,468.055,1147.936z M511.375,1020.85l9.178,48.964
				c0.467,2.508-0.17,5.096-1.75,7.097l-41.887,53.044c18.877-1.376,49.844-7.938,66.389-34.816c1.416-2.303,3.812-3.829,6.49-4.142
				c2.689-0.308,5.363,0.619,7.27,2.523c1.85,1.847,6.564,8.401,11.658,15.76l8.242-109.012L511.375,1020.85z"/>
		</g>
		<g id="Eve_x5F_Boot_13_">
			<path fill="#6A584A" d="M749.668,1014.771l-10.621,56.67l53.125,67.273c0,0-63.734,7.094-92.08-38.952
				c-3.539,3.542-24.803,35.427-24.803,35.427L664.16,987.941L749.668,1014.771z"/>
			<path fill="#513C2D" d="M700,1114.617c-4.779,6.797-11.377,16.485-17.357,25.467c-2.09,3.134-5.938,4.596-9.588,3.645
				c-3.641-0.956-6.283-4.115-6.568-7.878l-11.127-147.242c-0.221-2.92,1.027-5.759,3.316-7.581
				c2.293-1.821,5.344-2.381,8.131-1.508l85.502,26.826c4.26,1.339,6.859,5.657,6.031,10.054l-9.877,52.723l50.635,64.124
				c1.986,2.513,2.453,5.911,1.215,8.874c-1.238,2.96-3.977,5.013-7.168,5.365c-0.164,0.02-4.094,0.45-10.283,0.45l0,0
				C765.574,1147.936,725.393,1144.455,700,1114.617z M673.949,1000.268l8.244,109.012c5.092-7.358,9.805-13.913,11.658-15.76
				c1.904-1.904,4.578-2.831,7.268-2.523c2.68,0.312,5.074,1.839,6.49,4.142c16.545,26.879,47.516,33.44,66.391,34.816
				l-41.887-53.044c-1.578-2.001-2.217-4.589-1.75-7.097l9.178-48.964L673.949,1000.268z"/>
		</g>
		<g id="Eve_x5F_Arm_x5F_Skinny_14_">
			<g>
				<path fill="#F0CBA5" d="M204.705,490.966c0,0,30.418,45.149,18.643,83.402c-23.547,35.319-49.053,73.575-49.053,73.575
					s-16.688,13.726-16.688,1.962c0-11.778,8.832-38.271,8.832-38.271s-67.566,54.367-96.996,10.221
					c-14.1-2.013-14.838-16.107-14.838-16.107S178.211,567.49,204.705,490.966z"/>
				<path fill="#B07444" d="M62.059,624.846c-3.182,0-6.254-1.73-7.832-4.743c-4.299-8.226-2.85-14.869-0.879-18.995
					c5.602-11.709,21.582-16.207,26.809-17.386c74.426-34.093,105.324-81.662,105.631-82.141c2.609-4.101,8.053-5.341,12.178-2.728
					c4.113,2.61,5.344,8.047,2.75,12.167c-1.352,2.136-33.934,52.719-114.115,89.168c-0.613,0.284-1.254,0.491-1.92,0.619
					c-5.26,1.081-13.789,4.526-15.4,7.921c-0.137,0.292-0.508,1.076,0.594,3.193c2.262,4.322,0.592,9.66-3.732,11.915
					C64.834,624.521,63.438,624.846,62.059,624.846z"/>
				<path fill="#B07444" d="M222.326,572.594c-4.211-2.447-9.617-1.021-12.07,3.194c-6.691,11.549-13.801,22.885-21.354,33.896
					c-6.93,10.116-15.02,23.976-25.811,30.426c2.797-9.895,6.4-20.186,11.666-29.058c4.08-7.062-2.994-15.668-10.682-13.093
					c-3.068,1.028-5.701,3.787-8.344,5.588c-3.969,2.706-8.088,5.192-12.312,7.47c-17.094,9.133-36.527,15.168-56.08,13.475
					c9.488-4.297,19.629-7.046,28.857-11.948c8.721-4.601,15.338-10.597,22.34-17.348c6.451-6.204-2.375-16.52-9.516-11.168
					c-6.023,4.521-11.668,9.624-18.664,12.608c-7.016,2.999-14.125,5.659-21.309,8.23c-7.596,2.728-16.23,5.604-21.57,11.978
					c-6.242,7.451-2.967,16.108,4.195,21.194c10.445,6.396,25.029,5.164,36.658,3.544c13.748-1.913,26.826-6.493,39.236-12.626
					c-1.635,4.882-3.381,9.891-3.652,15.071c-0.061,12.164,9.553,17.145,20.613,14.803c11.512-2.567,19.576-12.635,26.562-21.44
					c8.289-10.467,15.637-21.712,22.693-33.037c3.645-5.853,7.18-11.771,10.621-17.739
					C227.164,581.821,227.91,575.846,222.326,572.594C218.115,570.146,226.521,575.036,222.326,572.594z"/>
			</g>
			<g>
				<path fill="#ECEECA" d="M380.545,384.704c132.957-231.082,68.512-190.809,60.715-186.949
					c-27.896,9.134-51.201,22.637-51.201,22.637s-46.441,89.707-100.098,158.779c-40.996,52.783-104.947,98.207-111.75,111.795
					c66.709,69.667,39.248,154.039,39.248,154.039L380.545,384.704z"/>
				<path fill="#ACAD97" d="M365.654,333.411c-50.92,85.514-107.006,190.83-147.02,279.725c-7.631,16.943,14.26,18.737,21.988,1.675
					c38.203-84.314,172.502-298.265,210.445-382.647c2.645-5.877-13.641,0.379-13.158,0.203
					c-11.562,4.258-22.82,24.914-29.371,34.31C393.557,288.162,379.299,310.494,365.654,333.411z"/>
				<path fill="#717261" d="M464.734,194.428c-9.164-16.324-30.73-18.143-46.807-11.925c-32.572,11.312-50.967,44.911-66.766,73.18
					c-18.119,32.435-33.348,66.708-53.203,98.135c-19.67,31.154-46.637,58.104-75.123,81.239
					c-12.326,10.012-25.225,19.187-38.039,28.547c-2.811,2.046-5.646,4.064-8.424,6.146c-2.957,2.226-5.943,4.482-8.588,7.077
					c-1.896,1.865-5.985,5.768-6.833,8.316c-0.26,0.353-1.952,3.634-1.952,4.561v0.188c1,0.761,1.464,1.588,2.062,2.473
					c2.098,10.635,12.767,20.702,18.696,29.306c8.254,11.978,15.446,24.678,20.599,38.311c10.115,26.777,11.392,55.229,6.333,83.241
					c-2.109,11.612,14,17.625,20.043,7.53c30.809-51.402,61.981-102.611,91.907-154.53c21.527-37.352,43.021-74.702,63.731-112.521
					c10.707-19.548,20.48-39.607,32.683-58.3c16.119-25.17,34.208-50.451,46.233-77.949
					C468.23,231.568,473.416,210.647,464.734,194.428C463.141,191.588,467.801,200.158,464.734,194.428z M443.551,232.177
					c-5.645,18.136-16.207,35.158-25.346,51.732c-8.885,16.106-17.941,32.12-26.25,48.539
					c-16.92,33.476-36.492,65.739-55.654,97.983c-34.127,57.415-69.365,114.147-104.58,170.898
					c-2.049-41.58-20.633-77.605-45.188-110.346c19.623-17.016,40.473-32.245,59.141-50.441
					c24.096-23.487,47.678-49.06,65.379-77.804c17.988-29.218,33.199-60.032,50.977-89.384c8.396-13.861,17.1-27.656,27.672-39.977
					c9.711-11.311,21.701-23.629,36.037-28.774c1.389-0.618,3.109-1.067,4.578-1.427c-0.115,0.017,0.455-0.097-0.229,0.028
					c4.602-0.831,11.676-2.344,14.66,2.313C448.984,212.977,445.865,224.61,443.551,232.177
					C442.488,235.586,445.623,225.401,443.551,232.177z"/>
			</g>
		</g>
		<g id="Eve_x5F_Arm_x5F_Skinny_13_">
			<g>
				<path fill="#F0CBA5" d="M1003.855,506.313c0,0-33.484,42.926-24.395,81.906c21.035,36.869,43.822,76.805,43.822,76.805
					s15.693,14.853,16.512,3.117c0.818-11.75-6.152-38.793-6.152-38.793s63.625,58.932,96.051,16.937
					c14.207-1.027,15.922-15.036,15.922-15.036S1024.967,584.494,1003.855,506.313z"/>
				<path fill="#B07444" d="M1136.854,649.783c3.176,0.222,6.359-1.292,8.143-4.188c4.859-7.907,3.875-14.635,2.195-18.889
					c-4.771-12.069-20.402-17.667-25.535-19.207c-71.875-39.183-99.395-88.784-99.666-89.282c-2.316-4.272-7.666-5.888-11.959-3.568
					c-4.285,2.319-5.893,7.658-3.588,11.947c1.197,2.225,30.188,54.949,107.643,96.884c0.59,0.325,1.217,0.577,1.873,0.751
					c5.168,1.443,13.441,5.473,14.812,8.973c0.115,0.301,0.43,1.107-0.816,3.144c-2.555,4.153-1.262,9.595,2.896,12.145
					C1134.105,649.266,1135.479,649.687,1136.854,649.783z"/>
				<path fill="#B07444" d="M980.604,586.519c-5.795,2.856-5.467,8.869-3.047,13.843c3.018,6.192,6.133,12.343,9.361,18.434
					c6.254,11.788,12.801,23.518,20.344,34.535c6.355,9.27,13.701,19.874,25.008,23.233c10.871,3.105,20.807-1.195,21.592-13.333
					c0.09-5.188-1.305-10.306-2.596-15.289c11.953,6.979,24.682,12.457,38.264,15.322c11.488,2.423,25.951,4.666,36.814-0.989
					c7.5-4.575,11.367-12.983,5.658-20.852c-4.883-6.73-13.303-10.198-20.686-13.447c-6.986-3.063-13.893-6.212-20.682-9.69
					c-6.773-3.464-12.051-8.946-17.748-13.875c-6.748-5.835-16.271,3.843-10.271,10.479c6.521,7.222,12.705,13.664,21.086,18.857
					c8.865,5.532,18.791,8.979,27.957,13.926c-19.623,0.33-38.592-7.041-55.008-17.34c-4.057-2.564-7.992-5.331-11.766-8.308
					c-2.512-1.979-4.943-4.916-7.934-6.154c-7.49-3.103-15.145,4.99-11.57,12.319c4.639,9.216,7.521,19.733,9.625,29.799
					c-10.318-7.185-17.426-21.573-23.641-32.146c-6.768-11.509-13.07-23.312-18.941-35.298
					C990.27,586.169,984.977,584.371,980.604,586.519C976.25,588.664,984.977,584.371,980.604,586.519z"/>
			</g>
			<g>
				<path fill="#ECEECA" d="M835.826,388.09c-116.576-239.765-55.088-195.109-47.58-190.719
					c27.199,11.052,49.506,26.143,49.506,26.143s40.096,92.716,88.824,165.351c37.229,55.504,97.867,105.263,103.709,119.291
					c-71.389,64.863-49.857,150.938-49.857,150.938L835.826,388.09z"/>
				<path fill="#ACAD97" d="M854.244,337.955C899.1,426.801,947.73,535.76,981.469,627.22c6.436,17.434-15.527,17.701-22.051,0.144
					c-32.252-86.766-151.355-309.532-183.346-396.348c-2.229-6.046,13.582,1.325,13.113,1.117
					c11.24,5.051,21.035,26.439,26.916,36.268C829.555,290.877,842.225,314.146,854.244,337.955z"/>
				<path fill="#717261" d="M765.062,192.421c-9.787,15.578-6.07,36.809-0.246,53.138c10.084,28.267,26.373,54.745,40.705,80.975
					c10.871,19.494,19.225,40.185,28.549,60.43c18.031,39.165,36.879,77.92,55.764,116.677
					c26.242,53.874,53.777,107.124,80.941,160.544c5.326,10.49,21.811,5.611,20.516-6.119c-3.102-28.297,0.145-56.591,12.102-82.601
					c6.086-13.241,14.139-25.412,23.203-36.786c6.514-8.171,19.965-17.325,22.791-27.79c0.662-0.841-1.717-1.835,4.322-2.177
					l0.012-0.188c0.064-0.925-3.484-4.462-3.719-4.832c-0.672-2.602-5.508-6.849-7.275-8.843c-2.457-2.771-5.803-5.268-8.605-7.693
					c-2.619-2.27-5.576-4.499-8.238-6.736c-12.129-10.228-24.492-20.285-36.092-31.13c-26.812-25.059-51.912-53.822-69.371-86.268
					c-17.615-32.731-30.461-67.982-46.279-101.598c-13.801-29.298-29.828-64.096-61.541-77.646
					C796.994,176.459,775.34,176.773,765.062,192.421C761.605,197.926,766.85,189.7,765.062,192.421z M783.57,231.552
					c-1.779-7.708-4.084-19.531,0.658-26.676c3.303-4.438,10.254-2.438,14.789-1.289c-0.676-0.173-0.113-0.019-0.229-0.045
					c1.438,0.461,3.125,1.029,4.467,1.741c13.945,6.131,25.049,19.252,33.953,31.211c9.689,13.024,17.414,27.391,24.824,41.802
					c15.695,30.517,28.727,62.312,44.643,92.711c15.662,29.904,37.406,57.054,59.814,82.159c17.357,19.45,37.1,36.091,55.494,54.43
					c-26.771,30.954-47.816,65.6-52.748,106.938c-31.186-59.061-62.398-118.104-92.453-177.752
					c-16.871-33.498-34.154-67.044-48.709-101.615c-7.146-16.956-15.068-33.561-22.812-50.246
					C797.295,267.752,787.943,250.036,783.57,231.552C781.975,224.649,784.395,235.025,783.57,231.552z"/>
			</g>
		</g>
		<g id="Eve_x5F_Skirt_x5F_Skinny_7_">
			<path fill="#1C97D4" d="M753.85,364.805c-135.084-72.83-262.307-32.948-365.916,72.127
				c-59.191,60.03-105.195,133.343-143.611,207.992c-46.574,90.494-75.449,182.904-72.859,285.218
				c0.438,17.12,1.367,33.282,5.805,49.667c0,0,70.643-50.045,123.619-8.85c52.973,41.205,136.363,77.515,165.787,71.624
				c29.43-5.879,51.025-36.308,109.885-39.245c58.859-2.941,92.211,8.826,142.244,20.596c50.033,11.782,93.197,34.35,155.986-34.334
				c62.777-68.646,176.566-90.241,223.662-78.464c-13.459-3.362-42.816-143.024-49.26-162.029
				c-16.367-48.309-35.494-95.586-61.98-139.323c-51.816-85.577-126.26-178.351-211.389-232.183
				C769.053,373.322,761.686,369.028,753.85,364.805z"/>
			<path fill="#ECEECA" d="M578.623,366.83c24.496-55.119-29.879-52.099-123.135,6.606
				c-96.732,70.26-202.928,241.033-217.385,272.82c91.232,82.4,258.996,108.894,294.305,108.894
				C521.262,691.014,555.016,447.312,578.623,366.83z"/>
			<path fill="#ECEECA" d="M746.609,370.616c0,0-18.314-5.362-32.938-5.866c39.025,52.991,148.361,232.578,148.361,363.907
				c58.859-11.763,132.445-29.424,158.924-67.681C988.018,606.079,826.457,409.715,746.609,370.616z"/>
			<path fill="#ACAD97" d="M416.434,454.475c32.605,8.275,65.439,14.674,98.414,21.295c7.518,1.508,4.215,12.523-3.127,11.36
				c-32.975-5.292-66.93-9.586-98.803-19.919C404.848,464.599,408.139,452.356,416.434,454.475z"/>
			<path fill="#126A94" d="M1008.592,673.438c-33.24,21.566-68.961,32.883-107.816,39.529c-14.314,2.439-33.434,1.946-48.369,6.964
				c1.545-66.796-19.295-134.652-46.863-194.719c-25.154-54.831-45.994-114.146-84.912-160.573
				c0.043-0.142-13.328-21.069-13.293-21.212c-15.115-0.919-29.885-4.165-44.291-10.195c25.271,43.314,86.555,140.7,109.73,190.98
				c17.504,37.979,32.371,78.524,42.086,119.736c4.891,20.768,8.5,41.862,10.797,63.078c1.668,15.439,0.98,31.856,16.75,39.925
				c16.729,8.562,42.129,1.673,59.289-1.761c43.67-8.739,87.139-23.441,122.457-51.582
				C1035.615,684.449,1020.688,665.573,1008.592,673.438z"/>
			<path fill="#126A94" d="M522.5,767.895c17.092-142.177,37.297-284.883,64.225-425.533c3.398-17.813,32.17-9.217,26.762,7.385
				c-52.629,161.132-54.588,270.995-61.898,422.078C550.785,788.45,520.512,784.418,522.5,767.895z"/>
			<path fill="#126A94" d="M223.736,686.809c-9.027-10.243,1.883-28.208,15.494-24.038c7.176-2.578,16.557,1.9,17.521,9.449
				c79.5,44.172,184.795,86.729,274.188,83.951c15.816-0.484,15.639,23.629,0,24.438c-92.887,4.831-199.596-33.984-283.084-79.259
				c-24.902,74.663-35.436,156.695-39.217,235.373c30.604-9.628,60.211-0.157,91.658,15.275c3.705,1.817,7.27,3.787,10.857,5.741
				c2.184-57.344,4.188-130.084,48.037-171.74c7.123-6.725,15.742-3.921,19.859,2.125c3.287,2.996,5.451,7.364,4.598,12.834
				c-9.199,59.134-30.557,116.225-25.979,176.902c0.16,2.14-0.389,3.951-1.221,5.563c7.404,4,14.945,7.797,22.873,11.086
				c49.303,20.413,96.6,12.207,145.273-3.985c47.26-15.724,86.359-21.036,132.338-11.246c4.215-68.971-5.428-136.608-2.695-205.487
				c0.135-3.515,1.758-6.376,4.059-8.476c0.988-11.247,16.184-18.003,23.707-5.955c41.248,66.266,55.434,147.855,49.541,242.044
				c46.482,12.986,80.867,15.48,114.193-23.18c6.891-8.002,20.908,0.438,17.654,10.279c-29.02,87.635-161.818,32.969-221.08,17.576
				c-76.191-19.826-150.451,39.051-229.701,28.521c-63.816-8.505-147.066-97.094-208.227-62.974
				c-7.834,9.702-27.441,6.764-26.979-8.986C179.816,876.709,186.721,768.241,223.736,686.809z"/>
			<path fill="#126A94" d="M931.561,803.233c0.896-12.283,14.303-18.045,23.637-9.797c28.602,25.252,31.684,60.723,45.75,93.974
				c3.68,8.686-2.289,16.695-9.227,18.042c-0.273,0.974-0.463,1.962-0.971,2.882c-5.014,9.146-16.625,11.636-25.818,14.665
				c-9.463,3.128-17.453-5.038-18.172-13.81C943.891,873.293,928.895,839.69,931.561,803.233z"/>
			<path fill="#0A4C6A" d="M1112.246,906.74c-7.664-31.562-16.189-62.665-25.512-93.788
				c-15.135-51.708-37.297-101.428-60.982-149.69c-4.451-9.004-18.465-2.422-14.326,6.75
				c32.537,72.056,57.336,146.647,73.49,224.062c-69.887-9.737-147.852,7.681-196.379,62.005
				c-19.162,21.459-38.793,41.223-65.402,53.406c-34.164,15.646-73.068,17.668-109.328,8.768
				c-18.084-4.442-35.297-11.9-53.227-16.939c-18.209-5.121-36.947-9.156-55.855-10.38c-31.512-2.03-61.896,7.531-91.002,18.562
				c-17.16,6.501-34.568,13.044-52.844,15.566c-19.191,2.89-38.805,1.339-57.689-2.821c-30.611-6.771-54.314-29.768-79.504-47.091
				c-29.502-20.294-65.373-38.095-101.477-24.42c-12.035,4.545-23.736,10.2-35.529,15.343
				c-7.766-107.803,17.223-217.384,60.453-315.698c2.383-5.435-3.479-11.082-8.828-8.508c-2.83,1.363-3.781,4.579-5.031,7.217
				c-1.973,4.151-3.924,8.312-5.838,12.492c-7.35,16.026-14.113,32.322-20.234,48.864c-12.004,32.412-21.818,65.631-29.07,99.434
				c-7.352,33.859-12.215,68.323-14.303,102.914c-1.049,17.372-1.436,34.798-0.822,52.191c0.352,9.954-0.418,37.945,17.803,30.008
				c18.201-7.969,36.834-17.979,55.953-23.515c35.355-8.886,69.709,20.766,96.027,40.024c14.166,10.372,28.586,21.158,44.811,28.12
				c11.359,4.873,23.9,7.346,36.08,9.103c19.053,2.756,38.375,2.667,57.326-0.824c17.801-3.281,34.814-9.57,51.689-15.96
				c30.668-11.618,61.119-20.21,94.053-15.454c19.018,2.746,37.688,7.748,55.893,13.817c17.43,5.819,34.273,11.975,52.523,14.888
				c37.08,5.918,75.609,1.558,109.711-14.503c27.691-13.039,49.072-33.153,69.184-55.725c21.58-24.222,49.977-41.479,80.984-50.711
				c35.668-10.616,76.053-11.942,112.311-3.335l0.949,0.207C1106.693,922.889,1114.264,915.042,1112.246,906.74z"/>
			<path fill="#717261" d="M508.734,503.269c-17.688,0-62.285-2.728-104.85-27.283c-5.635-3.243-7.562-10.45-4.312-16.076
				c3.246-5.623,10.441-7.561,16.078-4.313c47.348,27.312,98.727,24,99.232,23.972c6.385-0.589,12.113,4.414,12.58,10.904
				c0.467,6.482-4.418,12.118-10.904,12.579C516.07,503.087,513.297,503.269,508.734,503.269z"/>
			<polygon fill="#B21F2E" points="407.814,522.645 458.832,530.493 447.061,585.415 498.068,597.197 494.152,652.15 
				443.125,640.38 435.291,687.463 388.195,675.685 396.045,624.674 345.02,612.895 351.699,564.216 399.973,574.422 			"/>
			<g>
				<path fill="#717261" d="M1027.77,661.965c-14.674-26.576-29.748-52.549-45.957-78.219
					c-20.195-31.998-44.58-62.029-70.049-89.935c-49.961-54.736-108.926-103.961-175.609-137.065
					c-9.604-4.768-19.352-9-29.24-13.119c-10.697-3.805-16.65,12.74-5.984,16.617c59.594,70.248,105.633,149.714,130.01,238.871
					c11.762,42.987,18.668,86.636,23.336,130.918c0.582,4.708,4.873,8.052,9.58,7.474c55.234-6.857,112.217-22.781,155.057-60.317
					C1026.545,677.078,1031.467,668.664,1027.77,661.965z M994.656,673.756c-36.539,25.395-79.869,39.726-123.807,45.095
					c-8.455-80.2-27.537-159.031-63.682-231.497c-19.604-39.312-43.742-76.972-71.73-110.789
					c59.438,32.551,112.832,75.81,158.266,126.025c23.289,25.735,43.963,53.019,64.188,81.185
					c18.352,25.549,33.084,53.715,48.105,81.264C1002.451,668.039,998.543,670.996,994.656,673.756
					C989.18,677.564,998.543,670.996,994.656,673.756z"/>
				<path fill="#717261" d="M582.045,323.917c-14.283-9.878-34.482-4.555-49.5,0.585c-17.377,5.938-34.527,14.142-49.828,24.32
					c-29.465,19.599-57.537,40.668-83.518,64.765c-43.158,40.04-80.93,85.471-112.906,134.897
					c-12.588,19.455-24.162,39.569-34.713,60.2c-1.912,3.73-3.852,7.453-5.736,11.201c-2.025,4.032-3.953,8.121-5.863,12.217
					c-2.012,4.306-5.422,9.276-6.33,13.947c-1.652,8.501-0.014,13.61,5.572,20.438c5.66,6.921,12.559,12.809,19.709,18.132
					c30.102,22.425,66.781,36.538,102.178,48.163c36.494,11.977,73.941,20.998,111.766,27.599
					c18.922,3.305,37.949,5.993,57.041,8.136c6.428,0.721,13.039-1.594,14.049-8.903c1.34-9.69,0.006-20.424,0.09-30.229
					c0.342-39.828,2.172-79.631,5.303-119.331c3.111-39.461,7.453-78.838,13.182-118.008c5.551-37.961,11.799-76.26,22.102-113.257
					c1.83-6.587,3.518-13.903,6.961-19.869c2.775-4.835,1.992-13.25,0.885-18.468C591.09,333.864,587.648,327.81,582.045,323.917
					C578.375,321.382,585.717,326.466,582.045,323.917z M572.258,351.076c-6.811,13.871-10.018,29.924-13.461,44.886
					c-3.682,16.009-6.879,32.134-9.77,48.305c-5.895,32.912-10.59,66.029-14.445,99.24c-7.797,67.207-11.941,134.896-11.898,202.556
					c-51.119-6.337-101.965-16.56-151.096-32.142c-23.695-7.518-47.082-16.296-69.32-27.454
					c-10.389-5.223-20.615-10.956-30.037-17.803c-4.426-3.201-8.727-6.654-12.631-10.476c-3.547-3.478-5.914-7.893-9.348-11.36
					c49.371-98.157,116.717-186.711,204.6-253.391c17.332-13.151,35.416-26.327,54.752-36.392
					c10.131-5.273,20.615-9.995,31.484-13.536c7.598-2.454,21.547-7.552,29.02-2.564c0.621,0.488,1.006,0.885,1.416,1.805
					C572.307,344.283,572.576,347.511,572.258,351.076C570.172,355.315,572.576,347.511,572.258,351.076z"/>
			</g>
		</g>
		<g id="Eve_x5F_Chest_x5F_Skinny_7_">
			<path fill="#1C97D4" d="M418.895,337.958c4.42,3.038,4.361,8.255,2.102,11.76c9.156,8.183,18.721,17.04,26.438,24.821
				c68.762,15.902,126.086-24.515,194.207-23.381c44.896,0.741,88.613,14.466,132.736,20.065
				c13.057-5.435,29.098-12.396,41.324-17.848c31.193-23.684,48.02-70.294,42.998-110.084
				c-11.986-22.764-24.236-45.296-40.809-67.393c-35.318-47.105-111.832-49.074-111.832-49.074c-21.594,0-33.182,5.027-58.869-1.946
				c-65.248-17.727-84.381,1.946-84.381,1.946c-27.262,4.812-59.76,10.979-91.951,17.107
				C404.746,191.479,345.762,287.621,418.895,337.958z"/>
			<path fill="#ECEECA" d="M405.855,337.162c9.623,8.755,22.471,20.628,35.062,32.798c2.475-0.749,5.307-0.481,7.809,1.488
				c30.037,23.625,91.01,18.601,126.873-0.757c-134.691-85.897-53.986-233.743-53.986-233.743
				c-10.369-5.185-30.035,3.665-43.381,5.135c-0.359,0.459-0.791,0.909-1.311,1.345c-60.834,50.468-121.938,113.398-71.232,193.404
				C405.76,336.945,405.791,337.056,405.855,337.162z"/>
			<path fill="#F0CBA5" d="M639.33,89.56l1.975,35.319l73.852,0.07c-0.684,35.625-11.139,91.486-64.057,125.487
				C523.066,224.607,518.674,134.01,518.674,134.01l52-3.255l-1.982-43.159C612.182,24.728,639.33,89.56,639.33,89.56z"/>
			<path fill="#ECEECA" d="M711.988,368.948c25.721,1.243,51.523-1.402,77.314-3.567c14.916-5.337,26.727-10.907,34.203-14.779
				c29.24-26.515,39.715-67.107,37.256-106.736c-8.311-15.55-15.869-31.702-22.268-48.358
				c-14.717-38.274-97.127-84.377-132.436-68.682C706.059,126.825,840.32,233.485,711.988,368.948z"/>
			<path fill="#ACAD97" d="M731.404,339.647c25.527-5.334,41.301-11.127,58.531-32.305c38.256-47.089,21.074-72.36,14.668-108.733
				c-2.633-14.918,17.344-20.468,22.633-6.229c16.627,44.746,31.705,88.817,4.188,132.366
				c-20.273,32.074-57.926,37.326-91.865,44.439C720.266,373.266,712.078,343.694,731.404,339.647z"/>
			<path fill="#ACAD97" d="M475.596,382.227c32.227,5.362,64.402,6.85,97.016,2.09c1.23-7.164-5.092-14.862-12.453-14.456
				c7.615-9.658-2.34-24.261-15.303-18.161c-61.625,28.986-148.6-54.953-132.975-117.062c4.604-18.32-21.264-24.692-27.76-7.652
				c-4.318,11.34-5.436,23.409-4.037,35.654c4.146-0.149,8.467,2.435,8.58,7.78c0.346,16.888,5.479,32.354,15.01,46.269
				c1.215,1.783,1.549,3.53,1.32,5.12c20.232,27.745,50.098,50.676,80.791,59.989C482.363,381.83,478.969,381.984,475.596,382.227z"
				/>
			<path fill="#E6B288" d="M537.699,140.479c10.627,54.751,61.781,81.586,112.529,93.468c0.299,0.071,0.477,0.26,0.736,0.349
				c0.088-0.802,0.342-1.611,0.777-2.414c12.449-22.556-8.023-42.331-22.254-58.397c-5.381-6.095,2.85-14.396,8.906-8.923
				c18.971,17.123,45.586,50.7,23.783,75.368c-2.389,2.706-5.539,2.479-7.904,0.896c-0.438,2.717-2.365,5.072-5.609,4.731
				c-54.836-6.095-115.219-44.309-124.506-101.353C522.729,135.414,535.979,131.496,537.699,140.479z"/>
			<path fill="#126A94" d="M707.521,344.13c-9.547,6.678-16.082,11.229-22.822,15.985c12.066,4.842,24.449,7.528,37.107,8.295
				c1.758-1.694,2.973-3.616,3.213-5.817c71.027-42.883,66.035-177.341-2.818-219.786c-11.646-7.178-22.586,8.685-14.055,18.213
				C747.396,204.906,763.443,274.977,707.521,344.13z"/>
			<path fill="#126A94" d="M654.176,315.994c10.812,5.858,18.285,11.186,30.904,13.605c10.396,1.951,23.764,2.157,33.252-3.075
				c15.375-8.484,28.461,14.107,13.699,23.425c-14.906,9.403-33.785,10.23-50.811,8.165c-15.295-1.871-38.881-7.651-45.986-23.183
				C629.598,322.608,641.26,308.98,654.176,315.994z"/>
			<path fill="#126A94" d="M562.279,368.604c3.223-2.296,6.436-4.603,9.658-6.898c0.879-0.807,1.805-1.562,2.707-2.354
				c-0.07-0.372-0.152-0.738-0.217-1.102c-1.455-2.938-2.914-5.892-4.402-8.811c-0.596-1.146-1.168-2.301-1.77-3.445
				c-1.264-2.485-2.549-4.967-3.812-7.428c-3.959-3.89-7.682-8.065-10.891-12.929c-6.266-7.464-11.623-15.925-15.988-23.305
				c-25.742-43.507-21.773-89.973-11.494-137.153c3.627-16.738-12.715-17.223-18.107-0.991
				c-17.336,52.11-23.779,110.042,8.656,156.6C527.451,336.325,542.975,359.506,562.279,368.604z"/>
			<path fill="#126A94" d="M564.764,321.521c12.6-0.653,25.199-9.466,36.266-19.837c17.188-10.844,35.703-20.442,53.545-12.387
				c-0.023,0.228,0.023,0.46-0.023,0.696c-6.303,36.498-34.324,81.177-75.051,82.831c-12.555,0.514-16.711-13.818-10.906-22.208
				c-11.938,1.491-23.738-0.988-34.299-9.839c-7.15-6.004-5.227-14.219,0.188-19.157
				C544.197,324.727,554.291,324.707,564.764,321.521z"/>
			<path fill="#126A94" d="M594.631,363.311c3.93-2.743,7.928-5.104,12.021-7.179c-2.135-7.325,0.375-16.002,9.289-17.34
				c1.262-0.17,2.531-0.274,3.787-0.427c-0.012-0.032-0.012-0.05-0.012-0.075c0.213,0,0.436,0,0.637,0
				c22.113-2.624,43.99-0.11,64.246,9.155c3.83,0.932,7.664,1.931,11.547,2.896c7.613,1.935,10.607,7.886,10.232,13.843
				c3.787,2.136,7.562,4.361,11.033,6.938c14.936,11.158-11.584,24.162-40.281,13.589c-30.381-11.191-86.094-1.511-119.324,7.554
				C539.234,397.33,579.312,373.997,594.631,363.311z"/>
			<path fill="#B07444" d="M644.396,240.978c3.393-13.061,3.244-28.893-1.504-41.577c-2.094-7.128-6.125-14.119-10.943-19.76
				c-1.756-1.876-10.24-9.175-3.316-11.067c4.803-1.31,13.025,9.084,15.6,12.265c4.803,5.927,8.783,12.455,11.576,19.564
				c5.369,13.665,7.734,29.18,5.945,43.81C660.42,256.402,641.275,252.854,644.396,240.978z"/>
			<path fill="#0A4C6A" d="M653.076,261.273c-0.768,0-1.543-0.1-2.295-0.299c-57.646-15.53-134.971-45.513-140.912-126.316
				c-0.361-4.859,3.289-9.095,8.154-9.452c4.961-0.318,9.105,3.294,9.451,8.155c3.9,52.946,42.297,86.84,124.355,109.596
				c73.906-44.18,41.986-105.389,40.57-108.01c-2.312-4.289-0.715-9.645,3.574-11.959c4.285-2.325,9.648-0.72,11.965,3.568
				c0.434,0.803,42.26,80.832-50.5,133.568C656.096,260.885,654.592,261.273,653.076,261.273z"/>
			<path fill="#B07444" d="M518.859,142.839c-4.891-0.062-9.02-3.897-9.016-8.833c0-4.874,3.955-8.822,8.83-8.822h0.002
				c0.061,0,0.127,0,0.184,0c16.953,0,35.182-1.663,50.949-3.216c4.902-0.484,9.18,3.064,9.652,7.92
				c0.479,4.854-3.07,9.175-7.918,9.653C555.359,141.138,536.613,142.839,518.859,142.839z"/>
			<path fill="none" stroke="#231F20" stroke-width="26.4876" stroke-linecap="round" stroke-miterlimit="10" d="M708.006,97.389"/>
			<path fill="#B07444" d="M710.537,142.306c0,0-54.387-2.018-71.533-2.68c-4.873-0.182-8.674-4.283-8.486-9.158
				c0.18-4.871,4.361-8.578,9.158-8.482c17.146,0.65,71.51,2.667,71.51,2.667L710.537,142.306z"/>
			<path fill="#0A4C6A" d="M658.9,286.016c-0.633,20.803-8.16,43.506-21.139,59.89c-12.574,18.528-32.498,29.119-52.896,36.678
				c-5.672,2.104-11.912-2.226-11.908-8.287c0.016-5.177,3.9-7.673,8.256-9.077c14.879-4.786,28.125-11.111,39.412-22.18
				c11.123-10.912,19.133-25.298,23.252-40.293c1.719-5.786,2.07-11.674,3.398-17.482C647.938,277.95,659.166,278.699,658.9,286.016
				z"/>
			<path fill="#0A4C6A" d="M689.721,369.04c-8.193,0-17.416-1.352-27.051-5.21c-3.02-1.204-4.49-4.632-3.279-7.645
				c1.201-3.035,4.643-4.496,7.645-3.279c26.594,10.618,49.723-1.566,49.955-1.695c2.852-1.54,6.434-0.478,7.973,2.39
				c1.545,2.86,0.471,6.429-2.389,7.969C721.785,362.002,708.42,369.04,689.721,369.04z"/>
			<path fill="#B07444" d="M639.346,139.641c-0.164,0-0.33-0.015-0.494-0.019c-4.867-0.271-8.596-4.438-8.324-9.306l1.908-34.385
				c-0.879-5.064-6.152-27.553-27.758-26.137c-17.275,1.074-23.844,18.767-25.178,23.002v38.011c0,4.878-3.951,8.833-8.826,8.833
				c-4.871,0-8.826-3.955-8.826-8.833V91.56c0-0.728,0.09-1.447,0.26-2.144c0.359-1.44,9.189-35.235,41.467-37.25
				c31.865-2.018,44.381,26.687,46.482,42.137c0.076,0.556,0.094,1.115,0.062,1.675l-1.965,35.318
				C647.895,135.999,644.002,139.641,639.346,139.641z"/>
			<g>
				<path fill="#717261" d="M867.832,249.022c-5.52-40.729-27.57-76.215-62.133-98.564c-31.074-20.088-68.348-30.273-105.176-31.417
					c-7.15-0.229-8.172,10.625-1.061,11.698l0.07,0.016c0.389,0.634,0.773,1.278,1.355,1.805
					c33.863,30.125,64.637,71.944,68.412,118.402c3.855,47.484-28.348,83.44-62.818,111.082c-7.078,5.69-1.506,17.43,7.406,15.482
					c1.064,1.875,2.861,3.295,5.166,3.581c35.662,4.396,74.562,0.099,105.301-19.69
					C862.193,337.067,873.799,291.613,867.832,249.022z M728.502,136.795c16.758,4.593,33.424,10.903,48.752,19.422
					c13.92,18.752,26.553,38.157,28.77,45.646c-14.449,7.969-21.83,17.075-22.162,17.485c-0.99,1.241-1.398,2.82-1.207,4.372
					C773.561,190.662,752.066,160.539,728.502,136.795z M787.232,253.511c-0.242-9.698-1.779-19.229-4.246-28.544
					c0.594,1.663,1.832,3.015,3.516,3.609l29.658,10.472c0.379,14.182-2.738,66.031-63.094,104.505
					C774.523,318.479,788.088,287.518,787.232,253.511z M844.594,289.193c-4.037,26.604-19.246,48.24-43.043,60.859
					c-20.26,10.741-43.389,15.259-66.193,16.615c50.541-23.847,73.057-56.683,83.051-80.812
					c11.729-28.305,9.342-50.782,9.234-51.728c-0.256-2.236-1.766-4.136-3.889-4.885l-24.438-8.626
					c3.57-2.991,8.666-6.66,15.316-9.987c1.291-0.645,2.295-1.74,2.832-3.074c2.021-5.057-1.836-15.372-11.41-30.722
					c4.725,4.312,9.262,8.85,13.326,13.882C841.076,217.573,849.861,255.241,844.594,289.193z"/>
				<path fill="#717261" d="M867.832,249.022C869.875,263.596,865.867,234.523,867.832,249.022L867.832,249.022z"/>
				<path fill="#717261" d="M587.781,365.289c-16.412-9.274-31.467-19.482-44.215-33.542c-15.65-17.252-25.609-38.682-30.26-61.402
					c-8.842-43.174,0.791-89.61,15.434-130.477c0.748-2.072,0.457-4.254-0.516-6.118c4.562-3.982,1.174-11.646-4.85-10.869
					c-31.373,4.061-62.725,13.325-89.354,30.802c-24.125,15.834-42.16,39.71-53.1,66.275c-6.975,16.938-10.482,35.146-9.746,53.479
					c0.742,18.609,6.508,35.347,14.041,52.149c11.576,23.022,32.039,42.787,53.756,56.252c23.484,14.562,51.537,15.5,78.43,14.502
					c11.619-0.433,23.281-1.473,34.693-3.762c8.172-1.647,19.623-3.521,26.309-9.039
					C589.963,388.869,598.875,371.582,587.781,365.289z M504.752,376.6c-17.822-0.673-36.326-2.179-51.824-11.761
					c-22.727-14.048-42.146-35.967-51.75-61.048c-13.33-34.805-4.49-72.234,15.875-102.368
					c12.906-19.079,30.033-33.332,49.768-44.047c-14.801,17.686-32.303,45.117-33.494,77.201c-0.096,2.531,1.445,4.838,3.818,5.729
					c8.955,3.364,20.545,7.386,28.834,10.219l-22.449,16.848c-1.107,0.82-1.885,2.018-2.197,3.354
					c-0.637,2.701-13.287,61.949,74.016,106.079C511.809,376.792,508.27,376.729,504.752,376.6z M551.398,374.004
					c-3.451,0.613-6.93,1.076-10.418,1.479c-91.654-36.951-89.982-89.192-88.52-100.097l29.518-22.146
					c1.754-1.315,2.625-3.495,2.277-5.651c-0.352-2.161-1.875-3.947-3.953-4.639c-0.211-0.076-19.805-6.615-34.945-12.155
					c4.256-47.624,49.117-84.982,49.584-85.36c0.307-0.258,0.477-0.592,0.727-0.893c5.369-1.996,10.785-3.875,16.268-5.559
					c-17.766,37.294-26.221,80.65-21.631,121.82c5.199,46.621,29.551,85.934,68.637,111.635
					C556.791,372.98,554.301,373.53,551.398,374.004z"/>
			</g>
		</g>
	</g>
</g>
<g id="New_Stuff">
</g>
<g id="_x34_:3">
</g>
<g id="text_x2F_dialogue_box">
</g>
</svg>
