%YAML 1.1
%TAG !u! tag:unity3d.com,2011:
--- !u!74 &7400000
AnimationClip:
  m_ObjectHideFlags: 0
  m_PrefabParentObject: {fileID: 0}
  m_PrefabInternal: {fileID: 0}
  m_Name: anim_HeadNodYes
  serializedVersion: 3
  m_AnimationType: 1
  m_Compressed: 0
  m_RotationCurves:
  - curve:
      serializedVersion: 2
      m_Curve:
      - time: 0
        value: {x: 0, y: 0, z: 0, w: 1}
        inSlope: {x: 0, y: 0, z: 0, w: 0}
        outSlope: {x: 0, y: 0, z: 0, w: 0}
        tangentMode: -559038737
      - time: .00100000005
        value: {x: 0, y: 0, z: 0, w: 1}
        inSlope: {x: 0, y: 0, z: 0, w: 0}
        outSlope: {x: 0, y: 0, z: 0, w: 0}
        tangentMode: -33686211
      - time: 2.28571439
        value: {x: 0, y: 0, z: 0, w: 1}
        inSlope: {x: 0, y: 0, z: 0, w: 0}
        outSlope: {x: 0, y: 0, z: 0, w: 0}
        tangentMode: -559038737
      - time: 4.57142878
        value: {x: 0, y: 0, z: 0, w: 1}
        inSlope: {x: 0, y: 0, z: 0, w: 0}
        outSlope: {x: 0, y: 0, z: 0, w: 0}
        tangentMode: -33686211
      - time: 6.85714293
        value: {x: 0, y: 0, z: 0, w: 1}
        inSlope: {x: 0, y: 0, z: 0, w: 0}
        outSlope: {x: 0, y: 0, z: 0, w: 0}
        tangentMode: -559038737
      - time: 9.14285755
        value: {x: 0, y: 0, z: 0, w: 1}
        inSlope: {x: 0, y: 0, z: 0, w: 0}
        outSlope: {x: 0, y: 0, z: 0, w: 0}
        tangentMode: -33686211
      - time: 11.4285717
        value: {x: 0, y: 0, z: 0, w: 1}
        inSlope: {x: 0, y: 0, z: 0, w: 0}
        outSlope: {x: 0, y: 0, z: 0, w: 0}
        tangentMode: -559038737
      - time: 13.7142859
        value: {x: 0, y: 0, z: 0, w: 1}
        inSlope: {x: 0, y: 0, z: 0, w: 0}
        outSlope: {x: 0, y: 0, z: 0, w: 0}
        tangentMode: 1403104160
      - time: 15.9989996
        value: {x: 0, y: 0, z: 0, w: 1}
        inSlope: {x: 0, y: 0, z: 0, w: 0}
        outSlope: {x: 0, y: 0, z: 0, w: 0}
        tangentMode: -559038737
      - time: 16
        value: {x: 0, y: 0, z: 0, w: 1}
        inSlope: {x: 0, y: 0, z: 0, w: 0}
        outSlope: {x: 0, y: 0, z: 0, w: 0}
        tangentMode: 107
      m_PreInfinity: 2
      m_PostInfinity: 2
    path: Root
  - curve:
      serializedVersion: 2
      m_Curve:
      - time: 0
        value: {x: 0, y: 0, z: 0, w: 1}
        inSlope: {x: 0, y: 0, z: 0, w: 0}
        outSlope: {x: 0, y: 0, z: 0, w: 0}
        tangentMode: -559038737
      - time: .00100000005
        value: {x: 0, y: 0, z: 0, w: 1}
        inSlope: {x: 0, y: 0, z: 0, w: 0}
        outSlope: {x: 0, y: 0, z: 0, w: 0}
        tangentMode: -559038737
      - time: 2
        value: {x: 0, y: 0, z: 0, w: 1}
        inSlope: {x: 0, y: 0, z: 0, w: 0}
        outSlope: {x: 0, y: 0, z: 0, w: 0}
        tangentMode: -559038737
      - time: 4
        value: {x: 0, y: 0, z: 0, w: 1}
        inSlope: {x: 0, y: 0, z: 0, w: 0}
        outSlope: {x: 0, y: 0, z: 0, w: 0}
        tangentMode: -542900206
      - time: 6
        value: {x: 0, y: 0, z: 0, w: 1}
        inSlope: {x: 0, y: 0, z: 0, w: 0}
        outSlope: {x: 0, y: 0, z: 0, w: 0}
        tangentMode: -559038737
      - time: 8
        value: {x: 0, y: 0, z: 0, w: 1}
        inSlope: {x: 0, y: 0, z: 0, w: 0}
        outSlope: {x: 0, y: 0, z: 0, w: 0}
        tangentMode: -559038737
      - time: 10
        value: {x: 0, y: 0, z: 0, w: 1}
        inSlope: {x: 0, y: 0, z: 0, w: 0}
        outSlope: {x: 0, y: 0, z: 0, w: 0}
        tangentMode: -559038737
      - time: 12
        value: {x: 0, y: 0, z: 0, w: 1}
        inSlope: {x: 0, y: 0, z: 0, w: 0}
        outSlope: {x: 0, y: 0, z: 0, w: 0}
        tangentMode: -559038737
      - time: 13.9989996
        value: {x: 0, y: 0, z: 0, w: 1}
        inSlope: {x: 0, y: 0, z: 0, w: 0}
        outSlope: {x: 0, y: 0, z: 0, w: 0}
        tangentMode: -559038737
      - time: 14
        value: {x: 0, y: 0, z: 0, w: 1}
        inSlope: {x: 0, y: 0, z: 0, w: 0}
        outSlope: {x: 0, y: 0, z: 0, w: 0}
        tangentMode: -559038737
      m_PreInfinity: 2
      m_PostInfinity: 2
    path: Root/Body
  - curve:
      serializedVersion: 2
      m_Curve:
      - time: 0
        value: {x: 0, y: 0, z: 0, w: 1}
        inSlope: {x: 0, y: 0, z: 0, w: 0}
        outSlope: {x: 0, y: 0, z: 0, w: 0}
        tangentMode: -559038737
      - time: .00100000005
        value: {x: 0, y: 0, z: 0, w: 1}
        inSlope: {x: 0, y: 0, z: 0, w: 0}
        outSlope: {x: 0, y: 0, z: 0, w: 0}
        tangentMode: -559038737
      - time: 2
        value: {x: 0, y: 0, z: 0, w: 1}
        inSlope: {x: 0, y: 0, z: 0, w: 0}
        outSlope: {x: 0, y: 0, z: 0, w: 0}
        tangentMode: -559038737
      - time: 4
        value: {x: 0, y: 0, z: 0, w: 1}
        inSlope: {x: 0, y: 0, z: 0, w: 0}
        outSlope: {x: 0, y: 0, z: 0, w: 0}
        tangentMode: -559038737
      - time: 6
        value: {x: 0, y: 0, z: 0, w: 1}
        inSlope: {x: 0, y: 0, z: 0, w: 0}
        outSlope: {x: 0, y: 0, z: 0, w: 0}
        tangentMode: -559038737
      - time: 8
        value: {x: 0, y: 0, z: 0, w: 1}
        inSlope: {x: 0, y: 0, z: 0, w: 0}
        outSlope: {x: 0, y: 0, z: 0, w: 0}
        tangentMode: -559038737
      - time: 10
        value: {x: 0, y: 0, z: 0, w: 1}
        inSlope: {x: 0, y: 0, z: 0, w: 0}
        outSlope: {x: 0, y: 0, z: 0, w: 0}
        tangentMode: -559038737
      - time: 12
        value: {x: 0, y: 0, z: 0, w: 1}
        inSlope: {x: 0, y: 0, z: 0, w: 0}
        outSlope: {x: 0, y: 0, z: 0, w: 0}
        tangentMode: -559038737
      - time: 13.9989996
        value: {x: 0, y: 0, z: 0, w: 1}
        inSlope: {x: 0, y: 0, z: 0, w: 0}
        outSlope: {x: 0, y: 0, z: 0, w: 0}
        tangentMode: -559038737
      - time: 14
        value: {x: 0, y: 0, z: 0, w: 1}
        inSlope: {x: 0, y: 0, z: 0, w: 0}
        outSlope: {x: 0, y: 0, z: 0, w: 0}
        tangentMode: -559038737
      m_PreInfinity: 2
      m_PostInfinity: 2
    path: Root/Body/TorsoCostume
  - curve:
      serializedVersion: 2
      m_Curve:
      - time: 0
        value: {x: 0, y: 0, z: .544639051, w: .838670552}
        inSlope: {x: 0, y: 0, z: 0, w: 0}
        outSlope: {x: 0, y: 0, z: 0, w: 0}
        tangentMode: 127
      - time: .00100000005
        value: {x: 0, y: 0, z: .544639051, w: .838670552}
        inSlope: {x: 0, y: 0, z: 0, w: 0}
        outSlope: {x: 0, y: 0, z: 0, w: 0}
        tangentMode: 1403116564
      - time: 2
        value: {x: 0, y: 0, z: .544639051, w: .838670552}
        inSlope: {x: 0, y: 0, z: 0, w: 0}
        outSlope: {x: 0, y: 0, z: 0, w: 0}
        tangentMode: -559038737
      - time: 4
        value: {x: 0, y: 0, z: .544639051, w: .838670552}
        inSlope: {x: 0, y: 0, z: 0, w: 0}
        outSlope: {x: 0, y: 0, z: 0, w: 0}
        tangentMode: -559038737
      - time: 6
        value: {x: 0, y: 0, z: .544639051, w: .838670552}
        inSlope: {x: 0, y: 0, z: 0, w: 0}
        outSlope: {x: 0, y: 0, z: 0, w: 0}
        tangentMode: -559038737
      - time: 8
        value: {x: 0, y: 0, z: .544639051, w: .838670552}
        inSlope: {x: 0, y: 0, z: 0, w: 0}
        outSlope: {x: 0, y: 0, z: 0, w: 0}
        tangentMode: -559038737
      - time: 10
        value: {x: 0, y: 0, z: .544639051, w: .838670552}
        inSlope: {x: 0, y: 0, z: 0, w: 0}
        outSlope: {x: 0, y: 0, z: 0, w: 0}
        tangentMode: 99
      - time: 12
        value: {x: 0, y: 0, z: .544639051, w: .838670552}
        inSlope: {x: 0, y: 0, z: 0, w: 0}
        outSlope: {x: 0, y: 0, z: 0, w: 0}
        tangentMode: -559038737
      - time: 13.9989996
        value: {x: 0, y: 0, z: .544639051, w: .838670552}
        inSlope: {x: 0, y: 0, z: 0, w: 0}
        outSlope: {x: 0, y: 0, z: 0, w: 0}
        tangentMode: 12
      - time: 14
        value: {x: 0, y: 0, z: .544639051, w: .838670552}
        inSlope: {x: 0, y: 0, z: 0, w: 0}
        outSlope: {x: 0, y: 0, z: 0, w: 0}
        tangentMode: -559038737
      m_PreInfinity: 2
      m_PostInfinity: 2
    path: Root/LeftArm
  - curve:
      serializedVersion: 2
      m_Curve:
      - time: 0
        value: {x: 0, y: 0, z: 0, w: 1}
        inSlope: {x: 0, y: 0, z: 0, w: 0}
        outSlope: {x: 0, y: 0, z: 0, w: 0}
        tangentMode: -559038737
      - time: .00100000005
        value: {x: 0, y: 0, z: 0, w: 1}
        inSlope: {x: 0, y: 0, z: 0, w: 0}
        outSlope: {x: 0, y: 0, z: 0, w: 0}
        tangentMode: -559038737
      - time: 2
        value: {x: 0, y: 0, z: 0, w: 1}
        inSlope: {x: 0, y: 0, z: 0, w: 0}
        outSlope: {x: 0, y: 0, z: 0, w: 0}
        tangentMode: -559038737
      - time: 4
        value: {x: 0, y: 0, z: 0, w: 1}
        inSlope: {x: 0, y: 0, z: 0, w: 0}
        outSlope: {x: 0, y: 0, z: 0, w: 0}
        tangentMode: -559038737
      - time: 6
        value: {x: 0, y: 0, z: 0, w: 1}
        inSlope: {x: 0, y: 0, z: 0, w: 0}
        outSlope: {x: 0, y: 0, z: 0, w: 0}
        tangentMode: -559038737
      - time: 8
        value: {x: 0, y: 0, z: 0, w: 1}
        inSlope: {x: 0, y: 0, z: 0, w: 0}
        outSlope: {x: 0, y: 0, z: 0, w: 0}
        tangentMode: -559038737
      - time: 10
        value: {x: 0, y: 0, z: 0, w: 1}
        inSlope: {x: 0, y: 0, z: 0, w: 0}
        outSlope: {x: 0, y: 0, z: 0, w: 0}
        tangentMode: -559038737
      - time: 12
        value: {x: 0, y: 0, z: 0, w: 1}
        inSlope: {x: 0, y: 0, z: 0, w: 0}
        outSlope: {x: 0, y: 0, z: 0, w: 0}
        tangentMode: -559038737
      - time: 13.9989996
        value: {x: 0, y: 0, z: 0, w: 1}
        inSlope: {x: 0, y: 0, z: 0, w: 0}
        outSlope: {x: 0, y: 0, z: 0, w: 0}
        tangentMode: -559038737
      - time: 14
        value: {x: 0, y: 0, z: 0, w: 1}
        inSlope: {x: 0, y: 0, z: 0, w: 0}
        outSlope: {x: 0, y: 0, z: 0, w: 0}
        tangentMode: -559038737
      m_PreInfinity: 2
      m_PostInfinity: 2
    path: Root/LeftArm/LeftHand
  - curve:
      serializedVersion: 2
      m_Curve:
      - time: 0
        value: {x: 0, y: 0, z: -.57357645, w: .819152057}
        inSlope: {x: 0, y: 0, z: 0, w: 0}
        outSlope: {x: 0, y: 0, z: 0, w: 0}
        tangentMode: -559038737
      - time: .00100000005
        value: {x: 0, y: 0, z: -.57357645, w: .819152057}
        inSlope: {x: 0, y: 0, z: 0, w: 0}
        outSlope: {x: 0, y: 0, z: 8.01888309e-05, w: 5.60844492e-05}
        tangentMode: -559038737
      - time: 1
        value: {x: 0, y: 0, z: -.573496342, w: .819208086}
        inSlope: {x: 0, y: 0, z: 8.01888309e-05, w: 5.60844492e-05}
        outSlope: {x: 0, y: 0, z: .00021725893, w: .000152111053}
        tangentMode: -559038737
      - time: 2
        value: {x: 0, y: 0, z: -.573279083, w: .819360197}
        inSlope: {x: 0, y: 0, z: .00021725893, w: .000152111053}
        outSlope: {x: 0, y: 0, z: .000320315361, w: .000223994255}
        tangentMode: -559038737
      - time: 3
        value: {x: 0, y: 0, z: -.572958767, w: .819584191}
        inSlope: {x: 0, y: 0, z: .000320315361, w: .000223994255}
        outSlope: {x: 0, y: 0, z: .000389039516, w: .000271856785}
        tangentMode: -559038737
      - time: 4
        value: {x: 0, y: 0, z: -.572569728, w: .819856048}
        inSlope: {x: 0, y: 0, z: .000389039516, w: .000271856785}
        outSlope: {x: 0, y: 0, z: .000423550606, w: .000295639038}
        tangentMode: -559038737
      - time: 5
        value: {x: 0, y: 0, z: -.572146177, w: .820151687}
        inSlope: {x: 0, y: 0, z: .000423550606, w: .000295639038}
        outSlope: {x: 0, y: 0, z: .000423789024, w: .000295460224}
        tangentMode: -559038737
      - time: 6
        value: {x: 0, y: 0, z: -.571722388, w: .820447147}
        inSlope: {x: 0, y: 0, z: .000423789024, w: .000295460224}
        outSlope: {x: 0, y: 0, z: .000389397144, w: .000271201134}
        tangentMode: -559038737
      - time: 7
        value: {x: 0, y: 0, z: -.571332991, w: .820718348}
        inSlope: {x: 0, y: 0, z: .000389397144, w: .000271201134}
        outSlope: {x: 0, y: 0, z: .000320851803, w: .000223278999}
        tangentMode: -559038737
      - time: 8
        value: {x: 0, y: 0, z: -.571012139, w: .820941627}
        inSlope: {x: 0, y: 0, z: .000320851803, w: .000223278999}
        outSlope: {x: 0, y: 0, z: .000217795372, w: .000151395798}
        tangentMode: -559038737
      - time: 9
        value: {x: 0, y: 0, z: -.570794344, w: .821093023}
        inSlope: {x: 0, y: 0, z: .000217795372, w: .000151395798}
        outSlope: {x: 0, y: 0, z: 8.0308193e-05, w: 5.5845816e-05}
        tangentMode: -559038737
      - time: 9.9989996
        value: {x: 0, y: 0, z: -.570714116, w: .821148813}
        inSlope: {x: 0, y: 0, z: 8.0308193e-05, w: 5.5845816e-05}
        outSlope: {x: 0, y: 0, z: 0, w: 0}
        tangentMode: -559038737
      - time: 10
        value: {x: 0, y: 0, z: -.570714116, w: .821148813}
        inSlope: {x: 0, y: 0, z: 0, w: 0}
        outSlope: {x: 0, y: 0, z: 0, w: 0}
        tangentMode: -559038737
      - time: 10.0010004
        value: {x: 0, y: 0, z: -.570714116, w: .821148813}
        inSlope: {x: 0, y: 0, z: 0, w: 0}
        outSlope: {x: 0, y: 0, z: -.000448138802, w: -.00031162682}
        tangentMode: -559038737
      - time: 11
        value: {x: 0, y: 0, z: -.571161807, w: .820837498}
        inSlope: {x: 0, y: 0, z: -.000448138802, w: -.00031162682}
        outSlope: {x: 0, y: 0, z: 0, w: 0}
        tangentMode: -559038737
      - time: 12
        value: {x: 0, y: 0, z: -.572146118, w: .820151687}
        inSlope: {x: 0, y: 0, z: -.000984311104, w: -.000685811043}
        outSlope: {x: 0, y: 0, z: 0, w: 0}
        tangentMode: -559038737
      - time: 13
        value: {x: 0, y: 0, z: -.573129714, w: .819464684}
        inSlope: {x: 0, y: 0, z: -.000983595848, w: -.000687003136}
        outSlope: {x: 0, y: 0, z: 0, w: 0}
        tangentMode: -559038737
      - time: 13.9989996
        value: {x: 0, y: 0, z: -.57357645, w: .819152057}
        inSlope: {x: 0, y: 0, z: -.000447184168, w: -.000312939432}
        outSlope: {x: 0, y: 0, z: 0, w: 0}
        tangentMode: -559038737
      - time: 14
        value: {x: 0, y: 0, z: -.57357645, w: .819152057}
        inSlope: {x: 0, y: 0, z: 0, w: 0}
        outSlope: {x: 0, y: 0, z: 0, w: 0}
        tangentMode: -559038737
      m_PreInfinity: 2
      m_PostInfinity: 2
    path: Root/RightArm
  - curve:
      serializedVersion: 2
      m_Curve:
      - time: 0
        value: {x: 0, y: 0, z: 0, w: 1}
        inSlope: {x: 0, y: 0, z: 0, w: 0}
        outSlope: {x: 0, y: 0, z: 0, w: 0}
        tangentMode: -559038737
      - time: .00100000005
        value: {x: 0, y: 0, z: 0, w: 1}
        inSlope: {x: 0, y: 0, z: 0, w: 0}
        outSlope: {x: 0, y: 0, z: 0, w: 0}
        tangentMode: -559038737
      - time: 2
        value: {x: 0, y: 0, z: 0, w: 1}
        inSlope: {x: 0, y: 0, z: 0, w: 0}
        outSlope: {x: 0, y: 0, z: 0, w: 0}
        tangentMode: -559038737
      - time: 4
        value: {x: 0, y: 0, z: 0, w: 1}
        inSlope: {x: 0, y: 0, z: 0, w: 0}
        outSlope: {x: 0, y: 0, z: 0, w: 0}
        tangentMode: -559038737
      - time: 6
        value: {x: 0, y: 0, z: 0, w: 1}
        inSlope: {x: 0, y: 0, z: 0, w: 0}
        outSlope: {x: 0, y: 0, z: 0, w: 0}
        tangentMode: -33686019
      - time: 8
        value: {x: 0, y: 0, z: 0, w: 1}
        inSlope: {x: 0, y: 0, z: 0, w: 0}
        outSlope: {x: 0, y: 0, z: 0, w: 0}
        tangentMode: 1
      - time: 10
        value: {x: 0, y: 0, z: 0, w: 1}
        inSlope: {x: 0, y: 0, z: 0, w: 0}
        outSlope: {x: 0, y: 0, z: 0, w: 0}
        tangentMode: -559038737
      - time: 12
        value: {x: 0, y: 0, z: 0, w: 1}
        inSlope: {x: 0, y: 0, z: 0, w: 0}
        outSlope: {x: 0, y: 0, z: 0, w: 0}
        tangentMode: -559038737
      - time: 13.9989996
        value: {x: 0, y: 0, z: 0, w: 1}
        inSlope: {x: 0, y: 0, z: 0, w: 0}
        outSlope: {x: 0, y: 0, z: 0, w: 0}
        tangentMode: -559038737
      - time: 14
        value: {x: 0, y: 0, z: 0, w: 1}
        inSlope: {x: 0, y: 0, z: 0, w: 0}
        outSlope: {x: 0, y: 0, z: 0, w: 0}
        tangentMode: -542900206
      m_PreInfinity: 2
      m_PostInfinity: 2
    path: Root/RightArm/RightHand
  - curve:
      serializedVersion: 2
      m_Curve:
      - time: 0
        value: {x: 0, y: 0, z: 0, w: 1}
        inSlope: {x: 0, y: 0, z: 0, w: 0}
        outSlope: {x: 0, y: 0, z: 2.87915373e-05, w: 0}
        tangentMode: -559038737
      - time: .00100000005
        value: {x: 0, y: 0, z: 2.8791538e-08, w: 1}
        inSlope: {x: 0, y: 0, z: 2.87915373e-05, w: 0}
        outSlope: {x: 0, y: 0, z: .00891489722, w: -1.3272047e-05}
        tangentMode: -559038737
      - time: .333333343
        value: {x: 0, y: 0, z: .00296274642, w: .999995589}
        inSlope: {x: 0, y: 0, z: .00891489722, w: -1.3272047e-05}
        outSlope: {x: 0, y: 0, z: .0238198768, w: -.000165045261}
        tangentMode: -559038737
      - time: .666666687
        value: {x: 0, y: 0, z: .0109027056, w: .999940574}
        inSlope: {x: 0, y: 0, z: .0238198768, w: -.000165045261}
        outSlope: {x: 0, y: 0, z: .0344814509, w: -.000574171601}
        tangentMode: -559038737
      - time: 1
        value: {x: 0, y: 0, z: .0223965216, w: .999749184}
        inSlope: {x: 0, y: 0, z: .0344814509, w: -.000574171601}
        outSlope: {x: 0, y: 0, z: .0408681817, w: -.00119429815}
        tangentMode: -559038737
      - time: 1.33333337
        value: {x: 0, y: 0, z: .0360192508, w: .999351084}
        inSlope: {x: 0, y: 0, z: .0408681817, w: -.00119429815}
        outSlope: {x: 0, y: 0, z: .0429786444, w: -.00185769843}
        tangentMode: -559038737
      - time: 1.66666663
        value: {x: 0, y: 0, z: .0503454618, w: .998731852}
        inSlope: {x: 0, y: 0, z: .0429786444, w: -.00185769843}
        outSlope: {x: 0, y: 0, z: .0408188254, w: -.00233656145}
        tangentMode: -559038737
      - time: 2
        value: {x: 0, y: 0, z: .0639517382, w: .997952998}
        inSlope: {x: 0, y: 0, z: .0408188254, w: -.00233656145}
        outSlope: {x: 0, y: 0, z: .0344023779, w: -.00240325974}
        tangentMode: -559038737
      - time: 2.33333325
        value: {x: 0, y: 0, z: .075419195, w: .997151911}
        inSlope: {x: 0, y: 0, z: .0344023779, w: -.00240325974}
        outSlope: {x: 0, y: 0, z: .023745317, w: -.00189077761}
        tangentMode: -559038737
      - time: 2.66666675
        value: {x: 0, y: 0, z: .0833343044, w: .996521652}
        inSlope: {x: 0, y: 0, z: .023745317, w: -.00189077761}
        outSlope: {x: 0, y: 0, z: .00888283364, w: -.000755968678}
        tangentMode: -559038737
      - time: 2.99900007
        value: {x: 0, y: 0, z: .086286366, w: .996270418}
        inSlope: {x: 0, y: 0, z: .00888283364, w: -.000755968678}
        outSlope: {x: 0, y: 0, z: 7.45112084e-06, w: 0}
        tangentMode: -559038737
      - time: 3
        value: {x: 0, y: 0, z: .0862863734, w: .996270418}
        inSlope: {x: 0, y: 0, z: 7.45112084e-06, w: 0}
        outSlope: {x: 0, y: 0, z: -6.70600857e-05, w: 0}
        tangentMode: -559038737
      - time: 3.00099993
        value: {x: 0, y: 0, z: .0862863064, w: .996270418}
        inSlope: {x: 0, y: 0, z: -6.70600857e-05, w: 0}
        outSlope: {x: 0, y: 0, z: -.0191895422, w: .00160017854}
        tangentMode: -559038737
      - time: 3.33333325
        value: {x: 0, y: 0, z: .0799089819, w: .996802211}
        inSlope: {x: 0, y: 0, z: -.0191895422, w: .00160017854}
        outSlope: {x: 0, y: 0, z: -.0478717312, w: .003452359}
        tangentMode: -559038737
      - time: 3.66666675
        value: {x: 0, y: 0, z: .0639517307, w: .997952998}
        inSlope: {x: 0, y: 0, z: -.0478717312, w: .003452359}
        outSlope: {x: 0, y: 0, z: -.0623047911, w: .00334256957}
        tangentMode: -559038737
      - time: 4
        value: {x: 0, y: 0, z: .043183472, w: .999067187}
        inSlope: {x: 0, y: 0, z: -.0623047911, w: .00334256957}
        outSlope: {x: 0, y: 0, z: -.0623608269, w: .00204598811}
        tangentMode: -559038737
      - time: 4.33333349
        value: {x: 0, y: 0, z: .0223965198, w: .999749184}
        inSlope: {x: 0, y: 0, z: -.0623608269, w: .00204598811}
        outSlope: {x: 0, y: 0, z: -.0479910821, w: .000691116496}
        tangentMode: -559038737
      - time: 4.66666651
        value: {x: 0, y: 0, z: .00639950717, w: .999979556}
        inSlope: {x: 0, y: 0, z: -.0479910821, w: .000691116496}
        outSlope: {x: 0, y: 0, z: -.0192560516, w: 6.15176905e-05}
        tangentMode: -559038737
      - time: 4.99900007
        value: {x: 0, y: 0, z: 7.49014077e-08, w: 1}
        inSlope: {x: 0, y: 0, z: -.0192560516, w: 6.15176905e-05}
        outSlope: {x: 0, y: 0, z: -7.49068349e-05, w: 0}
        tangentMode: -559038737
      - time: 5
        value: {x: 0, y: 0, z: 0, w: 1}
        inSlope: {x: 0, y: 0, z: -7.49068349e-05, w: 0}
        outSlope: {x: 0, y: 0, z: 6.47690613e-05, w: 0}
        tangentMode: -559038737
      - time: 5.00099993
        value: {x: 0, y: 0, z: 6.47643645e-08, w: 1}
        inSlope: {x: 0, y: 0, z: 6.47690613e-05, w: 0}
        outSlope: {x: 0, y: 0, z: .0192560684, w: -6.15176905e-05}
        tangentMode: -559038737
      - time: 5.33333349
        value: {x: 0, y: 0, z: .00639950251, w: .999979556}
        inSlope: {x: 0, y: 0, z: .0192560684, w: -6.15176905e-05}
        outSlope: {x: 0, y: 0, z: .0479910709, w: -.000691116496}
        tangentMode: -559038737
      - time: 5.66666651
        value: {x: 0, y: 0, z: .0223965105, w: .999749184}
        inSlope: {x: 0, y: 0, z: .0479910709, w: -.000691116496}
        outSlope: {x: 0, y: 0, z: .0623608343, w: -.00204598811}
        tangentMode: -559038737
      - time: 6
        value: {x: 0, y: 0, z: .0431834646, w: .999067187}
        inSlope: {x: 0, y: 0, z: .0623608343, w: -.00204598811}
        outSlope: {x: 0, y: 0, z: .0623047911, w: -.00334256724}
        tangentMode: -559038737
      - time: 6.33333349
        value: {x: 0, y: 0, z: .0639517382, w: .997952998}
        inSlope: {x: 0, y: 0, z: .0623047911, w: -.00334256724}
        outSlope: {x: 0, y: 0, z: .0478717312, w: -.00345236389}
        tangentMode: -559038737
      - time: 6.66666651
        value: {x: 0, y: 0, z: .079908967, w: .996802211}
        inSlope: {x: 0, y: 0, z: .0478717312, w: -.00345236389}
        outSlope: {x: 0, y: 0, z: .0191895515, w: -.00160017738}
        tangentMode: -559038737
      - time: 6.99900007
        value: {x: 0, y: 0, z: .0862862989, w: .996270418}
        inSlope: {x: 0, y: 0, z: .0191895515, w: -.00160017738}
        outSlope: {x: 0, y: 0, z: 7.45112047e-05, w: 0}
        tangentMode: -559038737
      - time: 7
        value: {x: 0, y: 0, z: .0862863734, w: .996270418}
        inSlope: {x: 0, y: 0, z: 7.45112047e-05, w: 0}
        outSlope: {x: 0, y: 0, z: -6.70600857e-05, w: 0}
        tangentMode: -559038737
      - time: 7.00099993
        value: {x: 0, y: 0, z: .0862863064, w: .996270418}
        inSlope: {x: 0, y: 0, z: -6.70600857e-05, w: 0}
        outSlope: {x: 0, y: 0, z: -.0191895515, w: .00160017738}
        tangentMode: -559038737
      - time: 7.33333349
        value: {x: 0, y: 0, z: .0799089745, w: .996802211}
        inSlope: {x: 0, y: 0, z: -.0191895515, w: .00160017738}
        outSlope: {x: 0, y: 0, z: -.0478717312, w: .00345236389}
        tangentMode: -559038737
      - time: 7.66666651
        value: {x: 0, y: 0, z: .0639517456, w: .997952998}
        inSlope: {x: 0, y: 0, z: -.0478717312, w: .00345236389}
        outSlope: {x: 0, y: 0, z: -.0623047911, w: .00334256724}
        tangentMode: -559038737
      - time: 8
        value: {x: 0, y: 0, z: .043183472, w: .999067187}
        inSlope: {x: 0, y: 0, z: -.0623047911, w: .00334256724}
        outSlope: {x: 0, y: 0, z: -.062360853, w: .0020459909}
        tangentMode: -559038737
      - time: 8.33333302
        value: {x: 0, y: 0, z: .0223965403, w: .999749184}
        inSlope: {x: 0, y: 0, z: -.062360853, w: .0020459909}
        outSlope: {x: 0, y: 0, z: -.047991056, w: .000691114517}
        tangentMode: -559038737
      - time: 8.66666698
        value: {x: 0, y: 0, z: .00639949087, w: .999979556}
        inSlope: {x: 0, y: 0, z: -.047991056, w: .000691114517}
        outSlope: {x: 0, y: 0, z: -.0192560833, w: 6.15178651e-05}
        tangentMode: -559038737
      - time: 8.9989996
        value: {x: 0, y: 0, z: 6.65790267e-08, w: 1}
        inSlope: {x: 0, y: 0, z: -.0192560833, w: 6.15178651e-05}
        outSlope: {x: 0, y: 0, z: -6.65521147e-05, w: 0}
        tangentMode: -559038737
      - time: 9
        value: {x: 0, y: 0, z: 0, w: 1}
        inSlope: {x: 0, y: 0, z: -6.65521147e-05, w: 0}
        outSlope: {x: 0, y: 0, z: 6.47999332e-05, w: 0}
        tangentMode: -559038737
      - time: 9.0010004
        value: {x: 0, y: 0, z: 6.4826132e-08, w: 1}
        inSlope: {x: 0, y: 0, z: 6.47999332e-05, w: 0}
        outSlope: {x: 0, y: 0, z: .0192560721, w: -6.15178651e-05}
        tangentMode: -559038737
      - time: 9.33333302
        value: {x: 0, y: 0, z: .00639948528, w: .999979556}
        inSlope: {x: 0, y: 0, z: .0192560721, w: -6.15178651e-05}
        outSlope: {x: 0, y: 0, z: .0479910672, w: -.000691114517}
        tangentMode: -559038737
      - time: 9.66666698
        value: {x: 0, y: 0, z: .0223965384, w: .999749184}
        inSlope: {x: 0, y: 0, z: .0479910672, w: -.000691114517}
        outSlope: {x: 0, y: 0, z: .0623608381, w: -.0020459909}
        tangentMode: -559038737
      - time: 10
        value: {x: 0, y: 0, z: .0431834646, w: .999067187}
        inSlope: {x: 0, y: 0, z: .0623608381, w: -.0020459909}
        outSlope: {x: 0, y: 0, z: .0623048134, w: -.00334257213}
        tangentMode: -559038737
      - time: 10.333333
        value: {x: 0, y: 0, z: .0639517158, w: .997952998}
        inSlope: {x: 0, y: 0, z: .0623048134, w: -.00334257213}
        outSlope: {x: 0, y: 0, z: .0478717051, w: -.00345235411}
        tangentMode: -559038737
      - time: 10.666667
        value: {x: 0, y: 0, z: .0799089819, w: .996802211}
        inSlope: {x: 0, y: 0, z: .0478717051, w: -.00345235411}
        outSlope: {x: 0, y: 0, z: .0191895831, w: -.00160018192}
        tangentMode: -559038737
      - time: 10.9989996
        value: {x: 0, y: 0, z: .0862863064, w: .996270418}
        inSlope: {x: 0, y: 0, z: .0191895831, w: -.00160018192}
        outSlope: {x: 0, y: 0, z: 0, w: 0}
        tangentMode: -559038737
      - time: 11
        value: {x: 0, y: 0, z: .0862863734, w: .996270418}
        inSlope: {x: 0, y: 0, z: 6.70281224e-05, w: 0}
        outSlope: {x: 0, y: 0, z: 0, w: 0}
        tangentMode: -559038737
      - time: 11.0010004
        value: {x: 0, y: 0, z: .0862863511, w: .996270418}
        inSlope: {x: 0, y: 0, z: -2.23427069e-05, w: 0}
        outSlope: {x: 0, y: 0, z: 0, w: 0}
        tangentMode: -559038737
      - time: 11.333333
        value: {x: 0, y: 0, z: .0833343044, w: .996521652}
        inSlope: {x: 0, y: 0, z: -.00888280757, w: .000755970308}
        outSlope: {x: 0, y: 0, z: 0, w: 0}
        tangentMode: -559038737
      - time: 11.666667
        value: {x: 0, y: 0, z: .0754191875, w: .997151911}
        inSlope: {x: 0, y: 0, z: -.0237453058, w: .00189077493}
        outSlope: {x: 0, y: 0, z: 0, w: 0}
        tangentMode: -559038737
      - time: 12
        value: {x: 0, y: 0, z: .0639517382, w: .997952998}
        inSlope: {x: 0, y: 0, z: -.0344023816, w: .00240326161}
        outSlope: {x: 0, y: 0, z: 0, w: 0}
        tangentMode: -559038737
      - time: 12.333333
        value: {x: 0, y: 0, z: .050345473, w: .998731852}
        inSlope: {x: 0, y: 0, z: -.0408188328, w: .00233656401}
        outSlope: {x: 0, y: 0, z: 0, w: 0}
        tangentMode: -559038737
      - time: 12.666667
        value: {x: 0, y: 0, z: .0360192321, w: .999351084}
        inSlope: {x: 0, y: 0, z: -.0429786406, w: .00185769447}
        outSlope: {x: 0, y: 0, z: 0, w: 0}
        tangentMode: -559038737
      - time: 13
        value: {x: 0, y: 0, z: .0223965198, w: .999749184}
        inSlope: {x: 0, y: 0, z: -.0408681743, w: .00119429943}
        outSlope: {x: 0, y: 0, z: 0, w: 0}
        tangentMode: -559038737
      - time: 13.333333
        value: {x: 0, y: 0, z: .0109027158, w: .999940574}
        inSlope: {x: 0, y: 0, z: -.0344814435, w: .000574172067}
        outSlope: {x: 0, y: 0, z: 0, w: 0}
        tangentMode: -559038737
      - time: 13.666667
        value: {x: 0, y: 0, z: .00296272896, w: .999995589}
        inSlope: {x: 0, y: 0, z: -.023819916, w: .000165044941}
        outSlope: {x: 0, y: 0, z: 0, w: 0}
        tangentMode: -559038737
      - time: 13.9989996
        value: {x: 0, y: 0, z: 2.49671359e-08, w: 1}
        inSlope: {x: 0, y: 0, z: -.0089148758, w: 1.32720761e-05}
        outSlope: {x: 0, y: 0, z: 0, w: 0}
        tangentMode: -559038737
      - time: 14
        value: {x: 0, y: 0, z: 0, w: 1}
        inSlope: {x: 0, y: 0, z: -2.49570439e-05, w: 0}
        outSlope: {x: 0, y: 0, z: 0, w: 0}
        tangentMode: -559038737
      m_PreInfinity: 2
      m_PostInfinity: 2
    path: Root/Head
  - curve:
      serializedVersion: 2
      m_Curve:
      - time: 0
        value: {x: 0, y: 0, z: 0, w: 1}
        inSlope: {x: 0, y: 0, z: 0, w: 0}
        outSlope: {x: 0, y: 0, z: 0, w: 0}
        tangentMode: -559038737
      - time: .00100000005
        value: {x: 0, y: 0, z: 0, w: 1}
        inSlope: {x: 0, y: 0, z: 0, w: 0}
        outSlope: {x: 0, y: 0, z: 0, w: 0}
        tangentMode: -559038737
      - time: 2
        value: {x: 0, y: 0, z: 0, w: 1}
        inSlope: {x: 0, y: 0, z: 0, w: 0}
        outSlope: {x: 0, y: 0, z: 0, w: 0}
        tangentMode: -559038737
      - time: 4
        value: {x: 0, y: 0, z: 0, w: 1}
        inSlope: {x: 0, y: 0, z: 0, w: 0}
        outSlope: {x: 0, y: 0, z: 0, w: 0}
        tangentMode: -559038737
      - time: 6
        value: {x: 0, y: 0, z: 0, w: 1}
        inSlope: {x: 0, y: 0, z: 0, w: 0}
        outSlope: {x: 0, y: 0, z: 0, w: 0}
        tangentMode: -559038737
      - time: 8
        value: {x: 0, y: 0, z: 0, w: 1}
        inSlope: {x: 0, y: 0, z: 0, w: 0}
        outSlope: {x: 0, y: 0, z: 0, w: 0}
        tangentMode: -559038737
      - time: 10
        value: {x: 0, y: 0, z: 0, w: 1}
        inSlope: {x: 0, y: 0, z: 0, w: 0}
        outSlope: {x: 0, y: 0, z: 0, w: 0}
        tangentMode: -559038737
      - time: 12
        value: {x: 0, y: 0, z: 0, w: 1}
        inSlope: {x: 0, y: 0, z: 0, w: 0}
        outSlope: {x: 0, y: 0, z: 0, w: 0}
        tangentMode: -559038737
      - time: 13.9989996
        value: {x: 0, y: 0, z: 0, w: 1}
        inSlope: {x: 0, y: 0, z: 0, w: 0}
        outSlope: {x: 0, y: 0, z: 0, w: 0}
        tangentMode: -559038737
      - time: 14
        value: {x: 0, y: 0, z: 0, w: 1}
        inSlope: {x: 0, y: 0, z: 0, w: 0}
        outSlope: {x: 0, y: 0, z: 0, w: 0}
        tangentMode: -559038737
      m_PreInfinity: 2
      m_PostInfinity: 2
    path: Root/Head/Hair
  - curve:
      serializedVersion: 2
      m_Curve:
      - time: 0
        value: {x: 0, y: 0, z: 0, w: 1}
        inSlope: {x: 0, y: 0, z: 0, w: 0}
        outSlope: {x: 0, y: 0, z: 0, w: 0}
        tangentMode: 0
      - time: .00100000005
        value: {x: 0, y: 0, z: 0, w: 1}
        inSlope: {x: 0, y: 0, z: 0, w: 0}
        outSlope: {x: 0, y: 0, z: 0, w: 0}
        tangentMode: -559038737
      - time: 2
        value: {x: 0, y: 0, z: 0, w: 1}
        inSlope: {x: 0, y: 0, z: 0, w: 0}
        outSlope: {x: 0, y: 0, z: 0, w: 0}
        tangentMode: -559038737
      - time: 4
        value: {x: 0, y: 0, z: 0, w: 1}
        inSlope: {x: 0, y: 0, z: 0, w: 0}
        outSlope: {x: 0, y: 0, z: 0, w: 0}
        tangentMode: -542900206
      - time: 6
        value: {x: 0, y: 0, z: 0, w: 1}
        inSlope: {x: 0, y: 0, z: 0, w: 0}
        outSlope: {x: 0, y: 0, z: 0, w: 0}
        tangentMode: -559038737
      - time: 8
        value: {x: 0, y: 0, z: 0, w: 1}
        inSlope: {x: 0, y: 0, z: 0, w: 0}
        outSlope: {x: 0, y: 0, z: 0, w: 0}
        tangentMode: -559038737
      - time: 10
        value: {x: 0, y: 0, z: 0, w: 1}
        inSlope: {x: 0, y: 0, z: 0, w: 0}
        outSlope: {x: 0, y: 0, z: 0, w: 0}
        tangentMode: -559038737
      - time: 12
        value: {x: 0, y: 0, z: 0, w: 1}
        inSlope: {x: 0, y: 0, z: 0, w: 0}
        outSlope: {x: 0, y: 0, z: 0, w: 0}
        tangentMode: 1
      - time: 13.9989996
        value: {x: 0, y: 0, z: 0, w: 1}
        inSlope: {x: 0, y: 0, z: 0, w: 0}
        outSlope: {x: 0, y: 0, z: 0, w: 0}
        tangentMode: -559038737
      - time: 14
        value: {x: 0, y: 0, z: 0, w: 1}
        inSlope: {x: 0, y: 0, z: 0, w: 0}
        outSlope: {x: 0, y: 0, z: 0, w: 0}
        tangentMode: -559038737
      m_PreInfinity: 2
      m_PostInfinity: 2
    path: Root/Head/Face
  - curve:
      serializedVersion: 2
      m_Curve:
      - time: 0
        value: {x: 0, y: 0, z: 0, w: 1}
        inSlope: {x: 0, y: 0, z: 0, w: 0}
        outSlope: {x: 0, y: 0, z: 0, w: 0}
        tangentMode: -559038737
      - time: .00100000005
        value: {x: 0, y: 0, z: 0, w: 1}
        inSlope: {x: 0, y: 0, z: 0, w: 0}
        outSlope: {x: 0, y: 0, z: 0, w: 0}
        tangentMode: -559038737
      - time: 2.28571439
        value: {x: 0, y: 0, z: 0, w: 1}
        inSlope: {x: 0, y: 0, z: 0, w: 0}
        outSlope: {x: 0, y: 0, z: 0, w: 0}
        tangentMode: 0
      - time: 4.57142878
        value: {x: 0, y: 0, z: 0, w: 1}
        inSlope: {x: 0, y: 0, z: 0, w: 0}
        outSlope: {x: 0, y: 0, z: 0, w: 0}
        tangentMode: 1402794000
      - time: 6.85714293
        value: {x: 0, y: 0, z: 0, w: 1}
        inSlope: {x: 0, y: 0, z: 0, w: 0}
        outSlope: {x: 0, y: 0, z: 0, w: 0}
        tangentMode: 207
      - time: 9.14285755
        value: {x: 0, y: 0, z: 0, w: 1}
        inSlope: {x: 0, y: 0, z: 0, w: 0}
        outSlope: {x: 0, y: 0, z: 0, w: 0}
        tangentMode: -559038737
      - time: 11.4285717
        value: {x: 0, y: 0, z: 0, w: 1}
        inSlope: {x: 0, y: 0, z: 0, w: 0}
        outSlope: {x: 0, y: 0, z: 0, w: 0}
        tangentMode: -559038737
      - time: 13.7142859
        value: {x: 0, y: 0, z: 0, w: 1}
        inSlope: {x: 0, y: 0, z: 0, w: 0}
        outSlope: {x: 0, y: 0, z: 0, w: 0}
        tangentMode: -559038737
      - time: 15.9989996
        value: {x: 0, y: 0, z: 0, w: 1}
        inSlope: {x: 0, y: 0, z: 0, w: 0}
        outSlope: {x: 0, y: 0, z: 0, w: 0}
        tangentMode: 0
      - time: 16
        value: {x: 0, y: 0, z: 0, w: 1}
        inSlope: {x: 0, y: 0, z: 0, w: 0}
        outSlope: {x: 0, y: 0, z: 0, w: 0}
        tangentMode: -559038737
      m_PreInfinity: 2
      m_PostInfinity: 2
    path: Root/RightLeg
  - curve:
      serializedVersion: 2
      m_Curve:
      - time: 0
        value: {x: 0, y: 0, z: 0, w: 1}
        inSlope: {x: 0, y: 0, z: 0, w: 0}
        outSlope: {x: 0, y: 0, z: 0, w: 0}
        tangentMode: 0
      - time: .00100000005
        value: {x: 0, y: 0, z: 0, w: 1}
        inSlope: {x: 0, y: 0, z: 0, w: 0}
        outSlope: {x: 0, y: 0, z: 0, w: 0}
        tangentMode: -559038737
      - time: 2.28571439
        value: {x: 0, y: 0, z: 0, w: 1}
        inSlope: {x: 0, y: 0, z: 0, w: 0}
        outSlope: {x: 0, y: 0, z: 0, w: 0}
        tangentMode: -559038737
      - time: 4.57142878
        value: {x: 0, y: 0, z: 0, w: 1}
        inSlope: {x: 0, y: 0, z: 0, w: 0}
        outSlope: {x: 0, y: 0, z: 0, w: 0}
        tangentMode: -559038737
      - time: 6.85714293
        value: {x: 0, y: 0, z: 0, w: 1}
        inSlope: {x: 0, y: 0, z: 0, w: 0}
        outSlope: {x: 0, y: 0, z: 0, w: 0}
        tangentMode: -559038737
      - time: 9.14285755
        value: {x: 0, y: 0, z: 0, w: 1}
        inSlope: {x: 0, y: 0, z: 0, w: 0}
        outSlope: {x: 0, y: 0, z: 0, w: 0}
        tangentMode: -559038737
      - time: 11.4285717
        value: {x: 0, y: 0, z: 0, w: 1}
        inSlope: {x: 0, y: 0, z: 0, w: 0}
        outSlope: {x: 0, y: 0, z: 0, w: 0}
        tangentMode: 1402794000
      - time: 13.7142859
        value: {x: 0, y: 0, z: 0, w: 1}
        inSlope: {x: 0, y: 0, z: 0, w: 0}
        outSlope: {x: 0, y: 0, z: 0, w: 0}
        tangentMode: -542900206
      - time: 15.9989996
        value: {x: 0, y: 0, z: 0, w: 1}
        inSlope: {x: 0, y: 0, z: 0, w: 0}
        outSlope: {x: 0, y: 0, z: 0, w: 0}
        tangentMode: -559038737
      - time: 16
        value: {x: 0, y: 0, z: 0, w: 1}
        inSlope: {x: 0, y: 0, z: 0, w: 0}
        outSlope: {x: 0, y: 0, z: 0, w: 0}
        tangentMode: -559038737
      m_PreInfinity: 2
      m_PostInfinity: 2
    path: Root/LeftLeg
  m_CompressedRotationCurves: []
  m_PositionCurves:
  - curve:
      serializedVersion: 2
      m_Curve:
      - time: 0
        value: {x: 19, y: -9, z: 0}
        inSlope: {x: 0, y: 0, z: 0}
        outSlope: {x: 0, y: 0, z: 0}
        tangentMode: -559038737
      - time: 16
        value: {x: 19, y: -9, z: 0}
        inSlope: {x: 0, y: 0, z: 0}
        outSlope: {x: 0, y: 0, z: 0}
        tangentMode: 12
      m_PreInfinity: 2
      m_PostInfinity: 2
    path: Root
  - curve:
      serializedVersion: 2
      m_Curve:
      - time: 0
        value: {x: 16, y: 560, z: 0}
        inSlope: {x: 0, y: 0, z: 0}
        outSlope: {x: 0, y: 0, z: 0}
        tangentMode: -559038737
      - time: 14
        value: {x: 16, y: 560, z: 0}
        inSlope: {x: 0, y: 0, z: 0}
        outSlope: {x: 0, y: 0, z: 0}
        tangentMode: -559038737
      m_PreInfinity: 2
      m_PostInfinity: 2
    path: Root/Body
  - curve:
      serializedVersion: 2
      m_Curve:
      - time: 0
        value: {x: -55, y: 40, z: 0}
        inSlope: {x: 0, y: 0, z: 0}
        outSlope: {x: 0, y: 0, z: 0}
        tangentMode: -559038737
      - time: 14
        value: {x: -55, y: 40, z: 0}
        inSlope: {x: 0, y: 0, z: 0}
        outSlope: {x: 0, y: 0, z: 0}
        tangentMode: -559038737
      m_PreInfinity: 2
      m_PostInfinity: 2
    path: Root/Body/TorsoCostume
  - curve:
      serializedVersion: 2
      m_Curve:
      - time: 0
        value: {x: -139, y: 758, z: 0}
        inSlope: {x: 0, y: 0, z: 0}
        outSlope: {x: 0, y: 0, z: 0}
        tangentMode: -559038737
      - time: 7
        value: {x: -139, y: 752.637817, z: 0}
        inSlope: {x: 0, y: 0, z: 0}
        outSlope: {x: 0, y: 0, z: 0}
        tangentMode: 0
      - time: 14
        value: {x: -139, y: 758, z: 0}
        inSlope: {x: 0, y: 0, z: 0}
        outSlope: {x: 0, y: 0, z: 0}
        tangentMode: -559038737
      m_PreInfinity: 2
      m_PostInfinity: 2
    path: Root/LeftArm
  - curve:
      serializedVersion: 2
      m_Curve:
      - time: 0
        value: {x: -318, y: -20, z: 0}
        inSlope: {x: 0, y: 0, z: 0}
        outSlope: {x: 0, y: 0, z: 0}
        tangentMode: -559038737
      - time: 14
        value: {x: -318, y: -20, z: 0}
        inSlope: {x: 0, y: 0, z: 0}
        outSlope: {x: 0, y: 0, z: 0}
        tangentMode: -559038737
      m_PreInfinity: 2
      m_PostInfinity: 2
    path: Root/LeftArm/LeftHand
  - curve:
      serializedVersion: 2
      m_Curve:
      - time: 0
        value: {x: 171, y: 786, z: 0}
        inSlope: {x: 0, y: 0, z: 0}
        outSlope: {x: 0, y: 0, z: 0}
        tangentMode: 1223
      - time: 7
        value: {x: 175, y: 774, z: 0}
        inSlope: {x: 0, y: 0, z: 0}
        outSlope: {x: 0, y: 0, z: 0}
        tangentMode: -559038737
      - time: 14
        value: {x: 171, y: 786, z: 0}
        inSlope: {x: 0, y: 0, z: 0}
        outSlope: {x: 0, y: 0, z: 0}
        tangentMode: -559038737
      m_PreInfinity: 2
      m_PostInfinity: 2
    path: Root/RightArm
  - curve:
      serializedVersion: 2
      m_Curve:
      - time: 0
        value: {x: 303, y: 26, z: 0}
        inSlope: {x: 0, y: 0, z: 0}
        outSlope: {x: 0, y: 0, z: 0}
        tangentMode: -559038737
      - time: 14
        value: {x: 303, y: 26, z: 0}
        inSlope: {x: 0, y: 0, z: 0}
        outSlope: {x: 0, y: 0, z: 0}
        tangentMode: -559038737
      m_PreInfinity: 2
      m_PostInfinity: 2
    path: Root/RightArm/RightHand
  - curve:
      serializedVersion: 2
      m_Curve:
      - time: 0
        value: {x: 50, y: 1157, z: 0}
        inSlope: {x: 0, y: 0, z: 0}
        outSlope: {x: 0, y: 0, z: 0}
        tangentMode: 1083956234
      - time: 3
        value: {x: 20, y: 1144, z: 0}
        inSlope: {x: 0, y: 0, z: 0}
        outSlope: {x: 0, y: 0, z: 0}
        tangentMode: 0
      - time: 5
        value: {x: 20, y: 1144, z: 0}
        inSlope: {x: 0, y: 0, z: 0}
        outSlope: {x: 0, y: 0, z: 0}
        tangentMode: 0
      - time: 7
        value: {x: 20, y: 1144, z: 0}
        inSlope: {x: 11.2406263, y: 4.87061024, z: 0}
        outSlope: {x: 11.2406263, y: 4.87061024, z: 0}
        tangentMode: 0
      - time: 9
        value: {x: 20, y: 1144, z: 0}
        inSlope: {x: 0, y: 0, z: 0}
        outSlope: {x: 0, y: 0, z: 0}
        tangentMode: 115
      - time: 11
        value: {x: 20, y: 1144, z: 0}
        inSlope: {x: 11.2406111, y: 4.87058687, z: 0}
        outSlope: {x: 11.2406111, y: 4.87058687, z: 0}
        tangentMode: 1065353216
      - time: 14
        value: {x: 50, y: 1157, z: 0}
        inSlope: {x: 0, y: 0, z: 0}
        outSlope: {x: 0, y: 0, z: 0}
        tangentMode: 0
      m_PreInfinity: 2
      m_PostInfinity: 2
    path: Root/Head
  - curve:
      serializedVersion: 2
      m_Curve:
      - time: 0
        value: {x: -43.7169151, y: 0, z: 0}
        inSlope: {x: 0, y: 0, z: 0}
        outSlope: {x: 0, y: 0, z: 0}
        tangentMode: -559038737
      - time: 14
        value: {x: -43.7169151, y: 0, z: 0}
        inSlope: {x: 0, y: 0, z: 0}
        outSlope: {x: 0, y: 0, z: 0}
        tangentMode: -559038737
      m_PreInfinity: 2
      m_PostInfinity: 2
    path: Root/Head/Hair
  - curve:
      serializedVersion: 2
      m_Curve:
      - time: 0
        value: {x: 0, y: 0, z: 0}
        inSlope: {x: 0, y: 0, z: 0}
        outSlope: {x: 0, y: 0, z: 0}
        tangentMode: -559038737
      - time: 14
        value: {x: 0, y: 0, z: 0}
        inSlope: {x: 0, y: 0, z: 0}
        outSlope: {x: 0, y: 0, z: 0}
        tangentMode: 0
      m_PreInfinity: 2
      m_PostInfinity: 2
    path: Root/Head/Face
  - curve:
      serializedVersion: 2
      m_Curve:
      - time: 0
        value: {x: 96, y: 363, z: 0}
        inSlope: {x: 0, y: 0, z: 0}
        outSlope: {x: 0, y: 0, z: 0}
        tangentMode: 21
      - time: 16
        value: {x: 96, y: 363, z: 0}
        inSlope: {x: 0, y: 0, z: 0}
        outSlope: {x: 0, y: 0, z: 0}
        tangentMode: 8
      m_PreInfinity: 2
      m_PostInfinity: 2
    path: Root/RightLeg
  - curve:
      serializedVersion: 2
      m_Curve:
      - time: 0
        value: {x: -96, y: 363, z: 0}
        inSlope: {x: 0, y: 0, z: 0}
        outSlope: {x: 0, y: 0, z: 0}
        tangentMode: -559038737
      - time: 16
        value: {x: -96, y: 363, z: 0}
        inSlope: {x: 0, y: 0, z: 0}
        outSlope: {x: 0, y: 0, z: 0}
        tangentMode: -559038737
      m_PreInfinity: 2
      m_PostInfinity: 2
    path: Root/LeftLeg
  m_ScaleCurves:
  - curve:
      serializedVersion: 2
      m_Curve:
      - time: 0
        value: {x: .422408283, y: .422408283, z: 0}
        inSlope: {x: 0, y: 0, z: 0}
        outSlope: {x: 0, y: 0, z: 0}
        tangentMode: -559038737
      - time: 16
        value: {x: .422408283, y: .422408283, z: 0}
        inSlope: {x: 0, y: 0, z: 0}
        outSlope: {x: 0, y: 0, z: 0}
        tangentMode: -33686019
      m_PreInfinity: 2
      m_PostInfinity: 2
    path: Root
  - curve:
      serializedVersion: 2
      m_Curve:
      - time: 0
        value: {x: 1, y: 1, z: 1}
        inSlope: {x: 0, y: 0, z: 0}
        outSlope: {x: 0, y: 0, z: 0}
        tangentMode: -559038737
      - time: 7
        value: {x: 1.0433284, y: 1.0433284, z: 1}
        inSlope: {x: 0, y: 0, z: 0}
        outSlope: {x: 0, y: 0, z: 0}
        tangentMode: -559038737
      - time: 14
        value: {x: 1, y: 1, z: 1}
        inSlope: {x: 0, y: 0, z: 0}
        outSlope: {x: 0, y: 0, z: 0}
        tangentMode: 207
      m_PreInfinity: 2
      m_PostInfinity: 2
    path: Root/Body
  - curve:
      serializedVersion: 2
      m_Curve:
      - time: 0
        value: {x: 1, y: 1, z: 1}
        inSlope: {x: 0, y: 0, z: 0}
        outSlope: {x: 0, y: 0, z: 0}
        tangentMode: -559038737
      - time: 14
        value: {x: 1, y: 1, z: 1}
        inSlope: {x: 0, y: 0, z: 0}
        outSlope: {x: 0, y: 0, z: 0}
        tangentMode: -559038737
      m_PreInfinity: 2
      m_PostInfinity: 2
    path: Root/Body/Body_Sprite
  - curve:
      serializedVersion: 2
      m_Curve:
      - time: 0
        value: {x: 1, y: 1, z: 1}
        inSlope: {x: 0, y: 0, z: 0}
        outSlope: {x: 0, y: 0, z: 0}
        tangentMode: -559038737
      - time: 14
        value: {x: 1, y: 1, z: 1}
        inSlope: {x: 0, y: 0, z: 0}
        outSlope: {x: 0, y: 0, z: 0}
        tangentMode: -559038737
      m_PreInfinity: 2
      m_PostInfinity: 2
    path: Root/Body/TorsoCostume
  - curve:
      serializedVersion: 2
      m_Curve:
      - time: 0
        value: {x: 1, y: 1, z: 1}
        inSlope: {x: 0, y: 0, z: 0}
        outSlope: {x: 0, y: 0, z: 0}
        tangentMode: -559038737
      - time: 14
        value: {x: 1, y: 1, z: 1}
        inSlope: {x: 0, y: 0, z: 0}
        outSlope: {x: 0, y: 0, z: 0}
        tangentMode: -559038737
      m_PreInfinity: 2
      m_PostInfinity: 2
    path: Root/Body/TorsoCostume/TorsoCostume_Sprite
  - curve:
      serializedVersion: 2
      m_Curve:
      - time: 0
        value: {x: 1, y: 1, z: 1}
        inSlope: {x: 0, y: 0, z: 0}
        outSlope: {x: 0, y: 0, z: 0}
        tangentMode: -559038737
      - time: 14
        value: {x: 1, y: 1, z: 1}
        inSlope: {x: 0, y: 0, z: 0}
        outSlope: {x: 0, y: 0, z: 0}
        tangentMode: -559038737
      m_PreInfinity: 2
      m_PostInfinity: 2
    path: Root/LeftArm
  - curve:
      serializedVersion: 2
      m_Curve:
      - time: 0
        value: {x: 1, y: 1, z: 1}
        inSlope: {x: 0, y: 0, z: 0}
        outSlope: {x: 0, y: 0, z: 0}
        tangentMode: -559038737
      - time: 14
        value: {x: 1, y: 1, z: 1}
        inSlope: {x: 0, y: 0, z: 0}
        outSlope: {x: 0, y: 0, z: 0}
        tangentMode: -559038737
      m_PreInfinity: 2
      m_PostInfinity: 2
    path: Root/LeftArm/LeftArm_Sprite
  - curve:
      serializedVersion: 2
      m_Curve:
      - time: 0
        value: {x: 1, y: 1, z: 1}
        inSlope: {x: 0, y: 0, z: 0}
        outSlope: {x: 0, y: 0, z: 0}
        tangentMode: -33686019
      - time: 14
        value: {x: 1, y: 1, z: 1}
        inSlope: {x: 0, y: 0, z: 0}
        outSlope: {x: 0, y: 0, z: 0}
        tangentMode: -559038737
      m_PreInfinity: 2
      m_PostInfinity: 2
    path: Root/LeftArm/LeftHand
  - curve:
      serializedVersion: 2
      m_Curve:
      - time: 0
        value: {x: 1, y: 1, z: 1}
        inSlope: {x: 0, y: 0, z: 0}
        outSlope: {x: 0, y: 0, z: 0}
        tangentMode: -559038737
      - time: 14
        value: {x: 1, y: 1, z: 1}
        inSlope: {x: 0, y: 0, z: 0}
        outSlope: {x: 0, y: 0, z: 0}
        tangentMode: -559038737
      m_PreInfinity: 2
      m_PostInfinity: 2
    path: Root/LeftArm/LeftHand/LeftHand_Sprite
  - curve:
      serializedVersion: 2
      m_Curve:
      - time: 0
        value: {x: 1, y: 1, z: 1}
        inSlope: {x: 0, y: 0, z: 0}
        outSlope: {x: 0, y: 0, z: 0}
        tangentMode: 1403122932
      - time: 14
        value: {x: 1, y: 1, z: 1}
        inSlope: {x: 0, y: 0, z: 0}
        outSlope: {x: 0, y: 0, z: 0}
        tangentMode: -33686019
      m_PreInfinity: 2
      m_PostInfinity: 2
    path: Root/RightArm
  - curve:
      serializedVersion: 2
      m_Curve:
      - time: 0
        value: {x: 1, y: 1, z: 1}
        inSlope: {x: 0, y: 0, z: 0}
        outSlope: {x: 0, y: 0, z: 0}
        tangentMode: -559038737
      - time: 14
        value: {x: 1, y: 1, z: 1}
        inSlope: {x: 0, y: 0, z: 0}
        outSlope: {x: 0, y: 0, z: 0}
        tangentMode: -559038737
      m_PreInfinity: 2
      m_PostInfinity: 2
    path: Root/RightArm/RightArm_Sprite
  - curve:
      serializedVersion: 2
      m_Curve:
      - time: 0
        value: {x: 1, y: 1, z: 1}
        inSlope: {x: 0, y: 0, z: 0}
        outSlope: {x: 0, y: 0, z: 0}
        tangentMode: 32
      - time: 14
        value: {x: 1, y: 1, z: 1}
        inSlope: {x: 0, y: 0, z: 0}
        outSlope: {x: 0, y: 0, z: 0}
        tangentMode: 1403126436
      m_PreInfinity: 2
      m_PostInfinity: 2
    path: Root/RightArm/RightHand
  - curve:
      serializedVersion: 2
      m_Curve:
      - time: 0
        value: {x: 1, y: 1, z: 1}
        inSlope: {x: 0, y: 0, z: 0}
        outSlope: {x: 0, y: 0, z: 0}
        tangentMode: -559038737
      - time: 14
        value: {x: 1, y: 1, z: 1}
        inSlope: {x: 0, y: 0, z: 0}
        outSlope: {x: 0, y: 0, z: 0}
        tangentMode: -559038737
      m_PreInfinity: 2
      m_PostInfinity: 2
    path: Root/RightArm/RightHand/RightHand_Sprite
  - curve:
      serializedVersion: 2
      m_Curve:
      - time: 0
        value: {x: 1, y: 1, z: 1}
        inSlope: {x: 0, y: 0, z: 0}
        outSlope: {x: 0, y: 0, z: 0}
        tangentMode: -559038737
      - time: 5
        value: {x: 1, y: 1, z: 1}
        inSlope: {x: 0, y: 0, z: 0}
        outSlope: {x: 0, y: 0, z: 0}
        tangentMode: -559038737
      - time: 9
        value: {x: 1, y: 1, z: 1}
        inSlope: {x: 0, y: 0, z: 0}
        outSlope: {x: 0, y: 0, z: 0}
        tangentMode: -559038737
      - time: 14
        value: {x: 1, y: 1, z: 1}
        inSlope: {x: 0, y: 0, z: 0}
        outSlope: {x: 0, y: 0, z: 0}
        tangentMode: -542900206
      m_PreInfinity: 2
      m_PostInfinity: 2
    path: Root/Head
  - curve:
      serializedVersion: 2
      m_Curve:
      - time: 0
        value: {x: 1, y: 1, z: 1}
        inSlope: {x: 0, y: 0, z: 0}
        outSlope: {x: 0, y: 0, z: 0}
        tangentMode: 32
      - time: 5
        value: {x: 1, y: 1, z: 1}
        inSlope: {x: 0, y: 0, z: 0}
        outSlope: {x: 0, y: 0, z: 0}
        tangentMode: -559038737
      - time: 9
        value: {x: 1, y: 1, z: 1}
        inSlope: {x: 0, y: 0, z: 0}
        outSlope: {x: 0, y: 0, z: 0}
        tangentMode: -559038737
      - time: 14
        value: {x: 1, y: 1, z: 1}
        inSlope: {x: 0, y: 0, z: 0}
        outSlope: {x: 0, y: 0, z: 0}
        tangentMode: -542900206
      m_PreInfinity: 2
      m_PostInfinity: 2
    path: Root/Head/Head_Sprite
  - curve:
      serializedVersion: 2
      m_Curve:
      - time: 0
        value: {x: 1, y: 1, z: 1}
        inSlope: {x: 0, y: 0, z: 0}
        outSlope: {x: 0, y: 0, z: 0}
        tangentMode: -559038737
      - time: 14
        value: {x: 1, y: 1, z: 1}
        inSlope: {x: 0, y: 0, z: 0}
        outSlope: {x: 0, y: 0, z: 0}
        tangentMode: -559038737
      m_PreInfinity: 2
      m_PostInfinity: 2
    path: Root/Head/Hair
  - curve:
      serializedVersion: 2
      m_Curve:
      - time: 0
        value: {x: 1.5, y: 1.5, z: 1}
        inSlope: {x: 0, y: 0, z: 0}
        outSlope: {x: 0, y: 0, z: 0}
        tangentMode: -559038737
      - time: 14
        value: {x: 1.5, y: 1.5, z: 1}
        inSlope: {x: 0, y: 0, z: 0}
        outSlope: {x: 0, y: 0, z: 0}
        tangentMode: -559038737
      m_PreInfinity: 2
      m_PostInfinity: 2
    path: Root/Head/Hair/Hair_Sprite
  - curve:
      serializedVersion: 2
      m_Curve:
      - time: 0
        value: {x: 1, y: 1, z: 1}
        inSlope: {x: 0, y: 0, z: 0}
        outSlope: {x: 0, y: 0, z: 0}
        tangentMode: -559038737
      - time: 14
        value: {x: 1, y: 1, z: 1}
        inSlope: {x: 0, y: 0, z: 0}
        outSlope: {x: 0, y: 0, z: 0}
        tangentMode: -559038737
      m_PreInfinity: 2
      m_PostInfinity: 2
    path: Root/Head/Face
  - curve:
      serializedVersion: 2
      m_Curve:
      - time: 0
        value: {x: 1, y: 1, z: 1}
        inSlope: {x: 0, y: 0, z: 0}
        outSlope: {x: 0, y: 0, z: 0}
        tangentMode: -559038737
      - time: 14
        value: {x: 1, y: 1, z: 1}
        inSlope: {x: 0, y: 0, z: 0}
        outSlope: {x: 0, y: 0, z: 0}
        tangentMode: -559038737
      m_PreInfinity: 2
      m_PostInfinity: 2
    path: Root/Head/Face/Face_Sprite
  - curve:
      serializedVersion: 2
      m_Curve:
      - time: 0
        value: {x: 1, y: 1, z: 1}
        inSlope: {x: 0, y: 0, z: 0}
        outSlope: {x: 0, y: 0, z: 0}
        tangentMode: -559038737
      - time: 16
        value: {x: 1, y: 1, z: 1}
        inSlope: {x: 0, y: 0, z: 0}
        outSlope: {x: 0, y: 0, z: 0}
        tangentMode: -559038737
      m_PreInfinity: 2
      m_PostInfinity: 2
    path: Root/RightLeg
  - curve:
      serializedVersion: 2
      m_Curve:
      - time: 0
        value: {x: 1, y: 1, z: 1}
        inSlope: {x: 0, y: 0, z: 0}
        outSlope: {x: 0, y: 0, z: 0}
        tangentMode: 9
      - time: 16
        value: {x: 1, y: 1, z: 1}
        inSlope: {x: 0, y: 0, z: 0}
        outSlope: {x: 0, y: 0, z: 0}
        tangentMode: 1408320564
      m_PreInfinity: 2
      m_PostInfinity: 2
    path: Root/RightLeg/RightLeg_Sprite
  - curve:
      serializedVersion: 2
      m_Curve:
      - time: 0
        value: {x: 1, y: 1, z: 1}
        inSlope: {x: 0, y: 0, z: 0}
        outSlope: {x: 0, y: 0, z: 0}
        tangentMode: -559038737
      - time: 16
        value: {x: 1, y: 1, z: 1}
        inSlope: {x: 0, y: 0, z: 0}
        outSlope: {x: 0, y: 0, z: 0}
        tangentMode: -559038737
      m_PreInfinity: 2
      m_PostInfinity: 2
    path: Root/LeftLeg
  - curve:
      serializedVersion: 2
      m_Curve:
      - time: 0
        value: {x: 1, y: 1, z: 1}
        inSlope: {x: 0, y: 0, z: 0}
        outSlope: {x: 0, y: 0, z: 0}
        tangentMode: 21
      - time: 16
        value: {x: 1, y: 1, z: 1}
        inSlope: {x: 0, y: 0, z: 0}
        outSlope: {x: 0, y: 0, z: 0}
        tangentMode: 59
      m_PreInfinity: 2
      m_PostInfinity: 2
    path: Root/LeftLeg/LeftLeg_Sprite
  m_FloatCurves: []
  m_SampleRate: 60
  m_WrapMode: 2
  m_Bounds:
    m_Center: {x: 0, y: 0, z: 0}
    m_Extent: {x: 0, y: 0, z: 0}
  m_MuscleClipInfo:
    m_StartTime: 0
    m_StopTime: 1
    m_OrientationOffsetY: 0
    m_Level: 0
    m_CycleOffset: 0
    m_LoopBlend: 0
    m_LoopBlendOrientation: 0
    m_LoopBlendPositionY: 0
    m_LoopBlendPositionXZ: 0
    m_KeepOriginalOrientation: 0
    m_KeepOriginalPositionY: 1
    m_KeepOriginalPositionXZ: 0
    m_HeightFromFeet: 0
    m_Mirror: 0
  m_EditorCurves: []
  m_EulerEditorCurves: []
  m_Events:
  - time: 0
    functionName: AnimationEvent_Triggered
    data: 
    objectReferenceParameter: {fileID: 0}
    floatParameter: 0
    intParameter: 14
    messageOptions: 0
  - time: 5
    functionName: AnimationEvent_Triggered
    data: 
    objectReferenceParameter: {fileID: 0}
    floatParameter: 0
    intParameter: 15
    messageOptions: 0
  - time: 7
    functionName: AnimationEvent_Triggered
    data: 
    objectReferenceParameter: {fileID: 0}
    floatParameter: 0
    intParameter: 16
    messageOptions: 0
  - time: 8
    functionName: AnimationEvent_Triggered
    data: 
    objectReferenceParameter: {fileID: 0}
    floatParameter: 0
    intParameter: 17
    messageOptions: 0
  - time: 9
    functionName: AnimationEvent_Triggered
    data: 
    objectReferenceParameter: {fileID: 0}
    floatParameter: 0
    intParameter: 18
    messageOptions: 0
  - time: 14
    functionName: AnimationEvent_Triggered
    data: 
    objectReferenceParameter: {fileID: 0}
    floatParameter: 0
    intParameter: 19
    messageOptions: 0
  - time: 16
    functionName: AnimationEvent_Triggered
    data: 
    objectReferenceParameter: {fileID: 0}
    floatParameter: 0
    intParameter: 20
    messageOptions: 0
