%YAML 1.1
%TAG !u! tag:unity3d.com,2011:
--- !u!74 &7400000
AnimationClip:
  m_ObjectHideFlags: 0
  m_PrefabParentObject: {fileID: 0}
  m_PrefabInternal: {fileID: 0}
  m_Name: anim_Walk
  serializedVersion: 3
  m_AnimationType: 1
  m_Compressed: 0
  m_RotationCurves:
  - curve:
      serializedVersion: 2
      m_Curve:
      - time: 0
        value: {x: 0, y: 0, z: 0, w: 1}
        inSlope: {x: 0, y: 0, z: 0, w: 0}
        outSlope: {x: 0, y: 0, z: 0, w: 0}
        tangentMode: -559038737
      - time: .00100000005
        value: {x: 0, y: 0, z: 0, w: 1}
        inSlope: {x: 0, y: 0, z: 0, w: 0}
        outSlope: {x: 0, y: 0, z: 0, w: 0}
        tangentMode: 0
      - time: .571428597
        value: {x: 0, y: 0, z: 0, w: 1}
        inSlope: {x: 0, y: 0, z: 0, w: 0}
        outSlope: {x: 0, y: 0, z: 0, w: 0}
        tangentMode: -559038737
      - time: 1.14285719
        value: {x: 0, y: 0, z: 0, w: 1}
        inSlope: {x: 0, y: 0, z: 0, w: 0}
        outSlope: {x: 0, y: 0, z: 0, w: 0}
        tangentMode: 0
      - time: 1.71428573
        value: {x: 0, y: 0, z: 0, w: 1}
        inSlope: {x: 0, y: 0, z: 0, w: 0}
        outSlope: {x: 0, y: 0, z: 0, w: 0}
        tangentMode: -559038737
      - time: 2.28571439
        value: {x: 0, y: 0, z: 0, w: 1}
        inSlope: {x: 0, y: 0, z: 0, w: 0}
        outSlope: {x: 0, y: 0, z: 0, w: 0}
        tangentMode: 0
      - time: 2.85714293
        value: {x: 0, y: 0, z: 0, w: 1}
        inSlope: {x: 0, y: 0, z: 0, w: 0}
        outSlope: {x: 0, y: 0, z: 0, w: 0}
        tangentMode: -559038737
      - time: 3.42857146
        value: {x: 0, y: 0, z: 0, w: 1}
        inSlope: {x: 0, y: 0, z: 0, w: 0}
        outSlope: {x: 0, y: 0, z: 0, w: 0}
        tangentMode: 0
      - time: 3.99900007
        value: {x: 0, y: 0, z: 0, w: 1}
        inSlope: {x: 0, y: 0, z: 0, w: 0}
        outSlope: {x: 0, y: 0, z: 0, w: 0}
        tangentMode: -559038737
      - time: 4
        value: {x: 0, y: 0, z: 0, w: 1}
        inSlope: {x: 0, y: 0, z: 0, w: 0}
        outSlope: {x: 0, y: 0, z: 0, w: 0}
        tangentMode: -559038737
      m_PreInfinity: 2
      m_PostInfinity: 2
    path: Root
  - curve:
      serializedVersion: 2
      m_Curve:
      - time: 0
        value: {x: 0, y: 0, z: 0, w: 1}
        inSlope: {x: 0, y: 0, z: 0, w: 0}
        outSlope: {x: 0, y: 0, z: -3.92568154e-06, w: 0}
        tangentMode: -559038737
      - time: .00100000005
        value: {x: 0, y: 0, z: -3.92568156e-09, w: 1}
        inSlope: {x: 0, y: 0, z: -3.92568154e-06, w: 0}
        outSlope: {x: 0, y: 0, z: -.00101869204, w: -2.09348968e-07}
        tangentMode: -559038737
      - time: .285714298
        value: {x: 0, y: 0, z: -.00029004013, w: .99999994}
        inSlope: {x: 0, y: 0, z: -.00101869204, w: -2.09348968e-07}
        outSlope: {x: 0, y: 0, z: -.00261799269, w: -1.66892994e-06}
        tangentMode: -559038737
      - time: .571428597
        value: {x: 0, y: 0, z: -.00103803806, w: .999999464}
        inSlope: {x: 0, y: 0, z: -.00261799269, w: -1.66892994e-06}
        outSlope: {x: 0, y: 0, z: -.00357970153, w: -5.63263939e-06}
        tangentMode: -559038737
      - time: .857142866
        value: {x: 0, y: 0, z: -.00206080987, w: .999997854}
        inSlope: {x: 0, y: 0, z: -.00357970153, w: -5.63263939e-06}
        outSlope: {x: 0, y: 0, z: -.00390026206, w: -1.00135785e-05}
        tangentMode: -559038737
      - time: 1.14285719
        value: {x: 0, y: 0, z: -.00317517063, w: .999994993}
        inSlope: {x: 0, y: 0, z: -.00390026206, w: -1.00135785e-05}
        outSlope: {x: 0, y: 0, z: -.00357968244, w: -1.33514413e-05}
        tangentMode: -559038737
      - time: 1.42857146
        value: {x: 0, y: 0, z: -.00419793697, w: .999991179}
        inSlope: {x: 0, y: 0, z: -.00357968244, w: -1.33514413e-05}
        outSlope: {x: 0, y: 0, z: -.00261796638, w: -1.18911275e-05}
        tangentMode: -559038737
      - time: 1.71428573
        value: {x: 0, y: 0, z: -.0049459273, w: .999987781}
        inSlope: {x: 0, y: 0, z: -.00261796638, w: -1.18911275e-05}
        outSlope: {x: 0, y: 0, z: -.00101867598, w: -5.23372546e-06}
        tangentMode: -559038737
      - time: 1.99899995
        value: {x: 0, y: 0, z: -.00523595884, w: .999986291}
        inSlope: {x: 0, y: 0, z: -.00101867598, w: -5.23372546e-06}
        outSlope: {x: 0, y: 0, z: -4.19075559e-06, w: 0}
        tangentMode: -559038737
      - time: 2
        value: {x: 0, y: 0, z: -.00523596304, w: .999986291}
        inSlope: {x: 0, y: 0, z: -4.19075559e-06, w: 0}
        outSlope: {x: 0, y: 0, z: 4.19125536e-06, w: 0}
        tangentMode: -559038737
      - time: 2.00099993
        value: {x: 0, y: 0, z: -.00523595884, w: .999986291}
        inSlope: {x: 0, y: 0, z: 4.19125536e-06, w: 0}
        outSlope: {x: 0, y: 0, z: .00101867679, w: 5.23372137e-06}
        tangentMode: -559038737
      - time: 2.28571439
        value: {x: 0, y: 0, z: -.00494592683, w: .999987781}
        inSlope: {x: 0, y: 0, z: .00101867679, w: 5.23372137e-06}
        outSlope: {x: 0, y: 0, z: .00261796569, w: 1.18911321e-05}
        tangentMode: -559038737
      - time: 2.57142854
        value: {x: 0, y: 0, z: -.00419793697, w: .999991179}
        inSlope: {x: 0, y: 0, z: .00261796569, w: 1.18911321e-05}
        outSlope: {x: 0, y: 0, z: .00357968267, w: 1.33514359e-05}
        tangentMode: -559038737
      - time: 2.85714293
        value: {x: 0, y: 0, z: -.00317517016, w: .999994993}
        inSlope: {x: 0, y: 0, z: .00357968267, w: 1.33514359e-05}
        outSlope: {x: 0, y: 0, z: .00390026276, w: 1.00135849e-05}
        tangentMode: -559038737
      - time: 3.14285707
        value: {x: 0, y: 0, z: -.00206080987, w: .999997854}
        inSlope: {x: 0, y: 0, z: .00390026276, w: 1.00135849e-05}
        outSlope: {x: 0, y: 0, z: 0, w: 0}
        tangentMode: -559038737
      - time: 3.42857146
        value: {x: 0, y: 0, z: -.00103803782, w: .999999464}
        inSlope: {x: 0, y: 0, z: .00357970083, w: 5.63263711e-06}
        outSlope: {x: 0, y: 0, z: 0, w: 0}
        tangentMode: -559038737
      - time: 3.71428561
        value: {x: 0, y: 0, z: -.000290040596, w: .99999994}
        inSlope: {x: 0, y: 0, z: .00261799153, w: 1.66893085e-06}
        outSlope: {x: 0, y: 0, z: 0, w: 0}
        tangentMode: -559038737
      - time: 3.99900007
        value: {x: 0, y: 0, z: -3.64104058e-09, w: 1}
        inSlope: {x: 0, y: 0, z: .00101869414, w: 2.09348855e-07}
        outSlope: {x: 0, y: 0, z: 0, w: 0}
        tangentMode: -559038737
      - time: 4
        value: {x: 0, y: 0, z: 0, w: 1}
        inSlope: {x: 0, y: 0, z: 3.6413046e-06, w: 0}
        outSlope: {x: 0, y: 0, z: 0, w: 0}
        tangentMode: -559038737
      m_PreInfinity: 2
      m_PostInfinity: 2
    path: Root/Body
  - curve:
      serializedVersion: 2
      m_Curve:
      - time: 0
        value: {x: 0, y: 0, z: 0, w: 1}
        inSlope: {x: 0, y: 0, z: 0, w: 0}
        outSlope: {x: 0, y: 0, z: 0, w: 0}
        tangentMode: -559038737
      - time: .00100000005
        value: {x: 0, y: 0, z: 0, w: 1}
        inSlope: {x: 0, y: 0, z: 0, w: 0}
        outSlope: {x: 0, y: 0, z: 0, w: 0}
        tangentMode: -559038737
      - time: .571428597
        value: {x: 0, y: 0, z: 0, w: 1}
        inSlope: {x: 0, y: 0, z: 0, w: 0}
        outSlope: {x: 0, y: 0, z: 0, w: 0}
        tangentMode: -559038737
      - time: 1.14285719
        value: {x: 0, y: 0, z: 0, w: 1}
        inSlope: {x: 0, y: 0, z: 0, w: 0}
        outSlope: {x: 0, y: 0, z: 0, w: 0}
        tangentMode: -559038737
      - time: 1.71428573
        value: {x: 0, y: 0, z: 0, w: 1}
        inSlope: {x: 0, y: 0, z: 0, w: 0}
        outSlope: {x: 0, y: 0, z: 0, w: 0}
        tangentMode: -559038737
      - time: 2.28571439
        value: {x: 0, y: 0, z: 0, w: 1}
        inSlope: {x: 0, y: 0, z: 0, w: 0}
        outSlope: {x: 0, y: 0, z: 0, w: 0}
        tangentMode: -559038737
      - time: 2.85714293
        value: {x: 0, y: 0, z: 0, w: 1}
        inSlope: {x: 0, y: 0, z: 0, w: 0}
        outSlope: {x: 0, y: 0, z: 0, w: 0}
        tangentMode: 0
      - time: 3.42857146
        value: {x: 0, y: 0, z: 0, w: 1}
        inSlope: {x: 0, y: 0, z: 0, w: 0}
        outSlope: {x: 0, y: 0, z: 0, w: 0}
        tangentMode: -559038737
      - time: 3.99900007
        value: {x: 0, y: 0, z: 0, w: 1}
        inSlope: {x: 0, y: 0, z: 0, w: 0}
        outSlope: {x: 0, y: 0, z: 0, w: 0}
        tangentMode: -559038737
      - time: 4
        value: {x: 0, y: 0, z: 0, w: 1}
        inSlope: {x: 0, y: 0, z: 0, w: 0}
        outSlope: {x: 0, y: 0, z: 0, w: 0}
        tangentMode: -559038737
      m_PreInfinity: 2
      m_PostInfinity: 2
    path: Root/Body/TorsoCostume
  - curve:
      serializedVersion: 2
      m_Curve:
      - time: 0
        value: {x: 0, y: 0, z: .544639051, w: .838670552}
        inSlope: {x: 0, y: 0, z: 0, w: 0}
        outSlope: {x: 0, y: 0, z: 0, w: 0}
        tangentMode: -559038737
      - time: .00100000005
        value: {x: 0, y: 0, z: .544639051, w: .838670552}
        inSlope: {x: 0, y: 0, z: 0, w: 0}
        outSlope: {x: 0, y: 0, z: -.00216215616, w: .00140305678}
        tangentMode: -559038737
      - time: .285714298
        value: {x: 0, y: 0, z: .544023454, w: .839070022}
        inSlope: {x: 0, y: 0, z: -.00216215616, w: .00140305678}
        outSlope: {x: 0, y: 0, z: -.00588506414, w: .00380724645}
        tangentMode: -559038737
      - time: .571428597
        value: {x: 0, y: 0, z: .542342007, w: .840157807}
        inSlope: {x: 0, y: 0, z: -.00588506414, w: .00380724645}
        outSlope: {x: 0, y: 0, z: -.00874978397, w: .00562971877}
        tangentMode: -559038737
      - time: .857142866
        value: {x: 0, y: 0, z: .539842069, w: .841766298}
        inSlope: {x: 0, y: 0, z: -.00874978397, w: .00562971877}
        outSlope: {x: 0, y: 0, z: -.0107497852, w: .00686639454}
        tangentMode: -559038737
      - time: 1.14285719
        value: {x: 0, y: 0, z: .536770701, w: .843728125}
        inSlope: {x: 0, y: 0, z: -.0107497852, w: .00686639454}
        outSlope: {x: 0, y: 0, z: -.0118794451, w: .007524163}
        tangentMode: -559038737
      - time: 1.42857146
        value: {x: 0, y: 0, z: .533376575, w: .845877886}
        inSlope: {x: 0, y: 0, z: -.0118794451, w: .007524163}
        outSlope: {x: 0, y: 0, z: -.0121308276, w: .00761449384}
        tangentMode: -559038737
      - time: 1.71428573
        value: {x: 0, y: 0, z: .529910624, w: .848053455}
        inSlope: {x: 0, y: 0, z: -.0121308276, w: .00761449384}
        outSlope: {x: 0, y: 0, z: -.0114955911, w: .00715240883}
        tangentMode: -559038737
      - time: 2
        value: {x: 0, y: 0, z: .52662617, w: .850097001}
        inSlope: {x: 0, y: 0, z: -.0114955911, w: .00715240883}
        outSlope: {x: 0, y: 0, z: -.00996580347, w: .00615042215}
        tangentMode: -559038737
      - time: 2.28571439
        value: {x: 0, y: 0, z: .523778796, w: .851854265}
        inSlope: {x: 0, y: 0, z: -.00996580347, w: .00615042215}
        outSlope: {x: 0, y: 0, z: -.00753397122, w: .0046193921}
        tangentMode: -559038737
      - time: 2.57142854
        value: {x: 0, y: 0, z: .521626234, w: .85317409}
        inSlope: {x: 0, y: 0, z: -.00753397122, w: .0046193921}
        outSlope: {x: 0, y: 0, z: -.004198818, w: .0025630584}
        tangentMode: -559038737
      - time: 2.85714293
        value: {x: 0, y: 0, z: .520426571, w: .853906393}
        inSlope: {x: 0, y: 0, z: -.004198818, w: .0025630584}
        outSlope: {x: 0, y: 0, z: -.00114161195, w: .000695807685}
        tangentMode: -559038737
      - time: 2.99900007
        value: {x: 0, y: 0, z: .520264626, w: .854005098}
        inSlope: {x: 0, y: 0, z: -.00114161195, w: .000695807685}
        outSlope: {x: 0, y: 0, z: 0, w: 0}
        tangentMode: -559038737
      - time: 3.00099993
        value: {x: 0, y: 0, z: .520264626, w: .854005098}
        inSlope: {x: 0, y: 0, z: 0, w: 0}
        outSlope: {x: 0, y: 0, z: .00959844794, w: -.00585806184}
        tangentMode: -559038737
      - time: 3.14285707
        value: {x: 0, y: 0, z: .521626234, w: .85317409}
        inSlope: {x: 0, y: 0, z: .00959844794, w: -.00585806184}
        outSlope: {x: 0, y: 0, z: 0, w: 0}
        tangentMode: -559038737
      - time: 3.42857146
        value: {x: 0, y: 0, z: .529910624, w: .848053455}
        inSlope: {x: 0, y: 0, z: .0289953537, w: -.017922217}
        outSlope: {x: 0, y: 0, z: 0, w: 0}
        tangentMode: -559038737
      - time: 3.71428561
        value: {x: 0, y: 0, z: .539842069, w: .841766298}
        inSlope: {x: 0, y: 0, z: .0347600728, w: -.0220050626}
        outSlope: {x: 0, y: 0, z: 0, w: 0}
        tangentMode: -559038737
      - time: 3.99900007
        value: {x: 0, y: 0, z: .544638991, w: .838670552}
        inSlope: {x: 0, y: 0, z: .016848186, w: -.0108731603}
        outSlope: {x: 0, y: 0, z: 0, w: 0}
        tangentMode: -559038737
      - time: 4
        value: {x: 0, y: 0, z: .544639051, w: .838670552}
        inSlope: {x: 0, y: 0, z: 5.96089667e-05, w: 0}
        outSlope: {x: 0, y: 0, z: 0, w: 0}
        tangentMode: -559038737
      m_PreInfinity: 2
      m_PostInfinity: 2
    path: Root/LeftArm
  - curve:
      serializedVersion: 2
      m_Curve:
      - time: 0
        value: {x: 0, y: 0, z: 0, w: 1}
        inSlope: {x: 0, y: 0, z: 0, w: 0}
        outSlope: {x: 0, y: 0, z: 0, w: 0}
        tangentMode: -559038737
      - time: .00100000005
        value: {x: 0, y: 0, z: 0, w: 1}
        inSlope: {x: 0, y: 0, z: 0, w: 0}
        outSlope: {x: 0, y: 0, z: 0, w: 0}
        tangentMode: -559038737
      - time: .571428597
        value: {x: 0, y: 0, z: 0, w: 1}
        inSlope: {x: 0, y: 0, z: 0, w: 0}
        outSlope: {x: 0, y: 0, z: 0, w: 0}
        tangentMode: -559038737
      - time: 1.14285719
        value: {x: 0, y: 0, z: 0, w: 1}
        inSlope: {x: 0, y: 0, z: 0, w: 0}
        outSlope: {x: 0, y: 0, z: 0, w: 0}
        tangentMode: -559038737
      - time: 1.71428573
        value: {x: 0, y: 0, z: 0, w: 1}
        inSlope: {x: 0, y: 0, z: 0, w: 0}
        outSlope: {x: 0, y: 0, z: 0, w: 0}
        tangentMode: -559038737
      - time: 2.28571439
        value: {x: 0, y: 0, z: 0, w: 1}
        inSlope: {x: 0, y: 0, z: 0, w: 0}
        outSlope: {x: 0, y: 0, z: 0, w: 0}
        tangentMode: -559038737
      - time: 2.85714293
        value: {x: 0, y: 0, z: 0, w: 1}
        inSlope: {x: 0, y: 0, z: 0, w: 0}
        outSlope: {x: 0, y: 0, z: 0, w: 0}
        tangentMode: -559038737
      - time: 3.42857146
        value: {x: 0, y: 0, z: 0, w: 1}
        inSlope: {x: 0, y: 0, z: 0, w: 0}
        outSlope: {x: 0, y: 0, z: 0, w: 0}
        tangentMode: -559038737
      - time: 3.99900007
        value: {x: 0, y: 0, z: 0, w: 1}
        inSlope: {x: 0, y: 0, z: 0, w: 0}
        outSlope: {x: 0, y: 0, z: 0, w: 0}
        tangentMode: -559038737
      - time: 4
        value: {x: 0, y: 0, z: 0, w: 1}
        inSlope: {x: 0, y: 0, z: 0, w: 0}
        outSlope: {x: 0, y: 0, z: 0, w: 0}
        tangentMode: -559038737
      m_PreInfinity: 2
      m_PostInfinity: 2
    path: Root/LeftArm/LeftHand
  - curve:
      serializedVersion: 2
      m_Curve:
      - time: 0
        value: {x: 0, y: 0, z: -.57357645, w: .819152057}
        inSlope: {x: 0, y: 0, z: 0, w: 0}
        outSlope: {x: 0, y: 0, z: -5.96046411e-05, w: -5.96046411e-05}
        tangentMode: -559038737
      - time: .00100000005
        value: {x: 0, y: 0, z: -.57357651, w: .819151998}
        inSlope: {x: 0, y: 0, z: -5.96046411e-05, w: -5.96046411e-05}
        outSlope: {x: 0, y: 0, z: -.00859735906, w: -.00603293674}
        tangentMode: -559038737
      - time: .190476194
        value: {x: 0, y: 0, z: -.575205505, w: .8180089}
        inSlope: {x: 0, y: 0, z: -.00859735906, w: -.00603293674}
        outSlope: {x: 0, y: 0, z: -.0206323564, w: -.0145822763}
        tangentMode: -559038737
      - time: .380952388
        value: {x: 0, y: 0, z: -.579135478, w: .815231323}
        inSlope: {x: 0, y: 0, z: -.0206323564, w: -.0145822763}
        outSlope: {x: 0, y: 0, z: -.0251904111, w: -.0180072319}
        tangentMode: -559038737
      - time: .571428597
        value: {x: 0, y: 0, z: -.583933651, w: .811801374}
        inSlope: {x: 0, y: 0, z: -.0251904111, w: -.0180072319}
        outSlope: {x: 0, y: 0, z: -.0223187078, w: -.0161428321}
        tangentMode: -559038737
      - time: .761904776
        value: {x: 0, y: 0, z: -.588184834, w: .808726549}
        inSlope: {x: 0, y: 0, z: -.0223187078, w: -.0161428321}
        outSlope: {x: 0, y: 0, z: -.0121242562, w: -.00884449575}
        tangentMode: -559038737
      - time: .952380955
        value: {x: 0, y: 0, z: -.590494215, w: .807041883}
        inSlope: {x: 0, y: 0, z: -.0121242562, w: -.00884449575}
        outSlope: {x: 0, y: 0, z: -.00238704681, w: -.00174649491}
        tangentMode: -559038737
      - time: .999000013
        value: {x: 0, y: 0, z: -.590605497, w: .806960464}
        inSlope: {x: 0, y: 0, z: -.00238704681, w: -.00174649491}
        outSlope: {x: 0, y: 0, z: -2.98018185e-05, w: -2.98018185e-05}
        tangentMode: -559038737
      - time: 1.00100005
        value: {x: 0, y: 0, z: -.590605557, w: .806960404}
        inSlope: {x: 0, y: 0, z: -2.98018185e-05, w: -2.98018185e-05}
        outSlope: {x: 0, y: 0, z: -.00376727758, w: -.00275928085}
        tangentMode: -559038737
      - time: 1.14285719
        value: {x: 0, y: 0, z: -.591139972, w: .80656898}
        inSlope: {x: 0, y: 0, z: -.00376727758, w: -.00275928085}
        outSlope: {x: 0, y: 0, z: -.00687933015, w: -.00505060004}
        tangentMode: -559038737
      - time: 1.33333337
        value: {x: 0, y: 0, z: -.592450321, w: .805606961}
        inSlope: {x: 0, y: 0, z: -.00687933015, w: -.00505060004}
        outSlope: {x: 0, y: 0, z: -.000448107749, w: -.000329509407}
        tangentMode: -559038737
      - time: 1.52380955
        value: {x: 0, y: 0, z: -.592535675, w: .805544198}
        inSlope: {x: 0, y: 0, z: -.000448107749, w: -.000329509407}
        outSlope: {x: 0, y: 0, z: .0169298369, w: .0124008814}
        tangentMode: -559038737
      - time: 1.71428573
        value: {x: 0, y: 0, z: -.589310944, w: .80790627}
        inSlope: {x: 0, y: 0, z: .0169298369, w: .0124008814}
        outSlope: {x: 0, y: 0, z: .0454910733, w: .0328116901}
        tangentMode: -559038737
      - time: 1.90476191
        value: {x: 0, y: 0, z: -.580645978, w: .814156115}
        inSlope: {x: 0, y: 0, z: .0454910733, w: .0328116901}
        outSlope: {x: 0, y: 0, z: .0741133094, w: .0523803122}
        tangentMode: -559038737
      - time: 1.99899995
        value: {x: 0, y: 0, z: -.573661685, w: .819092333}
        inSlope: {x: 0, y: 0, z: .0741133094, w: .0523803122}
        outSlope: {x: 0, y: 0, z: .0852357373, w: .0596948192}
        tangentMode: -559038737
      - time: 2.00099993
        value: {x: 0, y: 0, z: -.573491216, w: .819211721}
        inSlope: {x: 0, y: 0, z: .0852357373, w: .0596948192}
        outSlope: {x: 0, y: 0, z: .0775766298, w: .0537950583}
        tangentMode: -559038737
      - time: 2.09523821
        value: {x: 0, y: 0, z: -.566180527, w: .824281275}
        inSlope: {x: 0, y: 0, z: .0775766298, w: .0537950583}
        outSlope: {x: 0, y: 0, z: .0559424348, w: .0378979631}
        tangentMode: -559038737
      - time: 2.28571439
        value: {x: 0, y: 0, z: -.555524826, w: .831499934}
        inSlope: {x: 0, y: 0, z: .0559424348, w: .0378979631}
        outSlope: {x: 0, y: 0, z: .0303236265, w: .0201075841}
        tangentMode: -559038737
      - time: 2.47619057
        value: {x: 0, y: 0, z: -.549748898, w: .83532995}
        inSlope: {x: 0, y: 0, z: .0303236265, w: .0201075841}
        outSlope: {x: 0, y: 0, z: .00908450875, w: .00596527802}
        tangentMode: -559038737
      - time: 2.66666675
        value: {x: 0, y: 0, z: -.548018515, w: .836466193}
        inSlope: {x: 0, y: 0, z: .00908450875, w: .00596527802}
        outSlope: {x: 0, y: 0, z: -.00750517892, w: -.00492636906}
        tangentMode: 1403002784
      - time: 2.85714293
        value: {x: 0, y: 0, z: -.549448073, w: .835527837}
        inSlope: {x: 0, y: 0, z: -.00750517892, w: -.00492636906}
        outSlope: {x: 0, y: 0, z: -.0193177629, w: -.0127644995}
        tangentMode: -559038737
      - time: 3.0476191
        value: {x: 0, y: 0, z: -.553127646, w: .833096504}
        inSlope: {x: 0, y: 0, z: -.0193177629, w: -.0127644995}
        outSlope: {x: 0, y: 0, z: 0, w: 0}
        tangentMode: -559038737
      - time: 3.23809528
        value: {x: 0, y: 0, z: -.55814141, w: .829745829}
        inSlope: {x: 0, y: 0, z: -.0263222624, w: -.0175910462}
        outSlope: {x: 0, y: 0, z: 0, w: 0}
        tangentMode: -559038737
      - time: 3.42857146
        value: {x: 0, y: 0, z: -.563581109, w: .826060712}
        inSlope: {x: 0, y: 0, z: -.02855842, w: -.0193468649}
        outSlope: {x: 0, y: 0, z: 0, w: 0}
        tangentMode: -559038737
      - time: 3.61904764
        value: {x: 0, y: 0, z: -.568552256, w: .822647154}
        inSlope: {x: 0, y: 0, z: -.0260985214, w: -.0179211814}
        outSlope: {x: 0, y: 0, z: 0, w: 0}
        tangentMode: -559038737
      - time: 3.80952382
        value: {x: 0, y: 0, z: -.572174788, w: .82013166}
        inSlope: {x: 0, y: 0, z: -.0190182943, w: -.0132063488}
        outSlope: {x: 0, y: 0, z: 0, w: 0}
        tangentMode: -559038737
      - time: 3.99900007
        value: {x: 0, y: 0, z: -.573576391, w: .819152057}
        inSlope: {x: 0, y: 0, z: -.00739725027, w: -.00517005334}
        outSlope: {x: 0, y: 0, z: 0, w: 0}
        tangentMode: -559038737
      - time: 4
        value: {x: 0, y: 0, z: -.57357645, w: .819152057}
        inSlope: {x: 0, y: 0, z: -5.96089667e-05, w: 0}
        outSlope: {x: 0, y: 0, z: 0, w: 0}
        tangentMode: -559038737
      m_PreInfinity: 2
      m_PostInfinity: 2
    path: Root/RightArm
  - curve:
      serializedVersion: 2
      m_Curve:
      - time: 0
        value: {x: 0, y: 0, z: 0, w: 1}
        inSlope: {x: 0, y: 0, z: 0, w: 0}
        outSlope: {x: 0, y: 0, z: 0, w: 0}
        tangentMode: -559038737
      - time: .00100000005
        value: {x: 0, y: 0, z: 0, w: 1}
        inSlope: {x: 0, y: 0, z: 0, w: 0}
        outSlope: {x: 0, y: 0, z: 0, w: 0}
        tangentMode: -559038737
      - time: .571428597
        value: {x: 0, y: 0, z: 0, w: 1}
        inSlope: {x: 0, y: 0, z: 0, w: 0}
        outSlope: {x: 0, y: 0, z: 0, w: 0}
        tangentMode: -559038737
      - time: 1.14285719
        value: {x: 0, y: 0, z: 0, w: 1}
        inSlope: {x: 0, y: 0, z: 0, w: 0}
        outSlope: {x: 0, y: 0, z: 0, w: 0}
        tangentMode: 1
      - time: 1.71428573
        value: {x: 0, y: 0, z: 0, w: 1}
        inSlope: {x: 0, y: 0, z: 0, w: 0}
        outSlope: {x: 0, y: 0, z: 0, w: 0}
        tangentMode: -559038737
      - time: 2.28571439
        value: {x: 0, y: 0, z: 0, w: 1}
        inSlope: {x: 0, y: 0, z: 0, w: 0}
        outSlope: {x: 0, y: 0, z: 0, w: 0}
        tangentMode: -559038737
      - time: 2.85714293
        value: {x: 0, y: 0, z: 0, w: 1}
        inSlope: {x: 0, y: 0, z: 0, w: 0}
        outSlope: {x: 0, y: 0, z: 0, w: 0}
        tangentMode: 0
      - time: 3.42857146
        value: {x: 0, y: 0, z: 0, w: 1}
        inSlope: {x: 0, y: 0, z: 0, w: 0}
        outSlope: {x: 0, y: 0, z: 0, w: 0}
        tangentMode: -559038737
      - time: 3.99900007
        value: {x: 0, y: 0, z: 0, w: 1}
        inSlope: {x: 0, y: 0, z: 0, w: 0}
        outSlope: {x: 0, y: 0, z: 0, w: 0}
        tangentMode: 2679
      - time: 4
        value: {x: 0, y: 0, z: 0, w: 1}
        inSlope: {x: 0, y: 0, z: 0, w: 0}
        outSlope: {x: 0, y: 0, z: 0, w: 0}
        tangentMode: -559038737
      m_PreInfinity: 2
      m_PostInfinity: 2
    path: Root/RightArm/RightHand
  - curve:
      serializedVersion: 2
      m_Curve:
      - time: 0
        value: {x: 0, y: 0, z: 0, w: 1}
        inSlope: {x: 0, y: 0, z: 0, w: 0}
        outSlope: {x: 0, y: 0, z: -7.8513649e-06, w: 0}
        tangentMode: -559038737
      - time: .00100000005
        value: {x: 0, y: 0, z: -7.85136489e-09, w: 1}
        inSlope: {x: 0, y: 0, z: -7.8513649e-06, w: 0}
        outSlope: {x: 0, y: 0, z: -.00203738431, w: -6.28046905e-07}
        tangentMode: -559038737
      - time: .285714298
        value: {x: 0, y: 0, z: -.000580080319, w: .999999821}
        inSlope: {x: 0, y: 0, z: -.00203738431, w: -6.28046905e-07}
        outSlope: {x: 0, y: 0, z: -.00523598352, w: -6.88433602e-06}
        tangentMode: -559038737
      - time: .571428597
        value: {x: 0, y: 0, z: -.00207607565, w: .999997854}
        inSlope: {x: 0, y: 0, z: -.00523598352, w: -6.88433602e-06}
        outSlope: {x: 0, y: 0, z: -.00715937698, w: -2.2113325e-05}
        tangentMode: -559038737
      - time: .857142866
        value: {x: 0, y: 0, z: -.00412161183, w: .999991536}
        inSlope: {x: 0, y: 0, z: -.00715937698, w: -2.2113325e-05}
        outSlope: {x: 0, y: 0, z: -.00780044263, w: -4.0888779e-05}
        tangentMode: -559038737
      - time: 1.14285719
        value: {x: 0, y: 0, z: -.00635031005, w: .999979854}
        inSlope: {x: 0, y: 0, z: -.00780044263, w: -4.0888779e-05}
        outSlope: {x: 0, y: 0, z: -.00715921633, w: -5.27799166e-05}
        tangentMode: -559038737
      - time: 1.42857146
        value: {x: 0, y: 0, z: -.00839580037, w: .999964774}
        inSlope: {x: 0, y: 0, z: -.00715921633, w: -5.27799166e-05}
        outSlope: {x: 0, y: 0, z: -.00523576979, w: -4.79817427e-05}
        tangentMode: -559038737
      - time: 1.71428573
        value: {x: 0, y: 0, z: -.00989173446, w: .999951065}
        inSlope: {x: 0, y: 0, z: -.00523576979, w: -4.79817427e-05}
        outSlope: {x: 0, y: 0, z: -.00203727675, w: -2.07255544e-05}
        tangentMode: -559038737
      - time: 1.99899995
        value: {x: 0, y: 0, z: -.0104717761, w: .999945164}
        inSlope: {x: 0, y: 0, z: -.00203727675, w: -2.07255544e-05}
        outSlope: {x: 0, y: 0, z: -7.45023226e-06, w: 0}
        tangentMode: -559038737
      - time: 2
        value: {x: 0, y: 0, z: -.0104717836, w: .999945164}
        inSlope: {x: 0, y: 0, z: -7.45023226e-06, w: 0}
        outSlope: {x: 0, y: 0, z: 7.45112084e-06, w: 0}
        tangentMode: -559038737
      - time: 2.00099993
        value: {x: 0, y: 0, z: -.0104717761, w: .999945164}
        inSlope: {x: 0, y: 0, z: 7.45112084e-06, w: 0}
        outSlope: {x: 0, y: 0, z: .00203727512, w: 2.07255362e-05}
        tangentMode: -559038737
      - time: 2.28571439
        value: {x: 0, y: 0, z: -.00989173446, w: .999951065}
        inSlope: {x: 0, y: 0, z: .00203727512, w: 2.07255362e-05}
        outSlope: {x: 0, y: 0, z: .00523577165, w: 4.79817609e-05}
        tangentMode: -559038737
      - time: 2.57142854
        value: {x: 0, y: 0, z: -.00839580037, w: .999964774}
        inSlope: {x: 0, y: 0, z: .00523577165, w: 4.79817609e-05}
        outSlope: {x: 0, y: 0, z: .0071592154, w: 5.27798948e-05}
        tangentMode: -559038737
      - time: 2.85714293
        value: {x: 0, y: 0, z: -.00635030959, w: .999979854}
        inSlope: {x: 0, y: 0, z: .0071592154, w: 5.27798948e-05}
        outSlope: {x: 0, y: 0, z: .00780044589, w: 4.08888045e-05}
        tangentMode: -559038737
      - time: 3.14285707
        value: {x: 0, y: 0, z: -.00412161183, w: .999991536}
        inSlope: {x: 0, y: 0, z: .00780044589, w: 4.08888045e-05}
        outSlope: {x: 0, y: 0, z: 0, w: 0}
        tangentMode: -559038737
      - time: 3.42857146
        value: {x: 0, y: 0, z: -.00207607518, w: .999997854}
        inSlope: {x: 0, y: 0, z: .00715937559, w: 2.21133159e-05}
        outSlope: {x: 0, y: 0, z: 0, w: 0}
        tangentMode: -559038737
      - time: 3.71428561
        value: {x: 0, y: 0, z: -.000580080086, w: .999999821}
        inSlope: {x: 0, y: 0, z: .00523598539, w: 6.88433965e-06}
        outSlope: {x: 0, y: 0, z: 0, w: 0}
        tangentMode: -559038737
      - time: 3.99900007
        value: {x: 0, y: 0, z: -7.28208116e-09, w: 1}
        inSlope: {x: 0, y: 0, z: .00203738431, w: 6.28046564e-07}
        outSlope: {x: 0, y: 0, z: 0, w: 0}
        tangentMode: -559038737
      - time: 4
        value: {x: 0, y: 0, z: 0, w: 1}
        inSlope: {x: 0, y: 0, z: 7.2826092e-06, w: 0}
        outSlope: {x: 0, y: 0, z: 0, w: 0}
        tangentMode: -559038737
      m_PreInfinity: 2
      m_PostInfinity: 2
    path: Root/Head
  - curve:
      serializedVersion: 2
      m_Curve:
      - time: 0
        value: {x: 0, y: 0, z: 0, w: 1}
        inSlope: {x: 0, y: 0, z: 0, w: 0}
        outSlope: {x: 0, y: 0, z: 0, w: 0}
        tangentMode: -559038737
      - time: .00100000005
        value: {x: 0, y: 0, z: 0, w: 1}
        inSlope: {x: 0, y: 0, z: 0, w: 0}
        outSlope: {x: 0, y: 0, z: 0, w: 0}
        tangentMode: -559038737
      - time: .571428597
        value: {x: 0, y: 0, z: 0, w: 1}
        inSlope: {x: 0, y: 0, z: 0, w: 0}
        outSlope: {x: 0, y: 0, z: 0, w: 0}
        tangentMode: -559038737
      - time: 1.14285719
        value: {x: 0, y: 0, z: 0, w: 1}
        inSlope: {x: 0, y: 0, z: 0, w: 0}
        outSlope: {x: 0, y: 0, z: 0, w: 0}
        tangentMode: -559038737
      - time: 1.71428573
        value: {x: 0, y: 0, z: 0, w: 1}
        inSlope: {x: 0, y: 0, z: 0, w: 0}
        outSlope: {x: 0, y: 0, z: 0, w: 0}
        tangentMode: -559038737
      - time: 2.28571439
        value: {x: 0, y: 0, z: 0, w: 1}
        inSlope: {x: 0, y: 0, z: 0, w: 0}
        outSlope: {x: 0, y: 0, z: 0, w: 0}
        tangentMode: -559038737
      - time: 2.85714293
        value: {x: 0, y: 0, z: 0, w: 1}
        inSlope: {x: 0, y: 0, z: 0, w: 0}
        outSlope: {x: 0, y: 0, z: 0, w: 0}
        tangentMode: -559038737
      - time: 3.42857146
        value: {x: 0, y: 0, z: 0, w: 1}
        inSlope: {x: 0, y: 0, z: 0, w: 0}
        outSlope: {x: 0, y: 0, z: 0, w: 0}
        tangentMode: -559038737
      - time: 3.99900007
        value: {x: 0, y: 0, z: 0, w: 1}
        inSlope: {x: 0, y: 0, z: 0, w: 0}
        outSlope: {x: 0, y: 0, z: 0, w: 0}
        tangentMode: -559038737
      - time: 4
        value: {x: 0, y: 0, z: 0, w: 1}
        inSlope: {x: 0, y: 0, z: 0, w: 0}
        outSlope: {x: 0, y: 0, z: 0, w: 0}
        tangentMode: -559038737
      m_PreInfinity: 2
      m_PostInfinity: 2
    path: Root/Head/Hair
  - curve:
      serializedVersion: 2
      m_Curve:
      - time: 0
        value: {x: 0, y: 0, z: 0, w: 1}
        inSlope: {x: 0, y: 0, z: 0, w: 0}
        outSlope: {x: 0, y: 0, z: 0, w: 0}
        tangentMode: -559038737
      - time: .00100000005
        value: {x: 0, y: 0, z: 0, w: 1}
        inSlope: {x: 0, y: 0, z: 0, w: 0}
        outSlope: {x: 0, y: 0, z: 0, w: 0}
        tangentMode: 1
      - time: .571428597
        value: {x: 0, y: 0, z: 0, w: 1}
        inSlope: {x: 0, y: 0, z: 0, w: 0}
        outSlope: {x: 0, y: 0, z: 0, w: 0}
        tangentMode: -559038737
      - time: 1.14285719
        value: {x: 0, y: 0, z: 0, w: 1}
        inSlope: {x: 0, y: 0, z: 0, w: 0}
        outSlope: {x: 0, y: 0, z: 0, w: 0}
        tangentMode: -559038737
      - time: 1.71428573
        value: {x: 0, y: 0, z: 0, w: 1}
        inSlope: {x: 0, y: 0, z: 0, w: 0}
        outSlope: {x: 0, y: 0, z: 0, w: 0}
        tangentMode: -559038737
      - time: 2.28571439
        value: {x: 0, y: 0, z: 0, w: 1}
        inSlope: {x: 0, y: 0, z: 0, w: 0}
        outSlope: {x: 0, y: 0, z: 0, w: 0}
        tangentMode: -542900206
      - time: 2.85714293
        value: {x: 0, y: 0, z: 0, w: 1}
        inSlope: {x: 0, y: 0, z: 0, w: 0}
        outSlope: {x: 0, y: 0, z: 0, w: 0}
        tangentMode: 59
      - time: 3.42857146
        value: {x: 0, y: 0, z: 0, w: 1}
        inSlope: {x: 0, y: 0, z: 0, w: 0}
        outSlope: {x: 0, y: 0, z: 0, w: 0}
        tangentMode: 1403054140
      - time: 3.99900007
        value: {x: 0, y: 0, z: 0, w: 1}
        inSlope: {x: 0, y: 0, z: 0, w: 0}
        outSlope: {x: 0, y: 0, z: 0, w: 0}
        tangentMode: -559038737
      - time: 4
        value: {x: 0, y: 0, z: 0, w: 1}
        inSlope: {x: 0, y: 0, z: 0, w: 0}
        outSlope: {x: 0, y: 0, z: 0, w: 0}
        tangentMode: -559038737
      m_PreInfinity: 2
      m_PostInfinity: 2
    path: Root/Head/Face
  - curve:
      serializedVersion: 2
      m_Curve:
      - time: 0
        value: {x: 0, y: 0, z: 0, w: 1}
        inSlope: {x: 0, y: 0, z: 0, w: 0}
        outSlope: {x: 0, y: 0, z: 0, w: 0}
        tangentMode: -559038737
      - time: .00100000005
        value: {x: 0, y: 0, z: 0, w: 1}
        inSlope: {x: 0, y: 0, z: 0, w: 0}
        outSlope: {x: 0, y: 0, z: 0, w: 0}
        tangentMode: -542900206
      - time: .571428597
        value: {x: 0, y: 0, z: 0, w: 1}
        inSlope: {x: 0, y: 0, z: 0, w: 0}
        outSlope: {x: 0, y: 0, z: 0, w: 0}
        tangentMode: -559038737
      - time: 1.14285719
        value: {x: 0, y: 0, z: 0, w: 1}
        inSlope: {x: 0, y: 0, z: 0, w: 0}
        outSlope: {x: 0, y: 0, z: 0, w: 0}
        tangentMode: -559038737
      - time: 1.71428573
        value: {x: 0, y: 0, z: 0, w: 1}
        inSlope: {x: 0, y: 0, z: 0, w: 0}
        outSlope: {x: 0, y: 0, z: 0, w: 0}
        tangentMode: -559038737
      - time: 2.28571439
        value: {x: 0, y: 0, z: 0, w: 1}
        inSlope: {x: 0, y: 0, z: 0, w: 0}
        outSlope: {x: 0, y: 0, z: 0, w: 0}
        tangentMode: -559038737
      - time: 2.85714293
        value: {x: 0, y: 0, z: 0, w: 1}
        inSlope: {x: 0, y: 0, z: 0, w: 0}
        outSlope: {x: 0, y: 0, z: 0, w: 0}
        tangentMode: -559038737
      - time: 3.42857146
        value: {x: 0, y: 0, z: 0, w: 1}
        inSlope: {x: 0, y: 0, z: 0, w: 0}
        outSlope: {x: 0, y: 0, z: 0, w: 0}
        tangentMode: 1403057156
      - time: 3.99900007
        value: {x: 0, y: 0, z: 0, w: 1}
        inSlope: {x: 0, y: 0, z: 0, w: 0}
        outSlope: {x: 0, y: 0, z: 0, w: 0}
        tangentMode: 247
      - time: 4
        value: {x: 0, y: 0, z: 0, w: 1}
        inSlope: {x: 0, y: 0, z: 0, w: 0}
        outSlope: {x: 0, y: 0, z: 0, w: 0}
        tangentMode: -559038737
      m_PreInfinity: 2
      m_PostInfinity: 2
    path: Root/RightLeg
  - curve:
      serializedVersion: 2
      m_Curve:
      - time: 0
        value: {x: 0, y: 0, z: 0, w: 1}
        inSlope: {x: 0, y: 0, z: 0, w: 0}
        outSlope: {x: 0, y: 0, z: 0, w: 0}
        tangentMode: -559038737
      - time: .00100000005
        value: {x: 0, y: 0, z: 0, w: 1}
        inSlope: {x: 0, y: 0, z: 0, w: 0}
        outSlope: {x: 0, y: 0, z: 0, w: 0}
        tangentMode: -559038737
      - time: .285714298
        value: {x: 0, y: 0, z: 0, w: 1}
        inSlope: {x: 0, y: 0, z: 0, w: 0}
        outSlope: {x: 0, y: 0, z: 0, w: 0}
        tangentMode: -559038737
      - time: .571428597
        value: {x: 0, y: 0, z: 0, w: 1}
        inSlope: {x: 0, y: 0, z: 0, w: 0}
        outSlope: {x: 0, y: 0, z: 0, w: 0}
        tangentMode: -559038737
      - time: .857142866
        value: {x: 0, y: 0, z: 0, w: 1}
        inSlope: {x: 0, y: 0, z: 0, w: 0}
        outSlope: {x: 0, y: 0, z: 0, w: 0}
        tangentMode: -559038737
      - time: 1.14285719
        value: {x: 0, y: 0, z: 0, w: 1}
        inSlope: {x: 0, y: 0, z: 0, w: 0}
        outSlope: {x: 0, y: 0, z: 0, w: 0}
        tangentMode: -559038737
      - time: 1.42857146
        value: {x: 0, y: 0, z: 0, w: 1}
        inSlope: {x: 0, y: 0, z: 0, w: 0}
        outSlope: {x: 0, y: 0, z: 0, w: 0}
        tangentMode: -559038737
      - time: 1.71428573
        value: {x: 0, y: 0, z: 0, w: 1}
        inSlope: {x: 0, y: 0, z: 0, w: 0}
        outSlope: {x: 0, y: 0, z: 0, w: 0}
        tangentMode: -559038737
      - time: 1.99899995
        value: {x: 0, y: 0, z: 0, w: 1}
        inSlope: {x: 0, y: 0, z: 0, w: 0}
        outSlope: {x: 0, y: 0, z: 0, w: 0}
        tangentMode: -559038737
      - time: 2
        value: {x: 0, y: 0, z: 0, w: 1}
        inSlope: {x: 0, y: 0, z: 0, w: 0}
        outSlope: {x: 0, y: 0, z: 0, w: 0}
        tangentMode: -559038737
      - time: 2.00099993
        value: {x: 0, y: 0, z: 0, w: 1}
        inSlope: {x: 0, y: 0, z: 0, w: 0}
        outSlope: {x: 0, y: 0, z: 0, w: 0}
        tangentMode: -559038737
      - time: 2.28571439
        value: {x: 0, y: 0, z: 0, w: 1}
        inSlope: {x: 0, y: 0, z: 0, w: 0}
        outSlope: {x: 0, y: 0, z: 0, w: 0}
        tangentMode: -559038737
      - time: 2.57142854
        value: {x: 0, y: 0, z: 0, w: 1}
        inSlope: {x: 0, y: 0, z: 0, w: 0}
        outSlope: {x: 0, y: 0, z: 0, w: 0}
        tangentMode: -559038737
      - time: 2.85714293
        value: {x: 0, y: 0, z: 0, w: 1}
        inSlope: {x: 0, y: 0, z: 0, w: 0}
        outSlope: {x: 0, y: 0, z: 0, w: 0}
        tangentMode: -559038737
      - time: 3.14285707
        value: {x: 0, y: 0, z: 0, w: 1}
        inSlope: {x: 0, y: 0, z: 0, w: 0}
        outSlope: {x: 0, y: 0, z: 0, w: 0}
        tangentMode: -559038737
      - time: 3.42857146
        value: {x: 0, y: 0, z: 0, w: 1}
        inSlope: {x: 0, y: 0, z: 0, w: 0}
        outSlope: {x: 0, y: 0, z: 0, w: 0}
        tangentMode: -559038737
      - time: 3.71428561
        value: {x: 0, y: 0, z: 0, w: 1}
        inSlope: {x: 0, y: 0, z: 0, w: 0}
        outSlope: {x: 0, y: 0, z: 0, w: 0}
        tangentMode: -559038737
      - time: 3.99900007
        value: {x: 0, y: 0, z: 0, w: 1}
        inSlope: {x: 0, y: 0, z: 0, w: 0}
        outSlope: {x: 0, y: 0, z: 0, w: 0}
        tangentMode: -559038737
      - time: 4
        value: {x: 0, y: 0, z: 0, w: 1}
        inSlope: {x: 0, y: 0, z: 0, w: 0}
        outSlope: {x: 0, y: 0, z: 0, w: 0}
        tangentMode: -559038737
      m_PreInfinity: 2
      m_PostInfinity: 2
    path: Root/LeftLeg
  m_CompressedRotationCurves: []
  m_PositionCurves:
  - curve:
      serializedVersion: 2
      m_Curve:
      - time: 0
        value: {x: 19, y: -9, z: 0}
        inSlope: {x: 0, y: 0, z: 0}
        outSlope: {x: 0, y: 0, z: 0}
        tangentMode: 41
      - time: 4
        value: {x: 19, y: -9, z: 0}
        inSlope: {x: 0, y: 0, z: 0}
        outSlope: {x: 0, y: 0, z: 0}
        tangentMode: -33686019
      m_PreInfinity: 2
      m_PostInfinity: 2
    path: Root
  - curve:
      serializedVersion: 2
      m_Curve:
      - time: 0
        value: {x: 16, y: 560, z: 0}
        inSlope: {x: 0, y: 0, z: 0}
        outSlope: {x: 0, y: 0, z: 0}
        tangentMode: -559038737
      - time: 4
        value: {x: 16, y: 560, z: 0}
        inSlope: {x: 0, y: 0, z: 0}
        outSlope: {x: 0, y: 0, z: 0}
        tangentMode: -559038737
      m_PreInfinity: 2
      m_PostInfinity: 2
    path: Root/Body
  - curve:
      serializedVersion: 2
      m_Curve:
      - time: 0
        value: {x: -55, y: 40, z: 0}
        inSlope: {x: 0, y: 0, z: 0}
        outSlope: {x: 0, y: 0, z: 0}
        tangentMode: -559038737
      - time: 4
        value: {x: -55, y: 40, z: 0}
        inSlope: {x: 0, y: 0, z: 0}
        outSlope: {x: 0, y: 0, z: 0}
        tangentMode: -559038737
      m_PreInfinity: 2
      m_PostInfinity: 2
    path: Root/Body/TorsoCostume
  - curve:
      serializedVersion: 2
      m_Curve:
      - time: 0
        value: {x: -139, y: 758, z: 0}
        inSlope: {x: 0, y: 0, z: 0}
        outSlope: {x: 0, y: 0, z: 0}
        tangentMode: 32
      - time: 4
        value: {x: -139, y: 758, z: 0}
        inSlope: {x: 0, y: 0, z: 0}
        outSlope: {x: 0, y: 0, z: 0}
        tangentMode: -559038737
      m_PreInfinity: 2
      m_PostInfinity: 2
    path: Root/LeftArm
  - curve:
      serializedVersion: 2
      m_Curve:
      - time: 0
        value: {x: -318, y: -20, z: 0}
        inSlope: {x: 0, y: 0, z: 0}
        outSlope: {x: 0, y: 0, z: 0}
        tangentMode: -559038737
      - time: 4
        value: {x: -318, y: -20, z: 0}
        inSlope: {x: 0, y: 0, z: 0}
        outSlope: {x: 0, y: 0, z: 0}
        tangentMode: -559038737
      m_PreInfinity: 2
      m_PostInfinity: 2
    path: Root/LeftArm/LeftHand
  - curve:
      serializedVersion: 2
      m_Curve:
      - time: 0
        value: {x: 171, y: 786, z: 0}
        inSlope: {x: 0, y: 0, z: 0}
        outSlope: {x: 0, y: 0, z: 0}
        tangentMode: 21
      - time: 4
        value: {x: 171, y: 786, z: 0}
        inSlope: {x: 0, y: 0, z: 0}
        outSlope: {x: 0, y: 0, z: 0}
        tangentMode: 59
      m_PreInfinity: 2
      m_PostInfinity: 2
    path: Root/RightArm
  - curve:
      serializedVersion: 2
      m_Curve:
      - time: 0
        value: {x: 303, y: 26, z: 0}
        inSlope: {x: 0, y: 0, z: 0}
        outSlope: {x: 0, y: 0, z: 0}
        tangentMode: -559038737
      - time: 4
        value: {x: 303, y: 26, z: 0}
        inSlope: {x: 0, y: 0, z: 0}
        outSlope: {x: 0, y: 0, z: 0}
        tangentMode: -559038737
      m_PreInfinity: 2
      m_PostInfinity: 2
    path: Root/RightArm/RightHand
  - curve:
      serializedVersion: 2
      m_Curve:
      - time: 0
        value: {x: 50, y: 1157, z: 0}
        inSlope: {x: 0, y: 0, z: 0}
        outSlope: {x: 0, y: 0, z: 0}
        tangentMode: -559038737
      - time: 4
        value: {x: 50, y: 1157, z: 0}
        inSlope: {x: 0, y: 0, z: 0}
        outSlope: {x: 0, y: 0, z: 0}
        tangentMode: -33686019
      m_PreInfinity: 2
      m_PostInfinity: 2
    path: Root/Head
  - curve:
      serializedVersion: 2
      m_Curve:
      - time: 0
        value: {x: -43.7169151, y: 0, z: 0}
        inSlope: {x: 0, y: 0, z: 0}
        outSlope: {x: 0, y: 0, z: 0}
        tangentMode: -559038737
      - time: 4
        value: {x: -43.7169151, y: 0, z: 0}
        inSlope: {x: 0, y: 0, z: 0}
        outSlope: {x: 0, y: 0, z: 0}
        tangentMode: -559038737
      m_PreInfinity: 2
      m_PostInfinity: 2
    path: Root/Head/Hair
  - curve:
      serializedVersion: 2
      m_Curve:
      - time: 0
        value: {x: 0, y: 0, z: 0}
        inSlope: {x: 0, y: 0, z: 0}
        outSlope: {x: 0, y: 0, z: 0}
        tangentMode: -559038737
      - time: 4
        value: {x: 0, y: 0, z: 0}
        inSlope: {x: 0, y: 0, z: 0}
        outSlope: {x: 0, y: 0, z: 0}
        tangentMode: -559038737
      m_PreInfinity: 2
      m_PostInfinity: 2
    path: Root/Head/Face
  - curve:
      serializedVersion: 2
      m_Curve:
      - time: 0
        value: {x: 96, y: 363, z: 0}
        inSlope: {x: 0, y: 0, z: 0}
        outSlope: {x: 0, y: 0, z: 0}
        tangentMode: -559038737
      - time: 3
        value: {x: 96, y: 432, z: 0}
        inSlope: {x: 0, y: 0, z: 0}
        outSlope: {x: 0, y: 0, z: 0}
        tangentMode: 0
      - time: 4
        value: {x: 96, y: 363, z: 0}
        inSlope: {x: 0, y: 0, z: 0}
        outSlope: {x: 0, y: 0, z: 0}
        tangentMode: -559038737
      m_PreInfinity: 2
      m_PostInfinity: 2
    path: Root/RightLeg
  - curve:
      serializedVersion: 2
      m_Curve:
      - time: 0
        value: {x: -96, y: 363, z: 0}
        inSlope: {x: 0, y: 0, z: 0}
        outSlope: {x: 0, y: 0, z: 0}
        tangentMode: 21
      - time: 1
        value: {x: -96, y: 432, z: 0}
        inSlope: {x: 0, y: 0, z: 0}
        outSlope: {x: 0, y: 0, z: 0}
        tangentMode: 0
      - time: 2
        value: {x: -96, y: 363, z: 0}
        inSlope: {x: 0, y: 0, z: 0}
        outSlope: {x: 0, y: 0, z: 0}
        tangentMode: 59
      - time: 4
        value: {x: -96, y: 363, z: 0}
        inSlope: {x: 0, y: 0, z: 0}
        outSlope: {x: 0, y: 0, z: 0}
        tangentMode: -559038723
      m_PreInfinity: 2
      m_PostInfinity: 2
    path: Root/LeftLeg
  m_ScaleCurves:
  - curve:
      serializedVersion: 2
      m_Curve:
      - time: 0
        value: {x: .422408283, y: .422408283, z: 0}
        inSlope: {x: 0, y: 0, z: 0}
        outSlope: {x: 0, y: 0, z: 0}
        tangentMode: 0
      - time: 4
        value: {x: .422408283, y: .422408283, z: 0}
        inSlope: {x: 0, y: 0, z: 0}
        outSlope: {x: 0, y: 0, z: 0}
        tangentMode: -559038737
      m_PreInfinity: 2
      m_PostInfinity: 2
    path: Root
  - curve:
      serializedVersion: 2
      m_Curve:
      - time: 0
        value: {x: 1, y: 1, z: 1}
        inSlope: {x: 0, y: 0, z: 0}
        outSlope: {x: 0, y: 0, z: 0}
        tangentMode: -559038737
      - time: 4
        value: {x: 1, y: 1, z: 1}
        inSlope: {x: 0, y: 0, z: 0}
        outSlope: {x: 0, y: 0, z: 0}
        tangentMode: -559038737
      m_PreInfinity: 2
      m_PostInfinity: 2
    path: Root/Body
  - curve:
      serializedVersion: 2
      m_Curve:
      - time: 0
        value: {x: 1, y: 1, z: 1}
        inSlope: {x: 0, y: 0, z: 0}
        outSlope: {x: 0, y: 0, z: 0}
        tangentMode: -559038737
      - time: 4
        value: {x: 1, y: 1, z: 1}
        inSlope: {x: 0, y: 0, z: 0}
        outSlope: {x: 0, y: 0, z: 0}
        tangentMode: -559038737
      m_PreInfinity: 2
      m_PostInfinity: 2
    path: Root/Body/Body_Sprite
  - curve:
      serializedVersion: 2
      m_Curve:
      - time: 0
        value: {x: 1, y: 1, z: 1}
        inSlope: {x: 0, y: 0, z: 0}
        outSlope: {x: 0, y: 0, z: 0}
        tangentMode: -559038737
      - time: 4
        value: {x: 1, y: 1, z: 1}
        inSlope: {x: 0, y: 0, z: 0}
        outSlope: {x: 0, y: 0, z: 0}
        tangentMode: -559038737
      m_PreInfinity: 2
      m_PostInfinity: 2
    path: Root/Body/TorsoCostume
  - curve:
      serializedVersion: 2
      m_Curve:
      - time: 0
        value: {x: 1, y: 1, z: 1}
        inSlope: {x: 0, y: 0, z: 0}
        outSlope: {x: 0, y: 0, z: 0}
        tangentMode: -559038737
      - time: 4
        value: {x: 1, y: 1, z: 1}
        inSlope: {x: 0, y: 0, z: 0}
        outSlope: {x: 0, y: 0, z: 0}
        tangentMode: -559038737
      m_PreInfinity: 2
      m_PostInfinity: 2
    path: Root/Body/TorsoCostume/TorsoCostume_Sprite
  - curve:
      serializedVersion: 2
      m_Curve:
      - time: 0
        value: {x: 1, y: 1, z: 1}
        inSlope: {x: 0, y: 0, z: 0}
        outSlope: {x: 0, y: 0, z: 0}
        tangentMode: -559038737
      - time: 4
        value: {x: 1, y: 1, z: 1}
        inSlope: {x: 0, y: 0, z: 0}
        outSlope: {x: 0, y: 0, z: 0}
        tangentMode: -559038737
      m_PreInfinity: 2
      m_PostInfinity: 2
    path: Root/LeftArm
  - curve:
      serializedVersion: 2
      m_Curve:
      - time: 0
        value: {x: 1, y: 1, z: 1}
        inSlope: {x: 0, y: 0, z: 0}
        outSlope: {x: 0, y: 0, z: 0}
        tangentMode: -559038737
      - time: 4
        value: {x: 1, y: 1, z: 1}
        inSlope: {x: 0, y: 0, z: 0}
        outSlope: {x: 0, y: 0, z: 0}
        tangentMode: 51
      m_PreInfinity: 2
      m_PostInfinity: 2
    path: Root/LeftArm/LeftArm_Sprite
  - curve:
      serializedVersion: 2
      m_Curve:
      - time: 0
        value: {x: 1, y: 1, z: 1}
        inSlope: {x: 0, y: 0, z: 0}
        outSlope: {x: 0, y: 0, z: 0}
        tangentMode: -559038737
      - time: 4
        value: {x: 1, y: 1, z: 1}
        inSlope: {x: 0, y: 0, z: 0}
        outSlope: {x: 0, y: 0, z: 0}
        tangentMode: -559038737
      m_PreInfinity: 2
      m_PostInfinity: 2
    path: Root/LeftArm/LeftHand
  - curve:
      serializedVersion: 2
      m_Curve:
      - time: 0
        value: {x: 1, y: 1, z: 1}
        inSlope: {x: 0, y: 0, z: 0}
        outSlope: {x: 0, y: 0, z: 0}
        tangentMode: -559038737
      - time: 4
        value: {x: 1, y: 1, z: 1}
        inSlope: {x: 0, y: 0, z: 0}
        outSlope: {x: 0, y: 0, z: 0}
        tangentMode: -559038737
      m_PreInfinity: 2
      m_PostInfinity: 2
    path: Root/LeftArm/LeftHand/LeftHand_Sprite
  - curve:
      serializedVersion: 2
      m_Curve:
      - time: 0
        value: {x: 1, y: 1, z: 1}
        inSlope: {x: 0, y: 0, z: 0}
        outSlope: {x: 0, y: 0, z: 0}
        tangentMode: 27
      - time: 4
        value: {x: 1, y: 1, z: 1}
        inSlope: {x: 0, y: 0, z: 0}
        outSlope: {x: 0, y: 0, z: 0}
        tangentMode: 1403019428
      m_PreInfinity: 2
      m_PostInfinity: 2
    path: Root/RightArm
  - curve:
      serializedVersion: 2
      m_Curve:
      - time: 0
        value: {x: 1, y: 1, z: 1}
        inSlope: {x: 0, y: 0, z: 0}
        outSlope: {x: 0, y: 0, z: 0}
        tangentMode: -559038737
      - time: 4
        value: {x: 1, y: 1, z: 1}
        inSlope: {x: 0, y: 0, z: 0}
        outSlope: {x: 0, y: 0, z: 0}
        tangentMode: 12
      m_PreInfinity: 2
      m_PostInfinity: 2
    path: Root/RightArm/RightArm_Sprite
  - curve:
      serializedVersion: 2
      m_Curve:
      - time: 0
        value: {x: 1, y: 1, z: 1}
        inSlope: {x: 0, y: 0, z: 0}
        outSlope: {x: 0, y: 0, z: 0}
        tangentMode: -559038737
      - time: 4
        value: {x: 1, y: 1, z: 1}
        inSlope: {x: 0, y: 0, z: 0}
        outSlope: {x: 0, y: 0, z: 0}
        tangentMode: -559038737
      m_PreInfinity: 2
      m_PostInfinity: 2
    path: Root/RightArm/RightHand
  - curve:
      serializedVersion: 2
      m_Curve:
      - time: 0
        value: {x: 1, y: 1, z: 1}
        inSlope: {x: 0, y: 0, z: 0}
        outSlope: {x: 0, y: 0, z: 0}
        tangentMode: -559038737
      - time: 4
        value: {x: 1, y: 1, z: 1}
        inSlope: {x: 0, y: 0, z: 0}
        outSlope: {x: 0, y: 0, z: 0}
        tangentMode: -559038737
      m_PreInfinity: 2
      m_PostInfinity: 2
    path: Root/RightArm/RightHand/RightHand_Sprite
  - curve:
      serializedVersion: 2
      m_Curve:
      - time: 0
        value: {x: 1, y: 1, z: 1}
        inSlope: {x: 0, y: 0, z: 0}
        outSlope: {x: 0, y: 0, z: 0}
        tangentMode: -559038723
      - time: 4
        value: {x: 1, y: 1, z: 1}
        inSlope: {x: 0, y: 0, z: 0}
        outSlope: {x: 0, y: 0, z: 0}
        tangentMode: 0
      m_PreInfinity: 2
      m_PostInfinity: 2
    path: Root/Head
  - curve:
      serializedVersion: 2
      m_Curve:
      - time: 0
        value: {x: 1, y: 1, z: 1}
        inSlope: {x: 0, y: 0, z: 0}
        outSlope: {x: 0, y: 0, z: 0}
        tangentMode: -559038737
      - time: 4
        value: {x: 1, y: 1, z: 1}
        inSlope: {x: 0, y: 0, z: 0}
        outSlope: {x: 0, y: 0, z: 0}
        tangentMode: -559038737
      m_PreInfinity: 2
      m_PostInfinity: 2
    path: Root/Head/Head_Sprite
  - curve:
      serializedVersion: 2
      m_Curve:
      - time: 0
        value: {x: 1, y: 1, z: 1}
        inSlope: {x: 0, y: 0, z: 0}
        outSlope: {x: 0, y: 0, z: 0}
        tangentMode: -559038737
      - time: 4
        value: {x: 1, y: 1, z: 1}
        inSlope: {x: 0, y: 0, z: 0}
        outSlope: {x: 0, y: 0, z: 0}
        tangentMode: -559038737
      m_PreInfinity: 2
      m_PostInfinity: 2
    path: Root/Head/Hair
  - curve:
      serializedVersion: 2
      m_Curve:
      - time: 0
        value: {x: 1.5, y: 1.5, z: 1}
        inSlope: {x: 0, y: 0, z: 0}
        outSlope: {x: 0, y: 0, z: 0}
        tangentMode: -559038737
      - time: 4
        value: {x: 1.5, y: 1.5, z: 1}
        inSlope: {x: 0, y: 0, z: 0}
        outSlope: {x: 0, y: 0, z: 0}
        tangentMode: -559038737
      m_PreInfinity: 2
      m_PostInfinity: 2
    path: Root/Head/Hair/Hair_Sprite
  - curve:
      serializedVersion: 2
      m_Curve:
      - time: 0
        value: {x: 1, y: 1, z: 1}
        inSlope: {x: 0, y: 0, z: 0}
        outSlope: {x: 0, y: 0, z: 0}
        tangentMode: -559038737
      - time: 4
        value: {x: 1, y: 1, z: 1}
        inSlope: {x: 0, y: 0, z: 0}
        outSlope: {x: 0, y: 0, z: 0}
        tangentMode: 0
      m_PreInfinity: 2
      m_PostInfinity: 2
    path: Root/Head/Face
  - curve:
      serializedVersion: 2
      m_Curve:
      - time: 0
        value: {x: 1, y: 1, z: 1}
        inSlope: {x: 0, y: 0, z: 0}
        outSlope: {x: 0, y: 0, z: 0}
        tangentMode: -559038737
      - time: 4
        value: {x: 1, y: 1, z: 1}
        inSlope: {x: 0, y: 0, z: 0}
        outSlope: {x: 0, y: 0, z: 0}
        tangentMode: -559038737
      m_PreInfinity: 2
      m_PostInfinity: 2
    path: Root/Head/Face/Face_Sprite
  - curve:
      serializedVersion: 2
      m_Curve:
      - time: 0
        value: {x: 1, y: 1, z: 1}
        inSlope: {x: 0, y: 0, z: 0}
        outSlope: {x: 0, y: 0, z: 0}
        tangentMode: -33686019
      - time: 4
        value: {x: 1, y: 1, z: 1}
        inSlope: {x: 0, y: 0, z: 0}
        outSlope: {x: 0, y: 0, z: 0}
        tangentMode: 0
      m_PreInfinity: 2
      m_PostInfinity: 2
    path: Root/RightLeg
  - curve:
      serializedVersion: 2
      m_Curve:
      - time: 0
        value: {x: 1, y: 1, z: 1}
        inSlope: {x: 0, y: 0, z: 0}
        outSlope: {x: 0, y: 0, z: 0}
        tangentMode: -559038737
      - time: 4
        value: {x: 1, y: 1, z: 1}
        inSlope: {x: 0, y: 0, z: 0}
        outSlope: {x: 0, y: 0, z: 0}
        tangentMode: 843
      m_PreInfinity: 2
      m_PostInfinity: 2
    path: Root/RightLeg/RightLeg_Sprite
  - curve:
      serializedVersion: 2
      m_Curve:
      - time: 0
        value: {x: 1, y: 1, z: 1}
        inSlope: {x: 0, y: 0, z: 0}
        outSlope: {x: 0, y: 0, z: 0}
        tangentMode: -559038737
      - time: 2
        value: {x: 1, y: 1, z: 1}
        inSlope: {x: 0, y: 0, z: 0}
        outSlope: {x: 0, y: 0, z: 0}
        tangentMode: 0
      - time: 4
        value: {x: 1, y: 1, z: 1}
        inSlope: {x: 0, y: 0, z: 0}
        outSlope: {x: 0, y: 0, z: 0}
        tangentMode: 1411484844
      m_PreInfinity: 2
      m_PostInfinity: 2
    path: Root/LeftLeg
  - curve:
      serializedVersion: 2
      m_Curve:
      - time: 0
        value: {x: 1, y: 1, z: 1}
        inSlope: {x: 0, y: 0, z: 0}
        outSlope: {x: 0, y: 0, z: 0}
        tangentMode: -559038737
      - time: 2
        value: {x: 1, y: 1, z: 1}
        inSlope: {x: 0, y: 0, z: 0}
        outSlope: {x: 0, y: 0, z: 0}
        tangentMode: -559038737
      - time: 4
        value: {x: 1, y: 1, z: 1}
        inSlope: {x: 0, y: 0, z: 0}
        outSlope: {x: 0, y: 0, z: 0}
        tangentMode: -559038737
      m_PreInfinity: 2
      m_PostInfinity: 2
    path: Root/LeftLeg/LeftLeg_Sprite
  m_FloatCurves: []
  m_SampleRate: 60
  m_WrapMode: 1
  m_Bounds:
    m_Center: {x: 0, y: 0, z: 0}
    m_Extent: {x: 0, y: 0, z: 0}
  m_MuscleClipInfo:
    m_StartTime: 0
    m_StopTime: 1
    m_OrientationOffsetY: 0
    m_Level: 0
    m_CycleOffset: 0
    m_LoopBlend: 0
    m_LoopBlendOrientation: 0
    m_LoopBlendPositionY: 0
    m_LoopBlendPositionXZ: 0
    m_KeepOriginalOrientation: 0
    m_KeepOriginalPositionY: 1
    m_KeepOriginalPositionXZ: 0
    m_HeightFromFeet: 0
    m_Mirror: 0
  m_EditorCurves: []
  m_EulerEditorCurves: []
  m_Events:
  - time: 0
    functionName: AnimationEvent_Triggered
    data: 
    objectReferenceParameter: {fileID: 0}
    floatParameter: 0
    intParameter: 7
    messageOptions: 0
  - time: 2
    functionName: AnimationEvent_Triggered
    data: 
    objectReferenceParameter: {fileID: 0}
    floatParameter: 0
    intParameter: 8
    messageOptions: 0
  - time: 4
    functionName: AnimationEvent_Triggered
    data: 
    objectReferenceParameter: {fileID: 0}
    floatParameter: 0
    intParameter: 9
    messageOptions: 0
