%YAML 1.1
%TAG !u! tag:unity3d.com,2011:
--- !u!114 &11400000
MonoBehaviour:
  m_ObjectHideFlags: 0
  m_PrefabParentObject: {fileID: 0}
  m_PrefabInternal: {fileID: 0}
  m_GameObject: {fileID: 0}
  m_Enabled: 1
  m_EditorHideFlags: 0
  m_Script: {fileID: 529336600, guid: 2a53e83e1a186495ebcacce8848a4057, type: 3}
  m_Name: King_Atlas
  material: {fileID: 2100000, guid: 66f9f9c93cf054cc190ab632904ef4f9, type: 2}
  uvs:
  - serializedVersion: 2
    x: .702148438
    y: .351074219
    width: .175292969
    height: .175292969
  - serializedVersion: 2
    x: .526611328
    y: .351074219
    width: .175292969
    height: .175292969
  - serializedVersion: 2
    x: .351074219
    y: .351074219
    width: .175292969
    height: .175292969
  - serializedVersion: 2
    x: .175537109
    y: .702148438
    width: .175292969
    height: .175292969
  - serializedVersion: 2
    x: .175537109
    y: .526611328
    width: .175292969
    height: .175292969
  - serializedVersion: 2
    x: .175537109
    y: .351074219
    width: .175292969
    height: .175292969
  - serializedVersion: 2
    x: .702148438
    y: .175537109
    width: .175292969
    height: .175292969
  - serializedVersion: 2
    x: .526611328
    y: .175537109
    width: .175292969
    height: .175292969
  - serializedVersion: 2
    x: .351074219
    y: .175537109
    width: .175292969
    height: .175292969
  - serializedVersion: 2
    x: .175537109
    y: .175537109
    width: .175292969
    height: .175292969
  - serializedVersion: 2
    x: 0
    y: .702148438
    width: .175292969
    height: .175292969
  - serializedVersion: 2
    x: 0
    y: .526611328
    width: .175292969
    height: .175292969
  - serializedVersion: 2
    x: 0
    y: .351074219
    width: .175292969
    height: .175292969
  - serializedVersion: 2
    x: 0
    y: .175537109
    width: .175292969
    height: .175292969
  - serializedVersion: 2
    x: .702148438
    y: 0
    width: .175292969
    height: .175292969
  - serializedVersion: 2
    x: .526611328
    y: 0
    width: .175292969
    height: .175292969
  - serializedVersion: 2
    x: .351074219
    y: 0
    width: .175292969
    height: .175292969
  - serializedVersion: 2
    x: .175537109
    y: 0
    width: .175292969
    height: .175292969
  - serializedVersion: 2
    x: 0
    y: 0
    width: .175292969
    height: .175292969
  textureGUIDs:
  - 33be2c1132371462fbaa916df2c8e5e6
  - a3219f716678242c4b16f4c193d2e29c
  - 4f1c7e02511fe44569a3c563ef2fa4d2
  - 34683ef3743b047e8b71f82fa91ed714
  - aac47156fa86546f8b438fb9ba54f0fb
  - f954defe49a1d4a7d801d965a78a6e79
  - 876269df0920b4498ae90618db1a80d2
  - 5f7cf4a7b179247ae9a770005e67d3d2
  - c57ad9409585341c7b77b989f9342b58
  - a882dac0b65b04e45a67e3e0e78175e4
  - 4c28934562101499f86816345ab8e71e
  - 9249ce56b4f5b403491c34b496a10da0
  - 738676e6895e942d39f678766f631f04
  - 9671f7e63433041e2b74b18da133d284
  - 5e8eff485fba94d7897528fb15b2ecbe
  - e7d096b8b9c8343bdbcdfd39331d93eb
  - 189f104ceeae249f7970914937566f78
  - 6d91ccce2d72046d7bb20387b6d7af56
  - 3a7326b3015eb4a4291b75e4441bb1fa
  textureSizes:
  - {x: 2272, y: 2272}
  - {x: 2272, y: 2272}
  - {x: 2272, y: 2272}
  - {x: 2272, y: 2272}
  - {x: 2272, y: 2272}
  - {x: 2272, y: 2272}
  - {x: 2272, y: 2272}
  - {x: 2272, y: 2272}
  - {x: 2272, y: 2272}
  - {x: 2272, y: 2272}
  - {x: 2272, y: 2272}
  - {x: 2272, y: 2272}
  - {x: 2272, y: 2272}
  - {x: 2272, y: 2272}
  - {x: 2272, y: 2272}
  - {x: 2272, y: 2272}
  - {x: 2272, y: 2272}
  - {x: 2272, y: 2272}
  - {x: 2048, y: 2048}
  defaultPivotOffsets:
  - {x: .0160714276, y: .0589285716}
  - {x: 0, y: 0}
  - {x: -.0160714276, y: .0910714269}
  - {x: .0107142851, y: .0589285716}
  - {x: .0321428552, y: .0696428567}
  - {x: 0, y: 0}
  - {x: 0, y: 0}
  - {x: 0, y: 0}
  - {x: .0116497362, y: .0977871791}
  - {x: .000798334193, y: .0617378466}
  - {x: -.00535714254, y: .0696428567}
  - {x: -.0170409307, y: .0186638758}
  - {x: .0152334664, y: .0172454342}
  - {x: .00573588442, y: .051622957}
  - {x: -.0234395601, y: -.0719241351}
  - {x: .000667594781, y: .0514047965}
  - {x: .0118666692, y: .0952823684}
  - {x: -.00180694764, y: .0644477978}
  - {x: -.0589285716, y: -.0857142806}
  textureNames:
  - BBT_King_LLeg
  - BBT_King_Head
  - BBT_King_LArm
  - BBT_King_RLeg
  - BBT_King_RArm
  - BBT_King_Torso
  - BBT_King_TorsoBack
  - BBT_King_HeadSmile
  - BBT_KingKellyMiami_RLeg
  - BBT_KingKellyMiami_RForearm
  - BBT_KingKellyMiami_LBicep
  - BBT_KingKellyMiami_LHand
  - BBT_KingKellyMiami_RHand
  - BBT_KingKellyMiami_LForearm
  - BBT_KingKellyMiami_Torso
  - BBT_KingKellyMiami_Trunks
  - BBT_KingKellyMiami_LLeg
  - BBT_KingKellyMiami_RBicep
  - BBT_KingKellyMiami_Head
  texturePaths:
  - Assets/Project/content/textures/Characters/NPCs/BBT_King_Anim/BBT_King_LLeg.png
  - Assets/Project/content/textures/Characters/NPCs/BBT_King_Anim/BBT_King_Head.png
  - Assets/Project/content/textures/Characters/NPCs/BBT_King_Anim/BBT_King_LArm.png
  - Assets/Project/content/textures/Characters/NPCs/BBT_King_Anim/BBT_King_RLeg.png
  - Assets/Project/content/textures/Characters/NPCs/BBT_King_Anim/BBT_King_RArm.png
  - Assets/Project/content/textures/Characters/NPCs/BBT_King_Anim/BBT_King_Torso.png
  - Assets/Project/content/textures/Characters/NPCs/BBT_King_Anim/BBT_King_TorsoBack.png
  - Assets/Project/content/textures/Characters/NPCs/BBT_King_Anim/BBT_King_HeadSmile.png
  - Assets/Project/content/textures/Characters/NPCs/BBT_King_Miami_Anim/BBT_KingKellyMiami_RLeg.png
  - Assets/Project/content/textures/Characters/NPCs/BBT_King_Miami_Anim/BBT_KingKellyMiami_RForearm.png
  - Assets/Project/content/textures/Characters/NPCs/BBT_King_Miami_Anim/BBT_KingKellyMiami_LBicep.png
  - Assets/Project/content/textures/Characters/NPCs/BBT_King_Miami_Anim/BBT_KingKellyMiami_LHand.png
  - Assets/Project/content/textures/Characters/NPCs/BBT_King_Miami_Anim/BBT_KingKellyMiami_RHand.png
  - Assets/Project/content/textures/Characters/NPCs/BBT_King_Miami_Anim/BBT_KingKellyMiami_LForearm.png
  - Assets/Project/content/textures/Characters/NPCs/BBT_King_Miami_Anim/BBT_KingKellyMiami_Torso.png
  - Assets/Project/content/textures/Characters/NPCs/BBT_King_Miami_Anim/BBT_KingKellyMiami_Trunks.png
  - Assets/Project/content/textures/Characters/NPCs/BBT_King_Miami_Anim/BBT_KingKellyMiami_LLeg.png
  - Assets/Project/content/textures/Characters/NPCs/BBT_King_Miami_Anim/BBT_KingKellyMiami_RBicep.png
  - Assets/Project/content/textures/Characters/NPCs/BBT_King_Miami_Anim/BBT_KingKellyMiami_Head.png
  lastBuildID: 20130830160023993
  needsRebuilt: 0
  dataVersion: 4
  maxAtlasSize: 2048
  padding: 1
  forceSquare: 0
