<?xml version="1.0" encoding="utf-8"?>
<!-- Generator: Adobe Illustrator 16.0.0, SVG Export Plug-In . SVG Version: 6.00 Build 0)  -->
<!DOCTYPE svg PUBLIC "-//W3C//DTD SVG 1.1//EN" "http://www.w3.org/Graphics/SVG/1.1/DTD/svg11.dtd">
<svg version="1.1" id="Layer_1" xmlns="http://www.w3.org/2000/svg" xmlns:xlink="http://www.w3.org/1999/xlink" x="0px" y="0px"
	 width="1024px" height="1024px" viewBox="0 0 1024 1024" enable-background="new 0 0 1024 1024" xml:space="preserve">
<g>
	<g>
		<g>
			<polygon fill="#69A5CE" points="909.124,341.204 909.124,443.23 926.11,443.23 936.303,337.804 			"/>
			<path fill="#183F67" d="M928.422,445.78h-21.844V338.953l32.565-4.074L928.422,445.78z M911.669,440.68h12.13l9.664-99.951
				l-21.794,2.728V440.68z"/>
		</g>
		<g>
			<polygon fill="#69A5CE" points="103.964,334.812 120.951,435.138 137.937,435.138 131.142,331.41 			"/>
			<path fill="#183F67" d="M140.655,437.688H118.8l-17.79-105.075l32.496-4.067L140.655,437.688z M123.102,432.588h12.117
				l-6.44-98.312l-21.86,2.735L123.102,432.588z"/>
		</g>
		<g>
			<polygon fill="#69A5CE" points="391.036,334.812 397.831,435.138 414.817,435.138 418.213,331.41 			"/>
			<path fill="#183F67" d="M417.28,437.688h-21.829l-7.119-105.105l32.523-4.072L417.28,437.688z M400.209,432.588h12.144
				l3.218-98.276l-21.833,2.731L400.209,432.588z"/>
		</g>
		<g>
			<polygon fill="#69A5CE" points="642.436,334.812 649.229,435.138 666.218,435.138 669.613,336.513 			"/>
			<path fill="#183F67" d="M668.677,437.688h-21.826l-7.151-105.602l32.545,2.037L668.677,437.688z M651.609,432.588h12.147
				l3.228-93.686l-21.812-1.364L651.609,432.588z"/>
		</g>
		<g>
			<polygon fill="#69A5CE" points="77.379,435.429 86.445,490.935 938.791,481.034 935.203,441.682 			"/>
			<path fill="#183F67" d="M84.285,493.51l-9.905-60.653l3.018,0.022l860.131,6.271l4.047,44.401L84.285,493.51z M80.379,438.002
				l8.225,50.358l847.4-9.844l-3.125-34.303L80.379,438.002z"/>
		</g>
		<rect x="83.579" y="451.294" fill="#183F67" width="851.025" height="8.499"/>
		
			<rect x="506.134" y="45.072" transform="matrix(0.0054 1 -1 0.0054 979.3943 -41.1495)" fill="#183F67" width="8.498" height="853.405"/>
		<g>
			<polygon fill="#69A5CE" points="78.484,363.719 946.494,360.317 944.796,373.921 78.484,382.423 			"/>
			<path fill="#183F67" d="M75.938,384.997V361.18l2.537-0.012l870.905-3.411l-2.334,18.692l-2.226,0.021L75.938,384.997z
				 M81.029,366.259v13.59l861.516-8.455l1.064-8.516L81.029,366.259z"/>
		</g>
		<g>
			<polygon fill="#69A5CE" points="78.484,394.327 943.098,387.524 943.098,407.93 78.484,413.031 			"/>
			<path fill="#183F67" d="M75.938,415.596v-23.798l2.526-0.02l867.179-6.822v25.509l-2.529,0.015L75.938,415.596z M81.029,396.857
				v13.609l859.521-5.07v-15.303L81.029,396.857z"/>
		</g>
	</g>
	<g>
		<path fill="#010101" d="M232.239,601.742c-13.238,0-24.01-10.771-24.01-24.01s10.771-24.01,24.01-24.01
			c13.24,0,24.012,10.771,24.012,24.01S245.479,601.742,232.239,601.742z M232.239,554.676c-12.713,0-23.056,10.344-23.056,23.057
			s10.343,23.057,23.056,23.057c12.714,0,23.057-10.344,23.057-23.057S244.953,554.676,232.239,554.676z"/>
		<circle fill="#69A5CE" cx="232.24" cy="577.732" r="115.317"/>
		<circle fill="#69A5CE" cx="232.24" cy="577.732" r="94.771"/>
		<path fill="#446B92" d="M310.581,569.854c-22.27,0.002-48.06-10.18-71.389-19.387c-11.305-4.463-21.981-8.676-30.889-11.117
			c-1.866-0.512-3.689-1.02-5.477-1.52c-18.019-5.023-32.25-8.99-50.746-4.764c-1.33,0.303-2.649-0.527-2.953-1.854
			c-0.304-1.328,0.526-2.65,1.854-2.953c19.715-4.512,34.479-0.393,53.17,4.82c1.781,0.498,3.597,1.004,5.456,1.514
			c9.165,2.512,19.963,6.773,31.396,11.285c28.711,11.332,61.25,24.172,84.863,16.945c1.304-0.402,2.681,0.332,3.08,1.635
			c0.398,1.303-0.334,2.682-1.635,3.08C322.052,569.15,316.437,569.854,310.581,569.854z"/>
		<path fill="#446B92" d="M324.123,591.07c-0.638,0-1.275-0.246-1.758-0.738c-14.626-14.873-46.312-22.375-65.196-15.439
			c-1.281,0.465-2.695-0.188-3.164-1.465c-0.469-1.279,0.186-2.695,1.465-3.164c20.422-7.5,54.641,0.572,70.411,16.611
			c0.955,0.971,0.942,2.533-0.029,3.486C325.372,590.834,324.747,591.07,324.123,591.07z"/>
		<path fill="#446B92" d="M208.239,603.398c-0.593,0-1.188-0.213-1.66-0.645c-25.088-22.879-46.691-33.562-66.027-32.645
			c-1.358,0.076-2.515-0.986-2.578-2.346c-0.064-1.361,0.986-2.516,2.346-2.58c20.721-0.967,43.478,10.121,69.582,33.926
			c1.006,0.918,1.078,2.479,0.16,3.484C209.575,603.127,208.909,603.398,208.239,603.398z"/>
		<path fill="#446B92" d="M276.042,624.355c-0.428,0-0.861-0.111-1.256-0.344c-0.18-0.107-4.438-2.645-8.6-6.084
			c-6.225-5.145-8.896-9.506-8.165-13.334c1.087-5.697,9.013-6.961,11.616-7.377c12.568-2.004,31.074,6.965,38.098,18.455
			c0.71,1.162,0.344,2.68-0.818,3.391c-1.163,0.707-2.68,0.342-3.39-0.818c-6.025-9.859-22.421-17.859-33.112-16.158
			c-4.452,0.711-7.274,1.994-7.549,3.434c-0.637,3.326,7.975,10.412,14.436,14.25c1.172,0.695,1.557,2.209,0.862,3.379
			C277.703,623.924,276.883,624.355,276.042,624.355z"/>
		<path fill="#446B92" d="M277.279,662.572c-0.793,0-1.571-0.381-2.048-1.088c-12.271-18.223-37.455-16.596-59.676-15.162
			c-8.393,0.541-16.318,1.055-23.3,0.545c-21.589-1.568-30.945-10.324-43.788-24.559c-0.912-1.01-0.832-2.568,0.179-3.48
			c1.012-0.914,2.571-0.834,3.482,0.178c13.128,14.551,21.402,21.557,40.484,22.943c6.644,0.484,14.407-0.018,22.624-0.549
			c23.545-1.516,50.232-3.242,64.084,17.33c0.762,1.129,0.463,2.66-0.667,3.422C278.231,662.438,277.753,662.572,277.279,662.572z"
			/>
		<path fill="#446B92" d="M186.365,637.84L186.365,637.84c-8.468,0-17.878-10.025-20.87-14.6c-0.467-0.713-0.532-1.613-0.175-2.387
			c0.357-0.771,1.087-1.305,1.932-1.41l9.862-1.232c0.467-0.055,0.951-0.08,1.463-0.08c5.293,0,15.725,2.99,17.674,8.951
			c0.711,2.172,0.584,5.477-4.059,8.879C190.491,637.207,188.53,637.84,186.365,637.84z M172.16,623.799
			c3.756,4.244,9.692,9.109,14.205,9.109c1.11,0,2.063-0.303,2.913-0.926c1.021-0.748,2.676-2.18,2.287-3.367
			c-0.76-2.322-7.446-5.553-12.988-5.553c-0.322,0-0.616,0.014-0.873,0.045L172.16,623.799z"/>
		<path fill="#446B92" d="M302.39,526.316c-7.861,0-13.8-4.787-19.594-9.457c-3.966-3.197-8.066-6.502-12.816-8.268
			c-4.937-1.834-10.298-1.57-15.974-1.291c-3.774,0.186-7.677,0.377-11.538-0.078c-10.408-1.232-17.332-5.742-24.66-10.518
			c-2.994-1.949-6.09-3.967-9.495-5.781c-1.201-0.641-1.656-2.135-1.016-3.336c0.642-1.203,2.135-1.656,3.336-1.016
			c3.595,1.916,6.783,3.994,9.866,6.002c7.129,4.645,13.285,8.654,22.549,9.752c3.451,0.408,6.98,0.234,10.715,0.049
			c5.924-0.289,12.049-0.592,17.936,1.594c5.501,2.047,9.92,5.607,14.192,9.051c7.627,6.146,13.65,11.002,23.71,6.744
			c1.256-0.531,2.701,0.055,3.232,1.309s-0.055,2.701-1.309,3.232C308.187,525.717,305.167,526.316,302.39,526.316z"/>
		<path fill="#446B92" d="M274.286,499.068c-16.494,0-47.549-3.719-52.308-15.566c-0.507-1.264,0.105-2.699,1.369-3.207
			s2.699,0.107,3.207,1.369c3.924,9.773,43.445,14.127,55.226,12.053c1.339-0.244,2.619,0.658,2.855,1.998
			c0.236,1.342-0.658,2.621-2,2.857C280.854,498.887,277.923,499.068,274.286,499.068z"/>
		<path fill="#A38E64" d="M334.634,598.678c-0.398,0.385-0.766,0.826-1.092,1.33c-2.633,4.051-4.309,10.117-3.922,14.922
			c0.354,4.373,8.206,12.652,9.395,4.422c0.764-5.291,2.178-10.686,5.178-15.164C348.497,597.76,339.401,594.064,334.634,598.678z"
			/>
		<path fill="#A38E64" d="M345.794,570.863c0.403-4.23-0.001-9.139-0.095-10.672c-0.362-5.92-2.485-11.559-3.235-17.426
			c-0.569-4.447,0.379-10.227-3.279-13.604c-2.53-2.334-5.98-1.674-7.893,1.014c-4.32,6.074,0.439,18.689,1.955,25.031
			c1.539,6.443-0.101,16.053,5.521,20.805C343.628,580.121,345.306,575.992,345.794,570.863z"/>
		<path fill="#A38E64" d="M143.458,514.279c-2.607-1.527-5.432-0.426-7.076,1.855c-10.456,14.51-16.865,31.045-17.135,49.045
			c-0.143,9.59,7.926-1.041,8.92-3.824c1.886-5.275,1.864-11.17,3.938-16.361C134.442,539.146,152.427,519.533,143.458,514.279z"/>
		<path fill="#A38E64" d="M159.024,650.354c-4.313-5.842-9.512-11.076-13.008-17.512c-1.625-2.99-2.641-4.506-4.717-7.109
			c-3.098-3.883-6.232-11.785-12.647-9.488c-0.044-0.002-0.089-0.006-0.134-0.008c-9.457-0.342,0.328,14.854,2.127,17.518
			c2.155,3.189,2.987,5.721,4.969,8.865c3.186,5.055,13.803,20.656,21.15,16.352C159.489,657.375,161.069,653.121,159.024,650.354z"
			/>
		<path fill="#A38E64" d="M277.705,672.236c-5.323,0.307-13.337,5.768-17.189,7.369c-3.33,1.383-6.712,2.672-10.175,3.684
			c-1.354,0.396-2.753,0.645-4.092,1.088c-0.426,0.141-0.865,0.227-1.293,0.357c-0.168,0.047-0.339,0.084-0.512,0.109
			c-0.322,0.059-0.559,0.109-0.731,0.152c-1.642,0.365-2.874,1.922-2.403,3.906c0.283,1.195,0.653,2.32,2.412,3.307
			c1.48,0.832,3.291,1.105,4.967,1.016c4.055-0.221,8.134-1.691,11.95-2.971c7.464-2.504,15.305-5.121,21.489-10.09
			c2.881-2.314,0.934-6.371-1.929-7.576C279.473,672.285,278.63,672.182,277.705,672.236z"/>
		<path fill="#A38E64" d="M276.93,468.613c-0.282-0.107-0.565-0.207-0.847-0.299c-4.758-1.543-7.884-1.994-12.668-4.227
			c-4.271-1.99-16.178-3.68-20.527-1.234c-1.059,0.596-2.041,2.021-1.888,3.297c1.057,8.74,11.618,5.977,17.192,8.855
			c7.105,3.668,15.064,11.316,22.455,1.471C283.601,472.539,280.414,469.951,276.93,468.613z"/>
		<path fill="#A38E64" d="M300.106,483.984c-1.92-8.713-15.973-6.613-14.339,2.078C287.354,494.502,302.221,493.58,300.106,483.984z
			"/>
		<path fill="#A38E64" d="M203.269,468.836c-4.852-4.77-16.519,0.695-12.119,7.664c4.525,7.17,19.003,0.066,12.387-7.383
			C203.449,469.02,203.36,468.926,203.269,468.836z"/>
		<path fill="#A38E64" d="M170.185,484.359c-3.493-0.658-6.559,1.277-9.299,3.283c-3.043,2.229-5.82,4.668-8.31,7.492
			c-2.378,2.697-0.433,6.496,2.497,7.209c1.684,0.408,5.908-2.422,7.249-3.242C164.769,497.607,179.261,486.07,170.185,484.359z"/>
		<path fill="#183F67" d="M232.239,695.588c-64.984,0-117.854-52.869-117.854-117.855s52.87-117.855,117.854-117.855
			c64.986,0,117.856,52.869,117.856,117.855S297.226,695.588,232.239,695.588z M232.239,464.953
			c-62.186,0-112.778,50.592-112.778,112.779s50.593,112.779,112.778,112.779c62.188,0,112.78-50.592,112.78-112.779
			S294.427,464.953,232.239,464.953z"/>
		<polygon opacity="0.5" fill="#6A8394" points="319.192,540.525 174.338,502.309 184.817,494.912 315.493,531.896 		"/>
		
			<rect x="161.061" y="528.385" transform="matrix(0.9632 0.2687 -0.2687 0.9632 152.5627 -46.0237)" opacity="0.5" fill="#6A8394" width="166.655" height="11.71"/>
		
			<rect x="137.852" y="570.446" transform="matrix(0.9647 0.2634 -0.2634 0.9647 160.0053 -40.9232)" opacity="0.5" fill="#6A8394" width="189.56" height="11.711"/>
		
			<rect x="134.303" y="602.007" transform="matrix(0.9646 0.2635 -0.2635 0.9646 168.1151 -37.5154)" opacity="0.5" fill="#6A8394" width="179.174" height="11.711"/>
		<polygon opacity="0.5" fill="#6A8394" points="298.579,649.537 141.669,607.713 139.203,595.385 301.613,638.227 		"/>
		<path opacity="0.5" fill="#6A8394" d="M271.112,662.572l-112.184-25.271c-1.739-0.43,7.598,9.213,9.211,11.848
			c1.064,1.35,2.121,2.705,3.182,4.059l78.834,18.611C250.624,671.934,274.253,663.344,271.112,662.572z"/>
		
			<rect x="176.631" y="515.083" transform="matrix(0.9673 0.2538 -0.2538 0.9673 139.4563 -46.0133)" fill="#183F67" width="142.851" height="4.77"/>
		
			<rect x="161.061" y="531.854" transform="matrix(0.9632 0.2687 -0.2687 0.9632 152.5568 -46.0228)" fill="#183F67" width="166.654" height="4.771"/>
		
			<rect x="137.852" y="573.528" transform="matrix(0.9647 0.2634 -0.2634 0.9647 160.0044 -40.9232)" fill="#183F67" width="189.561" height="5.547"/>
		
			<rect x="134.302" y="605.477" transform="matrix(0.9646 0.2635 -0.2635 0.9646 168.1142 -37.5153)" fill="#183F67" width="179.175" height="4.77"/>
		
			<rect x="138.39" y="620.188" transform="matrix(0.9659 0.259 -0.259 0.9659 168.8087 -35.9065)" fill="#183F67" width="164.514" height="4.77"/>
		
			<rect x="165.32" y="655.039" transform="matrix(0.9715 0.2372 -0.2372 0.9715 162.0308 -31.7154)" fill="#183F67" width="94.963" height="4.771"/>
		<path opacity="0.3" fill="#698394" d="M261.938,577.732c0,13.631-16.067,29.697-29.699,29.697
			c-13.63,0-29.697-16.066-29.697-29.697s16.067-29.697,29.697-29.697C245.871,548.035,261.938,564.102,261.938,577.732z"/>
		<path fill="#446B92" d="M204.614,562.463c-0.053,0-0.105-0.002-0.159-0.004c-6.648-0.424-12.587-4.988-18.329-9.402
			c-3.585-2.754-6.971-5.357-10.272-6.781c-7.47-3.221-11.325-3.506-19.653-1.451c-1.323,0.322-2.658-0.48-2.984-1.803
			s0.481-2.658,1.804-2.984c9.396-2.318,14.294-1.951,22.786,1.711c3.866,1.666,7.658,4.58,11.326,7.4
			c5.156,3.963,10.488,8.061,15.636,8.389c1.358,0.086,2.391,1.258,2.304,2.617C206.989,561.459,205.903,562.463,204.614,562.463z"
			/>
		<path fill="#446B92" d="M224.029,560.615c-0.156,0-0.314-0.016-0.474-0.047c-7.098-1.381-13.355-5.094-19.408-8.682
			c-4.788-2.84-9.31-5.521-14.172-7.113c-1.294-0.422-2-1.814-1.576-3.109s1.816-2.004,3.11-1.576
			c5.377,1.76,10.347,4.707,15.152,7.557c5.954,3.531,11.577,6.865,17.836,8.084c1.337,0.26,2.21,1.555,1.948,2.893
			C226.218,559.797,225.186,560.615,224.029,560.615z"/>
		<g>
			<path fill="#69A5CE" d="M255.773,577.732c0,10.803-12.731,23.533-23.534,23.533c-10.801,0-23.533-12.73-23.533-23.533
				s12.732-23.533,23.533-23.533C243.042,554.199,255.773,566.93,255.773,577.732z"/>
			<path fill="#183F67" d="M232.239,604.348c-12.437,0-26.615-14.178-26.615-26.615s14.179-26.615,26.615-26.615
				c12.438,0,26.616,14.178,26.616,26.615S244.677,604.348,232.239,604.348z M232.239,557.281c-9.174,0-20.451,11.277-20.451,20.451
				s11.277,20.451,20.451,20.451c9.176,0,20.452-11.277,20.452-20.451S241.415,557.281,232.239,557.281z"/>
		</g>
		<g>
			<path fill="#69A5CE" d="M244.479,575.52c1.016,5.617-4.408,13.436-10.027,14.451c-5.617,1.018-13.436-4.408-14.451-10.025
				c-1.017-5.617,4.408-13.436,10.026-14.451S243.464,569.902,244.479,575.52z"/>
			<path fill="#183F67" d="M233.028,591.725c-6.336,0-13.582-5.691-14.631-11.488c-0.561-3.1,0.457-6.807,2.791-10.172
				c2.334-3.363,5.449-5.613,8.549-6.172c0.549-0.1,1.125-0.15,1.715-0.15c6.336,0,13.582,5.689,14.631,11.488
				c0.56,3.1-0.457,6.807-2.791,10.17s-5.449,5.613-8.55,6.174C234.194,591.674,233.617,591.725,233.028,591.725z M231.452,567
				c-0.395,0-0.777,0.033-1.135,0.098c-2.223,0.4-4.635,2.205-6.453,4.824c-1.817,2.621-2.662,5.512-2.26,7.734
				c0.773,4.281,6.646,8.811,11.424,8.811c0.395,0,0.776-0.033,1.135-0.098c2.223-0.402,4.635-2.207,6.452-4.826
				s2.663-5.512,2.261-7.732C242.103,571.529,236.23,567,231.452,567z"/>
		</g>
		<path opacity="0.5" fill="#6A8394" d="M232.076,677.326c-54.196,0-98.29-44.68-98.29-99.602c0-26.422,10.189-51.549,28.691-70.754
			c18.701-19.41,43.419-30.102,69.599-30.102c26.194,0,50.968,10.688,69.755,30.094c18.612,19.227,28.863,44.357,28.863,70.762
			c0,26.346-10.262,51.264-28.895,70.166C283.089,666.873,258.327,677.326,232.076,677.326z M232.076,486.607
			c-23.51,0-45.736,9.633-62.585,27.121c-16.744,17.379-25.965,40.107-25.965,63.996c0,23.795,9.21,46.289,25.934,63.338
			c16.779,17.105,39.017,26.525,62.616,26.525c23.624,0,45.923-9.424,62.788-26.533c16.824-17.068,26.09-39.561,26.09-63.33
			c0-23.863-9.275-46.588-26.121-63.988C277.897,496.242,255.61,486.607,232.076,486.607z"/>
		<path fill="#183F67" d="M232.074,676.133c-53.524,0-97.071-44.143-97.071-98.4c0-26.115,10.074-50.955,28.365-69.939
			c18.47-19.172,42.87-29.73,68.706-29.73c25.854,0,50.312,10.557,68.868,29.725c18.4,19.008,28.535,43.848,28.535,69.945
			c0,26.027-10.141,50.648-28.551,69.326C282.446,665.807,257.993,676.133,232.074,676.133z M232.074,482.994
			c-24.483,0-47.623,10.021-65.154,28.219c-17.401,18.062-26.985,41.686-26.985,66.52c0,24.746,9.578,48.139,26.97,65.869
			c17.46,17.799,40.604,27.6,65.17,27.6c24.589,0,47.794-9.803,65.341-27.604c17.495-17.75,27.131-41.141,27.131-65.865
			c0-24.811-9.641-48.432-27.146-66.516C279.78,493.018,256.58,482.994,232.074,482.994z"/>
	</g>
	<g>
		<path fill="#010101" d="M790.787,601.742c-13.238,0-24.01-10.771-24.01-24.01s10.771-24.01,24.01-24.01
			c13.24,0,24.012,10.771,24.012,24.01S804.027,601.742,790.787,601.742z M790.787,554.676c-12.713,0-23.056,10.344-23.056,23.057
			s10.343,23.057,23.056,23.057c12.714,0,23.057-10.344,23.057-23.057S803.501,554.676,790.787,554.676z"/>
		<circle fill="#69A5CE" cx="790.788" cy="577.732" r="115.317"/>
		<circle fill="#69A5CE" cx="790.788" cy="577.732" r="94.771"/>
		<path fill="#446B92" d="M869.129,569.854c-22.27,0.002-48.06-10.18-71.389-19.387c-11.305-4.463-21.981-8.676-30.889-11.117
			c-1.866-0.512-3.689-1.02-5.477-1.52c-18.019-5.023-32.25-8.99-50.746-4.764c-1.33,0.303-2.649-0.527-2.953-1.854
			c-0.304-1.328,0.526-2.65,1.854-2.953c19.715-4.512,34.479-0.393,53.17,4.82c1.781,0.498,3.597,1.004,5.456,1.514
			c9.165,2.512,19.963,6.773,31.396,11.285c28.711,11.332,61.25,24.172,84.863,16.945c1.304-0.402,2.681,0.332,3.08,1.635
			c0.398,1.303-0.334,2.682-1.635,3.08C880.6,569.15,874.984,569.854,869.129,569.854z"/>
		<path fill="#446B92" d="M882.671,591.07c-0.638,0-1.275-0.246-1.758-0.738c-14.626-14.873-46.312-22.375-65.196-15.439
			c-1.281,0.465-2.695-0.188-3.164-1.465c-0.469-1.279,0.186-2.695,1.465-3.164c20.422-7.5,54.641,0.572,70.411,16.611
			c0.955,0.971,0.942,2.533-0.029,3.486C883.92,590.834,883.295,591.07,882.671,591.07z"/>
		<path fill="#446B92" d="M766.787,603.398c-0.593,0-1.188-0.213-1.66-0.645c-25.088-22.879-46.691-33.562-66.027-32.645
			c-1.358,0.076-2.515-0.986-2.578-2.346c-0.064-1.361,0.986-2.516,2.346-2.58c20.721-0.967,43.478,10.121,69.582,33.926
			c1.006,0.918,1.078,2.479,0.16,3.484C768.123,603.127,767.457,603.398,766.787,603.398z"/>
		<path fill="#446B92" d="M834.59,624.355c-0.428,0-0.861-0.111-1.256-0.344c-0.18-0.107-4.438-2.645-8.6-6.084
			c-6.225-5.145-8.896-9.506-8.165-13.334c1.087-5.697,9.013-6.961,11.616-7.377c12.568-2.004,31.074,6.965,38.098,18.455
			c0.71,1.162,0.344,2.68-0.818,3.391c-1.163,0.707-2.68,0.342-3.39-0.818c-6.025-9.859-22.421-17.859-33.112-16.158
			c-4.452,0.711-7.274,1.994-7.549,3.434c-0.637,3.326,7.975,10.412,14.436,14.25c1.172,0.695,1.557,2.209,0.862,3.379
			C836.251,623.924,835.431,624.355,834.59,624.355z"/>
		<path fill="#446B92" d="M835.827,662.572c-0.793,0-1.571-0.381-2.048-1.088c-12.271-18.223-37.455-16.596-59.676-15.162
			c-8.393,0.541-16.318,1.055-23.3,0.545c-21.589-1.568-30.945-10.324-43.788-24.559c-0.912-1.01-0.832-2.568,0.179-3.48
			c1.012-0.914,2.571-0.834,3.482,0.178c13.128,14.551,21.402,21.557,40.484,22.943c6.644,0.484,14.407-0.018,22.624-0.549
			c23.545-1.516,50.232-3.242,64.084,17.33c0.762,1.129,0.463,2.66-0.667,3.422C836.779,662.438,836.301,662.572,835.827,662.572z"
			/>
		<path fill="#446B92" d="M744.913,637.84C744.913,637.84,744.913,637.84,744.913,637.84c-8.468,0-17.878-10.025-20.87-14.6
			c-0.467-0.713-0.532-1.613-0.175-2.387c0.357-0.771,1.087-1.305,1.932-1.41l9.862-1.232c0.467-0.055,0.951-0.08,1.463-0.08
			c5.293,0,15.725,2.99,17.674,8.951c0.711,2.172,0.584,5.477-4.059,8.879C749.039,637.207,747.078,637.84,744.913,637.84z
			 M730.708,623.799c3.756,4.244,9.692,9.109,14.205,9.109c1.11,0,2.063-0.303,2.913-0.926c1.021-0.748,2.676-2.18,2.287-3.367
			c-0.76-2.322-7.446-5.553-12.988-5.553c-0.322,0-0.616,0.014-0.873,0.045L730.708,623.799z"/>
		<path fill="#446B92" d="M860.938,526.316c-7.861,0-13.8-4.787-19.594-9.457c-3.966-3.197-8.066-6.502-12.816-8.268
			c-4.937-1.834-10.298-1.57-15.974-1.291c-3.774,0.186-7.677,0.377-11.538-0.078c-10.408-1.232-17.332-5.742-24.66-10.518
			c-2.994-1.949-6.09-3.967-9.495-5.781c-1.201-0.641-1.656-2.135-1.016-3.336c0.642-1.203,2.135-1.656,3.336-1.016
			c3.595,1.916,6.783,3.994,9.866,6.002c7.129,4.645,13.285,8.654,22.549,9.752c3.451,0.408,6.98,0.234,10.715,0.049
			c5.924-0.289,12.049-0.592,17.936,1.594c5.501,2.047,9.92,5.607,14.192,9.051c7.627,6.146,13.65,11.002,23.71,6.744
			c1.256-0.531,2.701,0.055,3.232,1.309s-0.055,2.701-1.309,3.232C866.734,525.717,863.715,526.316,860.938,526.316z"/>
		<path fill="#446B92" d="M832.834,499.068c-16.494,0-47.549-3.719-52.308-15.566c-0.507-1.264,0.105-2.699,1.369-3.207
			s2.699,0.107,3.207,1.369c3.924,9.773,43.445,14.127,55.226,12.053c1.339-0.244,2.619,0.658,2.855,1.998
			c0.236,1.342-0.658,2.621-2,2.857C839.402,498.887,836.471,499.068,832.834,499.068z"/>
		<path fill="#A38E64" d="M893.182,598.678c-0.398,0.385-0.766,0.826-1.092,1.33c-2.633,4.051-4.309,10.117-3.922,14.922
			c0.354,4.373,8.206,12.652,9.395,4.422c0.764-5.291,2.178-10.686,5.178-15.164C907.045,597.76,897.949,594.064,893.182,598.678z"
			/>
		<path fill="#A38E64" d="M904.342,570.863c0.403-4.23-0.001-9.139-0.095-10.672c-0.362-5.92-2.485-11.559-3.235-17.426
			c-0.569-4.447,0.379-10.227-3.279-13.604c-2.53-2.334-5.98-1.674-7.893,1.014c-4.32,6.074,0.439,18.689,1.955,25.031
			c1.539,6.443-0.101,16.053,5.521,20.805C902.176,580.121,903.854,575.992,904.342,570.863z"/>
		<path fill="#A38E64" d="M702.006,514.279c-2.607-1.527-5.432-0.426-7.076,1.855c-10.456,14.51-16.865,31.045-17.135,49.045
			c-0.143,9.59,7.926-1.041,8.92-3.824c1.886-5.275,1.864-11.17,3.938-16.361C692.99,539.146,710.975,519.533,702.006,514.279z"/>
		<path fill="#A38E64" d="M717.572,650.354c-4.313-5.842-9.512-11.076-13.008-17.512c-1.625-2.99-2.641-4.506-4.717-7.109
			c-3.098-3.883-6.232-11.785-12.647-9.488c-0.044-0.002-0.089-0.006-0.134-0.008c-9.457-0.342,0.328,14.854,2.127,17.518
			c2.155,3.189,2.987,5.721,4.969,8.865c3.186,5.055,13.803,20.656,21.15,16.352C718.037,657.375,719.617,653.121,717.572,650.354z"
			/>
		<path fill="#A38E64" d="M836.253,672.236c-5.323,0.307-13.337,5.768-17.189,7.369c-3.33,1.383-6.712,2.672-10.175,3.684
			c-1.354,0.396-2.753,0.645-4.092,1.088c-0.426,0.141-0.865,0.227-1.293,0.357c-0.168,0.047-0.339,0.084-0.512,0.109
			c-0.322,0.059-0.559,0.109-0.731,0.152c-1.642,0.365-2.874,1.922-2.403,3.906c0.283,1.195,0.653,2.32,2.412,3.307
			c1.48,0.832,3.291,1.105,4.967,1.016c4.055-0.221,8.134-1.691,11.95-2.971c7.464-2.504,15.305-5.121,21.489-10.09
			c2.881-2.314,0.934-6.371-1.929-7.576C838.021,672.285,837.178,672.182,836.253,672.236z"/>
		<path fill="#A38E64" d="M835.478,468.613c-0.282-0.107-0.565-0.207-0.847-0.299c-4.758-1.543-7.884-1.994-12.668-4.227
			c-4.271-1.99-16.178-3.68-20.527-1.234c-1.059,0.596-2.041,2.021-1.888,3.297c1.057,8.74,11.618,5.977,17.192,8.855
			c7.105,3.668,15.064,11.316,22.455,1.471C842.148,472.539,838.962,469.951,835.478,468.613z"/>
		<path fill="#A38E64" d="M858.654,483.984c-1.92-8.713-15.973-6.613-14.339,2.078C845.901,494.502,860.769,493.58,858.654,483.984z
			"/>
		<path fill="#A38E64" d="M761.816,468.836c-4.852-4.77-16.519,0.695-12.119,7.664c4.525,7.17,19.003,0.066,12.387-7.383
			C761.997,469.02,761.908,468.926,761.816,468.836z"/>
		<path fill="#A38E64" d="M728.732,484.359c-3.493-0.658-6.559,1.277-9.299,3.283c-3.043,2.229-5.82,4.668-8.31,7.492
			c-2.378,2.697-0.433,6.496,2.497,7.209c1.684,0.408,5.908-2.422,7.249-3.242C723.316,497.607,737.809,486.07,728.732,484.359z"/>
		<path fill="#183F67" d="M790.787,695.588c-64.984,0-117.854-52.869-117.854-117.855s52.87-117.855,117.854-117.855
			c64.986,0,117.856,52.869,117.856,117.855S855.773,695.588,790.787,695.588z M790.787,464.953
			c-62.186,0-112.778,50.592-112.778,112.779s50.593,112.779,112.778,112.779c62.188,0,112.78-50.592,112.78-112.779
			S852.975,464.953,790.787,464.953z"/>
		<polygon opacity="0.5" fill="#6A8394" points="877.74,540.525 732.886,502.309 743.365,494.912 874.041,531.896 		"/>
		
			<rect x="719.608" y="528.385" transform="matrix(0.9632 0.2687 -0.2687 0.9632 173.1104 -196.1285)" opacity="0.5" fill="#6A8394" width="166.655" height="11.71"/>
		
			<rect x="696.4" y="570.446" transform="matrix(0.9647 0.2634 -0.2634 0.9647 179.7276 -188.0381)" opacity="0.5" fill="#6A8394" width="189.56" height="11.711"/>
		
			<rect x="692.85" y="602.007" transform="matrix(0.9646 0.2635 -0.2635 0.9646 187.8615 -184.7186)" opacity="0.5" fill="#6A8394" width="179.174" height="11.711"/>
		<polygon opacity="0.5" fill="#6A8394" points="857.127,649.537 700.217,607.713 697.751,595.385 860.161,638.227 		"/>
		<path opacity="0.5" fill="#6A8394" d="M829.66,662.572l-112.184-25.271c-1.739-0.43,7.598,9.213,9.211,11.848
			c1.064,1.35,2.121,2.705,3.182,4.059l78.834,18.611C809.172,671.934,832.801,663.344,829.66,662.572z"/>
		
			<rect x="735.179" y="515.083" transform="matrix(0.9673 0.2538 -0.2538 0.9673 157.7452 -187.7736)" fill="#183F67" width="142.851" height="4.77"/>
		
			<rect x="719.609" y="531.854" transform="matrix(0.9632 0.2687 -0.2687 0.9632 173.103 -196.1223)" fill="#183F67" width="166.654" height="4.771"/>
		
			<rect x="696.399" y="573.528" transform="matrix(0.9647 0.2634 -0.2634 0.9647 179.7266 -188.0373)" fill="#183F67" width="189.561" height="5.547"/>
		
			<rect x="692.85" y="605.477" transform="matrix(0.9646 0.2635 -0.2635 0.9646 187.8605 -184.7177)" fill="#183F67" width="179.175" height="4.77"/>
		
			<rect x="696.938" y="620.188" transform="matrix(0.9659 0.259 -0.259 0.9659 187.8751 -180.5975)" fill="#183F67" width="164.514" height="4.77"/>
		
			<rect x="723.868" y="655.039" transform="matrix(0.9715 0.2372 -0.2372 0.9715 177.9745 -164.2159)" fill="#183F67" width="94.963" height="4.771"/>
		<path opacity="0.3" fill="#698394" d="M820.486,577.732c0,13.631-16.067,29.697-29.699,29.697
			c-13.63,0-29.697-16.066-29.697-29.697s16.067-29.697,29.697-29.697C804.419,548.035,820.486,564.102,820.486,577.732z"/>
		<path fill="#446B92" d="M763.162,562.463c-0.053,0-0.105-0.002-0.159-0.004c-6.648-0.424-12.587-4.988-18.329-9.402
			c-3.585-2.754-6.971-5.357-10.272-6.781c-7.47-3.221-11.325-3.506-19.653-1.451c-1.323,0.322-2.658-0.48-2.984-1.803
			s0.481-2.658,1.804-2.984c9.396-2.318,14.294-1.951,22.786,1.711c3.866,1.666,7.658,4.58,11.326,7.4
			c5.156,3.963,10.488,8.061,15.636,8.389c1.358,0.086,2.391,1.258,2.304,2.617C765.537,561.459,764.451,562.463,763.162,562.463z"
			/>
		<path fill="#446B92" d="M782.577,560.615c-0.156,0-0.314-0.016-0.474-0.047c-7.098-1.381-13.355-5.094-19.408-8.682
			c-4.788-2.84-9.31-5.521-14.172-7.113c-1.294-0.422-2-1.814-1.576-3.109s1.816-2.004,3.11-1.576
			c5.377,1.76,10.347,4.707,15.152,7.557c5.954,3.531,11.577,6.865,17.836,8.084c1.337,0.26,2.21,1.555,1.948,2.893
			C784.766,559.797,783.733,560.615,782.577,560.615z"/>
		<g>
			<path fill="#69A5CE" d="M814.321,577.732c0,10.803-12.731,23.533-23.534,23.533c-10.801,0-23.533-12.73-23.533-23.533
				s12.732-23.533,23.533-23.533C801.59,554.199,814.321,566.93,814.321,577.732z"/>
			<path fill="#183F67" d="M790.787,604.348c-12.437,0-26.615-14.178-26.615-26.615s14.179-26.615,26.615-26.615
				c12.438,0,26.616,14.178,26.616,26.615S803.225,604.348,790.787,604.348z M790.787,557.281c-9.174,0-20.451,11.277-20.451,20.451
				s11.277,20.451,20.451,20.451c9.176,0,20.452-11.277,20.452-20.451S799.963,557.281,790.787,557.281z"/>
		</g>
		<g>
			<path fill="#69A5CE" d="M803.027,575.52c1.016,5.617-4.408,13.436-10.027,14.451c-5.617,1.018-13.436-4.408-14.451-10.025
				c-1.017-5.617,4.408-13.436,10.026-14.451S802.012,569.902,803.027,575.52z"/>
			<path fill="#183F67" d="M791.576,591.725c-6.336,0-13.582-5.691-14.631-11.488c-0.561-3.1,0.457-6.807,2.791-10.172
				c2.334-3.363,5.449-5.613,8.549-6.172c0.549-0.1,1.125-0.15,1.715-0.15c6.336,0,13.582,5.689,14.631,11.488
				c0.56,3.1-0.457,6.807-2.791,10.17s-5.449,5.613-8.55,6.174C792.742,591.674,792.165,591.725,791.576,591.725z M790,567
				c-0.395,0-0.777,0.033-1.135,0.098c-2.223,0.4-4.635,2.205-6.453,4.824c-1.817,2.621-2.662,5.512-2.26,7.734
				c0.773,4.281,6.646,8.811,11.424,8.811c0.395,0,0.776-0.033,1.135-0.098c2.223-0.402,4.635-2.207,6.452-4.826
				s2.663-5.512,2.261-7.732C800.65,571.529,794.778,567,790,567z"/>
		</g>
		<path opacity="0.5" fill="#6A8394" d="M790.624,677.326c-54.196,0-98.29-44.68-98.29-99.602c0-26.422,10.189-51.549,28.691-70.754
			c18.701-19.41,43.419-30.102,69.599-30.102c26.194,0,50.968,10.688,69.755,30.094c18.612,19.227,28.863,44.357,28.863,70.762
			c0,26.346-10.262,51.264-28.895,70.166C841.637,666.873,816.875,677.326,790.624,677.326z M790.624,486.607
			c-23.51,0-45.736,9.633-62.585,27.121c-16.744,17.379-25.965,40.107-25.965,63.996c0,23.795,9.21,46.289,25.934,63.338
			c16.779,17.105,39.017,26.525,62.616,26.525c23.624,0,45.923-9.424,62.788-26.533c16.824-17.068,26.09-39.561,26.09-63.33
			c0-23.863-9.275-46.588-26.121-63.988C836.445,496.242,814.158,486.607,790.624,486.607z"/>
		<path fill="#183F67" d="M790.622,676.133c-53.524,0-97.071-44.143-97.071-98.4c0-26.115,10.074-50.955,28.365-69.939
			c18.47-19.172,42.87-29.73,68.706-29.73c25.854,0,50.312,10.557,68.868,29.725c18.4,19.008,28.535,43.848,28.535,69.945
			c0,26.027-10.141,50.648-28.551,69.326C840.994,665.807,816.541,676.133,790.622,676.133z M790.622,482.994
			c-24.483,0-47.623,10.021-65.154,28.219c-17.401,18.062-26.985,41.686-26.985,66.52c0,24.746,9.578,48.139,26.97,65.869
			c17.46,17.799,40.604,27.6,65.17,27.6c24.589,0,47.794-9.803,65.341-27.604c17.495-17.75,27.131-41.141,27.131-65.865
			c0-24.811-9.641-48.432-27.146-66.516C838.328,493.018,815.128,482.994,790.622,482.994z"/>
	</g>
</g>
</svg>
