<?xml version="1.0" encoding="utf-8"?>
<!-- Generator: Adobe Illustrator 16.0.0, SVG Export Plug-In . SVG Version: 6.00 Build 0)  -->
<!DOCTYPE svg PUBLIC "-//W3C//DTD SVG 1.1//EN" "http://www.w3.org/Graphics/SVG/1.1/DTD/svg11.dtd">
<svg version="1.1" xmlns="http://www.w3.org/2000/svg" xmlns:xlink="http://www.w3.org/1999/xlink" x="0px" y="0px" width="2272px"
	 height="2272px" viewBox="0 0 2272 2272" enable-background="new 0 0 2272 2272" xml:space="preserve">
<symbol  id="PC" viewBox="-153.738 -222.29 307.475 444.578">
	<polygon fill="#E6B28C" points="8.324,-154.27 -15.717,-158.924 -11.064,-178.312 11.426,-172.884 	"/>
	<polygon fill="#E6B28C" points="-40.534,-175.984 -63.801,-176.762 -66.128,-156.598 -42.861,-158.924 	"/>
	<path fill="#E6B28C" d="M-115.247,170.418c0,0-22.229-51.696-8.785-90.992c13.438-39.295,35.152-51.703,69.277-53.772
		c34.123-2.068,66.18,7.241,74.451,15.512c8.277,8.273,15.512,22.751,15.512,22.751l9.827,36.189l-10.342-3.103
		c-1.587,12.964,0.006,50.214-25.332,72.386c-9.307,3.102-20.686,5.168-20.686,5.168s-38.255,0-43.423,16.544
		C-67.157,185.933-104.389,163.179-115.247,170.418"/>
	<path fill="#E6B28C" d="M-50.616,26.69c0,0-10.337-32.058,5.174-45.499c11.372,8.273,26.883,25.85,23.781,44.462
		C-33.034,23.588-50.616,26.69-50.616,26.69z"/>
	<path fill="#BD3B21" d="M-44.413,215.918c0,0-22.751-34.125,0-37.227c22.751-3.101,53.773-5.168,65.145-20.679
		c11.379-15.511,17.577-36.195,13.96-61.01c5.688-2.068,10.342,3.103,10.342,3.103l5.69,4.135c0,0,4.137,9.307,11.372,0
		c5.168,1.036,7.241,20.682,7.241,20.682s35.154,21.716,32.051-122.017c12.409,16.544,39.298,74.452,39.298,74.452
		s17.577,39.292,4.132,70.312c-13.438,31.021-46.532,44.467-78.583,20.683C64.163,172.488,35.208,236.6-44.413,215.918z"/>
	<path fill="#BD3B21" d="M-45.963,213.334l-9.307-16.286c0,0-4.652-10.858-11.633-14.736c-6.979-3.877-50.409-19.388-50.409-19.388
		s13.959,40.07,43.43,46.531C-44.413,215.918-45.963,213.334-45.963,213.334z"/>
	<path fill="#CCA283" d="M50.725,104.24c0,0,10.336,9.825,14.214,2.845c3.877-6.979,3.102-27.144,3.102-27.144L40.896,68.309
		l1.551,14.734v15.512L50.725,104.24z"/>
	<path fill="#FFFFFF" d="M-116.798,111.48c0,0,8.664,21.322,23.787,16.544c19.644-6.204,18.092-16.025,18.092-16.025
		s-2.066-17.062-21.715-16.546C-115.265,95.943-116.798,111.48-116.798,111.48z"/>
	<path fill="#FFFFFF" d="M-36.142,111.48c0,0,8.664,21.322,23.787,16.544c19.642-6.204,18.092-16.025,18.092-16.025
		S3.671,94.937-15.978,95.453C-34.608,95.943-36.142,111.48-36.142,111.48z"/>
	<path fill="#E6B28C" d="M88.204-116.27c0,0,0.775,34.9-25.592,40.328c-10.857-2.326-24.818-6.979-24.818-6.979
		s3.878-10.857,0-22.491c2.327-1.55,6.205-2.326,6.205-2.326l6.204,10.858c0,0,12.409-10.858,14.735-25.594
		C72.693-120.922,88.204-116.27,88.204-116.27z"/>
	<path fill="#E6B28C" d="M-109.557-79.044c0,0,3.102-12.407-0.776-22.489c0-1.552-6.204-4.654-6.204-4.654l-4.654,9.308
		c0,0-6.979-13.185-5.428-24.042c-5.429,0-22.49,3.878-22.49,3.878s-3.103,41.103,17.837,44.979
		C-123.517-74.391-109.557-79.044-109.557-79.044z"/>
	<path fill="#B89A58" d="M37.794-145.738c0,0-79.104-29.473-133.392-0.777c-0.776,27.144,17.838,96.943,17.838,96.943l-29.47-29.472
		l-21.716,6.979c0,0,31.022,80.656,59.717,93.065c8.531,3.878,20.938,2.327,20.938,2.327s-10.336-27.662,4.138-42.137
		c9.046,4.91,22.751,20.712,24.303,40.876c8.531,3.878,22.745,5.914,22.745,5.914s24.818-3.103,40.329-48.085
		c15.51-44.98,24.041-52.735,24.041-52.735L38.57-80.596L15.304-36.389C15.304-36.389,23.835-124.024,37.794-145.738z"/>
	<path fill="#C3C3C4" d="M-63.025-73.614l31.021,1.55c0,0,3.877-24.815-0.776-31.021c-10.082-0.775-32.573,1.552-32.573,1.552
		L-63.025-73.614z"/>
	<path fill="#8E5135" d="M-40.534-175.984c0,0-3.103-17.839,7.755-42.655c-50.41,0-69.022-2.327-69.022-2.327
		s4.653,41.879,41.879,27.144c-2.327,11.634-4.654,20.164-4.654,20.164L-40.534-175.984z"/>
	<path fill="#8E5135" d="M-14.167-177.536c0,0,6.204-13.185,3.877-22.491c-6.979-6.98-11.632-11.633-9.307-17.837
		c13.96-2.327,57.39-2.327,57.39-2.327s-1.55,31.021-31.021,24.043c3.102,16.285,4.653,23.265,4.653,23.265L-14.167-177.536z"/>
	<path fill="#C49470" d="M62.176,88.911c-2.442-2.281-4.327-4.171-7.532-5.438c-3.363-1.33-7.034-1.966-10.645-2.036
		c-5.029-0.096-6.471-8.043-1.224-9.033c9.664-1.821,23.678,1.729,27.768,11.636C72.584,88.984,65.514,92.032,62.176,88.911z"/>
	<path fill="#C49470" d="M34.692,93.901C29.263,34.184-46.866,17.116-90.169,44.266c-3.956,2.482-9.7,0.129-6.047-2.941
		C-53.519,5.453,31.59,15.571,44.774,95.453C45.755,101.377,35.226,99.778,34.692,93.901z"/>
	<path fill="#C49470" d="M64.259-78.201c-8.276,2.893-18.697-0.307-26.483-3.375c-3.563-1.402-2.259-6.58,1.594-5.789
		c3.496,0.715,6.974,1.503,10.482,2.163c4.599,0.87,8.943,0.372,13.536,0.548C67.186-84.506,67.744-79.418,64.259-78.201z"/>
	<path fill="#C49470" d="M-114.901-78.574c-6.199,3.663-13.766,7.456-21.104,5.737c-4.132-0.965-2.284-6.806,1.715-6.209
		c6.064,0.907,11.402-3.727,16.891-5.447C-113.835-85.605-111.781-80.42-114.901-78.574z"/>
	<path fill="#C49470" d="M8.997-156.497c-7.604-1.533-14.535-3.232-22.387-3.12c-3.509,0.052-4.459-5.729-0.842-6.253
		c8.421-1.227,17.977-0.2,25.786,3.305C15.177-160.938,12.468-155.798,8.997-156.497z"/>
	<path fill="#C49470" d="M-42.007-159.705c-7.21,2.372-15.062-0.31-22.46,0.891c-4.157,0.676-6.022-5.553-1.77-6.422
		c7.501-1.527,15.754-0.691,23.375-0.776C-39.123-166.052-38.638-160.813-42.007-159.705z"/>
	<path fill="#C49470" d="M-23.721,21.628c-8.107-1.888-16.177-1.424-24.327-0.036c-4.817,0.82-6.9-6.521-2.035-7.386
		c9.469-1.678,19-2.473,28.416-0.034C-16.833,15.423-18.88,22.754-23.721,21.628z"/>
	<path fill="#C49470" d="M-81.753,177.028c-15.625-5.547-33.742-10.368-39.213-28.046c-1.145-3.708,4.501-5.181,5.757-1.587
		c5.155,14.762,22.387,17.925,35.243,23.142C-76.046,172.127-77.597,178.505-81.753,177.028z"/>
	<path fill="#856B35" d="M30.385-140.342C16.467-101.54,19.254-59.474,6.688-20.654c-1.563,4.829-10.021,4.264-9.301-1.257
		c5.217-40.109,8.241-83.188,21.97-121.468C21.83-150.269,32.875-147.3,30.385-140.342z"/>
	<path fill="#856B35" d="M59.66-68.152c-5.713,21.915-12.432,45.281-23.556,65.12c-2.975,5.303-10.397,0.655-7.992-4.667
		C37.376-28.191,41.86-50.01,50.058-70.801C52.36-76.641,61.315-74.509,59.66-68.152z"/>
	<path fill="#856B35" d="M-91.635-39.836c-8.416-8.602-16.377-18.301-23.327-28.119c-3.32-4.699,4.205-10.461,7.955-6.135
		c7.641,8.82,15.766,17.485,22.958,26.671C-79.911-42.133-86.661-34.756-91.635-39.836z"/>
	<path fill="#856B35" d="M2.12,31.328c-3.975-0.395-6.853-3.166-10.3-5.041c-3.635-1.969-7.64-3.359-11.669-4.22
		c-5.301-1.134-4.174-10.197,1.291-9.544c5.131,0.616,9.669,2.036,14.371,4.17c4.193,1.898,9.125,4.256,10.786,8.764
		C7.579,28.125,4.998,31.613,2.12,31.328z"/>
	<path fill="#856B35" d="M-57.488,25.087c-2.09,0.706-4.344,1.421-6.567,1.315c-2.66-0.125-4.89-2.127-4.89-4.885
		c0-2.895,2.241-4.579,4.89-4.886c-1.722,0.2-0.328-0.006,0.084-0.124c0.454-0.13,0.915-0.239,1.37-0.376
		c0.92-0.272,1.823-0.599,2.726-0.933c3.575-1.334,7.265,0.243,7.628,4.25C-51.961,22.661-54.93,24.227-57.488,25.087z"/>
	<path fill="#9C2B13" d="M104.66,111.583c-3.363,12.825-17.952,41.962-33.427,24.033c0.678,15.938-2.417,31.733-10.949,45.921
		c-4.01,6.673-22.254,11.418-19.388,4.652c10.137-23.914,18.068-54.857,5.429-82.206c-2.436-5.278,6.482-0.388,9.833,2.95
		c2.538-3.408,9.064-3.668,10.584,1.687c1.794,6.296,3.108,12.703,3.865,19.125c1.254-1.077,3.109-1.514,5.187-0.599
		c10.603,4.656,12.99-3.92,15.965-13.033c2.193-6.725,3.514-13.771,4.841-20.709c5.732-29.971,1.484-60.073,1.764-90.24
		c0.066-7.062,9.233,6.503,10.002,13.184C112.476,52.037,113.821,76.595,104.66,111.583z"/>
	<path fill="#4F3A2A" d="M-30.967-77.75c0,0,38.261-1.033,48.598,6.204c2.072-7.239,1.036-21.716,1.036-21.716
		s-35.154-7.236-49.634-3.101C-32.003-89.126-30.967-77.75-30.967-77.75z"/>
	<path fill="#4F3A2A" d="M-67.157-77.75c0,0-13.445,0-20.685,4.136c-2.066-13.442-2.169-19.552-2.169-19.552l22.854-3.196V-77.75z"
		/>
	<g>
		<path fill="#513C2D" d="M-64.595-155.745c0,0,0.393-2.291,0.982-5.726c0.285-1.715,0.618-3.717,0.975-5.862
			c0.355-2.136,0.763-4.39,1.171-6.652c0.22-1.123,0.439-2.246,0.656-3.351c0.205-1.112,0.453-2.183,0.688-3.223
			c0.237-1.04,0.466-2.045,0.683-2.999c0.253-0.935,0.492-1.818,0.713-2.634c0.227-0.812,0.404-1.582,0.643-2.203
			c0.22-0.637,0.411-1.192,0.568-1.65c0.314-0.918,0.495-1.443,0.495-1.443l0.066-0.192c0.365-1.066-0.203-2.226-1.269-2.591
			c-1.011-0.347-2.109,0.154-2.532,1.115c0,0-0.241,0.553-0.663,1.521c-0.21,0.486-0.467,1.076-0.76,1.752
			c-0.318,0.677-0.561,1.447-0.867,2.285c-0.3,0.84-0.624,1.751-0.967,2.714c-0.302,0.967-0.619,1.986-0.948,3.041
			c-0.327,1.056-0.671,2.147-0.967,3.259c-0.309,1.112-0.623,2.241-0.938,3.37c-0.592,2.258-1.188,4.522-1.71,6.637
			c-0.522,2.105-1.008,4.07-1.426,5.754c-0.85,3.357-1.417,5.595-1.417,5.595l-0.008,0.033c-0.473,1.871,0.659,3.771,2.529,4.244
			c1.871,0.474,3.77-0.659,4.244-2.529C-64.63-155.564-64.611-155.659-64.595-155.745z"/>
	</g>
	<g>
		<path fill="#513C2D" d="M-36.669-160.566l-0.087-3.681l-0.044-3.673c-0.016-2.45-0.003-4.902,0.037-7.353
			c0.08-4.903,0.275-9.804,0.618-14.686c0.346-4.879,0.833-9.745,1.591-14.54c0.771-4.779,1.78-9.542,3.495-13.887l0,0l1.449-3.057
			l-3.423-0.046l-34.165-0.468c-5.697-0.091-11.39-0.136-17.08-0.174l-17.076-0.129l-3.944-0.03l0.144,4.082v0.001
			c0.067,0.929,0.159,1.609,0.27,2.391c0.11,0.755,0.239,1.502,0.383,2.244c0.289,1.484,0.646,2.952,1.069,4.407
			c0.856,2.905,1.978,5.766,3.5,8.484c1.517,2.712,3.439,5.293,5.847,7.457c2.398,2.164,5.292,3.86,8.368,4.851
			c3.076,0.993,6.275,1.35,9.35,1.218c3.087-0.106,6.06-0.681,8.923-1.451c1.424-0.408,2.83-0.852,4.202-1.36
			c1.375-0.504,2.725-1.05,4.049-1.641c1.328-0.583,2.628-1.21,3.912-1.861c1.286-0.649,2.542-1.34,3.794-2.035
			c1.213-0.673,1.65-2.202,0.977-3.415c-0.655-1.181-2.122-1.627-3.318-1.028l-0.048,0.024c-1.216,0.611-2.433,1.218-3.667,1.779
			c-1.231,0.562-2.471,1.1-3.723,1.588c-1.249,0.497-2.509,0.947-3.775,1.354c-1.266,0.412-2.541,0.755-3.816,1.066
			c-5.086,1.181-10.333,1.391-14.768-0.275c-2.212-0.819-4.191-2.097-5.877-3.743c-1.687-1.647-3.078-3.657-4.195-5.865
			c-1.121-2.207-1.961-4.614-2.582-7.093c-0.306-1.242-0.559-2.502-0.752-3.77c-0.096-0.633-0.179-1.268-0.244-1.897
			c-0.063-0.604-0.119-1.313-0.132-1.779l-3.8,4.052l17.046-0.72c5.683-0.245,11.365-0.483,17.042-0.674l34.085-1.23l-1.975-3.103
			l0,0c-1.215,2.348-2.184,4.759-3.031,7.188c-0.845,2.431-1.563,4.884-2.207,7.346c-1.282,4.926-2.275,9.891-3.123,14.868
			c-0.843,4.979-1.535,9.973-2.109,14.979c-0.288,2.503-0.545,5.01-0.776,7.521l-0.325,3.77l-0.28,3.765
			c-0.209,2.811,1.9,5.259,4.711,5.469c2.811,0.209,5.259-1.9,5.468-4.71c0.012-0.166,0.017-0.33,0.013-0.492L-36.669-160.566z"/>
	</g>
	<g>
		<path fill="#513C2D" d="M-12.493-156.809c0,0,0.055-0.145,0.158-0.415c0.052-0.136,0.115-0.303,0.189-0.499
			c0.072-0.172,0.165-0.458,0.266-0.794c0.099-0.328,0.207-0.69,0.325-1.085c0.12-0.404,0.18-0.734,0.282-1.146
			c0.201-0.804,0.365-1.681,0.549-2.64c0.7-3.82,1.279-8.799,1.72-13.775c0.44-4.972,0.759-9.932,0.966-13.65
			c0.188-3.718,0.313-6.197,0.313-6.197c0.072-1.418-1.019-2.626-2.437-2.698c-1.375-0.069-2.554,0.956-2.688,2.312l-0.003,0.033
			c0,0-0.239,2.449-0.597,6.121c-0.375,3.668-0.919,8.554-1.577,13.402c-0.655,4.843-1.451,9.658-2.251,13.097
			c-0.206,0.852-0.39,1.638-0.588,2.286c-0.094,0.315-0.181,0.675-0.262,0.891c-0.078,0.227-0.148,0.435-0.213,0.623
			c-0.056,0.18-0.112,0.354-0.212,0.566c-0.083,0.192-0.154,0.356-0.212,0.489c-0.115,0.265-0.177,0.407-0.177,0.407l-0.017,0.039
			c-0.769,1.769,0.042,3.825,1.811,4.594s3.825-0.042,4.594-1.811C-12.535-156.704-12.511-156.763-12.493-156.809z"/>
	</g>
	<g>
		<path fill="#513C2D" d="M13.365-157.416c0,0-0.122-2.31-0.304-5.773c-0.056-0.871-0.071-1.794-0.17-2.807
			c-0.11-1.016-0.226-2.088-0.345-3.196c-0.121-1.107-0.245-2.25-0.372-3.413c-0.132-1.158-0.244-2.344-0.397-3.511
			c-0.35-2.313-0.701-4.625-1.029-6.793c-0.165-1.083-0.325-2.129-0.476-3.122c-0.202-0.994-0.392-1.933-0.568-2.8
			C9-192.292,8.531-194.6,8.531-194.6c-0.255-1.255-1.48-2.065-2.735-1.811c-1.204,0.245-1.999,1.382-1.836,2.582l0.026,0.193
			c0,0,0.31,2.248,0.774,5.62c0.116,0.841,0.243,1.752,0.376,2.716c0.086,0.979,0.177,2.012,0.271,3.08
			c0.187,2.134,0.387,4.41,0.586,6.686c0.076,1.132,0.109,2.253,0.166,3.362c0.051,1.105,0.102,2.194,0.15,3.247
			c0.05,1.051,0.098,2.067,0.143,3.031c0.036,0.968-0.007,1.925-0.006,2.786c-0.037,3.467-0.062,5.778-0.062,5.778l0,0.06
			c-0.021,1.929,1.526,3.509,3.455,3.529c1.929,0.02,3.509-1.527,3.529-3.456C13.37-157.266,13.368-157.346,13.365-157.416z"/>
	</g>
	<g>
		<path fill="#513C2D" d="M-22.22-218.574c-0.077,1.119-0.043,2.03,0.02,3.021c0.063,0.971,0.19,1.931,0.359,2.886
			c0.345,1.908,0.886,3.794,1.657,5.607c1.519,3.635,4.068,6.919,7.241,9.323c1.572,1.229,3.319,2.166,5.088,2.985
			c0.897,0.374,1.794,0.762,2.715,1.037c0.912,0.326,1.837,0.56,2.764,0.787c1.854,0.454,3.72,0.725,5.582,0.921
			c0.93,0.093,1.856,0.124,2.786,0.187c0.928,0.048,1.847,0.023,2.771,0.037c0.928,0.026,1.835-0.062,2.753-0.089l0.687-0.031
			l0.344-0.016l0.086-0.004l0.043-0.002l0.226-0.023l0.163-0.021l1.301-0.166l2.605-0.334l2.936-0.726
			c0.482-0.134,0.993-0.232,1.45-0.402l1.36-0.527l1.359-0.535l0.679-0.27l0.647-0.343l2.581-1.399l2.406-1.687
			c1.534-1.208,3.01-2.511,4.29-3.977c0.688-0.697,1.263-1.477,1.854-2.246c0.616-0.754,1.128-1.573,1.651-2.385
			c1.051-1.622,1.915-3.344,2.705-5.098c0.359-0.894,0.737-1.779,1.038-2.706c0.165-0.454,0.307-0.926,0.446-1.401
			c0.071-0.234,0.141-0.474,0.203-0.729c0.063-0.251,0.127-0.482,0.197-0.821l0.001-0.005l0.828-4.208l-4.255,0.062l-61.399,0.894
			L-22.22-218.574z M-16.863-215.711l56.208,0.818l-3.428-4.146v0.002l-0.103,0.456c-0.037,0.171-0.085,0.353-0.139,0.538
			c-0.099,0.367-0.2,0.734-0.328,1.105c-0.222,0.744-0.521,1.474-0.795,2.21c-0.621,1.444-1.295,2.875-2.124,4.205
			c-0.412,0.666-0.808,1.345-1.294,1.953c-0.463,0.626-0.906,1.272-1.446,1.828c-0.994,1.194-2.14,2.233-3.324,3.215l-1.859,1.368
			l-2.012,1.138l-0.502,0.287l-0.538,0.22l-1.075,0.444l-1.074,0.451c-0.357,0.145-0.715,0.205-1.071,0.314l-2.137,0.616
			l-2.591,0.387l-1.298,0.192l-0.162,0.024c-0.171,0.019,0.21-0.022,0.164-0.018l-0.02,0.001l-0.039,0.003l-0.078,0.005l-0.312,0.02
			l-0.623,0.041c-0.829,0.04-1.665,0.143-2.488,0.133c-0.824,0.002-1.655,0.045-2.475,0.018c-0.816-0.041-1.641-0.048-2.451-0.113
			c-1.62-0.14-3.227-0.338-4.779-0.686c-0.776-0.174-1.552-0.349-2.293-0.602c-0.764-0.206-1.477-0.507-2.202-0.787
			c-1.408-0.624-2.787-1.315-3.99-2.226c-2.436-1.778-4.38-4.153-5.625-6.952c-0.627-1.395-1.089-2.882-1.399-4.409
			C-16.698-214.337-16.794-215.024-16.863-215.711z"/>
	</g>
	<g>
		<path fill="#B27B59" d="M-123.959-87.836c0,0,0.054-0.06,0.154-0.173c0.127-0.137,0.285-0.319,0.458-0.53
			c0.36-0.434,0.843-1.047,1.377-1.804c1.072-1.507,2.355-3.592,3.337-5.833c0.248-0.559,0.49-1.116,0.69-1.686
			c0.219-0.558,0.408-1.118,0.566-1.671c0.178-0.542,0.319-1.077,0.43-1.593c0.122-0.51,0.236-0.989,0.296-1.447
			c0.07-0.451,0.134-0.864,0.191-1.23c0.028-0.371,0.053-0.694,0.074-0.961c0.039-0.528,0.061-0.831,0.061-0.831
			c0.064-0.877-0.596-1.641-1.474-1.705c-0.76-0.055-1.434,0.432-1.643,1.133l-0.047,0.159c0,0-0.074,0.248-0.203,0.681
			c-0.063,0.214-0.14,0.475-0.228,0.774c-0.113,0.292-0.24,0.621-0.379,0.98c-0.125,0.36-0.31,0.737-0.5,1.133
			c-0.178,0.399-0.388,0.812-0.633,1.227c-0.224,0.422-0.478,0.847-0.76,1.267c-0.26,0.428-0.562,0.845-0.863,1.258
			c-1.197,1.658-2.626,3.145-3.745,4.164c-0.558,0.512-1.039,0.909-1.369,1.165c-0.171,0.135-0.289,0.221-0.353,0.262
			c-0.09,0.065-0.139,0.101-0.139,0.101c-1.571,1.137-1.923,3.333-0.785,4.904c1.137,1.571,3.333,1.923,4.904,0.786
			c0.202-0.146,0.384-0.311,0.546-0.489L-123.959-87.836z"/>
	</g>
	<g>
		<path fill="#B27B59" d="M-108.978-81.763c0,0,0.067-0.348,0.185-0.958c0.108-0.595,0.241-1.431,0.375-2.434
			c0.262-2.004,0.51-4.679,0.518-7.384c-0.013-0.68,0-1.352-0.036-2.022c-0.04-0.671-0.047-1.323-0.119-1.965
			c-0.067-0.64-0.1-1.253-0.199-1.842c-0.092-0.588-0.15-1.139-0.258-1.651c-0.2-1.024-0.388-1.872-0.574-2.465
			c-0.166-0.591-0.262-0.929-0.262-0.929c-0.344-1.222-1.614-1.933-2.836-1.589c-1.131,0.319-1.824,1.431-1.648,2.563l0.032,0.205
			c0,0,0.043,0.283,0.12,0.779c0.096,0.487,0.165,1.209,0.232,2.076c0.042,0.431,0.032,0.916,0.053,1.416
			c0.028,0.499-0.01,1.042-0.016,1.594c0,0.55-0.065,1.132-0.096,1.714c-0.036,0.583-0.12,1.182-0.176,1.774
			c-0.286,2.38-0.789,4.753-1.229,6.501c-0.222,0.874-0.426,1.594-0.575,2.083c-0.15,0.472-0.235,0.741-0.235,0.741l-0.023,0.073
			c-0.585,1.841,0.434,3.808,2.275,4.393c1.841,0.585,3.808-0.434,4.393-2.275C-109.039-81.491-109.003-81.637-108.978-81.763z"/>
	</g>
	<g>
		<path fill="#B27B59" d="M-121.044-98.666c0,0-0.164-0.292-0.452-0.802c-0.289-0.526-0.692-1.297-1.149-2.241
			c-0.458-0.943-0.966-2.061-1.469-3.276c-0.505-1.214-0.998-2.527-1.437-3.856c-0.204-0.667-0.441-1.33-0.61-1.994
			c-0.181-0.662-0.374-1.313-0.506-1.95c-0.145-0.636-0.297-1.251-0.387-1.838c-0.094-0.586-0.227-1.143-0.271-1.656
			c-0.062-0.515-0.117-0.987-0.167-1.405c-0.037-0.418-0.044-0.781-0.064-1.082c-0.033-0.602-0.051-0.946-0.051-0.946l-0.006-0.119
			c-0.046-0.851-0.773-1.503-1.624-1.457c-0.801,0.043-1.426,0.696-1.458,1.481c0,0-0.014,0.383-0.04,1.053
			c-0.009,0.335-0.035,0.745-0.036,1.211c0.014,0.465,0.028,0.99,0.044,1.563c0,0.578,0.086,1.186,0.132,1.841
			c0.043,0.656,0.146,1.334,0.241,2.04c0.084,0.71,0.227,1.427,0.358,2.162c0.12,0.738,0.308,1.467,0.464,2.208
			c0.343,1.471,0.745,2.926,1.168,4.275c0.422,1.35,0.857,2.596,1.26,3.656c0.401,1.061,0.763,1.938,1.033,2.555
			c0.283,0.627,0.444,0.985,0.444,0.985c0.588,1.305,2.123,1.886,3.428,1.298c1.305-0.588,1.886-2.123,1.298-3.428
			c-0.031-0.07-0.065-0.138-0.103-0.204L-121.044-98.666z"/>
	</g>
	<g>
		<path fill="#B27B59" d="M-137.719-96.199c0,0-0.043-0.072-0.124-0.206c-0.075-0.13-0.185-0.322-0.325-0.566
			c-0.284-0.513-0.686-1.27-1.121-2.206c-0.223-0.466-0.449-0.979-0.68-1.526c-0.244-0.542-0.451-1.133-0.694-1.736
			c-0.439-1.219-0.884-2.534-1.225-3.875c-0.18-0.669-0.346-1.341-0.471-2.009c-0.151-0.666-0.261-1.326-0.349-1.967
			c-0.11-0.641-0.176-1.262-0.22-1.853c-0.058-0.591-0.11-1.151-0.107-1.667c-0.011-0.518-0.022-0.993-0.032-1.413
			c0.021-0.419,0.039-0.785,0.054-1.086c0.029-0.604,0.045-0.949,0.045-0.949l0.005-0.106c0.034-0.727-0.527-1.344-1.254-1.379
			c-0.685-0.033-1.274,0.47-1.368,1.137c0,0-0.051,0.375-0.142,1.032c-0.044,0.329-0.099,0.729-0.161,1.188
			c-0.03,0.46-0.064,0.98-0.102,1.548c-0.051,0.569-0.049,1.184-0.043,1.834c-0.008,0.653,0.006,1.34,0.063,2.047
			c0.035,0.71,0.093,1.442,0.193,2.18c0.074,0.743,0.19,1.49,0.322,2.234c0.246,1.494,0.603,2.964,0.967,4.335
			c0.205,0.678,0.378,1.343,0.591,1.958c0.199,0.62,0.398,1.203,0.599,1.737c0.39,1.071,0.761,1.952,1.038,2.574
			c0.148,0.32,0.265,0.571,0.344,0.742c0.081,0.165,0.124,0.252,0.124,0.252c0.565,1.156,1.96,1.634,3.116,1.069
			c1.156-0.565,1.634-1.96,1.069-3.116c-0.029-0.06-0.061-0.117-0.094-0.173L-137.719-96.199z"/>
	</g>
	<g>
		<path fill="#B27B59" d="M-130.621-100.043c0,0-0.049-0.064-0.14-0.185c-0.11-0.136-0.174-0.256-0.299-0.439
			c-0.117-0.179-0.267-0.375-0.432-0.703c-0.168-0.306-0.358-0.65-0.566-1.027c-0.175-0.404-0.364-0.842-0.565-1.305
			c-0.098-0.233-0.211-0.467-0.306-0.717c-0.082-0.256-0.165-0.519-0.249-0.785c-0.172-0.535-0.349-1.087-0.529-1.649
			c-0.135-0.577-0.243-1.173-0.369-1.766c-0.108-0.596-0.278-1.184-0.337-1.782c-0.055-0.6-0.108-1.191-0.161-1.763
			c-0.054-0.574-0.106-1.129-0.155-1.655c-0.018-0.529,0.015-1.032,0.018-1.496c0.037-1.863,0.062-3.105,0.062-3.105l0.003-0.168
			c0.016-0.823-0.637-1.503-1.46-1.52c-0.78-0.015-1.433,0.577-1.513,1.339c0,0-0.136,1.331-0.34,3.327
			c-0.044,0.501-0.12,1.043-0.146,1.62c0.006,0.58,0.012,1.191,0.019,1.824c0.008,0.635,0.016,1.292,0.024,1.958
			c0.014,0.668,0.143,1.343,0.211,2.022c0.087,0.678,0.159,1.36,0.262,2.028c0.153,0.663,0.304,1.314,0.45,1.946
			c0.074,0.316,0.147,0.627,0.219,0.932c0.087,0.302,0.196,0.592,0.29,0.878c0.195,0.571,0.381,1.111,0.552,1.61
			c0.219,0.491,0.42,0.941,0.599,1.341c0.16,0.389,0.38,0.77,0.553,1.075c0.169,0.298,0.318,0.567,0.392,0.672
			c0.082,0.127,0.125,0.195,0.125,0.195c0.692,1.084,2.132,1.402,3.217,0.71c1.084-0.692,1.402-2.132,0.71-3.217
			c-0.033-0.052-0.067-0.102-0.104-0.15L-130.621-100.043z"/>
	</g>
	<g>
		<path fill="#B27B59" d="M-132.086-74.406c0,0-0.035-0.022-0.104-0.066c-0.045-0.026-0.13-0.079-0.269-0.173
			c-0.261-0.174-0.661-0.453-1.166-0.833c-1.014-0.754-2.446-1.926-4.028-3.495c-0.795-0.779-1.627-1.658-2.463-2.626
			c-0.848-0.961-1.673-2.029-2.502-3.156c-0.805-1.141-1.609-2.346-2.314-3.632c-0.738-1.271-1.369-2.622-1.975-3.988
			c-0.562-1.381-1.083-2.786-1.478-4.205c-0.195-0.71-0.403-1.414-0.539-2.124c-0.161-0.706-0.31-1.407-0.404-2.106
			c-0.118-0.696-0.221-1.383-0.272-2.062c-0.068-0.677-0.144-1.341-0.152-1.992c-0.082-1.3-0.04-2.534-0.011-3.677
			c0.1-1.137,0.146-2.19,0.294-3.112c0.149-0.921,0.222-1.737,0.38-2.392c0.273-1.321,0.43-2.076,0.43-2.076l0.018-0.088
			c0.167-0.804-0.35-1.592-1.155-1.758c-0.763-0.158-1.512,0.305-1.729,1.039c0,0-0.23,0.79-0.635,2.172
			c-0.222,0.688-0.375,1.553-0.613,2.533c-0.237,0.981-0.384,2.114-0.588,3.345c-0.136,1.24-0.304,2.586-0.341,4.025
			c-0.052,0.719-0.035,1.458-0.026,2.216c-0.008,0.759,0.038,1.532,0.101,2.318c0.038,0.79,0.133,1.586,0.243,2.393
			c0.085,0.812,0.245,1.62,0.395,2.439c0.305,1.637,0.749,3.273,1.249,4.894c0.543,1.604,1.128,3.201,1.834,4.714
			c0.678,1.528,1.459,2.975,2.238,4.364c0.807,1.37,1.626,2.678,2.476,3.864c0.84,1.195,1.685,2.29,2.503,3.271
			c1.634,1.966,3.136,3.498,4.24,4.552c0.554,0.526,1.009,0.931,1.34,1.212c0.354,0.292,0.543,0.448,0.543,0.448
			c1.639,1.353,4.064,1.121,5.417-0.518c1.354-1.639,1.121-4.065-0.518-5.418c-0.12-0.099-0.245-0.189-0.373-0.272L-132.086-74.406z
			"/>
	</g>
	<g>
		<path fill="#B27B59" d="M65.176-72.068c0,0,0.183-0.098,0.526-0.28c0.401-0.214,0.901-0.512,1.509-0.886
			c0.611-0.386,1.325-0.868,2.125-1.447c0.79-0.586,1.68-1.249,2.59-2.037c0.949-0.747,1.864-1.675,2.862-2.624
			c0.489-0.484,0.954-1.018,1.448-1.545c0.489-0.531,1-1.064,1.455-1.662c0.47-0.585,0.947-1.18,1.43-1.782
			c0.484-0.601,0.896-1.269,1.352-1.91c0.926-1.276,1.688-2.686,2.465-4.082c0.192-0.35,0.396-0.693,0.577-1.048l0.496-1.087
			c0.328-0.723,0.654-1.444,0.978-2.159c0.62-1.439,1.059-2.922,1.568-4.32c0.462-1.414,0.733-2.83,1.055-4.148
			c0.077-0.331,0.152-0.657,0.227-0.978c0.061-0.324,0.085-0.649,0.129-0.964c0.076-0.632,0.15-1.244,0.221-1.83
			c0.1-1.176,0.3-2.24,0.245-3.2c0.003-0.955-0.019-1.786-0.039-2.468c-0.026-1.364-0.08-2.136-0.08-2.136
			c-0.081-1.175-1.099-2.062-2.274-1.981c-0.96,0.066-1.728,0.758-1.932,1.649l-0.049,0.216c0,0-0.163,0.712-0.381,1.947
			c-0.116,0.617-0.254,1.364-0.384,2.219c-0.099,0.861-0.399,1.796-0.63,2.827c-0.263,1.023-0.421,2.16-0.827,3.295
			c-0.179,0.573-0.362,1.162-0.55,1.763c-0.198,0.596-0.314,1.235-0.589,1.829c-0.511,1.2-0.941,2.479-1.54,3.703
			c-0.31,0.607-0.623,1.218-0.937,1.833l-0.468,0.922c-0.171,0.299-0.364,0.587-0.544,0.882l-1.093,1.755
			c-0.344,0.595-0.806,1.11-1.188,1.67c-0.407,0.542-0.767,1.113-1.199,1.62c-0.428,0.508-0.852,1.011-1.268,1.505
			c-0.4,0.508-0.854,0.954-1.285,1.401c-0.436,0.442-0.843,0.895-1.272,1.3c-0.882,0.788-1.679,1.574-2.485,2.212
			c-0.778,0.677-1.534,1.233-2.201,1.729c-0.669,0.485-1.271,0.884-1.757,1.199c-0.497,0.317-0.871,0.551-1.084,0.669
			c-0.205,0.127-0.431,0.238-0.414,0.232c-1.711,0.887-2.379,2.993-1.492,4.705C61.358-71.849,63.464-71.181,65.176-72.068z"/>
	</g>
	<g>
		<path fill="#B27B59" d="M38.03-80.201c0,0,0.027-0.099,0.078-0.283c0.051-0.193,0.125-0.477,0.22-0.838
			c0.177-0.698,0.403-1.682,0.639-2.866c0.232-1.183,0.477-2.564,0.674-4.054c0.207-1.487,0.36-3.085,0.459-4.688
			c0.026-0.807,0.089-1.602,0.081-2.399c-0.005-0.795,0.021-1.57-0.029-2.331c-0.041-0.759-0.05-1.485-0.136-2.183
			c-0.08-0.696-0.112-1.348-0.222-1.953c-0.099-0.603-0.19-1.155-0.271-1.645c-0.091-0.488-0.209-0.912-0.288-1.261
			c-0.168-0.695-0.264-1.092-0.264-1.092c-0.234-0.971-1.211-1.569-2.183-1.334c-0.888,0.214-1.463,1.048-1.377,1.932l0.016,0.162
			c0,0,0.034,0.355,0.094,0.977c0.025,0.311,0.079,0.682,0.099,1.117c0.011,0.436,0.023,0.928,0.037,1.465
			c0.025,0.533-0.031,1.125-0.043,1.739c-0.005,0.614-0.09,1.271-0.146,1.943c-0.045,0.672-0.169,1.371-0.261,2.076
			c-0.088,0.705-0.249,1.422-0.369,2.135c-0.288,1.427-0.625,2.845-0.997,4.162c-0.364,1.317-0.757,2.533-1.111,3.563
			c-0.357,1.029-0.679,1.874-0.912,2.447c-0.114,0.273-0.204,0.489-0.265,0.635c-0.066,0.153-0.102,0.235-0.102,0.235l-0.008,0.018
			c-0.765,1.774,0.053,3.833,1.828,4.598s3.833-0.053,4.598-1.827C37.932-79.892,37.988-80.055,38.03-80.201z"/>
	</g>
	<g>
		<path fill="#B27B59" d="M41.58-106.873l3.451,10.711l1.056,3.276l3.673-1.657h0.001c0.288-0.157,0.407-0.234,0.581-0.344
			l0.465-0.305c0.296-0.203,0.582-0.408,0.858-0.617c0.555-0.417,1.076-0.851,1.581-1.298c1.007-0.895,1.94-1.844,2.805-2.842
			c1.731-1.995,3.182-4.183,4.397-6.467c1.196-2.294,2.158-4.685,2.862-7.127c0.368-1.217,0.65-2.452,0.903-3.686
			c0.248-1.236,0.432-2.478,0.586-3.719c0.166-1.327-0.776-2.537-2.104-2.703c-1.262-0.158-2.419,0.687-2.671,1.912l-0.013,0.062
			c-0.224,1.104-0.47,2.199-0.772,3.274c-0.307,1.073-0.634,2.137-1.034,3.168c-0.77,2.074-1.748,4.044-2.89,5.885
			c-1.159,1.829-2.487,3.53-3.991,5.017c-0.75,0.744-1.543,1.433-2.362,2.057c-0.41,0.31-0.826,0.606-1.244,0.872
			c-0.208,0.133-0.416,0.259-0.62,0.377l-0.295,0.161c-0.08,0.043-0.22,0.112-0.194,0.094l0,0l4.728,1.62l-6.107-9.452
			c-0.611-0.945-1.872-1.217-2.817-0.606C41.622-108.698,41.304-107.729,41.58-106.873z"/>
	</g>
	<g>
		<path fill="#B27B59" d="M64.003-95.48c0,0,0.061-0.086,0.175-0.248c0.113-0.169,0.28-0.417,0.492-0.733
			c0.396-0.616,0.94-1.492,1.524-2.572c1.191-2.147,2.55-5.12,3.532-8.235c0.262-0.772,0.478-1.56,0.678-2.339
			c0.223-0.771,0.372-1.551,0.53-2.301c0.174-0.746,0.269-1.483,0.374-2.178c0.117-0.693,0.193-1.354,0.232-1.969
			c0.048-0.613,0.108-1.172,0.131-1.671c0.008-0.5,0.016-0.936,0.021-1.294c0.011-0.717,0.017-1.126,0.017-1.126
			c0.015-0.999-0.782-1.82-1.78-1.835c-0.971-0.015-1.774,0.738-1.832,1.697l-0.008,0.138c0,0-0.022,0.368-0.06,1.012
			c-0.018,0.321-0.041,0.712-0.066,1.16c-0.039,0.447-0.117,0.95-0.182,1.499c-0.056,0.55-0.149,1.142-0.283,1.764
			c-0.121,0.623-0.231,1.282-0.419,1.951c-0.172,0.671-0.332,1.369-0.566,2.061c-0.21,0.698-0.434,1.403-0.702,2.095
			c-1.007,2.788-2.359,5.448-3.513,7.337c-0.566,0.952-1.083,1.708-1.445,2.223c-0.178,0.243-0.317,0.434-0.413,0.563
			c-0.102,0.132-0.155,0.203-0.155,0.203l-0.03,0.039c-0.783,1.02-0.592,2.481,0.428,3.264c1.02,0.783,2.48,0.591,3.264-0.428
			C63.965-95.427,63.987-95.458,64.003-95.48z"/>
	</g>
	<g>
		<path fill="#B27B59" d="M72.657-91.783c0,0,0.053-0.095,0.151-0.271c0.099-0.182,0.243-0.45,0.426-0.791
			c0.354-0.669,0.837-1.623,1.378-2.781c0.546-1.156,1.14-2.522,1.736-4.001c0.592-1.481,1.176-3.079,1.693-4.701
			c0.248-0.816,0.519-1.621,0.725-2.437c0.22-0.811,0.441-1.604,0.604-2.39c0.178-0.781,0.354-1.533,0.468-2.262
			c0.12-0.727,0.27-1.402,0.332-2.045c0.078-0.638,0.149-1.223,0.212-1.742c0.034-0.523,0.064-0.979,0.089-1.354
			c0.044-0.75,0.07-1.179,0.07-1.179c0.044-0.737-0.518-1.369-1.254-1.413c-0.701-0.042-1.308,0.465-1.402,1.148l-0.013,0.098
			c0,0-0.054,0.395-0.148,1.085c-0.048,0.344-0.107,0.763-0.174,1.242c-0.095,0.477-0.202,1.015-0.319,1.603
			c-0.099,0.588-0.291,1.215-0.452,1.882c-0.155,0.668-0.374,1.362-0.596,2.08c-0.206,0.721-0.472,1.454-0.735,2.199
			c-0.249,0.749-0.564,1.491-0.853,2.24c-0.602,1.491-1.266,2.958-1.929,4.313c-0.667,1.354-1.324,2.6-1.918,3.647
			c-0.59,1.05-1.107,1.906-1.476,2.492c-0.368,0.57-0.578,0.896-0.578,0.896l-0.028,0.044c-0.697,1.081-0.386,2.521,0.695,3.219
			c1.081,0.697,2.521,0.386,3.219-0.695C72.606-91.696,72.634-91.742,72.657-91.783z"/>
	</g>
	<g>
		<path fill="#69573A" d="M-67.611-11.127c0,0,0.763-0.205,2.085-0.598c1.316-0.41,3.209-0.958,5.457-1.682
			c2.25-0.718,4.861-1.593,7.649-2.555c1.391-0.489,2.828-0.994,4.289-1.507c1.457-0.543,2.937-1.095,4.416-1.647
			c1.476-0.545,2.933-1.138,4.376-1.695c1.445-0.556,2.856-1.131,4.221-1.689c2.734-1.104,5.268-2.185,7.429-3.135
			c4.329-1.888,7.154-3.305,7.154-3.304c0.662-0.332,0.93-1.138,0.598-1.8c-0.292-0.582-0.95-0.859-1.554-0.692
			c0,0-3.047,0.837-7.528,2.329c-2.243,0.739-4.849,1.63-7.62,2.639c-1.388,0.498-2.822,1.015-4.267,1.568
			c-1.446,0.552-2.926,1.086-4.387,1.667c-2.922,1.146-5.844,2.291-8.583,3.365c-2.737,1.099-5.283,2.148-7.453,3.08
			c-2.173,0.924-3.962,1.751-5.225,2.303c-1.256,0.569-1.967,0.914-1.967,0.914c-0.65,0.315-0.921,1.097-0.606,1.747
			C-68.85-11.245-68.206-10.966-67.611-11.127z"/>
	</g>
	<g>
		<path fill="#69573A" d="M-71.898-24.301c0,0,0.797,0.29,2.207,0.745c1.412,0.446,3.417,1.126,5.85,1.851
			c2.428,0.738,5.27,1.567,8.326,2.412c3.055,0.849,6.322,1.725,9.601,2.555c6.549,1.695,13.135,3.254,18.096,4.346
			c2.481,0.544,4.559,0.961,6.008,1.271c1.456,0.285,2.288,0.447,2.288,0.447c0.652,0.127,1.285-0.298,1.412-0.95
			c0.116-0.594-0.227-1.171-0.781-1.366c0,0-0.8-0.282-2.199-0.775c-1.406-0.469-3.408-1.162-5.822-1.951
			c-4.829-1.574-11.296-3.57-17.801-5.431c-3.248-0.948-6.508-1.848-9.571-2.665c-3.063-0.821-5.933-1.546-8.4-2.141
			c-2.463-0.608-4.537-1.039-5.98-1.37c-1.446-0.322-2.28-0.477-2.28-0.477c-0.988-0.183-1.937,0.47-2.12,1.457
			C-73.23-25.454-72.72-24.598-71.898-24.301z"/>
	</g>
	<path fill="none" stroke="#69573A" stroke-width="7.7554" stroke-linecap="round" stroke-miterlimit="10" d="M-50.616,24.618
		c0,0-13.445,4.138-26.883-6.204c-10.342-7.953-38.141-51.489-54.693-87.685"/>
	<path fill="none" stroke="#69573A" stroke-width="7.7554" stroke-linecap="round" stroke-miterlimit="10" d="M-3.048,28.756
		c0,0,21.715-3.103,32.058-23.784c10.336-20.682,33.087-77.55,33.087-77.55s0,0.003,0,0"/>
	<path fill="none" stroke="#69573A" stroke-width="7.7554" stroke-linecap="round" stroke-miterlimit="10" d="M3.156-19.845
		c0,0,31.282-58.938,31.282-61.008c0-2.068,5.943,6.204,27.144,6.204"/>
	<path fill="none" stroke="#69573A" stroke-width="7.7554" stroke-linecap="round" stroke-miterlimit="10" d="M-132.302-71.546
		c0,0,8.276,1.032,21.714-8.272c9.307,12.408,27.92,33.09,27.92,33.09"/>
	<g>
		<path fill="#69573A" d="M-65.812,5.09c-2.695-2.054-5.419-4.21-7.999-6.386c-2.574-2.195-5.04-4.473-7.175-6.859
			c-1.052-1.201-2.013-2.433-2.81-3.656c-0.789-1.225-1.364-2.475-1.635-3.573c-0.032-0.268-0.122-0.53-0.137-0.796
			c-0.045-0.423-0.111-0.927-0.105-1.183c-0.016-0.3-0.031-0.621-0.021-0.998c-0.007-0.358,0.015-0.721,0.039-1.085
			c0.094-1.455,0.356-2.944,0.758-4.448c0.797-3.013,2.091-6.042,3.549-9.164c0.726-1.564,1.495-3.157,2.244-4.86
			c0.737-1.716,1.501-3.501,1.979-5.801c0.109-0.592,0.195-1.214,0.228-1.895c0.015-0.341,0.001-0.715-0.009-1.07l-0.056-0.731
			l-0.213-2.625l-0.218-2.629l-0.278-2.678c-0.351-3.59-0.808-7.089-1.277-10.615c-1.931-14.065-4.571-27.948-7.399-41.754
			c-2.833-13.806-5.895-27.531-8.855-41.242l-1.861,4.468c0.774-0.474,1.947-1.013,3.141-1.469c1.206-0.465,2.477-0.896,3.773-1.292
			c2.595-0.794,5.278-1.48,7.988-2.091c5.426-1.217,10.961-2.156,16.521-2.917c11.131-1.492,22.397-2.193,33.634-2.092
			c11.234,0.109,22.458,1.013,33.463,2.963c10.998,1.949,21.794,4.936,31.954,9.303l-2.133-5.773l-1.505,3.227
			c-0.495,1.077-0.934,2.169-1.402,3.253c-0.478,1.082-0.881,2.182-1.31,3.276c-0.432,1.094-0.846,2.191-1.229,3.296
			c-0.808,2.199-1.527,4.417-2.256,6.633c-0.684,2.224-1.385,4.445-2.004,6.681c-0.655,2.23-1.231,4.473-1.83,6.712
			c-0.561,2.245-1.135,4.488-1.65,6.74c-1.06,4.5-2.025,9.013-2.908,13.538c-1.785,9.046-3.262,18.132-4.545,27.239
			c-0.636,4.554-1.201,9.117-1.718,13.686L8.19-46.716c-0.227,2.298-0.443,4.566-0.629,6.911c-0.17,2.135,1.422,4.003,3.557,4.173
			c2.12,0.169,3.978-1.401,4.17-3.513l0.002-0.03c0.2-2.204,0.44-4.479,0.687-6.722l0.794-6.751
			c0.555-4.499,1.174-8.992,1.832-13.477c1.32-8.969,2.83-17.908,4.635-26.769c0.893-4.433,1.866-8.844,2.926-13.226
			c0.516-2.196,1.089-4.373,1.647-6.554c0.595-2.168,1.167-4.345,1.813-6.492c0.613-2.161,1.301-4.29,1.971-6.426
			c0.712-2.117,1.413-4.239,2.193-6.32c0.371-1.051,0.769-2.087,1.183-3.114c0.412-1.028,0.797-2.072,1.242-3.078
			c0.438-1.01,0.851-2.039,1.31-3.035l1.392-2.979l1.888-4.042l-4.022-1.732c-10.883-4.687-22.301-7.839-33.833-9.894
			c-11.542-2.053-23.217-2.998-34.87-3.12c-11.657-0.113-23.299,0.602-34.861,2.141c-5.783,0.775-11.542,1.77-17.278,3.095
			c-2.87,0.663-5.733,1.407-8.606,2.302c-1.438,0.448-2.878,0.942-4.339,1.514c-1.469,0.585-2.928,1.203-4.593,2.23l-2.507,1.547
			l0.646,2.922c3.038,13.735,6.162,27.416,9.046,41.117c2.879,13.698,5.557,27.42,7.517,41.182
			c0.475,3.433,0.943,6.898,1.293,10.297l0.28,2.56l0.23,2.62l0.227,2.624l0.048,0.581c-0.007,0.083,0.006,0.149,0.002,0.246
			c-0.009,0.198-0.04,0.445-0.085,0.718c-0.223,1.147-0.785,2.64-1.438,4.143c-0.657,1.515-1.405,3.09-2.149,4.715
			c-1.49,3.246-2.981,6.701-3.967,10.49c-0.494,1.891-0.846,3.877-0.969,5.927c-0.031,0.513-0.056,1.026-0.048,1.547
			c-0.01,0.501,0.012,1.058,0.052,1.634c0.029,0.623,0.088,0.99,0.136,1.439c0.056,0.611,0.207,1.199,0.323,1.796
			c0.606,2.31,1.663,4.226,2.804,5.924c1.146,1.704,2.448,3.174,3.809,4.522c2.709,2.705,5.668,4.932,8.73,6.921
			c3.072,1.994,6.227,3.703,9.624,5.143c1.143,0.485,2.463-0.049,2.948-1.192c0.41-0.966,0.092-2.058-0.706-2.666L-65.812,5.09z"/>
	</g>
	<g>
		<path fill="#0071B5" d="M-87.321,111.48c0-9.139-3.938-16.546-8.791-16.546c-4.854,0-8.792,7.407-8.792,16.546
			c0,9.137,3.938,16.544,8.792,16.544C-91.26,128.024-87.321,120.617-87.321,111.48z"/>
		<path fill="#0071B5" d="M-7.187,111.48c0-9.139-3.932-16.546-8.784-16.546c-4.86,0-8.792,7.407-8.792,16.546
			c0,9.137,3.932,16.544,8.792,16.544C-11.119,128.024-7.187,120.617-7.187,111.48z"/>
		<g>
			<path fill="#6C482F" d="M-116.459,112.077c0,0,0.009,0.053,0.026,0.156c0.026,0.122,0.064,0.304,0.115,0.54
				c0.11,0.46,0.247,1.09,0.504,1.878c0.254,0.786,0.573,1.736,1.056,2.783c0.22,0.534,0.504,1.079,0.804,1.656
				c0.279,0.589,0.653,1.167,1.036,1.777c0.363,0.622,0.824,1.223,1.294,1.853c0.443,0.65,1.023,1.235,1.592,1.859
				c1.162,1.225,2.54,2.418,4.135,3.429c0.381,0.28,0.801,0.502,1.23,0.718c0.428,0.22,0.858,0.441,1.292,0.663
				c0.427,0.242,0.891,0.398,1.353,0.565c0.464,0.165,0.931,0.331,1.398,0.497c1.898,0.544,3.882,0.916,5.844,0.982l0.738,0.048
				l0.369,0.023l0.093,0.005l0.046,0.003l0.224-0.006l0.16-0.01l1.28-0.076l1.275-0.076c0.426-0.025,0.989-0.137,1.473-0.207
				c1-0.169,2.025-0.292,2.912-0.6c0.912-0.281,1.822-0.503,2.673-0.904c0.858-0.365,1.71-0.696,2.483-1.168
				c0.389-0.226,0.773-0.449,1.153-0.669c0.377-0.223,0.716-0.5,1.067-0.745c0.345-0.252,0.685-0.501,1.02-0.746
				c0.311-0.274,0.616-0.544,0.917-0.81c0.61-0.522,1.128-1.094,1.621-1.645c1.976-2.203,3.112-4.377,3.771-5.935
				c0.331-0.783,0.536-1.431,0.672-1.879c0.137-0.505,0.21-0.774,0.21-0.774c0.332-1.225-0.392-2.487-1.617-2.819
				c-1.001-0.271-2.027,0.163-2.55,0.999l-0.281,0.452c0,0-0.013,0.021-0.04,0.063c-0.039,0.072-0.097,0.18-0.172,0.32
				c-0.163,0.298-0.432,0.729-0.782,1.283c-0.367,0.546-0.833,1.195-1.41,1.898c-0.593,0.69-1.278,1.449-2.104,2.173
				c-0.411,0.365-0.839,0.741-1.329,1.067c-0.233,0.176-0.471,0.355-0.711,0.537c-0.258,0.155-0.521,0.312-0.788,0.471
				c-0.269,0.153-0.521,0.339-0.81,0.474c-0.287,0.134-0.579,0.27-0.873,0.407c-0.562,0.319-1.205,0.515-1.837,0.75
				c-0.617,0.27-1.314,0.383-1.99,0.561c-0.691,0.209-1.338,0.262-2.001,0.373c-0.351,0.044-0.617,0.129-1.041,0.149l-1.276,0.054
				l-1.281,0.055l-0.936-0.053c-1.468-0.018-2.878-0.277-4.224-0.63c-0.646-0.244-1.344-0.354-1.953-0.657
				c-0.309-0.141-0.616-0.282-0.921-0.421c-0.31-0.132-0.616-0.268-0.889-0.461c-1.143-0.672-2.224-1.407-3.147-2.26
				c-0.456-0.434-0.927-0.828-1.319-1.29c-0.408-0.443-0.819-0.86-1.152-1.321c-0.352-0.445-0.693-0.871-0.982-1.309
				c-0.301-0.428-0.594-0.833-0.828-1.242c-0.498-0.798-0.903-1.522-1.21-2.126c-0.306-0.603-0.542-1.092-0.679-1.396
				c-0.065-0.148-0.116-0.261-0.15-0.338c-0.037-0.098-0.056-0.148-0.056-0.148l-0.008-0.021c-0.458-1.206-1.808-1.812-3.015-1.354
				C-116.046,109.907-116.642,111-116.459,112.077z"/>
		</g>
		<g>
			<path fill="#6C482F" d="M-36.318,112.077c0,0,0.011,0.053,0.031,0.154c0.029,0.121,0.073,0.301,0.129,0.536
				c0.123,0.456,0.278,1.078,0.557,1.855c0.274,0.776,0.628,1.706,1.119,2.741c0.227,0.527,0.519,1.063,0.825,1.633
				c0.287,0.58,0.667,1.148,1.056,1.747c0.369,0.611,0.836,1.199,1.31,1.816c0.449,0.635,1.029,1.208,1.598,1.819
				c1.16,1.2,2.535,2.356,4.11,3.344c0.376,0.274,0.792,0.49,1.217,0.7c0.422,0.213,0.848,0.429,1.275,0.645
				c0.421,0.235,0.879,0.385,1.335,0.548c0.457,0.16,0.917,0.32,1.378,0.481c1.87,0.531,3.822,0.893,5.758,0.954l0.728,0.046
				l0.363,0.022l0.091,0.005l0.045,0.003l0.202-0.006l0.161-0.009l1.281-0.073l1.275-0.072c0.427-0.025,0.973-0.134,1.45-0.201
				c0.981-0.164,1.985-0.284,2.863-0.582c0.9-0.271,1.801-0.483,2.641-0.874c0.849-0.354,1.691-0.674,2.456-1.134
				c0.386-0.218,0.768-0.434,1.145-0.646c0.375-0.216,0.712-0.486,1.061-0.723c0.343-0.245,0.682-0.486,1.016-0.724
				c0.31-0.268,0.615-0.531,0.915-0.79c0.611-0.506,1.133-1.063,1.629-1.601c1.995-2.146,3.146-4.292,3.861-5.813
				c0.353-0.768,0.577-1.406,0.727-1.849c0.072-0.233,0.127-0.412,0.164-0.533c0.043-0.154,0.066-0.234,0.066-0.234
				c0.347-1.232-0.37-2.512-1.602-2.859c-1.095-0.309-2.229,0.224-2.71,1.212l-0.135,0.277c0,0-0.066,0.136-0.191,0.391
				c-0.15,0.303-0.4,0.744-0.728,1.313c-0.343,0.562-0.784,1.232-1.353,1.952c-0.581,0.709-1.254,1.49-2.073,2.242
				c-0.408,0.378-0.832,0.77-1.321,1.111c-0.234,0.183-0.472,0.368-0.714,0.557c-0.26,0.162-0.524,0.326-0.792,0.493
				c-0.271,0.16-0.525,0.354-0.816,0.496c-0.291,0.141-0.584,0.284-0.881,0.429c-0.571,0.331-1.222,0.538-1.864,0.784
				c-0.627,0.281-1.334,0.405-2.022,0.592c-0.7,0.219-1.368,0.275-2.049,0.392c-0.358,0.046-0.642,0.133-1.063,0.155l-1.276,0.058
				l-1.281,0.058l-0.161,0.007l-0.02,0.001c0.066-0.002-0.175,0.005,0.143-0.004l-0.035-0.002l-0.069-0.005l-0.277-0.018
				l-0.556-0.034c-1.495-0.024-2.936-0.292-4.311-0.658c-0.661-0.251-1.371-0.376-1.991-0.69c-0.314-0.147-0.627-0.294-0.938-0.44
				c-0.315-0.138-0.625-0.28-0.902-0.479c-1.163-0.695-2.246-1.467-3.171-2.346c-0.456-0.447-0.927-0.854-1.313-1.33
				c-0.403-0.457-0.809-0.886-1.136-1.359c-0.346-0.456-0.681-0.892-0.963-1.339c-0.294-0.437-0.58-0.85-0.806-1.266
				c-0.489-0.81-0.859-1.555-1.147-2.168c-0.284-0.614-0.502-1.11-0.626-1.418c-0.06-0.15-0.105-0.266-0.136-0.343
				c-0.034-0.099-0.051-0.149-0.051-0.149l-0.007-0.021c-0.418-1.217-1.744-1.865-2.961-1.447
				C-35.911,109.794-36.548,110.947-36.318,112.077z"/>
		</g>
		<g>
			<path fill="#6C482F" d="M-64.252,116.92c0.214-0.985,0.416-2.027,0.588-3.023c0.189-1.006,0.335-2.017,0.491-3.027
				c0.167-1.009,0.274-2.025,0.405-3.039c0.139-1.013,0.235-2.031,0.322-3.051c0.084-1.02,0.209-2.037,0.243-3.062l0.158-3.074
				c0.027-1.027,0.015-2.058,0.023-3.087l0.005-1.545l-0.057-1.541c-0.059-1.036-0.136-2.118-0.252-3.143
				c-0.114-1.038-0.246-2.076-0.429-3.107c-0.346-2.065-0.81-4.117-1.418-6.142l-0.484-1.513l-0.547-1.499
				c-0.392-0.993-0.816-1.978-1.292-2.947c-0.481-0.968-1.012-1.919-1.599-2.85c-0.294-0.464-0.623-0.914-0.936-1.371
				c-0.334-0.446-0.692-0.881-1.04-1.321l0.183,2.846l0,0c0.287-0.478,0.782-1.004,1.388-1.452c0.599-0.458,1.303-0.849,2.047-1.168
				c1.495-0.641,3.165-0.991,4.844-1.023c1.681-0.03,3.382,0.242,4.991,0.84c1.613,0.586,3.129,1.485,4.504,2.602l0.022,0.018
				c0.632,0.513,1.561,0.417,2.075-0.215c0.491-0.605,0.42-1.484-0.139-2.009c-0.755-0.705-1.559-1.367-2.42-1.965
				c-0.439-0.285-0.876-0.578-1.339-0.83c-0.454-0.268-0.932-0.497-1.413-0.72c-1.929-0.885-4.047-1.4-6.196-1.521
				c-2.151-0.118-4.334,0.157-6.427,0.871c-1.046,0.359-2.073,0.824-3.053,1.455c-0.979,0.626-1.928,1.407-2.735,2.508l0,0.001
				l-1.011,1.445l1.194,1.401l0.871,1.022c0.269,0.366,0.553,0.719,0.813,1.096c0.519,0.756,1.002,1.548,1.453,2.368
				c0.445,0.825,0.853,1.677,1.236,2.545l0.542,1.322l0.491,1.349c0.623,1.815,1.126,3.685,1.521,5.583
				c0.207,0.947,0.366,1.906,0.51,2.866c0.148,0.974,0.251,1.9,0.347,2.874l0.113,1.478l0.052,1.478
				c0.029,0.986,0.081,1.972,0.093,2.96l-0.037,2.97c0.006,0.991-0.077,1.982-0.12,2.974c-0.046,0.992-0.101,1.984-0.197,2.973
				c-0.089,0.99-0.153,1.983-0.279,2.97c-0.113,0.988-0.216,1.979-0.362,2.96c-0.133,0.997-0.278,1.94-0.452,2.934l-0.001,0.009
				c-0.132,0.751,0.369,1.467,1.121,1.6C-65.109,118.116-64.409,117.64-64.252,116.92z"/>
		</g>
		<g>
			<path fill="#5C1919" d="M-28.658,152.204c0,0,0.179,0.115,0.515,0.33c0.324,0.206,0.785,0.482,1.389,0.801
				c1.201,0.638,2.954,1.451,5.177,2.145c1.108,0.356,2.344,0.642,3.664,0.913c1.33,0.224,2.75,0.407,4.244,0.473
				c1.493,0.037,3.049,0,4.63-0.207c1.58-0.188,3.169-0.579,4.727-1.05c1.547-0.516,3.075-1.12,4.464-1.924
				c1.411-0.759,2.715-1.646,3.883-2.597c1.163-0.956,2.216-1.95,3.119-2.96c0.47-0.492,0.879-1.003,1.263-1.505
				c0.379-0.503,0.788-0.963,1.096-1.453c0.642-0.967,1.236-1.845,1.668-2.667c0.452-0.813,0.847-1.519,1.108-2.125
				c0.539-1.203,0.846-1.89,0.846-1.89c0.566-1.264,0-2.747-1.263-3.313c-1.116-0.5-2.404-0.117-3.08,0.85l-0.104,0.151
				c0,0-0.383,0.547-1.053,1.504c-0.308,0.495-0.757,1.034-1.239,1.669c-0.459,0.656-1.068,1.309-1.694,2.043
				c-0.297,0.383-0.674,0.708-1.025,1.085c-0.354,0.374-0.726,0.749-1.141,1.091c-0.785,0.739-1.665,1.44-2.608,2.091
				c-0.953,0.636-1.941,1.272-3.019,1.761c-0.526,0.271-1.079,0.492-1.639,0.696c-0.543,0.246-1.13,0.384-1.694,0.582
				c-1.157,0.311-2.332,0.571-3.522,0.684c-1.18,0.168-2.371,0.202-3.527,0.185c-1.159,0.004-2.291-0.089-3.366-0.21
				c-1.078-0.121-2.102-0.275-3.043-0.469c-0.948-0.165-1.806-0.386-2.571-0.569c-0.766-0.187-1.422-0.386-1.966-0.538
				c-0.53-0.163-0.947-0.291-1.23-0.378c-0.125-0.039-0.22-0.068-0.284-0.088c-0.054-0.015-0.115-0.042-0.109-0.039
				c-1.419-0.612-3.066,0.042-3.678,1.46C-30.272,150.015-29.794,151.479-28.658,152.204z"/>
		</g>
		<g>
			<path fill="#5C1919" d="M-117.215,142.297c0.011,0.009,0.04,0.08,0.251,0.342c0.208,0.269,0.461,0.576,0.802,0.956
				c0.342,0.369,0.763,0.819,1.28,1.275c0.502,0.481,1.114,0.959,1.791,1.466c0.671,0.521,1.458,0.983,2.283,1.495
				c0.849,0.458,1.749,0.949,2.726,1.345c0.961,0.441,2.001,0.764,3.057,1.091c0.523,0.185,1.065,0.308,1.613,0.414l1.642,0.341
				c1.102,0.172,2.211,0.298,3.301,0.393c1.091,0.018,2.164,0.052,3.197,0.043c1.024-0.091,2.016-0.179,2.955-0.262
				c0.933-0.107,1.792-0.328,2.591-0.47c0.797-0.162,1.525-0.313,2.146-0.527c0.623-0.202,1.165-0.377,1.612-0.522
				c0.882-0.31,1.386-0.486,1.386-0.486c1.377-0.483,2.101-1.99,1.618-3.366c-0.404-1.154-1.53-1.851-2.695-1.76l-0.265,0.021
				c0,0-0.474,0.037-1.301,0.102c-0.408,0.042-0.904,0.093-1.472,0.152c-0.562,0.095-1.203,0.088-1.894,0.12
				c-0.691,0.021-1.436,0.105-2.219,0.086c-0.778-0.012-1.599-0.025-2.449-0.039c-0.836-0.07-1.7-0.143-2.578-0.217
				c-0.861-0.139-1.736-0.279-2.611-0.42c-0.853-0.223-1.727-0.369-2.548-0.635c-0.415-0.121-0.826-0.241-1.232-0.359
				c-0.407-0.119-0.783-0.3-1.177-0.421c-0.792-0.236-1.5-0.592-2.208-0.863c-0.687-0.305-1.34-0.604-1.924-0.903
				c-0.597-0.287-1.121-0.584-1.588-0.843c-0.477-0.252-0.855-0.506-1.189-0.691c-0.313-0.202-0.573-0.352-0.694-0.418
				c-0.128-0.061-0.264-0.18-0.255-0.168c-1.03-1.091-2.749-1.14-3.84-0.11C-118.196,139.488-118.246,141.207-117.215,142.297z"/>
		</g>
		<g>
			<path fill="#6C482F" d="M-65.739,53.623c0,0,0.163-0.14,0.489-0.378c0.323-0.229,0.732-0.515,1.343-0.879
				c0.594-0.363,1.348-0.75,2.229-1.151c0.899-0.366,1.914-0.772,3.079-1.055c1.149-0.319,2.438-0.521,3.801-0.676
				c0.68-0.082,1.395-0.087,2.11-0.147c0.725-0.002,1.465-0.004,2.218-0.007c0.757,0.05,1.522,0.06,2.299,0.12
				c0.777,0.078,1.564,0.158,2.357,0.237c0.792,0.115,1.59,0.23,2.392,0.346c0.801,0.147,1.605,0.296,2.409,0.444l0.302,0.055
				l0.038,0.007c0.074,0.015-0.08-0.017-0.056-0.012l0.02,0.005l0.078,0.019l0.156,0.038l0.626,0.151
				c0.42,0.093,0.72,0.195,1.086,0.289c0.763,0.236,1.522,0.471,2.276,0.704c1.527,0.506,3.062,1.005,4.538,1.536
				c2.964,1.033,5.712,2.146,7.964,3.282c2.26,1.124,4.063,2.206,5.267,3.025c0.619,0.391,1.059,0.75,1.376,0.976
				c0.312,0.231,0.479,0.354,0.479,0.354l0.025,0.019c0.639,0.471,1.539,0.335,2.011-0.304c0.457-0.62,0.34-1.488-0.251-1.969
				c0,0-0.693-0.563-1.938-1.483c-0.615-0.474-1.387-1.001-2.261-1.626c-0.882-0.611-1.893-1.273-2.996-1.995
				c-2.222-1.418-4.818-3.073-7.748-4.64c-1.463-0.785-3.014-1.538-4.667-2.182c-0.824-0.339-1.662-0.628-2.569-0.902
				c-0.459-0.129-0.977-0.289-1.393-0.387l-0.629-0.136l-0.394-0.082l-0.333-0.053c-0.889-0.14-1.778-0.28-2.664-0.42
				c-0.898-0.08-1.792-0.159-2.68-0.237c-0.892-0.055-1.783-0.059-2.658-0.074c-0.879,0.013-1.752,0.061-2.604,0.102
				c-0.856,0.086-1.697,0.184-2.516,0.288c-0.819,0.153-1.618,0.275-2.389,0.462c-1.54,0.372-2.981,0.792-4.265,1.325
				c-1.293,0.494-2.431,1.076-3.416,1.618c-0.972,0.574-1.791,1.117-2.432,1.611c-0.635,0.477-1.15,0.927-1.456,1.2
				c-0.293,0.277-0.46,0.412-0.46,0.412c-0.61,0.486-0.709,1.375-0.223,1.984c0.486,0.609,1.375,0.709,1.984,0.223
				C-65.77,53.648-65.751,53.633-65.739,53.623z"/>
		</g>
	</g>
	<path fill="none" stroke="#69573A" stroke-width="4.6532" stroke-linecap="round" stroke-miterlimit="10" d="M-50.616,24.618
		c0,0-10.337-26.883,3.101-43.427c24.818,11.375,26.89,42.394,26.89,42.394"/>
	<g>
		<path fill="#695D60" d="M-56.43-79.818c0.129-1.207,0.209-2.413,0.3-3.619c0.098-1.207,0.168-2.413,0.231-3.62
			c0.127-2.413,0.216-4.826,0.276-7.239l-1.619,2.143c0.277-0.065,0.64-0.13,0.98-0.195c0.337-0.074,0.694-0.125,1.046-0.182
			c0.7-0.126,1.413-0.208,2.128-0.276c0.712-0.092,1.428-0.132,2.146-0.167l1.074-0.062c0.358-0.034,0.715-0.006,1.073-0.006
			l2.146,0.034l2.126,0.193c0.354,0.036,0.712,0.05,1.062,0.104l1.041,0.203l2.091,0.379l-1.669-2.074
			c0.125,2.067,0.278,4.132,0.44,6.198c0.2,2.064,0.347,4.13,0.593,6.192c0.114,0.951,0.977,1.63,1.928,1.517
			c0.861-0.103,1.499-0.821,1.528-1.662c0.073-2.075,0.046-4.146,0.072-6.219c-0.011-2.072-0.031-4.143-0.081-6.213l-0.041-1.709
			l-1.629-0.366L-41.572-97l-1.196-0.254c-0.4-0.07-0.805-0.098-1.207-0.148l-2.418-0.263l-2.421-0.036
			c-0.403,0.001-0.808-0.026-1.208,0.011l-1.206,0.071c-0.804,0.034-1.606,0.104-2.402,0.229c-0.798,0.099-1.595,0.215-2.39,0.379
			c-0.398,0.077-0.794,0.143-1.197,0.247c-0.402,0.101-0.786,0.189-1.243,0.326l-1.659,0.497l0.041,1.646
			c0.06,2.413,0.149,4.826,0.276,7.239c0.062,1.207,0.133,2.413,0.231,3.62c0.09,1.206,0.17,2.413,0.3,3.619
			c0.084,0.785,0.789,1.353,1.573,1.269C-57.017-78.623-56.5-79.164-56.43-79.818z"/>
	</g>
	<g>
		<path fill="#802929" d="M-40.099,213.23c-0.001,0-0.452-0.403-1.333-1.312c-0.87-0.891-2.12-2.245-3.547-4.053
			c-1.402-1.818-3.001-4.108-4.222-6.876c-0.618-1.374-1.127-2.867-1.412-4.432c-0.297-1.562-0.393-3.193-0.128-4.838
			c0.256-1.62,0.821-3.357,1.678-4.905c0.129-0.188,0.349-0.525,0.604-0.81c0.243-0.292,0.521-0.57,0.836-0.835
			c0.62-0.534,1.371-1.024,2.226-1.474c1.716-0.897,3.844-1.568,6.128-2.094c2.292-0.526,4.747-0.922,7.295-1.263
			c10.195-1.346,21.774-1.993,33.083-5.671c5.627-1.826,11.184-4.488,15.895-8.287c4.66-3.822,8.399-8.183,11.513-12.835
			c3.082-4.654,5.384-9.559,7.023-14.356c1.649-4.8,2.608-9.498,3.151-13.845c0.54-4.351,0.683-8.356,0.616-11.893
			c-0.068-3.537-0.324-6.609-0.651-9.125c-0.326-2.518-0.694-4.483-0.976-5.829c-0.282-1.346-0.48-2.073-0.491-2.117
			c-0.345-1.378-1.742-2.216-3.12-1.872c-1.378,0.345-2.216,1.742-1.872,3.12c-0.011-0.044,0.133,0.591,0.334,1.832
			c0.201,1.24,0.46,3.085,0.656,5.452c0.401,4.718,0.641,11.576-0.617,19.567c-0.637,3.986-1.66,8.235-3.2,12.544
			c-1.556,4.301-3.692,8.639-6.497,12.715c-2.795,4.044-6.308,7.95-10.256,11.065c-3.979,3.062-8.703,5.334-13.746,6.939
			c-5.048,1.612-10.39,2.593-15.748,3.327c-5.363,0.753-10.752,1.254-16.085,1.973c-2.666,0.361-5.325,0.788-7.97,1.4
			c-2.641,0.621-5.292,1.414-7.86,2.75c-1.282,0.667-2.531,1.496-3.665,2.516c-0.568,0.505-1.106,1.062-1.591,1.663
			c-0.492,0.595-0.915,1.209-1.366,1.996c-1.292,2.445-2.047,4.968-2.299,7.524c-0.263,2.536-0.013,4.988,0.557,7.159
			c0.575,2.176,1.415,4.092,2.331,5.771c1.881,3.34,4.012,5.781,5.879,7.612c1.863,1.841,3.484,3.08,4.612,3.897
			c1.125,0.796,1.815,1.212,1.814,1.212c0.974,0.586,2.238,0.273,2.825-0.7c0.52-0.862,0.333-1.952-0.392-2.598L-40.099,213.23z"/>
	</g>
	<g>
		<path fill="#802929" d="M61.764,171.399c0,0,0.207,0.165,0.608,0.482c0.388,0.299,0.953,0.732,1.698,1.256
			c1.484,1.065,3.699,2.519,6.662,4.12c2.959,1.599,6.664,3.383,11.174,4.843c2.254,0.724,4.697,1.398,7.336,1.884
			c2.629,0.522,5.454,0.856,8.425,0.952c5.931,0.243,12.52-0.689,18.919-3.166c3.233-1.169,6.308-2.889,9.332-4.762
			c1.451-1.02,2.978-1.983,4.351-3.146c0.699-0.566,1.421-1.116,2.107-1.707c0.667-0.609,1.336-1.221,2.008-1.836l1.008-0.925
			l0.984-1.025c0.592-0.622,1.187-1.245,1.783-1.871c0.605-0.665,1.233-1.442,1.848-2.164c0.617-0.736,1.255-1.469,1.785-2.236
			c0.555-0.76,1.111-1.522,1.668-2.287c0.541-0.777,1.024-1.601,1.539-2.403l0.76-1.214c0.243-0.412,0.458-0.842,0.688-1.263
			c0.449-0.849,0.898-1.699,1.35-2.55c1.646-3.49,3.003-7.144,3.975-10.905c0.895-3.771,1.57-7.605,1.788-11.445
			c0.545-7.683-0.233-15.271-1.525-22.526c-1.322-7.262-3.345-14.179-5.517-20.75c-2.196-6.566-4.601-12.783-7.047-18.588
			c-2.457-5.8-4.848-11.245-7.223-16.182c-2.34-4.955-4.572-9.446-6.559-13.42c-2.007-3.963-3.767-7.411-5.244-10.233
			c-2.981-5.63-4.685-8.847-4.685-8.847c-0.569-1.075-1.902-1.485-2.977-0.916c-1.044,0.553-1.46,1.827-0.961,2.884l0.011,0.023
			c0,0,1.554,3.276,4.272,9.009c1.364,2.863,2.989,6.353,4.836,10.36c1.828,4.015,3.877,8.549,6.01,13.53
			c2.149,4.976,4.4,10.388,6.639,16.156c2.242,5.766,4.419,11.903,6.365,18.313c1.942,6.407,3.628,13.104,4.759,19.937
			c1.084,6.827,1.648,13.826,1.028,20.642c-0.254,3.417-0.923,6.747-1.75,9.999c-0.903,3.232-2.128,6.331-3.583,9.286l-1.198,2.156
			c-0.203,0.356-0.39,0.721-0.605,1.069l-0.676,1.026c-0.457,0.679-0.877,1.377-1.355,2.037c-0.494,0.65-0.987,1.297-1.478,1.943
			c-0.477,0.67-1.005,1.24-1.517,1.83c-0.527,0.592-0.989,1.169-1.557,1.773c-0.608,0.614-1.214,1.227-1.818,1.836l-0.809,0.816
			l-0.887,0.793c-0.589,0.529-1.175,1.057-1.759,1.582c-0.598,0.504-1.222,0.963-1.826,1.445c-1.188,0.998-2.487,1.78-3.719,2.641
			c-0.629,0.408-1.287,0.751-1.921,1.129c-0.635,0.378-1.271,0.743-1.934,1.038c-0.652,0.318-1.3,0.634-1.943,0.949
			c-0.662,0.267-1.319,0.532-1.973,0.795c-2.633,0.983-5.267,1.755-7.887,2.131c-2.61,0.401-5.171,0.633-7.648,0.545
			c-2.474-0.043-4.856-0.286-7.103-0.702c-2.252-0.379-4.368-0.932-6.335-1.533c-3.935-1.213-7.288-2.629-9.954-3.981
			c-2.676-1.336-4.683-2.57-6.016-3.415c-0.669-0.424-1.157-0.763-1.478-0.985c-0.299-0.214-0.454-0.324-0.454-0.324l-0.136-0.097
			c-1.742-1.244-4.163-0.84-5.407,0.902C59.815,167.796,60.163,170.124,61.764,171.399z"/>
	</g>
	<g>
		<path fill="#802929" d="M70.692,128.385c0.021,0.01-0.023,0.001,0.122,0.093c0.123,0.072,0.305,0.18,0.546,0.322
			c0.399,0.237,0.945,0.505,1.689,0.771c0.743,0.264,1.677,0.471,2.8,0.569c1.119,0.078,2.406-0.024,3.777-0.347
			c1.334-0.364,2.762-0.931,4.065-1.768c0.662-0.406,1.278-0.889,1.905-1.391c0.289-0.265,0.583-0.535,0.882-0.809l0.224-0.208
			l0.112-0.105l0.254-0.269l0.039-0.045l0.312-0.362c0.423-0.499,0.841-0.963,1.305-1.534c0.516-0.711,1.039-1.451,1.563-2.216
			c0.578-0.791,0.904-1.486,1.342-2.246c0.397-0.753,0.888-1.517,1.225-2.311c0.699-1.585,1.527-3.231,2.104-4.953
			c0.315-0.859,0.636-1.732,0.961-2.619c0.304-0.888,0.549-1.792,0.832-2.707c0.273-0.915,0.549-1.842,0.829-2.781
			c0.229-0.94,0.46-1.892,0.693-2.854c0.233-0.962,0.468-1.934,0.706-2.916c0.189-0.983,0.38-1.976,0.572-2.977
			c0.819-4.002,1.372-8.139,1.949-12.336c0.235-2.099,0.471-4.214,0.709-6.337c0.246-2.123,0.364-4.252,0.539-6.383
			c0.375-4.261,0.513-8.516,0.727-12.703c0.202-4.186,0.215-8.301,0.306-12.283c0.041-3.98-0.01-7.823-0.013-11.467
			c-0.009-3.645-0.181-7.083-0.253-10.258c-0.1-3.174-0.157-6.084-0.303-8.659c-0.129-2.575-0.241-4.82-0.334-6.668
			c-0.203-3.695-0.319-5.806-0.319-5.806c-0.067-1.214-1.105-2.145-2.32-2.078c-1.15,0.063-2.046,0.999-2.081,2.129l-0.001,0.046
			c0,0-0.058,2.104-0.159,5.785c-0.042,1.839-0.092,4.073-0.15,6.635c-0.028,2.562-0.167,5.448-0.282,8.596
			c-0.143,3.146-0.203,6.56-0.438,10.158c-0.204,3.598-0.361,7.396-0.622,11.313c-0.146,1.956-0.295,3.945-0.446,5.958
			c-0.151,2.012-0.26,4.053-0.479,6.096c-0.403,4.089-0.734,8.254-1.296,12.373c-0.274,2.061-0.467,4.137-0.782,6.176
			c-0.308,2.04-0.614,4.071-0.918,6.087c-0.709,3.998-1.389,7.941-2.302,11.653c-0.215,0.933-0.428,1.857-0.639,2.773
			c-0.246,0.898-0.49,1.788-0.731,2.667c-0.24,0.879-0.478,1.75-0.712,2.609c-0.277,0.834-0.551,1.659-0.82,2.472
			c-0.276,0.808-0.52,1.625-0.81,2.393c-0.305,0.756-0.604,1.501-0.899,2.234c-0.545,1.503-1.263,2.776-1.865,4.07
			c-0.295,0.657-0.683,1.18-1.003,1.758c-0.333,0.541-0.659,1.18-0.966,1.531c-0.307,0.412-0.594,0.818-0.865,1.222
			c-0.408,0.477-0.892,0.986-1.312,1.455l-0.322,0.353l-0.04,0.043l-0.02,0.022c-0.053,0.057,0.384-0.408,0.192-0.205L79.41,118.2
			l-0.121,0.108c-0.158,0.146-0.314,0.29-0.466,0.431c-0.3,0.256-0.589,0.502-0.854,0.706c-0.536,0.421-0.988,0.688-1.389,0.941
			c-0.782,0.429-1.409,0.68-1.874,0.803c-0.223,0.07-0.404,0.111-0.479,0.16c-0.073,0.011-0.014,0.062,0.011,0.102
			c0.026,0.039-0.075-0.002-0.054,0.009c-1.913-0.964-4.245-0.195-5.208,1.717C68.012,125.088,68.78,127.42,70.692,128.385z"/>
	</g>
	<path fill="none" stroke="#802929" stroke-width="4.6532" stroke-linecap="round" stroke-miterlimit="10" d="M94.154,142.499
		c0,0,33.087-11.372,27.919-103.403"/>
	<path fill="none" stroke="#802929" stroke-width="4.6532" stroke-linecap="round" stroke-miterlimit="10" d="M109.664,156.977
		c0,0,34.9-15.639,26.624-85.954"/>
	<g>
		<path fill="#9C6C4E" d="M-113.437,164.624c0,0-0.353-1.192-1.015-3.427c-0.629-2.186-1.536-5.465-2.505-9.646
			c-0.984-4.184-2.045-9.297-2.917-15.207c-0.875-5.907-1.568-12.615-1.722-19.927c-0.142-7.305,0.177-15.229,1.556-23.409
			c1.37-8.166,3.767-16.611,7.758-24.569c3.957-7.964,9.575-15.354,16.666-21.34c7.082-5.996,15.599-10.525,24.705-13.511
			c2.284-0.764,4.551-1.401,6.988-2.035c2.292-0.569,4.657-1.124,7.028-1.562c4.736-0.898,9.503-1.52,14.253-1.781
			c4.749-0.271,9.477-0.243,14.13,0.091c2.325,0.187,4.635,0.404,6.917,0.729l1.66,0.229l1.758,0.28
			c1.112,0.198,2.153,0.386,3.261,0.631c8.73,1.85,16.714,5.34,23.467,9.903c3.377,2.281,6.471,4.802,9.247,7.483
			c2.795,2.662,5.317,5.443,7.553,8.28c2.244,2.831,4.227,5.692,5.987,8.504c0.446,0.698,0.871,1.399,1.279,2.099
			c0.207,0.348,0.412,0.693,0.615,1.037c0.191,0.342,0.381,0.681,0.57,1.018c0.422,0.738,0.695,1.325,1.039,1.981
			c0.314,0.671,0.642,1.323,0.923,1.987c2.341,5.271,3.619,10.25,4.386,14.385c0.753,4.147,1.013,7.473,1.132,9.72
			c0.056,1.125,0.069,1.983,0.071,2.552c-0.005,0.538-0.007,0.816-0.007,0.816l-0.001,0.155c-0.013,1.467,1.166,2.667,2.632,2.68
			c1.417,0.013,2.585-1.094,2.675-2.491c0,0,0.021-0.348,0.063-1.023c0.032-0.646,0.064-1.59,0.066-2.815
			c0.009-2.449-0.125-6.027-0.764-10.547c-0.666-4.505-1.787-9.999-4.227-15.993c-0.295-0.751-0.643-1.499-0.978-2.263
			c-0.363-0.753-0.76-1.62-1.127-2.302c-0.198-0.376-0.397-0.756-0.598-1.138c-0.206-0.371-0.414-0.744-0.623-1.12
			c-0.413-0.754-0.845-1.513-1.301-2.271c-1.794-3.049-3.837-6.18-6.182-9.309c-4.657-6.27-10.664-12.505-18.141-17.688
			c-7.449-5.194-16.372-9.235-26.018-11.418c-1.184-0.28-2.462-0.532-3.68-0.763l-1.754-0.305l-1.879-0.27
			c-2.444-0.357-4.922-0.604-7.419-0.814c-4.997-0.38-10.083-0.435-15.19-0.165c-5.109,0.26-10.233,0.904-15.314,1.845
			c-2.543,0.459-5.056,1.033-7.627,1.664c-2.414,0.615-4.98,1.322-7.455,2.14c-9.951,3.212-19.507,8.2-27.536,14.941
			c-8.068,6.701-14.381,15.157-18.771,24.026c-4.427,8.885-7.007,18.138-8.468,26.951c-1.453,8.833-1.81,17.267-1.582,24.991
			c0.23,7.729,1.02,14.76,1.987,20.932c0.966,6.175,2.117,11.496,3.18,15.844c1.074,4.353,2.053,7.708,2.757,10.03
			c0.704,2.263,1.08,3.47,1.08,3.47c0.637,2.044,2.811,3.186,4.855,2.549c2.026-0.631,3.166-2.771,2.566-4.799L-113.437,164.624z"/>
	</g>
	
		<path fill="none" stroke="#802929" stroke-width="6.9798" stroke-linecap="round" stroke-linejoin="round" stroke-miterlimit="10" d="
		M64.684,106.31c0,0,16.541,38.259-8.276,76.518c-29.532,45.526-83.758,36.71-97.717,32.058c0,0-62.044,0-79.62-56.872"/>
	<g>
		<path fill="#802929" d="M-122.4,155.828c0,0,0.021,0.078,0.06,0.229c0.02,0.077,0.045,0.171,0.074,0.285
			c0.049,0.146,0.105,0.316,0.17,0.509c0.255,0.717,0.665,1.686,1.352,2.789c1.355,2.22,3.755,4.835,6.948,7.365
			c1.597,1.267,3.389,2.522,5.325,3.76c1.934,1.243,4.038,2.421,6.238,3.58c2.2,1.16,4.518,2.261,6.91,3.289s4.849,2.018,7.355,2.89
			c2.507,0.87,5.051,1.659,7.612,2.331c0.646,0.16,1.288,0.32,1.927,0.478l0.967,0.221l0.812,0.207
			c0.281,0.078,0.639,0.155,0.856,0.233l0.68,0.226c0.447,0.143,0.96,0.358,1.429,0.534c1.884,0.815,3.647,1.759,5.21,2.868
			c1.555,1.114,2.984,2.266,4.195,3.474c1.224,1.19,2.295,2.358,3.181,3.455c0.91,1.076,1.648,2.067,2.224,2.897
			c1.132,1.674,1.708,2.643,1.642,2.532c0.905,1.94,3.212,2.78,5.153,1.875c1.94-0.905,2.78-3.212,1.875-5.153
			c-0.069-0.107-0.57-1.48-1.848-3.602c-0.633-1.062-1.443-2.321-2.462-3.709c-1.037-1.373-2.296-2.867-3.821-4.373
			c-1.531-1.496-3.314-3.032-5.41-4.397c-2.081-1.379-4.466-2.613-7.077-3.516c-0.67-0.212-1.293-0.429-2.022-0.618l-1.09-0.279
			c-0.374-0.095-0.625-0.129-0.944-0.197c-0.621-0.121-1.246-0.243-1.873-0.365c-0.581-0.123-1.165-0.247-1.751-0.371
			c-2.348-0.53-4.737-1.182-7.107-1.914c-2.371-0.732-4.738-1.514-7.034-2.374c-2.295-0.861-4.532-1.768-6.668-2.697
			c-4.261-1.882-8.109-3.891-11.15-5.882c-3.061-1.968-5.265-3.942-6.454-5.432c-0.609-0.734-0.98-1.362-1.189-1.752
			c-0.047-0.087-0.088-0.165-0.124-0.231c-0.044-0.104-0.08-0.192-0.109-0.263c-0.06-0.144-0.09-0.219-0.09-0.219
			c-0.439-1.071-1.664-1.583-2.735-1.144C-122.146,153.766-122.658,154.829-122.4,155.828z"/>
	</g>
	<g>
		<path fill="#9C6C4E" d="M42.867,102.062c0,0,0.218,0.279,0.626,0.802c0.398,0.503,0.995,1.212,1.817,2.065
			c0.813,0.864,1.87,1.848,3.195,2.919c1.34,1.049,2.978,2.166,5.115,3.108c1.097,0.436,2.297,0.855,3.714,1.059
			c1.409,0.201,3.022,0.201,4.663-0.239c1.652-0.422,3.204-1.325,4.465-2.398c1.313-1.076,2.197-2.355,3.011-3.638
			c0.735-1.286,1.347-2.603,1.819-3.917l0.341-0.987l0.169-0.496l0.078-0.274l0.028-0.11l0.056-0.22
			c0.148-0.587,0.298-1.178,0.448-1.77l0.112-0.445l0.1-0.538l0.193-1.094c0.125-0.73,0.264-1.47,0.299-2.179
			c0.051-0.719,0.133-1.43,0.148-2.159l-0.035-2.206c-0.17-2.962-0.962-5.985-2.317-8.667c-1.347-2.692-3.245-4.989-5.313-6.767
			c-2.069-1.79-4.259-3.147-6.394-4.178c-2.138-1.03-4.207-1.779-6.128-2.353c-3.853-1.125-7.106-1.547-9.389-1.768
			c-1.144-0.097-2.049-0.135-2.672-0.156c-0.654-0.012-1.003-0.018-1.003-0.018c-1.441-0.025-2.629,1.122-2.655,2.563
			c-0.023,1.309,0.922,2.41,2.175,2.619l0.186,0.031c0,0,0.27,0.045,0.775,0.13c0.535,0.095,1.327,0.253,2.332,0.479
			c2.001,0.463,4.883,1.178,8.085,2.468c3.186,1.262,6.763,3.115,9.527,5.816c1.365,1.357,2.507,2.9,3.283,4.616
			c0.787,1.716,1.167,3.613,1.268,5.608l-0.007,1.518c-0.02,0.509-0.099,1.031-0.14,1.544c-0.027,0.529-0.142,1-0.229,1.481
			l-0.13,0.721l-0.065,0.365l-0.121,0.443c-0.161,0.589-0.321,1.177-0.48,1.761l-0.06,0.219l-0.029,0.109l-0.015,0.055
			c-0.012,0.044,0.08-0.282,0.037-0.133l-0.008,0.022l-0.122,0.36l-0.24,0.719c-0.326,0.945-0.72,1.778-1.124,2.523
			c-0.437,0.669-0.859,1.312-1.278,1.674c-0.422,0.388-0.791,0.655-1.209,0.786c-0.421,0.127-0.913,0.204-1.497,0.186
			c-0.583-0.019-1.248-0.184-1.9-0.375c-1.332-0.423-2.646-1.072-3.783-1.755c-1.154-0.667-2.13-1.372-2.942-1.948
			c-0.803-0.59-1.423-1.08-1.84-1.406c-0.427-0.346-0.584-0.473-0.603-0.493c-1.094-1.183-2.94-1.255-4.124-0.161
			c-1.12,1.036-1.244,2.745-0.326,3.928L42.867,102.062z"/>
	</g>
	<path fill="none" stroke="#695D60" stroke-width="4.6532" stroke-linecap="round" stroke-miterlimit="10" d="M-64.055-73.614
		c0,0-4.138-15.512-1.551-27.146c9.306-3.877,24.817-4.652,34.123-0.773c3.618,10.339-0.521,28.436-0.521,28.436
		S-52.683-71.546-64.055-73.614z"/>
	<path fill="#003C61" d="M-90.169,110.6c0-5.365-1.824-9.719-4.072-9.719c-2.247,0-4.072,4.354-4.072,9.719
		c0,5.369,1.825,9.718,4.072,9.718C-91.993,120.317-90.169,115.969-90.169,110.6z"/>
	<path fill="#003C61" d="M-11.325,110.6c0-5.365-1.817-9.719-4.071-9.719c-2.249,0-4.072,4.354-4.072,9.719
		c0,5.369,1.823,9.718,4.072,9.718C-13.142,120.317-11.325,115.969-11.325,110.6z"/>
	<path fill="#FFFFFF" d="M-96.294,113.678c0-2.812-1.369-5.09-3.054-5.09c-1.691,0-3.054,2.277-3.054,5.09
		c0,2.811,1.363,5.088,3.054,5.088C-97.664,118.766-96.294,116.488-96.294,113.678z"/>
	<path fill="#FFFFFF" d="M-16.026,113.678c0-2.812-1.37-5.09-3.054-5.09c-1.69,0-3.054,2.277-3.054,5.09
		c0,2.811,1.364,5.088,3.054,5.088C-17.396,118.766-16.026,116.488-16.026,113.678z"/>
</symbol>
<g id="Backgrounds">
</g>
<g id="Find_Elsewhere">
</g>
<g id="chair_backs">
</g>
<g id="behind_table">
</g>
<g id="table">
</g>
<g id="king_alpheus">
	<g id="Layer_14">
	</g>
</g>
<g id="Comps">
</g>
<g id="Layer_8">
</g>
<g id="sun">
	<rect y="1118" fill="#C4E0F8" width="2272" height="1154"/>
	<path fill="#EEF5FF" d="M0,1472.086c63.355,9.248,293.265,25.064,358.125,21.27c69.074-4.043,136.773-19.688,205.411-27.479
		c44.7-5.073,90.197-10.184,135.016-3.627c67.268,9.84,128.033,43.293,194.682,55.56c62.03,11.418,128.503,3.537,191.156,1.136
		c129.213-4.951,245.646-3.179,369.528,35.464c90.085,28.1,199.933,8.832,291.13-0.157c50.196-4.95,526.951-20.752,526.951-20.752
		V1118H0C0,1118-0.018,1472.084,0,1472.086z"/>
	<path fill="#DAEAF8" d="M0,1343.757c18-10.449,217.418-18.072,228.993-10.26c18.384,12.406,30.188,39.824,52.317,52.928
		c62.079,36.762,109.281-2.018,170.342-7.137c10.039,68.658,202.158,6.734,241.74-3.663c34.756-9.134,32.193-6.331,57.072,14.089
		c18.256,14.986,48.297,28.264,69.792,37.443c51.283,21.904,118.528,35.318,174.838,33.082
		c43.769-1.737,92.281-7.135,132.614-18.842c14.565-4.229,61.976-30.592,61.976-30.592s11.19,28.484,39.675,35.605
		c87.104,21.777,189.208-17.307,275.316-26.868c89.972-9.991,171.927,5.707,260.449,13.575c44.994,3.998,90.668,1.973,135.792-0.141
		c38.932-1.824,334.605-14.887,371.084-13.223c-2.596-0.727,2-1.699,0-2.916v1.217V1118H0V1343.757z"/>
	<path fill="#C4E0F8" d="M227.005,1251.345c33.829-3,61.305-18.363,94.338-18.539c1.798,32.135,28.68,50.035,57.407,59.256
		c33.817,10.856,60.533-3.102,91.853-5.035c7.234,68.248,107.276,7.529,146.297-1.078c46.185-10.189,100.653-16.73,145.009-8.073
		c80.785,15.765,145.964,81.276,227.572,103.093c38.953,10.414,95.299,17.938,134.767,8.139
		c31.542-7.832,69.504-31.203,87.412-45.186c22.785,46.538,52.378,44.336,101.886,37.641c67.652-9.15,132.87-30.643,199.878-43.158
		c68.639-12.819,138.091-20.256,207.701-25.242c39.657-2.84,79.281-4.756,119.01-6.264c55.382-2.102,376.865-1.916,431.865-6.719
		V1118H0v114.354C0,1232.354,197.373,1253.974,227.005,1251.345z"/>
</g>
<g id="Layer_18">
</g>
<g id="people">
</g>
<g id="window_overlay">
</g>
<g id="New_Stuff">
</g>
<g id="PCS">
</g>
<g id="_x34_:3">
</g>
<g id="Layer_9">
</g>
<g id="text_x2F_dialogue_box">
</g>
</svg>
