%YAML 1.1
%TAG !u! tag:unity3d.com,2011:
--- !u!74 &7400000
AnimationClip:
  m_ObjectHideFlags: 0
  m_PrefabParentObject: {fileID: 0}
  m_PrefabInternal: {fileID: 0}
  m_Name: anim_ExitHammerUseState
  serializedVersion: 3
  m_AnimationType: 1
  m_Compressed: 0
  m_RotationCurves:
  - curve:
      serializedVersion: 2
      m_Curve:
      - time: 0
        value: {x: 0, y: 0, z: 0, w: 1}
        inSlope: {x: 0, y: 0, z: 0, w: 0}
        outSlope: {x: 0, y: 0, z: 0, w: 0}
        tangentMode: -559038737
      - time: .00100000005
        value: {x: 0, y: 0, z: 0, w: 1}
        inSlope: {x: 0, y: 0, z: 0, w: 0}
        outSlope: {x: 0, y: 0, z: 0, w: 0}
        tangentMode: 107
      - time: .428571433
        value: {x: 0, y: 0, z: 0, w: 1}
        inSlope: {x: 0, y: 0, z: 0, w: 0}
        outSlope: {x: 0, y: 0, z: 0, w: 0}
        tangentMode: -559038737
      - time: .857142866
        value: {x: 0, y: 0, z: 0, w: 1}
        inSlope: {x: 0, y: 0, z: 0, w: 0}
        outSlope: {x: 0, y: 0, z: 0, w: 0}
        tangentMode: 1063669776
      - time: 1.28571427
        value: {x: 0, y: 0, z: 0, w: 1}
        inSlope: {x: 0, y: 0, z: 0, w: 0}
        outSlope: {x: 0, y: 0, z: 0, w: 0}
        tangentMode: -559038737
      - time: 1.71428573
        value: {x: 0, y: 0, z: 0, w: 1}
        inSlope: {x: 0, y: 0, z: 0, w: 0}
        outSlope: {x: 0, y: 0, z: 0, w: 0}
        tangentMode: -542900206
      - time: 2.14285707
        value: {x: 0, y: 0, z: 0, w: 1}
        inSlope: {x: 0, y: 0, z: 0, w: 0}
        outSlope: {x: 0, y: 0, z: 0, w: 0}
        tangentMode: -559038737
      - time: 2.57142854
        value: {x: 0, y: 0, z: 0, w: 1}
        inSlope: {x: 0, y: 0, z: 0, w: 0}
        outSlope: {x: 0, y: 0, z: 0, w: 0}
        tangentMode: -542900206
      - time: 2.99900007
        value: {x: 0, y: 0, z: 0, w: 1}
        inSlope: {x: 0, y: 0, z: 0, w: 0}
        outSlope: {x: 0, y: 0, z: 0, w: 0}
        tangentMode: -559038737
      - time: 3
        value: {x: 0, y: 0, z: 0, w: 1}
        inSlope: {x: 0, y: 0, z: 0, w: 0}
        outSlope: {x: 0, y: 0, z: 0, w: 0}
        tangentMode: -542900206
      m_PreInfinity: 2
      m_PostInfinity: 2
    path: Root
  - curve:
      serializedVersion: 2
      m_Curve:
      - time: 0
        value: {x: 0, y: 0, z: -.146083057, w: .989272356}
        inSlope: {x: 0, y: 0, z: 0, w: 0}
        outSlope: {x: 0, y: 0, z: 4.47034799e-05, w: 0}
        tangentMode: -559038737
      - time: .00100000005
        value: {x: 0, y: 0, z: -.146083012, w: .989272356}
        inSlope: {x: 0, y: 0, z: 4.47034799e-05, w: 0}
        outSlope: {x: 0, y: 0, z: .0188008342, w: .00269828015}
        tangentMode: -559038737
      - time: .428571433
        value: {x: 0, y: 0, z: -.138044313, w: .990426064}
        inSlope: {x: 0, y: 0, z: .0188008342, w: .00269828015}
        outSlope: {x: 0, y: 0, z: .0484684221, w: .00623873854}
        tangentMode: -559038737
      - time: .857142866
        value: {x: 0, y: 0, z: -.117272131, w: .993099809}
        inSlope: {x: 0, y: 0, z: .0484684221, w: .00623873854}
        outSlope: {x: 0, y: 0, z: .0664632469, w: .0068851714}
        tangentMode: -542900206
      - time: 1.28571427
        value: {x: 0, y: 0, z: -.0887878835, w: .996050596}
        inSlope: {x: 0, y: 0, z: .0664632469, w: .0068851714}
        outSlope: {x: 0, y: 0, z: .0726067126, w: .00533181382}
        tangentMode: -559038737
      - time: 1.71428573
        value: {x: 0, y: 0, z: -.0576707199, w: .99833566}
        inSlope: {x: 0, y: 0, z: .0726067126, w: .00533181382}
        outSlope: {x: 0, y: 0, z: .0667560101, w: .0028979585}
        tangentMode: -559038737
      - time: 2.14285707
        value: {x: 0, y: 0, z: -.0290610064, w: .999577641}
        inSlope: {x: 0, y: 0, z: .0667560101, w: .0028979585}
        outSlope: {x: 0, y: 0, z: .0488598645, w: .00090859324}
        tangentMode: -559038737
      - time: 2.57142854
        value: {x: 0, y: 0, z: -.00812106207, w: .999967039}
        inSlope: {x: 0, y: 0, z: .0488598645, w: .00090859324}
        outSlope: {x: 0, y: 0, z: 0, w: 0}
        tangentMode: -559038737
      - time: 2.99900007
        value: {x: 0, y: 0, z: -8.32237816e-08, w: 1}
        inSlope: {x: 0, y: 0, z: .0189932641, w: 7.70897168e-05}
        outSlope: {x: 0, y: 0, z: 0, w: 0}
        tangentMode: -559038737
      - time: 3
        value: {x: 0, y: 0, z: 0, w: 1}
        inSlope: {x: 0, y: 0, z: 8.32298174e-05, w: 0}
        outSlope: {x: 0, y: 0, z: 0, w: 0}
        tangentMode: -559038737
      m_PreInfinity: 2
      m_PostInfinity: 2
    path: Root/Body
  - curve:
      serializedVersion: 2
      m_Curve:
      - time: 0
        value: {x: 0, y: 0, z: .226651743, w: .973975897}
        inSlope: {x: 0, y: 0, z: 0, w: 0}
        outSlope: {x: 0, y: 0, z: -5.96046411e-05, w: 0}
        tangentMode: -559038737
      - time: .00100000005
        value: {x: 0, y: 0, z: .226651683, w: .973975897}
        inSlope: {x: 0, y: 0, z: -5.96046411e-05, w: 0}
        outSlope: {x: 0, y: 0, z: -.0211645477, w: .00482166326}
        tangentMode: -559038737
      - time: .428571433
        value: {x: 0, y: 0, z: .217602327, w: .976037502}
        inSlope: {x: 0, y: 0, z: -.0211645477, w: .00482166326}
        outSlope: {x: 0, y: 0, z: -.0546525568, w: .0114997625}
        tangentMode: -559038737
      - time: .857142866
        value: {x: 0, y: 0, z: .194179803, w: .980965972}
        inSlope: {x: 0, y: 0, z: -.0546525568, w: .0114997625}
        outSlope: {x: 0, y: 0, z: -.0751429871, w: .0136005292}
        tangentMode: -559038737
      - time: 1.28571427
        value: {x: 0, y: 0, z: .161975667, w: .98679477}
        inSlope: {x: 0, y: 0, z: -.0751429871, w: .0136005292}
        outSlope: {x: 0, y: 0, z: -.0823302269, w: .0120107327}
        tangentMode: -559038737
      - time: 1.71428573
        value: {x: 0, y: 0, z: .126691282, w: .991942227}
        inSlope: {x: 0, y: 0, z: -.0823302269, w: .0120107327}
        outSlope: {x: 0, y: 0, z: -.0758967102, w: .00843380019}
        tangentMode: -559038737
      - time: 2.14285707
        value: {x: 0, y: 0, z: .0941641256, w: .995556712}
        inSlope: {x: 0, y: 0, z: -.0758967102, w: .00843380019}
        outSlope: {x: 0, y: 0, z: -.0556601174, w: .00459317351}
        tangentMode: -559038737
      - time: 2.57142854
        value: {x: 0, y: 0, z: .070309788, w: .997525215}
        inSlope: {x: 0, y: 0, z: -.0556601174, w: .00459317351}
        outSlope: {x: 0, y: 0, z: 0, w: 0}
        tangentMode: -559038737
      - time: 2.99900007
        value: {x: 0, y: 0, z: .0610486232, w: .998134792}
        inSlope: {x: 0, y: 0, z: -.0216599181, w: .00142567186}
        outSlope: {x: 0, y: 0, z: 0, w: 0}
        tangentMode: -559038737
      - time: 3
        value: {x: 0, y: 0, z: .0610485412, w: .998134792}
        inSlope: {x: 0, y: 0, z: -8.19623237e-05, w: 0}
        outSlope: {x: 0, y: 0, z: 0, w: 0}
        tangentMode: -559038737
      m_PreInfinity: 2
      m_PostInfinity: 2
    path: Root/LeftArm
  - curve:
      serializedVersion: 2
      m_Curve:
      - time: 0
        value: {x: 0, y: 0, z: .720551133, w: .693401814}
        inSlope: {x: 0, y: 0, z: 0, w: 0}
        outSlope: {x: 0, y: 0, z: -.00017881392, w: .00017881392}
        tangentMode: -559038737
      - time: .00100000005
        value: {x: 0, y: 0, z: .720550954, w: .693401992}
        inSlope: {x: 0, y: 0, z: -.00017881392, w: .00017881392}
        outSlope: {x: 0, y: 0, z: -.0767989382, w: .0761974156}
        tangentMode: -559038737
      - time: .428571433
        value: {x: 0, y: 0, z: .687713921, w: .725981832}
        inSlope: {x: 0, y: 0, z: -.0767989382, w: .0761974156}
        outSlope: {x: 0, y: 0, z: -.213026404, w: .178950325}
        tangentMode: -559038737
      - time: .857142866
        value: {x: 0, y: 0, z: .596416891, w: .80267483}
        inSlope: {x: 0, y: 0, z: -.213026404, w: .178950325}
        outSlope: {x: 0, y: 0, z: -.322654754, w: .201149896}
        tangentMode: -559038737
      - time: 1.28571427
        value: {x: 0, y: 0, z: .45813629, w: .888881922}
        inSlope: {x: 0, y: 0, z: -.322654754, w: .201149896}
        outSlope: {x: 0, y: 0, z: -.383548677, w: .156328246}
        tangentMode: -559038737
      - time: 1.71428573
        value: {x: 0, y: 0, z: .293758273, w: .955879748}
        inSlope: {x: 0, y: 0, z: -.383548677, w: .156328246}
        outSlope: {x: 0, y: 0, z: -.371336639, w: .0817095786}
        tangentMode: -559038737
      - time: 2.14285707
        value: {x: 0, y: 0, z: .134614035, w: .990898132}
        inSlope: {x: 0, y: 0, z: -.371336639, w: .0817095786}
        outSlope: {x: 0, y: 0, z: -.27742517, w: .0209495202}
        tangentMode: -559038737
      - time: 2.57142854
        value: {x: 0, y: 0, z: .0157175306, w: .999876499}
        inSlope: {x: 0, y: 0, z: -.27742517, w: .0209495202}
        outSlope: {x: 0, y: 0, z: 0, w: 0}
        tangentMode: -559038737
      - time: 2.99900007
        value: {x: 0, y: 0, z: -.0305381138, w: .999533594}
        inSlope: {x: 0, y: 0, z: -.108182237, w: -.000801983988}
        outSlope: {x: 0, y: 0, z: 0, w: 0}
        tangentMode: -559038737
      - time: 3
        value: {x: 0, y: 0, z: -.0305385143, w: .999533594}
        inSlope: {x: 0, y: 0, z: -.000400497724, w: 0}
        outSlope: {x: 0, y: 0, z: 0, w: 0}
        tangentMode: -559038737
      m_PreInfinity: 2
      m_PostInfinity: 2
    path: Root/RightArm
  - curve:
      serializedVersion: 2
      m_Curve:
      - time: 0
        value: {x: 0, y: 0, z: -.233445346, w: .972369909}
        inSlope: {x: 0, y: 0, z: 0, w: 0}
        outSlope: {x: 0, y: 0, z: 5.96046411e-05, w: 5.96046411e-05}
        tangentMode: -559038737
      - time: .00100000005
        value: {x: 0, y: 0, z: -.233445287, w: .972369969}
        inSlope: {x: 0, y: 0, z: 5.96046411e-05, w: 5.96046411e-05}
        outSlope: {x: 0, y: 0, z: .0231136084, w: .00542513793}
        tangentMode: -559038737
      - time: .428571433
        value: {x: 0, y: 0, z: -.223562568, w: .974689603}
        inSlope: {x: 0, y: 0, z: .0231136084, w: .00542513793}
        outSlope: {x: 0, y: 0, z: .059712369, w: .0128757954}
        tangentMode: -559038737
      - time: .857142866
        value: {x: 0, y: 0, z: -.197971553, w: .980207801}
        inSlope: {x: 0, y: 0, z: .059712369, w: .0128757954}
        outSlope: {x: 0, y: 0, z: .0821516961, w: .0150671015}
        tangentMode: -559038737
      - time: 1.28571427
        value: {x: 0, y: 0, z: -.162763685, w: .98666513}
        inSlope: {x: 0, y: 0, z: .0821516961, w: .0150671015}
        outSlope: {x: 0, y: 0, z: .0900589526, w: .0130578466}
        tangentMode: -559038737
      - time: 1.71428573
        value: {x: 0, y: 0, z: -.124166988, w: .99226135}
        inSlope: {x: 0, y: 0, z: .0900589526, w: .0130578466}
        outSlope: {x: 0, y: 0, z: .0830479786, w: .0088858027}
        tangentMode: -559038737
      - time: 2.14285707
        value: {x: 0, y: 0, z: -.0885750055, w: .996069551}
        inSlope: {x: 0, y: 0, z: .0830479786, w: .0088858027}
        outSlope: {x: 0, y: 0, z: .0609102398, w: .0046136179}
        tangentMode: -559038737
      - time: 2.57142854
        value: {x: 0, y: 0, z: -.0624706149, w: .998046815}
        inSlope: {x: 0, y: 0, z: .0609102398, w: .0046136179}
        outSlope: {x: 0, y: 0, z: 0, w: 0}
        tangentMode: -559038737
      - time: 2.99900007
        value: {x: 0, y: 0, z: -.0523360558, w: .99862957}
        inSlope: {x: 0, y: 0, z: .0237026047, w: .00136294065}
        outSlope: {x: 0, y: 0, z: 0, w: 0}
        tangentMode: -559038737
      - time: 3
        value: {x: 0, y: 0, z: -.0523359589, w: .99862957}
        inSlope: {x: 0, y: 0, z: 9.68645691e-05, w: 0}
        outSlope: {x: 0, y: 0, z: 0, w: 0}
        tangentMode: -559038737
      m_PreInfinity: 2
      m_PostInfinity: 2
    path: Root/Head
  - curve:
      serializedVersion: 2
      m_Curve:
      - time: 0
        value: {x: 0, y: 0, z: 0, w: 1}
        inSlope: {x: 0, y: 0, z: 0, w: 0}
        outSlope: {x: 0, y: 0, z: 0, w: 0}
        tangentMode: -559038737
      - time: .00100000005
        value: {x: 0, y: 0, z: 0, w: 1}
        inSlope: {x: 0, y: 0, z: 0, w: 0}
        outSlope: {x: 0, y: 0, z: 0, w: 0}
        tangentMode: -559038737
      - time: .428571433
        value: {x: 0, y: 0, z: 0, w: 1}
        inSlope: {x: 0, y: 0, z: 0, w: 0}
        outSlope: {x: 0, y: 0, z: 0, w: 0}
        tangentMode: -559038737
      - time: .857142866
        value: {x: 0, y: 0, z: 0, w: 1}
        inSlope: {x: 0, y: 0, z: 0, w: 0}
        outSlope: {x: 0, y: 0, z: 0, w: 0}
        tangentMode: -559038737
      - time: 1.28571427
        value: {x: 0, y: 0, z: 0, w: 1}
        inSlope: {x: 0, y: 0, z: 0, w: 0}
        outSlope: {x: 0, y: 0, z: 0, w: 0}
        tangentMode: -559038737
      - time: 1.71428573
        value: {x: 0, y: 0, z: 0, w: 1}
        inSlope: {x: 0, y: 0, z: 0, w: 0}
        outSlope: {x: 0, y: 0, z: 0, w: 0}
        tangentMode: -559038737
      - time: 2.14285707
        value: {x: 0, y: 0, z: 0, w: 1}
        inSlope: {x: 0, y: 0, z: 0, w: 0}
        outSlope: {x: 0, y: 0, z: 0, w: 0}
        tangentMode: -559038737
      - time: 2.57142854
        value: {x: 0, y: 0, z: 0, w: 1}
        inSlope: {x: 0, y: 0, z: 0, w: 0}
        outSlope: {x: 0, y: 0, z: 0, w: 0}
        tangentMode: -559038737
      - time: 2.99900007
        value: {x: 0, y: 0, z: 0, w: 1}
        inSlope: {x: 0, y: 0, z: 0, w: 0}
        outSlope: {x: 0, y: 0, z: 0, w: 0}
        tangentMode: -559038737
      - time: 3
        value: {x: 0, y: 0, z: 0, w: 1}
        inSlope: {x: 0, y: 0, z: 0, w: 0}
        outSlope: {x: 0, y: 0, z: 0, w: 0}
        tangentMode: -559038737
      m_PreInfinity: 2
      m_PostInfinity: 2
    path: Root/Head/Face
  - curve:
      serializedVersion: 2
      m_Curve:
      - time: 0
        value: {x: 0, y: 0, z: 0, w: 1}
        inSlope: {x: 0, y: 0, z: 0, w: 0}
        outSlope: {x: 0, y: 0, z: 0, w: 0}
        tangentMode: -559038737
      - time: .00100000005
        value: {x: 0, y: 0, z: 0, w: 1}
        inSlope: {x: 0, y: 0, z: 0, w: 0}
        outSlope: {x: 0, y: 0, z: 0, w: 0}
        tangentMode: -559038737
      - time: .428571433
        value: {x: 0, y: 0, z: 0, w: 1}
        inSlope: {x: 0, y: 0, z: 0, w: 0}
        outSlope: {x: 0, y: 0, z: 0, w: 0}
        tangentMode: -559038737
      - time: .857142866
        value: {x: 0, y: 0, z: 0, w: 1}
        inSlope: {x: 0, y: 0, z: 0, w: 0}
        outSlope: {x: 0, y: 0, z: 0, w: 0}
        tangentMode: -559038737
      - time: 1.28571427
        value: {x: 0, y: 0, z: 0, w: 1}
        inSlope: {x: 0, y: 0, z: 0, w: 0}
        outSlope: {x: 0, y: 0, z: 0, w: 0}
        tangentMode: -559038737
      - time: 1.71428573
        value: {x: 0, y: 0, z: 0, w: 1}
        inSlope: {x: 0, y: 0, z: 0, w: 0}
        outSlope: {x: 0, y: 0, z: 0, w: 0}
        tangentMode: -559038737
      - time: 2.14285707
        value: {x: 0, y: 0, z: 0, w: 1}
        inSlope: {x: 0, y: 0, z: 0, w: 0}
        outSlope: {x: 0, y: 0, z: 0, w: 0}
        tangentMode: -559038737
      - time: 2.57142854
        value: {x: 0, y: 0, z: 0, w: 1}
        inSlope: {x: 0, y: 0, z: 0, w: 0}
        outSlope: {x: 0, y: 0, z: 0, w: 0}
        tangentMode: -559038737
      - time: 2.99900007
        value: {x: 0, y: 0, z: 0, w: 1}
        inSlope: {x: 0, y: 0, z: 0, w: 0}
        outSlope: {x: 0, y: 0, z: 0, w: 0}
        tangentMode: -559038737
      - time: 3
        value: {x: 0, y: 0, z: 0, w: 1}
        inSlope: {x: 0, y: 0, z: 0, w: 0}
        outSlope: {x: 0, y: 0, z: 0, w: 0}
        tangentMode: -559038737
      m_PreInfinity: 2
      m_PostInfinity: 2
    path: Root/RightLeg
  - curve:
      serializedVersion: 2
      m_Curve:
      - time: 0
        value: {x: 0, y: 0, z: 0, w: 1}
        inSlope: {x: 0, y: 0, z: 0, w: 0}
        outSlope: {x: 0, y: 0, z: 0, w: 0}
        tangentMode: -559038737
      - time: .00100000005
        value: {x: 0, y: 0, z: 0, w: 1}
        inSlope: {x: 0, y: 0, z: 0, w: 0}
        outSlope: {x: 0, y: 0, z: 0, w: 0}
        tangentMode: -559038737
      - time: .428571433
        value: {x: 0, y: 0, z: 0, w: 1}
        inSlope: {x: 0, y: 0, z: 0, w: 0}
        outSlope: {x: 0, y: 0, z: 0, w: 0}
        tangentMode: -559038737
      - time: .857142866
        value: {x: 0, y: 0, z: 0, w: 1}
        inSlope: {x: 0, y: 0, z: 0, w: 0}
        outSlope: {x: 0, y: 0, z: 0, w: 0}
        tangentMode: -559038737
      - time: 1.28571427
        value: {x: 0, y: 0, z: 0, w: 1}
        inSlope: {x: 0, y: 0, z: 0, w: 0}
        outSlope: {x: 0, y: 0, z: 0, w: 0}
        tangentMode: -559038737
      - time: 1.71428573
        value: {x: 0, y: 0, z: 0, w: 1}
        inSlope: {x: 0, y: 0, z: 0, w: 0}
        outSlope: {x: 0, y: 0, z: 0, w: 0}
        tangentMode: -559038737
      - time: 2.14285707
        value: {x: 0, y: 0, z: 0, w: 1}
        inSlope: {x: 0, y: 0, z: 0, w: 0}
        outSlope: {x: 0, y: 0, z: 0, w: 0}
        tangentMode: -559038737
      - time: 2.57142854
        value: {x: 0, y: 0, z: 0, w: 1}
        inSlope: {x: 0, y: 0, z: 0, w: 0}
        outSlope: {x: 0, y: 0, z: 0, w: 0}
        tangentMode: -559038737
      - time: 2.99900007
        value: {x: 0, y: 0, z: 0, w: 1}
        inSlope: {x: 0, y: 0, z: 0, w: 0}
        outSlope: {x: 0, y: 0, z: 0, w: 0}
        tangentMode: 0
      - time: 3
        value: {x: 0, y: 0, z: 0, w: 1}
        inSlope: {x: 0, y: 0, z: 0, w: 0}
        outSlope: {x: 0, y: 0, z: 0, w: 0}
        tangentMode: -559038737
      m_PreInfinity: 2
      m_PostInfinity: 2
    path: Root/LeftLeg
  m_CompressedRotationCurves: []
  m_PositionCurves:
  - curve:
      serializedVersion: 2
      m_Curve:
      - time: 0
        value: {x: 19, y: -9, z: 0}
        inSlope: {x: 0, y: 0, z: 0}
        outSlope: {x: 0, y: 0, z: 0}
        tangentMode: 67
      - time: 3
        value: {x: 19, y: -9, z: 0}
        inSlope: {x: 0, y: 0, z: 0}
        outSlope: {x: 0, y: 0, z: 0}
        tangentMode: 0
      m_PreInfinity: 2
      m_PostInfinity: 2
    path: Root
  - curve:
      serializedVersion: 2
      m_Curve:
      - time: 0
        value: {x: -34, y: 139, z: 0}
        inSlope: {x: 0, y: 0, z: 0}
        outSlope: {x: 0, y: 0, z: 0}
        tangentMode: -559038737
      - time: 3
        value: {x: -34, y: 139, z: 0}
        inSlope: {x: 0, y: 0, z: 0}
        outSlope: {x: 0, y: 0, z: 0}
        tangentMode: -559038737
      m_PreInfinity: 2
      m_PostInfinity: 2
    path: Root/Body
  - curve:
      serializedVersion: 2
      m_Curve:
      - time: 0
        value: {x: -4, y: 191, z: 0}
        inSlope: {x: 0, y: 0, z: 0}
        outSlope: {x: 0, y: 0, z: 0}
        tangentMode: -559038737
      - time: 3
        value: {x: -4, y: 191, z: 0}
        inSlope: {x: 0, y: 0, z: 0}
        outSlope: {x: 0, y: 0, z: 0}
        tangentMode: -559038737
      m_PreInfinity: 2
      m_PostInfinity: 2
    path: Root/LeftArm
  - curve:
      serializedVersion: 2
      m_Curve:
      - time: 0
        value: {x: -75, y: 192, z: 0}
        inSlope: {x: 0, y: 0, z: 0}
        outSlope: {x: 0, y: 0, z: 0}
        tangentMode: 1073199348
      - time: 3
        value: {x: -75, y: 192, z: 0}
        inSlope: {x: 0, y: 0, z: 0}
        outSlope: {x: 0, y: 0, z: 0}
        tangentMode: -559038737
      m_PreInfinity: 2
      m_PostInfinity: 2
    path: Root/RightArm
  - curve:
      serializedVersion: 2
      m_Curve:
      - time: 0
        value: {x: -17.2041149, y: 227.057541, z: 0}
        inSlope: {x: 0, y: 0, z: 0}
        outSlope: {x: 0, y: 0, z: 0}
        tangentMode: -559038737
      - time: 3
        value: {x: -35, y: 240, z: 0}
        inSlope: {x: 0, y: 0, z: 0}
        outSlope: {x: 0, y: 0, z: 0}
        tangentMode: -559038737
      m_PreInfinity: 2
      m_PostInfinity: 2
    path: Root/Head
  - curve:
      serializedVersion: 2
      m_Curve:
      - time: 0
        value: {x: -5, y: 34, z: 0}
        inSlope: {x: 0, y: 0, z: 0}
        outSlope: {x: 0, y: 0, z: 0}
        tangentMode: -559038737
      - time: 3
        value: {x: -5, y: 34, z: 0}
        inSlope: {x: 0, y: 0, z: 0}
        outSlope: {x: 0, y: 0, z: 0}
        tangentMode: -559038737
      m_PreInfinity: 2
      m_PostInfinity: 2
    path: Root/Head/Face
  - curve:
      serializedVersion: 2
      m_Curve:
      - time: 0
        value: {x: -67, y: 88, z: 0}
        inSlope: {x: 0, y: 0, z: 0}
        outSlope: {x: 0, y: 0, z: 0}
        tangentMode: -559038737
      - time: 3
        value: {x: -67, y: 88, z: 0}
        inSlope: {x: 0, y: 0, z: 0}
        outSlope: {x: 0, y: 0, z: 0}
        tangentMode: -559038737
      m_PreInfinity: 2
      m_PostInfinity: 2
    path: Root/RightLeg
  - curve:
      serializedVersion: 2
      m_Curve:
      - time: 0
        value: {x: -21.2801342, y: 88, z: 0}
        inSlope: {x: 0, y: 0, z: 0}
        outSlope: {x: 0, y: 0, z: 0}
        tangentMode: -559038737
      - time: 3
        value: {x: -14, y: 88, z: 0}
        inSlope: {x: 0, y: 0, z: 0}
        outSlope: {x: 0, y: 0, z: 0}
        tangentMode: -559038737
      m_PreInfinity: 2
      m_PostInfinity: 2
    path: Root/LeftLeg
  m_ScaleCurves:
  - curve:
      serializedVersion: 2
      m_Curve:
      - time: 0
        value: {x: .422408283, y: .422408283, z: 0}
        inSlope: {x: 0, y: 0, z: 0}
        outSlope: {x: 0, y: 0, z: 0}
        tangentMode: -559038737
      - time: 3
        value: {x: .422408283, y: .422408283, z: 0}
        inSlope: {x: 0, y: 0, z: 0}
        outSlope: {x: 0, y: 0, z: 0}
        tangentMode: -559038737
      m_PreInfinity: 2
      m_PostInfinity: 2
    path: Root
  - curve:
      serializedVersion: 2
      m_Curve:
      - time: 0
        value: {x: 1, y: 1, z: 1}
        inSlope: {x: 0, y: 0, z: 0}
        outSlope: {x: 0, y: 0, z: 0}
        tangentMode: -559038737
      - time: 3
        value: {x: 1, y: 1, z: 1}
        inSlope: {x: 0, y: 0, z: 0}
        outSlope: {x: 0, y: 0, z: 0}
        tangentMode: -559038737
      m_PreInfinity: 2
      m_PostInfinity: 2
    path: Root/Body
  - curve:
      serializedVersion: 2
      m_Curve:
      - time: 0
        value: {x: 1, y: 1, z: 1}
        inSlope: {x: 0, y: 0, z: 0}
        outSlope: {x: 0, y: 0, z: 0}
        tangentMode: -559038737
      - time: 3
        value: {x: 1, y: 1, z: 1}
        inSlope: {x: 0, y: 0, z: 0}
        outSlope: {x: 0, y: 0, z: 0}
        tangentMode: -559038737
      m_PreInfinity: 2
      m_PostInfinity: 2
    path: Root/Body/Body_Sprite
  - curve:
      serializedVersion: 2
      m_Curve:
      - time: 0
        value: {x: 1, y: 1, z: 1}
        inSlope: {x: 0, y: 0, z: 0}
        outSlope: {x: 0, y: 0, z: 0}
        tangentMode: -559038737
      - time: 3
        value: {x: 1, y: 1, z: 1}
        inSlope: {x: 0, y: 0, z: 0}
        outSlope: {x: 0, y: 0, z: 0}
        tangentMode: -559038737
      m_PreInfinity: 2
      m_PostInfinity: 2
    path: Root/LeftArm
  - curve:
      serializedVersion: 2
      m_Curve:
      - time: 0
        value: {x: 1, y: 1, z: 1}
        inSlope: {x: 0, y: 0, z: 0}
        outSlope: {x: 0, y: 0, z: 0}
        tangentMode: -559038737
      - time: 3
        value: {x: 1, y: 1, z: 1}
        inSlope: {x: 0, y: 0, z: 0}
        outSlope: {x: 0, y: 0, z: 0}
        tangentMode: -559038737
      m_PreInfinity: 2
      m_PostInfinity: 2
    path: Root/LeftArm/LeftArm_Sprite
  - curve:
      serializedVersion: 2
      m_Curve:
      - time: 0
        value: {x: 1, y: 1, z: 1}
        inSlope: {x: 0, y: 0, z: 0}
        outSlope: {x: 0, y: 0, z: 0}
        tangentMode: -559038737
      - time: 3
        value: {x: 1, y: 1, z: 1}
        inSlope: {x: 0, y: 0, z: 0}
        outSlope: {x: 0, y: 0, z: 0}
        tangentMode: -559038737
      m_PreInfinity: 2
      m_PostInfinity: 2
    path: Root/RightArm
  - curve:
      serializedVersion: 2
      m_Curve:
      - time: 0
        value: {x: 1, y: 1, z: 1}
        inSlope: {x: 0, y: 0, z: 0}
        outSlope: {x: 0, y: 0, z: 0}
        tangentMode: -559038737
      - time: 3
        value: {x: 1, y: 1, z: 1}
        inSlope: {x: 0, y: 0, z: 0}
        outSlope: {x: 0, y: 0, z: 0}
        tangentMode: -559038737
      m_PreInfinity: 2
      m_PostInfinity: 2
    path: Root/RightArm/RightArm_Sprite
  - curve:
      serializedVersion: 2
      m_Curve:
      - time: 0
        value: {x: 1, y: 1, z: 1}
        inSlope: {x: 0, y: 0, z: 0}
        outSlope: {x: 0, y: 0, z: 0}
        tangentMode: -559038737
      - time: 3
        value: {x: 1, y: 1, z: 1}
        inSlope: {x: 0, y: 0, z: 0}
        outSlope: {x: 0, y: 0, z: 0}
        tangentMode: -559038737
      m_PreInfinity: 2
      m_PostInfinity: 2
    path: Root/Head
  - curve:
      serializedVersion: 2
      m_Curve:
      - time: 0
        value: {x: 1, y: 1, z: 1}
        inSlope: {x: 0, y: 0, z: 0}
        outSlope: {x: 0, y: 0, z: 0}
        tangentMode: -559038737
      - time: 3
        value: {x: 1, y: 1, z: 1}
        inSlope: {x: 0, y: 0, z: 0}
        outSlope: {x: 0, y: 0, z: 0}
        tangentMode: -559038737
      m_PreInfinity: 2
      m_PostInfinity: 2
    path: Root/Head/Head_Sprite
  - curve:
      serializedVersion: 2
      m_Curve:
      - time: 0
        value: {x: 1, y: 1, z: 1}
        inSlope: {x: 0, y: 0, z: 0}
        outSlope: {x: 0, y: 0, z: 0}
        tangentMode: -559038737
      - time: 3
        value: {x: 1, y: 1, z: 1}
        inSlope: {x: 0, y: 0, z: 0}
        outSlope: {x: 0, y: 0, z: 0}
        tangentMode: 1073424032
      m_PreInfinity: 2
      m_PostInfinity: 2
    path: Root/Head/Face
  - curve:
      serializedVersion: 2
      m_Curve:
      - time: 0
        value: {x: 1, y: 1, z: 1}
        inSlope: {x: 0, y: 0, z: 0}
        outSlope: {x: 0, y: 0, z: 0}
        tangentMode: -559038737
      - time: 3
        value: {x: 1, y: 1, z: 1}
        inSlope: {x: 0, y: 0, z: 0}
        outSlope: {x: 0, y: 0, z: 0}
        tangentMode: -559038737
      m_PreInfinity: 2
      m_PostInfinity: 2
    path: Root/Head/Face/Face_Sprite
  - curve:
      serializedVersion: 2
      m_Curve:
      - time: 0
        value: {x: 1, y: 1, z: 1}
        inSlope: {x: 0, y: 0, z: 0}
        outSlope: {x: 0, y: 0, z: 0}
        tangentMode: -559038737
      - time: 3
        value: {x: 1, y: 1, z: 1}
        inSlope: {x: 0, y: 0, z: 0}
        outSlope: {x: 0, y: 0, z: 0}
        tangentMode: -559038737
      m_PreInfinity: 2
      m_PostInfinity: 2
    path: Root/RightLeg
  - curve:
      serializedVersion: 2
      m_Curve:
      - time: 0
        value: {x: 1, y: 1, z: 1}
        inSlope: {x: 0, y: 0, z: 0}
        outSlope: {x: 0, y: 0, z: 0}
        tangentMode: -559038737
      - time: 3
        value: {x: 1, y: 1, z: 1}
        inSlope: {x: 0, y: 0, z: 0}
        outSlope: {x: 0, y: 0, z: 0}
        tangentMode: -559038737
      m_PreInfinity: 2
      m_PostInfinity: 2
    path: Root/RightLeg/RightLeg_Sprite
  - curve:
      serializedVersion: 2
      m_Curve:
      - time: 0
        value: {x: 1, y: 1, z: 1}
        inSlope: {x: 0, y: 0, z: 0}
        outSlope: {x: 0, y: 0, z: 0}
        tangentMode: -559038737
      - time: 3
        value: {x: 1, y: 1, z: 1}
        inSlope: {x: 0, y: 0, z: 0}
        outSlope: {x: 0, y: 0, z: 0}
        tangentMode: -559038737
      m_PreInfinity: 2
      m_PostInfinity: 2
    path: Root/LeftLeg
  - curve:
      serializedVersion: 2
      m_Curve:
      - time: 0
        value: {x: 1, y: 1, z: 1}
        inSlope: {x: 0, y: 0, z: 0}
        outSlope: {x: 0, y: 0, z: 0}
        tangentMode: -559038737
      - time: 3
        value: {x: 1, y: 1, z: 1}
        inSlope: {x: 0, y: 0, z: 0}
        outSlope: {x: 0, y: 0, z: 0}
        tangentMode: -559038737
      m_PreInfinity: 2
      m_PostInfinity: 2
    path: Root/LeftLeg/LeftLeg_Sprite
  m_FloatCurves: []
  m_SampleRate: 60
  m_WrapMode: 2
  m_Bounds:
    m_Center: {x: 0, y: 0, z: 0}
    m_Extent: {x: 0, y: 0, z: 0}
  m_MuscleClipInfo:
    m_StartTime: 0
    m_StopTime: 1
    m_OrientationOffsetY: 0
    m_Level: 0
    m_CycleOffset: 0
    m_LoopBlend: 0
    m_LoopBlendOrientation: 0
    m_LoopBlendPositionY: 0
    m_LoopBlendPositionXZ: 0
    m_KeepOriginalOrientation: 0
    m_KeepOriginalPositionY: 1
    m_KeepOriginalPositionXZ: 0
    m_HeightFromFeet: 0
    m_Mirror: 0
  m_EditorCurves: []
  m_EulerEditorCurves: []
  m_Events:
  - time: 0
    functionName: AnimationEvent_Triggered
    data: 
    objectReferenceParameter: {fileID: 0}
    floatParameter: 0
    intParameter: 36
    messageOptions: 0
  - time: 3
    functionName: AnimationEvent_Triggered
    data: 
    objectReferenceParameter: {fileID: 0}
    floatParameter: 0
    intParameter: 37
    messageOptions: 0
