<?xml version="1.0" encoding="utf-8"?>
<!-- Generator: Adobe Illustrator 16.0.0, SVG Export Plug-In . SVG Version: 6.00 Build 0)  -->
<!DOCTYPE svg PUBLIC "-//W3C//DTD SVG 1.1//EN" "http://www.w3.org/Graphics/SVG/1.1/DTD/svg11.dtd">
<svg version="1.1" id="Layer_1" xmlns="http://www.w3.org/2000/svg" xmlns:xlink="http://www.w3.org/1999/xlink" x="0px" y="0px"
	 width="1024px" height="1024px" viewBox="0 0 1024 1024" enable-background="new 0 0 1024 1024" xml:space="preserve">
<g>
	<path fill="#EECAB0" d="M318.664,361.41c1.625,4.844,51.629,127.582,0,187.266c-17.73,14.52-53.238,16.129-53.238,16.129"/>
	<path fill="#D2986D" d="M279.812,430.039c4.574-24.539,58.605-61.57,54.051-37.172c-7.793,41.777-33.348,110.512-32.117,153.387
		c0.719,24.977-38.02,24.914-38.719,0C261.703,499.938,271.398,475.176,279.812,430.039z"/>
	<path fill="#EBEDCA" d="M317.059,364.645c199.426-132.934,327.492-8.074,327.492-8.074S738.926,467.469,696.578,596
		c4.43,5.914-419.844,12.363-419.844,12.363l-11.285-40.324c0,0,53.234,6.449,67.754-48.406
		C342.332,485.109,329.969,401.867,317.059,364.645z"/>
	<path fill="#E2253D" d="M638.09,589c0,0,4.836,54.848-40.336,112.918c37.121-20.961,72.602-45.16,96.797-103.23
		C670.355,590.609,638.09,589,638.09,589z"/>
	<path fill="#E2253D" d="M578.402,587.398c0,0,8.074,90.328-40.324,132.281c-22.59,6.449-46.793,1.602-46.793,1.602
		s33.883-100.008,17.754-130.672C518.719,582.559,578.402,587.398,578.402,587.398z"/>
	<path fill="#E2253D" d="M447.73,589c0,0-8.055,100.008,0,135.512c-16.125-1.605-43.559-9.672-43.559-9.672L384.812,589H447.73z"/>
	<path fill="#E2253D" d="M338.023,597.074c0,0,3.234,66.137,16.145,93.559c-24.199-17.746-75.828-85.508-75.828-85.508
		L338.023,597.074z"/>
	<path fill="#FFFFFF" d="M657.441,488.984c-32.738-23.195-45.863-60.23-46.211-107.281c-0.043-5.848,0.52-28.809,1.117-45.82
		c1.852-54.16-198.453-18.883-198.418-19.926c0,0.02-3.609,44.039-6.461,55.566c-4.25,17.148-8.758,43.324-4.902,67.445
		c6.445,40.332,33.875,83.887,33.875,83.887l29.043,9.676l82.27,25.828c0,0,161.32,29.039,217.797-79.059
		C721.984,503.508,696.164,516.402,657.441,488.984z"/>
	<path fill="#FFFFFF" d="M578.402,587.398L638.09,589c0,0-4.844,79.043-40.336,112.918c-32.266,19.363-50,16.152-50,16.152
		C575.168,666.438,578.402,587.398,578.402,587.398z"/>
	<path fill="#FFFFFF" d="M447.73,589l61.309,1.609c0,0,8.051,85.508-19.359,137.141c-17.75,0-41.949,3.211-41.949,3.211
		S434.84,611.57,447.73,589z"/>
	<path fill="#FFFFFF" d="M384.812,589c0,0,4.84,104.867,25.809,129.07c-30.645-17.754-56.453-27.438-56.453-27.438l-16.145-93.559
		C338.023,597.074,389.652,589,384.812,589z"/>
	<path fill="#A15E33" d="M265.137,604.508c0,0-1.383-3.805-3.812-10.453c-0.609-1.664-1.281-3.504-2.012-5.504
		c-0.586-2.238-1.219-4.652-1.898-7.238c-1.293-5.18-3.023-11.059-3.73-17.348c-0.473-3.16-0.969-6.445-1.477-9.848
		c-0.414-3.41-0.473-6.965-0.727-10.598c-0.684-7.277-0.273-14.941-0.047-22.855c-0.016-3.969,0.734-7.93,1.082-11.984
		c0.484-4.027,0.762-8.141,1.652-12.188c0.762-4.062,1.531-8.152,2.297-12.266c0.941-4.066,2.086-8.098,3.125-12.156
		c0.965-4.082,2.258-8.055,3.633-11.992c1.387-3.926,2.52-7.926,4.098-11.723c3.09-7.621,6.105-15.129,9.715-22.074
		c3.234-7.133,7.258-13.566,10.727-19.832c3.883-6.027,7.441-11.809,11.188-16.844c3.824-4.977,7.062-9.723,10.547-13.488
		c3.41-3.812,6.098-7.363,8.82-9.871c5.219-5.195,8.203-8.164,8.203-8.164c2.836-2.828,7.43-2.816,10.254,0.02
		c2.793,2.801,2.816,7.312,0.082,10.145l-0.406,0.422c0,0-2.695,2.793-7.414,7.68c-2.465,2.328-4.91,5.73-8.016,9.316
		c-3.172,3.531-6.117,8.07-9.605,12.773c-3.414,4.762-6.652,10.27-10.191,15.98c-3.141,5.965-6.82,12.051-9.723,18.816
		c-3.277,6.586-5.957,13.688-8.73,20.883c-1.422,3.582-2.391,7.352-3.625,11.043c-1.223,3.703-2.363,7.438-3.184,11.254
		c-0.891,3.801-1.895,7.574-2.699,11.375c-0.641,3.82-1.281,7.633-1.918,11.41c-0.77,3.762-0.93,7.559-1.309,11.277
		c-0.238,3.734-0.895,7.406-0.793,11.031c-0.055,7.25-0.332,14.266,0.434,20.852c0.301,3.289,0.391,6.516,0.828,9.59
		c0.523,3.055,1.027,6.012,1.512,8.848c0.742,5.789,2.336,10.566,3.469,14.941c0.59,2.176,1.141,4.223,1.652,6.105
		c0.77,1.992,1.473,3.82,2.109,5.469c2.555,6.602,4.012,10.379,4.012,10.379c1.93,4.984-0.547,10.59-5.535,12.523
		c-4.984,1.93-10.59-0.551-12.52-5.535C265.188,604.641,265.152,604.547,265.137,604.508z"/>
	<path fill="#D1C1B4" d="M476.48,535.035c-4.633-16.789,23.832-27.18,34.473-20.543c4.125,2.574,26.199,27.906,25.996,33.012
		C536.035,570.391,480.148,548.258,476.48,535.035z"/>
	<path fill="#B9BA9E" d="M660.488,569.188c-9.258-2.375-83.051-3.453-93.66-4c2.84-6.078,0.078-14.766-8.578-14.523
		c-35.562,1.055-92.676-7.242-120.918-36.363c-0.812-1.387-1.855-2.504-3.004-3.344c-3.273-3.855-6.168-7.984-8.355-12.539
		c-19.438-40.348-13.32-128.867-6.156-171.707c2.324-13.906-14.785-19.168-21.07-7.785c-15.242,27.598-21.848,72.715-20.594,104.449
		c2.047,51.93,16.664,108.336,69.16,142.059c42.605,27.371,163.227,22.305,210.84,21.109
		C667.98,586.305,670.324,571.723,660.488,569.188z"/>
	<path fill="#B9BA9E" d="M274.031,563.141c2.816-4.836,8.488-5.727,13.23-3.457c1.379,0.645,2.441,1.547,3.383,2.535
		c5.219,0.406,10.152,3.883,10.172,10.652c0.02,5.637,0.039,11.289,0.059,16.949c0.039,11.395-15.125,15.023-20.949,5.664
		c-2.891-4.664-4.762-9.812-6.031-15.117C272.48,574.449,270.742,568.797,274.031,563.141z"/>
	<path fill="#757464" d="M509.852,404.691c0,7.355,8.129,13.309,18.148,13.309s18.152-5.953,18.152-13.309
		c0-7.352-8.133-13.309-18.152-13.309S509.852,397.34,509.852,404.691z"/>
	<path fill="#757464" d="M536.473,468.812c0,6.691,7.578,12.105,16.938,12.105c9.355,0,16.934-5.414,16.934-12.105
		c0-6.68-7.578-12.094-16.934-12.094C544.051,456.719,536.473,462.133,536.473,468.812z"/>
	<path fill="#757464" d="M596.965,522.051c0,5.363,8.133,9.688,18.156,9.688c10.016,0,18.141-4.324,18.141-9.688
		c0-5.34-8.125-9.672-18.141-9.672C605.098,512.379,596.965,516.711,596.965,522.051z"/>
	<path fill="#981B28" d="M648.98,592.699c-2.336,24.246-11.453,48.477-22.828,69.836c-5.809,10.922-12.699,21.586-20.602,31.117
		c-1.898,2.285-5.758,9.395-9.527,8.262c-5.262-1.582-0.426-7.141,1.129-9.383c14.234-20.609,24.5-43.578,30.289-67.965
		c2.602-10.926,3.422-21.715,4.625-32.793C633.297,580.426,650.176,581.211,648.98,592.699z"/>
	<path fill="#981B28" d="M586.047,589.117c1.035,27.609-3.102,57.781-13.496,83.465c-4.953,13.664-11.797,26.105-19.785,38.191
		c-2.328,3.52-5.742,9.086-9.125,11.617c-1.605,2.008-4.938,1.102-5.312-1.434c-0.25-1.676,1.289-3.309,2.152-4.586
		c16.727-24.648,25.645-52.422,28.656-81.992c1.391-13.668,1.672-27.656,0.309-41.34c-0.449-4.531-0.23-9.102,4.559-11.324
		C579.422,579.199,585.84,583.156,586.047,589.117z"/>
	<path fill="#981B28" d="M520.734,591.855c0.184,27.566-1.207,55.699-6.984,82.723c-2.426,13.484-6.34,27.801-12.879,39.914
		c-2.574,4.766-5.383,9.117-8.535,13.531c-3.262,4.562-11.043,1.906-9.195-3.965c1.172-3.723,4.484-6.809,6.117-10.34
		c3.031-6.555,5.594-13.129,7.441-20.129c3.68-13.945,5.719-28.246,6.77-42.621c1.082-14.789,1.387-29.602,0.98-44.422
		c-0.191-7.035-3.68-26.508,10.023-22.805C518.133,584.727,520.66,588.09,520.734,591.855z"/>
	<path fill="#981B28" d="M452.977,592.641c-2.297,27.531-3.984,55.211-3.789,82.844c0.098,14.352,0.445,28.621,2.188,42.875
		c0.312,2.555,2.391,8.922,0.457,11.387c-4.82,6.148-6.656-6.703-7.039-8.594c-5.969-29.457-7.395-59.668-8.312-89.652
		c-0.391-12.711-0.496-25.426-0.43-38.137c0.02-4.645,2.055-9.062,7.148-9.867C448.59,582.648,453.457,587.219,452.977,592.641z"/>
	<path fill="#981B28" d="M394.91,596.984c-0.305,12.121,0.617,24.242,1.453,36.328c1.055,15.258,2.941,31.086,6.57,45.965
		c2.852,12.246,6.289,24.105,10.152,36.07c1.035,3.203,0.578,6.875-3.145,8.074c-4.359,1.406-6.418-2.254-7.684-5.609
		c-9.906-26.227-17.184-53.016-20.723-80.906c-1.477-13.02-3.148-26.012-3.551-39.129
		C377.625,586.047,395.152,585.238,394.91,596.984z"/>
	<path fill="#981B28" d="M346.512,601.781c-0.598,21.289,3.105,43.301,8.938,63.703c2.523,8.805,5.688,17.281,8.922,25.848
		c1.086,2.883,0.504,6.203-2.715,7.418c-3.895,1.477-6.043-1.664-7.422-4.668c-9.5-20.648-17.355-41.875-21.207-64.387
		c-1.539-9-3.855-18.812-3.461-28.008C329.266,590.422,346.824,590.504,346.512,601.781z"/>
	<path fill="#757464" d="M769.348,467.008c-2.312-1.637-5.508-1.094-7.148,1.215c-10.551,14.977-26.25,28.137-44.707,31.254
		c-5.832-49.43-23.496-98.766-55.977-137.047c-32.238-37.984-77.699-58.469-126.262-66.469
		c-46.223-7.609-94.242-4.102-137.547,14.383c-22.617,9.652-43.969,22.41-63.402,37.461c-9.598,7.426-18.738,15.457-27.227,24.133
		c-3.547,3.625-5.332,8.477-2.535,13.195c2.664,4.5,8.52,6.148,13.156,3.766c5.66,28.93,11.387,58.383,11.809,87.945
		c0.34,23.816-1.75,54.254-21.594,70.66c-10.074,8.332-21.746,10.852-34.41,12.176c-4.035,0.422-7.152,5.402-2.82,8.125
		c3.113,1.945,10.379,1.176,13.637,0.832c14.004-1.473,26.832-5.387,37.445-15.082c10.625-9.711,17.188-23.227,21.082-36.898
		c6.777-23.785,6.25-49.789,3.527-74.156c-2.52-22.562-7.672-44.688-14.977-66.172c37.23-33.609,84.48-58.156,134.77-63.082
		c48.211-4.723,101.652,3.973,143.172,29.902c-3.918,20.359-6.914,40.293-5.508,61.156c1.762,26.148,9.559,52.297,26.469,72.746
		c12.281,14.855,28.09,25.426,46.086,32.016c24.566,9.781,49.367,3.418,70.145-11.629c-13.688,19.043-32.23,34.039-53.898,43.078
		c-22.871,9.547-48.723,12.852-73.324,13.422c-24.219,0.555-50.328-2.145-72.027-13.641c-10.039-5.312-18.867-12.621-25.043-22.23
		c-3.047-4.742-5.289-10.051-6.812-15.465c-0.637-2.27-0.762-4.949-2.949-6.352c-2.23-1.441-5.293-0.777-6.73,1.453
		c-6.953,10.875-17.312,20.598-30.023,24.051c-13.23,3.598-26.398-1.891-35.754-11.293c-20.781-20.891-27.066-53.469-28.621-81.758
		c-1.277-23.348,1.508-47.062,7.281-69.695c1.438-5.633,2.879-11.27,4.32-16.898c0.594-2.328,1.82-5.242,1.492-7.699
		c-0.789-5.938-8.938-7.578-11.914-2.344c-2.883,5.062-3.996,11.809-5.797,17.34c-1.555,4.758-2.953,9.555-4.266,14.387
		c-7.438,27.379-10.105,56.68-6.348,84.871c3.715,27.879,13.617,60.094,36.703,78.113c4.973,3.887,10.562,6.613,16.555,8.527
		c4.469,1.422,8.152,2.895,12.457,5.043c13.391,6.688,27.461,12.207,41.867,16.289c16.105,4.57,32.367,7.859,48.91,10.391
		c15.379,2.352,30.957,3.145,46.379,5.066c32.254,4.031,68.609-1.188,98.047-15.109c-1.781,10.922-4.52,21.695-8.234,32.121
		c-1.453,4.102-2.965,7.887-0.469,11.957c2.559,4.176,7.742,5.559,12.227,3.859c4.941-1.871,6.281-6.098,7.781-10.746
		c1.719-5.277,3.074-10.664,4.27-16.082c1.211-5.473,2.262-10.977,3.379-16.461c0.629-3.109,1.281-6.203,1.984-9.285
		c0.531-2.312,1.844-5.27,1.844-7.617c0-1.809,5.656-4.75,6.906-5.781c3.051-2.508,5.977-5.164,8.777-7.941
		c5.965-5.93,11.355-12.418,16.238-19.266c5.047-7.07,9.398-14.715,13.148-22.543C767.176,484.43,775.305,471.215,769.348,467.008
		C767.035,465.371,771.199,468.316,769.348,467.008z M674.316,489.996c-24.617-11.504-41.25-33-48.969-58.883
		c-5.016-16.812-6.625-34.57-5.781-52.059c0.438-9.008,1.781-17.938,2.613-26.906c39.633,31.008,66.914,83.754,75.012,146.41
		C689.379,496.543,681.594,493.492,674.316,489.996C671.777,488.809,679.457,492.465,674.316,489.996z M512.93,544.277
		c-11.316-3.176-22.504-6.488-33.625-10.309c11.551-4.48,20.867-13.152,28.582-22.637c5.672,16.027,16.609,29.113,30.387,38.859
		C529.816,548.477,521.203,546.727,512.93,544.277C507.605,542.781,518.23,545.852,512.93,544.277z"/>
	<path fill="#981B28" d="M703.57,598.848c-7.934,22.129-18.59,43.098-33.637,61.285c-19.098,23.09-43.43,41.699-70.172,55.094
		c-55.773,27.922-121.02,34.992-181.445,19.531c-54.055-13.84-104.578-45.359-135.074-92.824
		c-5.973-9.293-10.812-19.086-15.176-29.215c-4.871-11.32,11.684-19.852,17.32-8.664c5.211,8.727,9.414,17.836,15.293,26.223
		c8.281,11.812,18.051,22.375,28.812,31.957c92.031,81.992,254.797,73.199,333.141-23.906c8.551-10.594,15.629-22.203,21.848-34.309
		c2.129-4.145,3.648-11.109,7.633-13.902C698.02,585.977,705.969,592.074,703.57,598.848z"/>
	<path fill="#981B28" d="M277.535,611.598c-3.531,0-6.629-2.582-7.168-6.184c-0.594-3.965,2.137-7.66,6.098-8.258
		c218.617-32.836,423.344-9.949,425.383-9.715c3.984,0.457,6.844,4.059,6.387,8.043s-4.051,6.863-8.047,6.383
		c-2.02-0.234-204.922-22.887-421.562,9.648C278.258,611.57,277.895,611.598,277.535,611.598z"/>
</g>
</svg>
