<?xml version="1.0" encoding="UTF-8" standalone="no"?>
<!-- Generator: Adobe Illustrator 16.2.0, SVG Export Plug-In . SVG Version: 6.00 Build 0)  -->

<svg
   xmlns:dc="http://purl.org/dc/elements/1.1/"
   xmlns:cc="http://creativecommons.org/ns#"
   xmlns:rdf="http://www.w3.org/1999/02/22-rdf-syntax-ns#"
   xmlns:svg="http://www.w3.org/2000/svg"
   xmlns="http://www.w3.org/2000/svg"
   xmlns:sodipodi="http://sodipodi.sourceforge.net/DTD/sodipodi-0.dtd"
   xmlns:inkscape="http://www.inkscape.org/namespaces/inkscape"
   version="1.1"
   id="Layer_1"
   x="0px"
   y="0px"
   width="350px"
   height="350px"
   viewBox="0 0 350 350"
   enable-background="new 0 0 350 350"
   xml:space="preserve"
   inkscape:version="0.48.2 r9819"
   sodipodi:docname="legacy_AACT5_character_orphan_girl.svg"><metadata
   id="metadata3939"><rdf:RDF><cc:Work
       rdf:about=""><dc:format>image/svg+xml</dc:format><dc:type
         rdf:resource="http://purl.org/dc/dcmitype/StillImage" /><dc:title></dc:title></cc:Work></rdf:RDF></metadata><defs
   id="defs3937" /><sodipodi:namedview
   pagecolor="#ffffff"
   bordercolor="#666666"
   borderopacity="1"
   objecttolerance="10"
   gridtolerance="10"
   guidetolerance="10"
   inkscape:pageopacity="0"
   inkscape:pageshadow="2"
   inkscape:window-width="640"
   inkscape:window-height="480"
   id="namedview3935"
   showgrid="false"
   inkscape:zoom="0.67428571"
   inkscape:cx="175"
   inkscape:cy="175"
   inkscape:window-x="0"
   inkscape:window-y="0"
   inkscape:window-maximized="0"
   inkscape:current-layer="Layer_1" />
<g
   id="g3773">
	<g
   id="g3775">
		<g
   id="g3777">
			<path
   fill="#ECC0B0"
   d="M212.583,285.184c-5.611-0.35-8.957,3.646-11.403,12.578c-1.45,5.285-0.399,18.773,1.82,26.475     c1.641,5.691,8.028,4.482,11.133-1.305c2.19-4.082,7.995-18.758,7.962-25.533C222.064,290.627,218.726,285.561,212.583,285.184z"
   id="path3779" />
			<path
   fill="#AF6443"
   d="M207.314,330.465C207.313,330.465,207.313,330.465,207.314,330.465c-3.224,0-5.743-2.068-6.741-5.529     c-2.197-7.623-3.503-21.742-1.829-27.842c1.904-6.951,5.256-14.986,13.996-14.432c7.178,0.441,11.842,6.221,11.88,14.725     c0.038,7.734-6.325,23.129-8.262,26.738C214.261,328.035,210.795,330.465,207.314,330.465z M211.919,287.688     c-2.651,0-5.711,1.275-8.304,10.74c-1.286,4.688-0.354,17.594,1.812,25.109c0.541,1.877,1.555,1.877,1.887,1.877h0.001     c1.262,0,3.237-1.15,4.593-3.678c2.224-4.145,7.691-18.338,7.662-24.326c-0.01-2.176-0.554-9.303-7.141-9.707     C212.254,287.693,212.085,287.688,211.919,287.688z"
   id="path3781" />
		</g>
		<g
   id="g3783">
			<path
   fill="#ECC0B0"
   d="M214.642,226.697c2.266-2.071,17.614,21.282,20.332,26.174c4.01,0.718,12.131,4.881,12.752,7.653     c0.623,2.771-5.54,4.862-7.938,4.108c0.393,4.441-0.514,7.645-2.496,8.738s-4.871-5.76-5.727-9.658     c-4.844-3.078-11.962-7.704-15.565-12.409C211.978,246.062,204.327,236.131,214.642,226.697z"
   id="path3785" />
			<path
   fill="#AF6443"
   d="M236.849,276.014c-4.189,0-6.7-7.822-7.484-10.709c-4.396-2.803-11.593-7.535-15.369-12.465     c-3.923-5.113-13.064-17.025-1.058-28.006c0.559-0.51,1.29-0.792,2.06-0.792c1.428,0,3.384,0,12.263,12.454     c3.931,5.514,7.645,11.281,9.354,14.164c4.483,1.221,12.658,5.211,13.577,9.312c0.299,1.33-0.048,2.703-0.976,3.863     c-1.505,1.881-4.377,3.039-6.82,3.375c-0.122,4.109-1.463,7.035-3.883,8.371C238.001,275.863,237.426,276.014,236.849,276.014z      M215.283,229.609c-6.437,6.892-2.225,13.713,2.699,20.13c3.508,4.579,10.943,9.304,14.938,11.841l0.887,0.564l0.226,1.027     c0.552,2.512,1.797,5.494,2.745,7.025c0.424-0.998,0.725-2.746,0.495-5.342l-0.333-3.767l3.606,1.134c0,0,0.131,0.039,0.44,0.039     c1.554,0,3.486-0.805,4.137-1.412c-1.134-1.537-7.11-4.869-10.595-5.492l-1.18-0.211l-0.583-1.049     C229.844,248.838,219.227,233.139,215.283,229.609z"
   id="path3787" />
		</g>
		<g
   id="g3789">
			<path
   fill="#EECAAF"
   d="M161.807,224.534c-0.53,0.978-0.913,2.745-1.483,4.966c-4.268,16.657-13.4,59.434,8.651,69.539     c22.024,10.09,53.203,5.676,58.073-15.156c3.74-15.996-13.655-47.981-20.718-56.401     C199.266,219.062,167.277,214.432,161.807,224.534z"
   id="path3791" />
			<path
   fill="#B27042"
   d="M193.238,306.75c-0.003,0-0.002,0-0.004,0c-8.7,0-17.689-1.924-25.312-5.416     c-22.278-10.209-15.856-49.781-10.046-72.461l0.282-1.116c0.469-1.867,0.839-3.341,1.428-4.427     c2.47-4.561,9.005-7.074,18.401-7.074c10.923,0,25.234,3.592,30.276,9.602c3.672,4.378,9.933,14.708,14.795,25.983     c4.163,9.655,8.661,23.149,6.447,32.616C226.293,298.207,212.394,306.75,193.238,306.75z M177.988,221.308     c-7.24,0-12.459,1.656-13.961,4.429c-0.286,0.527-0.618,1.85-0.969,3.25l-0.289,1.142c-12.626,49.28-0.872,62.889,7.257,66.614     c6.977,3.197,15.219,4.957,23.208,4.957c0.002,0,0.003,0,0.004,0c19.944,0,29.271-9.5,31.351-18.393     c3.371-14.416-12.564-45.106-20.193-54.202C200.85,224.878,188.756,221.308,177.988,221.308z"
   id="path3793" />
		</g>
		<path
   opacity="0.6"
   fill="#D3986D"
   d="M157.535,255.471c-1.293,4.535-3.403,4.954-1.515,13.021    c8.84-4.672,56.823-19.021,69.537-2.244c-2.705-13.936-2.417-12.673-9.653-17.324    C207.024,243.217,163.302,235.193,157.535,255.471z"
   id="path3795" />
		<path
   fill="#B27042"
   d="M193.238,306.75c-0.003,0-0.002,0-0.004,0c-8.7,0-17.689-1.924-25.312-5.416    c-22.278-10.209-15.856-49.781-10.046-72.461l0.282-1.116c0.469-1.867,0.839-3.341,1.428-4.427    c2.47-4.561,9.005-7.074,18.401-7.074c10.923,0,25.234,3.592,30.276,9.602c3.672,4.378,9.933,14.708,14.795,25.983    c4.163,9.655,8.661,23.149,6.447,32.616C226.293,298.207,212.394,306.75,193.238,306.75z M177.988,221.308    c-7.24,0-12.459,1.656-13.961,4.429c-0.286,0.527-0.618,1.85-0.969,3.25l-0.289,1.142c-12.626,49.28-0.872,62.889,7.257,66.614    c6.977,3.197,15.219,4.957,23.208,4.957c0.002,0,0.003,0,0.004,0c19.944,0,29.271-9.5,31.351-18.393    c3.371-14.416-12.564-45.106-20.193-54.202C200.85,224.878,188.756,221.308,177.988,221.308z"
   id="path3797" />
		<g
   id="g3799">
			<path
   fill="#ECC0B0"
   d="M168.96,284.725c-6.35,1.154-8.845,5.895-8.84,15.152c0.004,5.48,5.297,18.211,10.121,25.049     c3.562,5.049,10.295,2.191,11.978-4.209c1.188-4.52,3.156-20.207,1.056-26.73C181.168,287.463,175.904,283.461,168.96,284.725z"
   id="path3801" />
			<path
   fill="#AF6443"
   d="M174.85,330.033L174.85,330.033c-2.641,0-5.01-1.297-6.672-3.652     c-4.79-6.789-10.579-20.125-10.583-26.502c-0.004-6.721,1.124-15.859,10.913-17.639c0.996-0.182,1.99-0.273,2.955-0.273     c6.628,0,11.941,4.203,14.215,11.242c2.42,7.516,0.039,24.137-1.017,28.15C183.318,326.467,179.283,330.033,174.85,330.033z      M171.463,287.018c-0.662,0-1.352,0.064-2.051,0.191c-4.065,0.738-6.771,3.176-6.767,12.666     c0.004,4.818,4.969,16.945,9.659,23.594c0.709,1.004,1.564,1.514,2.545,1.514c1.763,0,4.088-1.721,4.927-4.908     c1.198-4.559,2.936-19.596,1.094-25.314C179.282,289.84,175.853,287.018,171.463,287.018z"
   id="path3803" />
		</g>
		<g
   id="g3805">
			<path
   fill="#AF14AF"
   d="M211.075,226.566c4.254,3.998,3.599,3.62,8.107,11.495c2.586,4.52,18.568,40.019,21.467,63.981     c-3.315-1.842-4.562-3.08-9.155-1.842c-2.834,0.764-4.116,4.262-7.577,7.734c-3.63-2.842-6.775-4.27-13.828-5.217     c-3.947,0-10.285,3.432-14.742,5.689c-4.58-1.801-8.355-3.494-13.26-6.314c-4.262,2.133-8.839,4.457-12.943,8.572     c-3.402-2.98-7.983-7.066-11.68-9.359c-2.198,0.088-6.945,1.893-9.637,3.896c-3.148-26.941,5.298-57.729,5.56-61.939     s5.683-13.049,10.521-17.47C168.749,221.375,205.627,221.447,211.075,226.566z"
   id="path3807" />
			<path
   fill="#7F0C82"
   d="M169.26,314.125l-2.465-2.16c-3.051-2.676-6.792-5.959-9.933-8.043c-1.882,0.363-5.426,1.742-7.527,3.307     l-3.509,2.613l-0.508-4.346c-2.542-21.754,2.248-45.53,4.551-56.956c0.512-2.54,0.953-4.732,0.997-5.433     c0.327-5.265,6.363-14.632,11.339-19.178c3.814-3.482,17.818-3.858,23.662-3.858c5.157,0,22.341,0.335,26.938,4.655     c3.665,3.444,4.009,3.969,6.586,8.57c0.533,0.952,1.175,2.098,1.983,3.511c2.621,4.58,18.799,40.26,21.782,64.932l0.595,4.916     l-4.328-2.404c-0.403-0.225-0.776-0.439-1.13-0.643c-1.703-0.982-2.44-1.381-3.613-1.381c-0.674,0-1.501,0.135-2.528,0.412     c-0.93,0.252-1.857,1.477-3.032,3.025c-0.931,1.229-1.985,2.621-3.413,4.055l-1.582,1.586l-1.764-1.381     c-3.115-2.439-5.783-3.768-12.425-4.678c-3.021,0.092-8.33,2.803-12.224,4.791l-2.234,1.135l-1.055-0.414     c-4.085-1.605-7.81-3.234-12.408-5.803c-3.629,1.834-7.592,3.994-11.083,7.494L169.26,314.125z M158.137,298.752l0.658,0.408     c3.274,2.031,7.067,5.275,10.296,8.1c4.004-3.49,8.313-5.646,11.866-7.426l1.213-0.605l1.176,0.676     c4.505,2.59,7.973,4.172,11.872,5.734l0.197-0.1c4.663-2.383,10.466-5.346,14.674-5.346l0.336,0.021     c5.928,0.797,9.561,1.961,13.144,4.348c0.546-0.656,1.04-1.309,1.524-1.949c1.618-2.135,3.146-4.15,5.744-4.852     c2.813-0.758,4.887-0.711,6.587-0.172c-4.146-23.246-18.148-54.28-20.434-58.274c-0.817-1.429-1.467-2.588-2.007-3.551     c-2.39-4.267-2.436-4.348-5.638-7.358c-1.719-1.615-10.971-3.285-23.479-3.285c-12.055,0-19.103,1.483-20.256,2.537     c-4.764,4.352-9.506,12.569-9.704,15.761c-0.064,1.045-0.449,2.955-1.087,6.117c-2.112,10.487-6.369,31.615-4.856,51.502     c2.613-1.25,5.529-2.182,7.399-2.256L158.137,298.752z"
   id="path3809" />
		</g>
		<g
   id="g3811">
			<path
   fill="#ECC0B0"
   d="M158.043,222.953c-4.257-1.523-20.022,24.623-22.548,29.991c-5.998,1.578-13.891,7.893-13.891,10.733     c0,2.842,9.154,2.527,12.628,1.264c0.948,4.42,1.353,7.883,4.824,8.514c3.474,0.631,4.513-6.012,4.484-10.002     c6.477-4.065,17.022-10.812,20.999-16.19C168.975,241.264,177.435,229.898,158.043,222.953z"
   id="path3813" />
			<path
   fill="#AF6443"
   d="M139.509,276.021L139.509,276.021c-0.299,0-0.603-0.027-0.903-0.082     c-4.291-0.779-5.485-4.248-6.305-7.928c-1.448,0.246-3.085,0.383-4.694,0.383c-7.42,0-8.527-2.955-8.527-4.717     c0-4.513,8.662-10.785,14.639-12.83c1.677-3.244,5.576-9.899,9.905-16.302c9.59-14.182,12.591-14.182,14.032-14.182     c0.43,0,0.847,0.071,1.238,0.211c7.575,2.713,11.954,6.325,13.389,11.043c2.029,6.675-2.797,13.203-5.68,17.103     c-3.765,5.092-12.368,10.963-20.564,16.145c-0.117,2.637-0.672,7.271-3.033,9.648C142.024,275.5,140.815,276.021,139.509,276.021     z M136.094,261.576l0.847,3.973c0.825,3.971,1.24,5.137,2.49,5.406c0.688-0.605,1.612-3.68,1.585-7.484l-0.01-1.408l1.192-0.749     c4.92-3.088,16.441-10.319,20.312-15.552c2.5-3.382,6.23-8.429,4.939-12.674c-0.9-2.96-4.196-5.513-9.802-7.59     c-0.769,0.439-3.632,2.592-10.328,12.603c-4.45,6.653-8.465,13.636-9.539,15.919l-0.502,1.067l-1.141,0.3     c-4.854,1.277-10.096,5.551-11.609,7.666c0.621,0.148,1.621,0.291,3.078,0.291c2.493,0,4.734-0.402,5.763-0.775L136.094,261.576z     "
   id="path3815" />
		</g>
		<g
   id="g3817">
			<path
   fill="#EDC1B0"
   d="M177.157,229.233c4.352,12.195,12.761,15.153,23.13,14.726c10.371-0.427,15.585-10.885,9.188-21.069     c-6.395-10.185-19.888-6.995-25.274-4.107C176.536,222.89,175.707,225.167,177.157,229.233z"
   id="path3819" />
			<path
   fill="#B27042"
   d="M198.441,246.523L198.441,246.523c-12.142,0-19.66-5.224-23.663-16.441     c-2.294-6.434,1.122-9.717,8.229-13.526c2.845-1.524,7.735-3.154,12.933-3.154c6.909,0,12.329,2.816,15.674,8.145     c3.613,5.753,4.176,12.218,1.504,17.295c-2.433,4.623-7.071,7.408-12.728,7.641C199.733,246.51,199.084,246.523,198.441,246.523z      M195.94,218.453c-4.267,0-8.348,1.376-10.546,2.555c-7.127,3.819-6.703,5.008-5.858,7.377     c3.273,9.173,8.927,13.087,18.904,13.087c0.574,0,1.155-0.013,1.742-0.037c3.809-0.157,6.894-1.959,8.466-4.946     c1.851-3.516,1.372-7.983-1.312-12.257C204.929,220.398,201.095,218.453,195.94,218.453z"
   id="path3821" />
		</g>
		<path
   fill="#7F0C82"
   d="M198.441,246.523L198.441,246.523c-12.142,0-19.66-5.224-23.663-16.441    c-2.294-6.434,1.122-9.717,8.229-13.526c2.845-1.524,7.735-3.154,12.933-3.154c6.909,0,12.329,2.816,15.674,8.145    c3.613,5.753,4.176,12.218,1.504,17.295c-2.433,4.623-7.071,7.408-12.728,7.641C199.733,246.51,199.084,246.523,198.441,246.523z     M195.94,218.453c-4.267,0-8.348,1.376-10.546,2.555c-7.127,3.819-6.703,5.008-5.858,7.377    c3.273,9.173,8.927,13.087,18.904,13.087c0.574,0,1.155-0.013,1.742-0.037c3.809-0.157,6.894-1.959,8.466-4.946    c1.851-3.516,1.372-7.983-1.312-12.257C204.929,220.398,201.095,218.453,195.94,218.453z"
   id="path3823" />
		<g
   id="g3825">
			<path
   fill="#3C0C3F"
   d="M139.205,116.627c20.204-25.049-26.38-60.62-47.073-57.672c-20.695,2.946-30.377,14.587-31.219,26.447     c-0.842,11.857,1.365,34.196-7.471,36.588c-13.418,3.63-15.555-6.978-17.784-11.888c0,15.518,16.493,22.703,26.938,14.829     c12.418-9.359-6.197-36.922,16.32-42.815c15.509-4.06,26.805,11.291,29.434,22.514     C113.108,124.932,130.567,127.335,139.205,116.627z"
   id="path3827" />
			<path
   fill="#1E0321"
   d="M52.938,130.677c-9.735,0-19.806-7.696-19.806-20.575V98.432l4.825,10.627     c0.287,0.632,0.574,1.354,0.88,2.128c2.023,5.111,4.011,9.021,9.554,9.021c1.309,0,2.786-0.22,4.392-0.655     c5.053-1.368,5.227-15.693,5.342-25.173c0.04-3.331,0.079-6.477,0.269-9.155c0.833-11.729,10.039-25.446,33.382-28.769     c0.919-0.131,1.897-0.197,2.907-0.197c14.787,0,39.87,15.106,48.84,33.865c4.944,10.34,4.131,20.053-2.352,28.09     c-3.693,4.579-8.984,7.205-14.517,7.205c0,0,0,0-0.001,0c-7.747-0.001-17.27-5.311-20.762-20.211     c-3.431-14.644-14.883-21.231-21.92-21.231c-1.448,0-2.934,0.197-4.415,0.584c-10.131,2.651-10.496,9.808-9.893,21.279     c0.42,8.006,0.855,16.284-5.547,21.11C60.881,129.388,57.016,130.677,52.938,130.677z M49.451,125.225     c1.094,0.261,2.258,0.401,3.487,0.401c2.972,0,5.785-0.938,8.138-2.711c4.258-3.209,3.911-9.816,3.543-16.811     c-0.527-10.045-1.185-22.546,13.658-26.431c1.898-0.497,3.814-0.749,5.694-0.749c14.451,0,24.394,14.695,26.838,25.13     c2.818,12.026,10.032,16.312,15.845,16.312l0,0c3.997,0,7.855-1.941,10.585-5.325c5.249-6.508,5.83-14.159,1.727-22.741     c-7.981-16.691-31.021-30.992-44.283-30.992c-0.772,0-1.511,0.049-2.194,0.147c-13.354,1.901-27.999,9.237-29.056,24.125     c-0.18,2.53-0.218,5.604-0.257,8.859c-0.157,12.948-0.336,27.623-9.073,29.988C52.469,124.87,50.909,125.137,49.451,125.225z"
   id="path3829" />
		</g>
		<g
   id="g3831">
			<path
   fill="#3C0C3F"
   d="M233.534,113.407c-15.77-25.046,20.589-60.618,36.738-57.671c16.15,2.946,23.702,14.587,24.36,26.446     s-1.065,34.196,5.833,36.59c10.471,3.629,12.137-6.979,13.876-11.89c0,15.519-12.87,22.702-21.022,14.831     c-9.688-9.36,4.838-36.923-12.736-42.817c-12.102-4.058-20.918,11.291-22.97,22.515     C253.901,121.714,240.274,124.115,233.534,113.407z"
   id="path3833" />
			<path
   fill="#1E0321"
   d="M300.854,127.458c-3.417,0-6.628-1.358-9.289-3.927c-4.975-4.805-4.639-12.977-4.314-20.879     c0.475-11.572,0.208-18.785-7.471-21.36c-1.06-0.355-2.116-0.535-3.141-0.535c-8.652,0-14.985,12.596-16.542,21.109     c-2.741,14.992-10.459,20.333-16.768,20.333c-4.605,0-8.955-2.714-11.934-7.446c-6.071-9.644-5.634-21.805,1.232-34.243     c8.222-14.891,24.549-27.471,35.653-27.471c0.847,0,1.669,0.072,2.443,0.213c18.495,3.374,25.779,17.084,26.429,28.791     c0.148,2.664,0.178,5.804,0.21,9.129c0.079,8.363,0.228,23.931,3.93,25.215c1.152,0.4,2.2,0.603,3.112,0.603     c3.841,0,5.328-3.83,6.873-8.837c0.237-0.768,0.459-1.484,0.682-2.112l4.906-13.854v14.697c0,10.113-5.989,20.574-16.011,20.575     H300.854z M292.436,98.94c-0.031,1.316-0.085,2.627-0.138,3.918c-0.292,7.102-0.566,13.809,2.776,17.039     c2.384,2.302,5.41,3.049,8.286,2.095c-1.178-0.105-2.425-0.384-3.722-0.833C293.926,119.177,292.746,109.657,292.436,98.94z      M268.282,58.09c-8.279,0-23.143,10.21-31.231,24.861c-8.011,14.511-4.303,24.467-1.379,29.11     c2.034,3.232,4.825,5.085,7.658,5.085c5.369,0,10.001-6.355,11.799-16.19c1.785-9.763,9.203-25.252,21.511-25.252     c1.572,0,3.169,0.269,4.746,0.797c8.069,2.706,10.407,9.101,10.942,16.223c-0.006-0.502-0.011-1.004-0.015-1.505     c-0.031-3.265-0.061-6.349-0.202-8.896c-0.703-12.674-9.037-21.684-22.292-24.102C269.343,58.134,268.826,58.09,268.282,58.09z"
   id="path3835" />
		</g>
		<g
   id="g3837">
			<path
   fill="#ECC0B0"
   d="M261.566,147.924c1.263-3.368,14.31-14.312,24.832-6.313c10.525,7.998,2.786,51.164-10.103,53.037     c-12.889,1.872-23.15-10.102-21.468-19.361C256.515,166.025,261.566,147.924,261.566,147.924z"
   id="path3839" />
			<path
   fill="#AF6443"
   d="M273.609,197.368c-6.392,0-12.507-2.935-16.778-8.051c-3.661-4.386-5.339-9.8-4.488-14.482     c1.688-9.27,6.583-26.846,6.791-27.589l0.067-0.208c1.393-3.714,9.801-10.816,18.809-10.816c3.631,0,6.968,1.137,9.917,3.379     c7.108,5.401,7.173,22.376,3.563,36.353c-1.536,5.948-6.056,19.919-14.831,21.194     C275.646,197.294,274.621,197.368,273.609,197.368z M263.959,148.747c-0.479,1.724-5.078,18.383-6.646,26.992     c-0.586,3.225,0.684,7.091,3.396,10.341c3.83,4.588,9.541,6.893,15.224,6.068c3.827-0.556,8.113-7.572,10.667-17.458     c3.542-13.715,2.767-27.652-1.729-31.068c-2.051-1.559-4.358-2.349-6.86-2.349C271.188,141.272,264.729,147.09,263.959,148.747z"
   id="path3841" />
		</g>
		<path
   fill="#EDC1B0"
   d="M114.24,182.44c2.104,13.049,11.784,43.356,31.569,45.883c19.785,2.524,91.34,7.577,103.549-5.474    c12.208-13.05,24.412-47.144,18.098-83.344c-6.314-36.198-22.055-33.681-32.408-36.198c-15.575-3.789-92.184-2.106-102.285,3.366    c-10.103,5.473-21.47,19.364-21.891,28.202c-11.785-7.998-27.783,0.842-29.465,10.104c-1.682,9.261,7.996,38.726,13.049,41.672    C99.506,189.595,112.134,189.595,114.24,182.44z"
   id="path3843" />
		<path
   opacity="0.6"
   fill="#D3986D"
   d="M87.062,136.586c-8.811,6.496-3.996,24.213-2.349,29.331    c1.645,5.117,3.388,20.091,10.979,21.327c7.592,1.239,14.92,1.059,16.732-1.873c1.815-2.931,2.913,5.135,5.891,12.434    c2.974,7.298,14.26,29.526,31.702,31.007c17.442,1.479,69.931,3.304,85.056,0c19.574-4.281,27.143-24.843,29.563-36.309    c2.442,1.715,12.575,2.47,15.028,0.666c4.863-3.575,14.104-19.147,8.419-22.937c-4.86,5.152-8.612,14.751-12.841,16.626    c-5.353,2.378-7.831-6.24-5.862-20.399c0.671-4.803,0.527-8.798-0.27-10.772c-3.253,5.707-2.146,13.379-5.862,24.199    s-6.629,27.493-18.259,34.544c-11.629,7.052-30.255,6.314-41.936,6.735c-11.681,0.422-37.85-0.304-53.037-4    c-28.989-7.053-30.095-40.857-35.146-48.617c-4.272,3.119-4.326,10.068-7.158,12.419c-6.205,5.154-10.91-3.348-14.838-12.312    C84.353,149.187,90.021,134.399,87.062,136.586z"
   id="path3845" />
		<path
   fill="#AF6443"
   d="M273.619,197.367c-3.534,0-7.014-0.893-10.205-2.637l2.422-4.433c3.136,1.713,6.626,2.353,10.098,1.851    c3.826-0.556,8.112-7.572,10.666-17.458c3.542-13.715,2.767-27.652-1.729-31.068c-5.822-4.425-12.333-1.613-15.695,0.457    l-2.648-4.301c7.597-4.677,15.396-4.74,21.4-0.178c7.108,5.401,7.173,22.376,3.563,36.353    c-1.536,5.948-6.056,19.919-14.831,21.194C275.645,197.294,274.63,197.367,273.619,197.367z"
   id="path3847" />
		<path
   fill="#AF6443"
   d="M199.529,233.954c-21.677,0-44.193-1.869-54.039-3.125c-19.074-2.436-29.083-27.887-32.62-42.508    c-2.485,1.745-5.959,2.707-10.102,2.707c-0.001,0-0.001,0-0.001,0c-3.644,0-7.226-0.82-9.583-2.194    c-6.726-3.921-15.932-35.114-14.263-44.305c1.48-8.149,11.615-15.298,21.69-15.298c2.928,0,5.772,0.594,8.386,1.738    c2.738-9.754,13.45-21.579,22.562-26.515c7.74-4.193,44.901-5.715,67.991-5.715c17.412,0,30.567,0.771,36.094,2.115    c1.244,0.303,2.609,0.534,4.054,0.778c10.312,1.746,24.437,4.137,30.246,37.44c3.707,21.256,0.88,39.694-2.146,51.418    c-3.701,14.343-9.75,26.767-16.596,34.085C245.381,230.798,227.995,233.954,199.529,233.954z M114.962,171.048l1.771,10.991    c1.709,10.602,10.778,41.402,29.396,43.779c9.718,1.24,31.958,3.085,53.399,3.085c35.42,0,45.268-4.874,47.984-7.779    c11.064-11.827,23.795-44.834,17.454-81.184c-5.195-29.786-16.309-31.668-26.112-33.328c-1.536-0.26-2.986-0.505-4.404-0.85    c-5.077-1.235-18.124-1.973-34.9-1.973c-30.968,0-60.389,2.291-65.585,5.105c-9.827,5.323-20.209,18.496-20.571,26.102    l-0.214,4.499l-3.727-2.529c-2.624-1.781-5.6-2.684-8.842-2.684c-8.276,0-15.784,5.993-16.72,11.149    c-1.625,8.945,8.247,36.924,11.836,39.039c1.595,0.929,4.292,1.507,7.039,1.507c3.771,0,8.127-1.116,9.05-4.25L114.962,171.048z"
   id="path3849" />
		<g
   id="g3851">
			<path
   fill="#FFFFFF"
   d="M132.316,155.102c-8.596-9.859-9.607-32.339,13.208-36.398c23.193-4.133,30.302,23.052,21.273,33.072     C157.77,161.792,137.313,160.83,132.316,155.102z"
   id="path3853" />
			<path
   fill="#49B74E"
   d="M146.485,160.639c-6.794,0-12.588-1.804-15.12-4.708c-5.55-6.365-7.474-16.347-4.68-24.274     c1.867-5.298,6.613-12.062,18.617-14.197c10.914-1.945,20.021,2.787,24.309,12.422c3.565,8.012,2.777,17.575-1.875,22.739     C163.21,157.642,155.267,160.639,146.485,160.639z M150.143,119.542c-1.411,0-2.89,0.136-4.396,0.405     c-10.807,1.923-15.034,7.886-16.679,12.551c-2.794,7.927-0.001,16.955,4.201,21.774c2.004,2.298,7.315,3.842,13.217,3.842     c8.077,0,15.32-2.686,19.374-7.184c4.017-4.458,4.624-12.878,1.444-20.021C164.089,123.685,157.834,119.542,150.143,119.542z"
   id="path3855" />
		</g>
		<g
   id="g3857">
			<path
   fill="#0A5B0A"
   d="M155.776,137.368c-1.065,6.399-7.09,10.725-13.459,9.664c-6.366-1.057-10.664-7.104-9.6-13.503     c1.066-6.398,7.092-10.728,13.457-9.668C152.543,124.92,156.842,130.969,155.776,137.368z"
   id="path3859" />
			<path
   fill="#49B74E"
   d="M144.244,148.455c-0.711,0-1.429-0.06-2.134-0.177c-3.413-0.566-6.399-2.435-8.408-5.262     c-2.008-2.825-2.8-6.267-2.23-9.694c1.052-6.307,6.426-10.883,12.78-10.883c0.709,0,1.426,0.06,2.13,0.177     c3.414,0.567,6.4,2.437,8.41,5.265c2.009,2.825,2.801,6.269,2.23,9.695C155.973,143.879,150.599,148.455,144.244,148.455z      M144.252,124.964c-5.114,0-9.441,3.689-10.289,8.772c-0.459,2.763,0.179,5.539,1.798,7.816c1.616,2.274,4.019,3.778,6.764,4.234     c0.569,0.095,1.147,0.143,1.72,0.143c5.114,0,9.44-3.688,10.286-8.769c0.461-2.764-0.178-5.54-1.796-7.817     c-1.618-2.276-4.021-3.78-6.767-4.237C145.399,125.013,144.822,124.964,144.252,124.964z"
   id="path3861" />
		</g>
		<g
   id="g3863">
			<path
   fill="#FFFFFF"
   d="M230.377,156.759c-10.72-3.941-17.546-31.939,2.402-38.184c19.02-5.957,29.403,14.462,24.338,27.948     C252.786,158.056,242.699,161.287,230.377,156.759z"
   id="path3865" />
			<path
   fill="#49B74E"
   d="M240.411,159.99c-3.253,0-6.775-0.688-10.47-2.046c-6.4-2.353-11.414-12.137-11.178-21.81     c0.228-9.283,5.198-16.123,13.639-18.764c2.374-0.744,4.716-1.121,6.959-1.121c6.396,0,12.031,3.05,15.867,8.587     c4.483,6.474,5.688,15.16,3.071,22.13C255.146,155.365,248.793,159.99,240.411,159.99z M239.361,118.775     c-1.987,0-4.075,0.338-6.205,1.005c-10.053,3.147-11.75,11.636-11.867,16.416c-0.209,8.529,4.152,17.402,9.523,19.377     c3.415,1.255,6.645,1.891,9.599,1.891c7.358,0,12.727-3.937,15.523-11.385c2.3-6.123,1.182-14.081-2.782-19.805     C249.803,121.438,244.905,118.775,239.361,118.775z"
   id="path3867" />
		</g>
		<g
   id="g3869">
			<path
   fill="#0A5B0A"
   d="M245.116,132.478c0.373,5.811-3.869,10.812-9.477,11.173c-5.602,0.361-10.453-4.056-10.827-9.866     c-0.374-5.808,3.868-10.813,9.473-11.173C239.892,122.251,244.741,126.668,245.116,132.478z"
   id="path3871" />
			<path
   fill="#49B74E"
   d="M234.999,144.934c-6.02,0-11.047-4.862-11.446-11.069c-0.202-3.137,0.789-6.166,2.791-8.527     c2.014-2.375,4.805-3.791,7.86-3.987c6.341-0.417,11.756,4.593,12.172,11.045c0.417,6.497-4.362,12.11-10.655,12.515     C235.479,144.926,235.238,144.934,234.999,144.934z M234.925,123.854c-0.186,0-0.371,0.006-0.559,0.018     c-2.365,0.151-4.53,1.252-6.096,3.1c-1.577,1.86-2.357,4.251-2.198,6.732c0.326,5.075,4.551,9.004,9.486,8.687     c4.903-0.315,8.625-4.726,8.298-9.832C243.541,127.677,239.618,123.854,234.925,123.854z"
   id="path3873" />
		</g>
		<path
   fill="#E59898"
   d="M124.712,172.254c-2.062-5.139,1.629-14.102,11.844-16.048c5.701-1.085,22.311-7.765,35.201-5.353    c4.848,0.907,5.947,10.98,1.978,17.38C169.761,174.633,131.946,190.313,124.712,172.254z"
   id="path3875" />
		<path
   fill="#AF6443"
   d="M121.176,162.138c0,0,0.123-0.197,0.399-0.528c0.303-0.321,0.762-0.802,1.405-1.295    c0.639-0.512,1.436-1.102,2.393-1.699c0.951-0.609,2.042-1.268,3.265-1.911c2.443-1.294,5.38-2.625,8.617-3.793    c1.617-0.589,3.307-1.148,5.046-1.644c1.733-0.514,3.521-0.948,5.315-1.352c1.804-0.369,3.61-0.729,5.414-0.962    c1.796-0.271,3.585-0.423,5.316-0.535c1.735-0.096,3.42-0.113,5.018-0.056c1.599,0.065,3.108,0.197,4.494,0.397    c1.387,0.19,2.645,0.477,3.745,0.754c0.549,0.157,1.062,0.286,1.529,0.44c0.467,0.157,0.89,0.326,1.27,0.465    c0.767,0.257,1.331,0.588,1.724,0.763c0.385,0.196,0.59,0.301,0.59,0.301s-0.231-0.007-0.665-0.02    c-0.431-0.018-1.052-0.059-1.844-0.059c-0.786-0.028-1.742,0.015-2.821,0.03c-1.084,0.051-2.297,0.131-3.615,0.251    c-1.316,0.114-2.737,0.28-4.234,0.476s-3.071,0.445-4.696,0.709c-1.626,0.282-3.301,0.585-5.003,0.916    c-1.701,0.331-3.429,0.685-5.152,1.064c-3.453,0.733-6.897,1.554-10.133,2.334c-3.236,0.781-6.253,1.555-8.847,2.23    c-1.294,0.343-2.487,0.65-3.536,0.951c-1.041,0.315-1.967,0.566-2.705,0.823c-0.745,0.257-1.32,0.462-1.7,0.639    C121.38,162.03,121.176,162.138,121.176,162.138z"
   id="path3877" />
		<path
   fill="#E59898"
   d="M259.101,164.451c1.402-5.219,0.686-9.957-7.242-12.863c-5.002-1.832-26.273-5.388-29.764-2.455    c-3.488,2.935-3.785,10.201-1.018,14.845c2.628,4.415,18.783,10.612,29.043,8.522    C254.715,171.563,258.039,168.396,259.101,164.451z"
   id="path3879" />
		<path
   fill="#AF6443"
   d="M262.475,156.164c0,0-0.182-0.077-0.522-0.221c-0.169-0.073-0.373-0.175-0.621-0.271    c-0.258-0.067-0.542-0.15-0.848-0.244c-0.582-0.199-1.401-0.345-2.276-0.574c-0.888-0.208-1.907-0.411-2.996-0.649    c-1.112-0.198-2.281-0.478-3.551-0.689c-0.628-0.122-1.271-0.247-1.931-0.374c-0.665-0.101-1.336-0.233-2.021-0.354    c-1.361-0.275-2.79-0.456-4.217-0.735c-1.44-0.206-2.894-0.476-4.354-0.672c-1.458-0.2-2.914-0.441-4.351-0.592    c-0.718-0.08-1.431-0.172-2.135-0.275c-0.703-0.063-1.398-0.115-2.083-0.195c-1.374-0.174-2.693-0.228-3.957-0.326    c-0.634-0.065-1.249-0.103-1.84-0.104c-0.597-0.021-1.174-0.041-1.727-0.06c-1.125-0.095-2.121,0.016-3.043-0.005    c-0.462,0-0.895,0-1.294,0c-0.396,0.032-0.76,0.061-1.089,0.087c-1.326,0.103-2.136,0.114-2.136,0.114s0.645-0.423,1.862-1.081    c0.307-0.164,0.647-0.345,1.019-0.542c0.378-0.178,0.8-0.315,1.249-0.492c0.902-0.31,1.932-0.759,3.086-0.989    c1.149-0.247,2.416-0.605,3.758-0.73c1.343-0.162,2.773-0.348,4.243-0.352c0.737-0.029,1.487-0.034,2.247-0.042    c0.754,0.024,1.519,0.061,2.288,0.111c1.547,0.047,3.089,0.29,4.642,0.476c1.543,0.237,3.073,0.537,4.57,0.869    c0.746,0.178,1.482,0.372,2.207,0.568c0.729,0.183,1.44,0.394,2.132,0.631c0.694,0.229,1.379,0.442,2.04,0.679    c0.657,0.256,1.302,0.497,1.921,0.754c1.246,0.48,2.39,1.066,3.441,1.573c1.042,0.559,1.981,1.082,2.788,1.612    c0.805,0.545,1.48,1.01,2.033,1.508c0.274,0.23,0.508,0.436,0.7,0.62c0.175,0.197,0.308,0.379,0.423,0.519    C262.356,156.009,262.475,156.164,262.475,156.164z"
   id="path3881" />
		<path
   fill="#AF6443"
   d="M183.692,166.347c0,0-0.127-0.175-0.365-0.504c-0.22-0.335-0.562-0.851-0.879-1.557    c-0.661-1.385-1.367-3.668-0.957-6.537c0.215-1.417,0.704-2.953,1.589-4.415c0.885-1.454,2.147-2.834,3.772-3.88    c0.811-0.528,1.709-0.943,2.673-1.27c0.347-0.128,0.851-0.279,1.288-0.391c0.436-0.116,0.869-0.219,1.305-0.315    c1.74-0.373,3.494-0.603,5.256-0.712c1.76-0.118,3.522-0.115,5.266,0.01c1.743,0.123,3.468,0.372,5.154,0.83    c0.844,0.231,1.681,0.511,2.512,0.925c0.414,0.206,0.834,0.436,1.245,0.746c0.214,0.153,0.39,0.319,0.631,0.537l0.403,0.425    c1.231,1.361,1.835,2.808,2.205,4.16c0.706,2.711,0.414,4.951,0.117,6.44c-0.336,1.504-0.814,2.239-0.814,2.239    s0.17-0.85,0.022-2.294c-0.116-1.424-0.511-3.501-1.55-5.548c-0.51-1.003-1.275-2.003-2.128-2.658    c-0.08-0.068-0.275-0.204-0.409-0.304c-0.05,0-0.16-0.07-0.27-0.101c-0.219-0.081-0.484-0.168-0.777-0.234    c-0.585-0.133-1.258-0.232-1.961-0.298c-2.841-0.242-6.098-0.115-9.277,0.136c-1.592,0.147-3.185,0.308-4.697,0.558    c-0.377,0.061-0.75,0.125-1.113,0.199c-0.361,0.076-0.647,0.132-1.078,0.236c-0.592,0.133-1.179,0.349-1.73,0.617    c-1.108,0.535-2.099,1.307-2.894,2.201c-0.81,0.887-1.413,1.905-1.846,2.922c-0.87,2.046-0.999,4.089-0.938,5.525    c0.046,0.721,0.093,1.297,0.156,1.696C183.661,166.132,183.692,166.347,183.692,166.347z"
   id="path3883" />
		<path
   fill="#630F1D"
   d="M222.095,182.328c-6.75-7.752-16.172-8.458-27.115-5.688c-11.131,2.817-21.887,13.004-24.635,24.384    c-1.37,5.679,2.491,13.827,12.211,6.731c9.721-7.095,17.43-8.735,21.562-8.9c8.96-0.357,16.219,11.582,21.58,10.028    C235.993,205.897,227.31,188.311,222.095,182.328z"
   id="path3885" />
		<path
   fill="#F2F9C2"
   d="M185.894,180.611c-1.096,4.075,1.504,7.192,5.28,6.728c6.415-0.79,4.916-9.225,4.962-10.699    C196.183,175.165,186.909,176.829,185.894,180.611z"
   id="path3887" />
		<path
   fill="#F2F9C2"
   d="M209.729,183.427c-1.096,4.076,1.505,7.192,5.282,6.729c6.413-0.789,4.916-9.225,4.963-10.698    c0.035-1.167-5.974-4.033-8.898-1.773C210.304,178.279,209.94,182.641,209.729,183.427z"
   id="path3889" />
		<path
   fill="#F2F9C2"
   d="M187.615,200.569c1.021-4.094-2.393-5.555-6.159-5.022c-6.399,0.906-3.926,10.208-3.943,11.687    c-0.016,1.166,5.979,1.415,8.861-0.895C187.134,205.726,187.418,201.361,187.615,200.569z"
   id="path3891" />
		<path
   fill="#B74444"
   d="M175.805,213.044c-2.432,0-4.596-1.048-6.095-2.951c-1.931-2.452-2.645-6.245-1.82-9.662    c2.912-12.06,14.044-23.095,26.47-26.24c4.139-1.047,7.799-1.557,11.188-1.557c7.602,0,13.81,2.703,18.451,8.035    c4.12,4.726,10.861,16.802,8.562,24.627c-0.889,3.022-3.019,5.101-6.16,6.012c-0.548,0.159-1.123,0.239-1.708,0.239l0,0    c-3.14,0-6.141-2.296-9.318-4.727c-3.426-2.62-7.29-5.592-11.156-5.443c-2.749,0.11-10.217,1.15-20.174,8.417    C181.091,211.951,178.318,213.044,175.805,213.044z M205.548,177.686c-2.967,0-6.221,0.458-9.948,1.402    c-10.541,2.668-20.343,12.353-22.8,22.528c-0.461,1.909-0.1,4.11,0.879,5.353c0.551,0.699,1.227,1.024,2.126,1.024    c0.977,0,2.683-0.395,5.262-2.278c10.679-7.794,18.963-9.225,22.951-9.384c5.662-0.229,10.535,3.5,14.427,6.478    c2.369,1.813,4.82,3.688,6.249,3.688c0.111,0,0.21-0.013,0.302-0.04c1.481-0.43,2.32-1.227,2.72-2.584    c1.486-5.06-3.544-15.319-7.523-19.885C216.498,179.747,211.709,177.686,205.548,177.686z"
   id="path3893" />
		<path
   fill="#FFFFFF"
   d="M145.598,129.905c-0.548,3.297-3.667,5.525-6.965,4.975c-3.3-0.548-5.53-3.665-4.979-6.966    c0.549-3.3,3.668-5.527,6.967-4.976C143.918,123.484,146.149,126.603,145.598,129.905z"
   id="path3895" />
		<path
   fill="#FFFFFF"
   d="M236.649,128.354c0.214,3.353-2.326,6.241-5.676,6.46c-3.354,0.214-6.244-2.326-6.459-5.678    c-0.215-3.353,2.326-6.243,5.676-6.457C233.54,122.461,236.435,125.001,236.649,128.354z"
   id="path3897" />
		<path
   fill="#AF6443"
   d="M106.032,141.819c0,0-0.215-0.033-0.619-0.094c-0.397-0.061-0.98-0.124-1.708-0.18    c-1.436-0.079-3.563-0.071-5.551,0.774c-0.981,0.418-1.862,1.063-2.469,1.915c-0.619,0.844-0.985,1.921-1.124,3.171    c-0.068,0.641-0.082,1.249-0.05,2.021c0.017,0.383,0.032,0.769,0.05,1.157c0.022,0.373,0.041,0.76,0.08,1.126    c0.144,1.473,0.426,2.891,0.945,3.63c0.238,0.388,0.529,0.671,1.002,0.979c0.479,0.294,1.104,0.604,1.817,0.887    c1.442,0.573,3.021,1.122,4.599,1.86c1.812,0.876,3.234,2.117,4.266,3.561c1.018,1.438,1.576,2.978,1.851,4.375    c0.522,2.822,0.08,5.077-0.337,6.557c-0.2,0.747-0.438,1.307-0.594,1.684c-0.161,0.377-0.264,0.57-0.264,0.57    s-0.009-0.217-0.025-0.623c-0.008-0.402-0.065-0.993-0.131-1.721c-0.169-1.448-0.509-3.525-1.474-5.581    c-0.481-1.02-1.138-2.007-1.98-2.811c-0.816-0.803-1.913-1.453-3.015-1.834c-1.357-0.472-2.927-0.858-4.608-1.441    c-0.847-0.297-1.777-0.638-2.739-1.224c-0.96-0.576-1.953-1.458-2.616-2.507c-0.669-1.051-1.021-2.143-1.247-3.146    c-0.229-1.011-0.306-1.969-0.349-2.889c-0.024-0.464-0.023-0.907-0.026-1.358c0.004-0.456,0.021-0.916,0.046-1.307    c0.044-0.859,0.124-1.869,0.36-2.787c0.426-1.864,1.367-3.695,2.755-4.973c1.382-1.287,3.053-1.936,4.518-2.156    c1.481-0.217,2.79-0.08,3.887,0.157c1.099,0.247,1.987,0.616,2.688,0.95c0.705,0.321,1.212,0.674,1.556,0.891    C105.856,141.692,106.032,141.819,106.032,141.819z"
   id="path3899" />
		<path
   fill="#AF6443"
   d="M275.669,149.75c0,0,0.13-0.142,0.394-0.379c0.276-0.232,0.688-0.583,1.309-0.904    c0.615-0.331,1.445-0.668,2.533-0.729c1.069-0.062,2.444,0.24,3.612,1.142c1.175,0.884,2.029,2.234,2.539,3.655    c0.52,1.43,0.741,2.955,0.787,4.479c0.016,0.807,0.008,1.425-0.025,2.202c-0.039,0.746-0.089,1.49-0.177,2.27    c-0.215,1.541-0.438,3.205-1.418,5.029c-0.494,0.899-1.261,1.823-2.134,2.421c-0.866,0.617-1.69,0.963-2.402,1.259    c-0.666,0.25-1.326,0.498-1.979,0.742l-0.226,0.09l-0.113,0.045l-0.057,0.022c-0.073,0.035,0.084-0.042,0.062-0.032l-0.015,0.007    l-0.03,0.013l-0.435,0.192c-0.131,0.056-0.353,0.169-0.547,0.302c-0.788,0.511-1.484,1.309-2.062,2.208    c-0.572,0.903-1.021,1.896-1.393,2.85c-0.723,1.923-1.141,3.692-1.415,4.939c-0.254,1.273-0.399,2-0.399,2    s-0.278-0.703-0.559-1.998c-0.27-1.294-0.561-3.188-0.37-5.54c0.104-1.173,0.315-2.469,0.819-3.827    c0.491-1.351,1.293-2.807,2.629-4.023c0.333-0.301,0.682-0.575,1.147-0.872l0.485-0.299l0.573-0.299    c0.637-0.312,1.28-0.629,1.931-0.948c0.594-0.284,1.087-0.557,1.383-0.812c0.302-0.256,0.489-0.476,0.692-0.853    c0.39-0.761,0.712-2.013,0.899-3.296c0.111-0.639,0.197-1.311,0.27-1.964c0.072-0.658,0.144-1.307,0.214-1.946    c0.24-2.401,0.025-4.533-0.823-5.76c-0.415-0.622-1.012-1.065-1.698-1.312c-0.683-0.245-1.405-0.318-2.013-0.31    c-0.607,0.021-1.113,0.081-1.453,0.138C275.855,149.716,275.669,149.75,275.669,149.75z"
   id="path3901" />
		<path
   fill="#D067D3"
   d="M171.81,244.41c-0.371,0.794-0.51,1.803-0.169,2.629c0.583,1.414,1.932,1.635,3.317,1.635    c0.21,0,0.42,0,0.631,0c1.715,0,3.644-1.205,4.044-2.912c0.199-0.848,0.309-1.939-0.288-2.666    c-1.167-1.422-3.495-1.214-4.987-0.505c-0.929,0.441-2.069,1.357-2.129,2.501c-0.097,1.822,1.852,2.44,3.36,2.318    c0.979-0.078,1.961-0.418,2.754-1.001c0.574-0.423,1.25-1.141,1.29-1.91c0-0.026,0.003-0.051,0.009-0.076    c-0.07,0.228-0.142,0.455-0.213,0.682c0.004-0.008,0.007-0.016,0.01-0.023c-0.146,0.216-0.293,0.432-0.439,0.647    c0.004-0.004,0.008-0.009,0.012-0.014c-1.131,0.527-2.261,1.055-3.392,1.582c0.005,0,0.009-0.001,0.015-0.002    c-0.83-0.179-1.659-0.357-2.488-0.535c0.006,0.002,0.01,0.005,0.016,0.008c-0.176-0.162-0.351-0.323-0.525-0.484    c0.014,0.014,0.024,0.031,0.031,0.049c-0.102-0.204-0.203-0.408-0.305-0.613c0.027,0.078,0.038,0.155,0.046,0.237    c-0.015-0.228-0.028-0.456-0.043-0.684c0.015,0.368-0.054,0.724-0.137,1.082c1.348-0.971,2.696-1.941,4.044-2.912    c-0.21,0-0.42,0-0.631,0c1.105,0.545,2.212,1.089,3.317,1.634c-0.07-0.171-0.112-0.32-0.136-0.504    c0.014,0.228,0.028,0.456,0.043,0.684c-0.004-0.22,0.021-0.42,0.085-0.631c-0.071,0.228-0.142,0.455-0.213,0.682    c0.017-0.043,0.032-0.086,0.052-0.128c0.769-1.645-0.678-2.818-2.208-2.989C174.885,242.004,172.586,242.749,171.81,244.41    L171.81,244.41z"
   id="path3903" />
		<g
   id="g3905">
			<path
   fill="#D067D3"
   d="M183.608,278.342c2.122,4.432,3.105,20.85-10.863,17.938c-2.716-2.154-12.809-9.314-4.462-15.332     C176.624,274.936,181.488,273.91,183.608,278.342z"
   id="path3907" />
			<path
   fill="#D067D3"
   d="M179.949,279.322c1.552,3.471,2.509,15.824-3.181,15.41c-3.469-0.254-7.559-5.928-8.045-9.066     c-0.542-3.49,4.557-5.809,6.932-7.158C177.659,277.367,178.718,277.027,179.949,279.322c1.22,2.271,8.253-0.219,7.318-1.961     c-4.047-7.541-14.719-1.727-19.685,1.637c-3.553,2.404-7.195,5.289-5.875,10.029c0.934,3.355,4.27,5.988,6.876,8.037     c4.992,3.924,14.751,0.557,17.894-4.412c2.639-4.174,2.792-10.814,0.79-15.291C186.239,275.061,179.091,277.402,179.949,279.322z     "
   id="path3909" />
		</g>
		<path
   fill="#D067D3"
   d="M198.433,265.439c-11.098,8.115,7.841,22.922,14.569,12.924c1.589-2.361,0.381-5.906-0.424-8.293    c-1.431-4.24-3.407-8.299-8.443-8.191c-4.677,0.102-8.528,4.99-8.615,9.422c-0.08,4.062,2.963,6.977,6.969,6.77    c2.685-0.141,5.552-1.555,6.853-3.984c1.27-2.375-0.385-4.641-2.521-5.682c-1.83-0.891-5.451-0.553-6.319,1.693    c-0.881,2.275-1.025,3.791,0.11,5.992c1.168,2.264,7.062,0.582,7.058-1.891c-0.003-1.598-0.021-3.188-0.35-4.756    c-0.664-3.17-7.998-1.283-7.318,1.961c0.242,1.154,0.277,2.273,0.279,3.451c2.353-0.631,4.705-1.262,7.058-1.893    c-0.408-0.789-0.189-1.438,0.11-2.213c-2.106,0.564-4.213,1.129-6.319,1.693c0.232,0.113,0.91,0.484,0.939,0.512    c0.126,0.131,0.238,0.271,0.336,0.426c-0.268-0.379-0.002,0.422-0.02-0.139c0.016,0.492-0.146,0.434,0.081,0.141    c-0.249,0.26-0.209,0.238,0.121-0.066c-0.552,0.451,0.578-0.209,0.657-0.238c-0.564,0.203,1.344,0.17,0.738-0.008    c0.291,0.086-0.105-0.111-0.388-0.482c-0.795-1.045-0.734-2.492-0.462-3.689c0.127-0.557,0.431-1.072,0.704-1.568    c0.622-1.127,1.482-0.768-0.446-0.447c-0.953-0.252-1.232-0.268-0.838-0.051c0.338,0.311,0.6,0.709,0.86,1.082    c0.452,0.645,0.772,1.365,1.083,2.086c0.906,2.102,1.987,4.805,1.787,6.967c-0.017,0.178-0.302,1.035-0.052,0.406    c-0.236,0.596,0.038,0.014,0.327-0.213c0.58-0.309,0.704-0.381,0.371-0.221c-0.023,0.01,1.771-0.396,1.09-0.318    c-0.371,0.02-0.249,0.023,0.363,0.008c-0.203-0.008-0.896-0.135,0.02,0.049c-0.369-0.074-0.728-0.199-1.08-0.33    c-0.306-0.127-0.295-0.117,0.033,0.031c-0.229-0.105-0.448-0.227-0.668-0.348c-0.381-0.209-0.742-0.453-1.098-0.701    c-0.155-0.109-0.967-0.773-0.727-0.557c-1.271-1.148-2.098-2.307-2.479-3.643c-0.247-0.871-0.221-0.879,0.039-1.838    c-0.178,0.656,0.607-0.83,0.14-0.221c0.114-0.141,0.235-0.275,0.363-0.404c0.619-0.654-0.511,0.369,0.276-0.205    c1.162-0.85,2.001-2.559,0.461-3.531C202.139,263.967,199.813,264.43,198.433,265.439L198.433,265.439z"
   id="path3911" />
		<path
   fill="#D067D3"
   d="M208.955,251.136c0.887,2.093,1.789,4.415,3.753,5.728c1.105,0.737,2.623,0.522,3.836,0.197    c1.024-0.273,3.435-1.084,3.241-2.538c-0.323-2.433-1.604-4.269-3.2-6.065c-1.498-1.684-8.454,0.898-6.836,2.721    c1.436,1.614,2.428,3.119,2.718,5.306c2.358-0.78,4.718-1.56,7.077-2.341c-1.762-1.176-2.474-3.088-3.271-4.968    C215.314,246.912,208.142,249.217,208.955,251.136L208.955,251.136z"
   id="path3913" />
		<path
   fill="#D067D3"
   d="M182.254,264.361c-0.012,0.701-0.047,1.434,0.204,2.102c0.334,0.889,1.158,1.412,2.025,1.689    c1.093,0.348,2.276,0.217,3.367-0.074c1.271-0.342,2.555-0.91,3.222-2.09c0.429-0.758,0.696-1.604,0.479-2.479    c-0.177-0.717-0.812-1.335-1.332-1.823c-0.479-0.448-1.327-0.491-1.932-0.48c-0.975,0.017-1.958,0.239-2.861,0.599    c-0.68,0.27-3.188,1.529-2.043,2.602c0.219,0.205,0.431,0.412,0.629,0.639c0.123,0.168,0.135,0.172,0.037,0.01    c0.082,0.131,0.134,0.273,0.184,0.416c0.029,0.098,0.049,0.199,0.06,0.301c0.06,0.4,0.057-0.219-0.038,0.229    c-0.079,0.375-0.276,0.723-0.462,1.051c2.196-0.723,4.393-1.443,6.589-2.164c-0.114-0.033-0.227-0.072-0.336-0.117    c-0.489-0.186,0.324,0.252-0.051-0.025c-0.105-0.08-0.189-0.182-0.271-0.285c0.253,0.316,0.053,0.043,0.006-0.08    c-0.229-0.611-0.168-1.342-0.157-1.979c0.009-0.545-1.034-0.768-1.367-0.814c-0.897-0.128-1.841,0.004-2.71,0.236    C184.29,262.145,182.278,262.859,182.254,264.361L182.254,264.361z"
   id="path3915" />
		<g
   id="g3917">
			<path
   fill="#D067D3"
   d="M165.284,259.727c-2.842-0.13-2.545,3.816-1.908,6.359c2.343,1.871,5.791-1.908,5.768-3.178     C169.073,258.975,167.556,259.833,165.284,259.727z"
   id="path3919" />
			<path
   fill="#D067D3"
   d="M166.824,258.086c-2.282,0.007-4.725,0.822-6.428,2.359c-1.01,0.91-1.112,2.457-1.103,3.715     c0.012,1.453,0.08,3.131,1.568,3.736c2.018,0.82,4.6,0.199,6.536-0.57c2.578-1.023,5.57-3.133,5.365-6.196     c-0.089-1.325-0.595-2.265-1.82-2.794c-0.682-0.295-1.595-0.254-2.317-0.26c-0.207-0.002-0.414,0.001-0.622,0.006     c-0.146,0.004-1.153-0.012-0.384,0.013c-1.768-0.058-3.704,0.36-5.175,1.387c-1.121,0.783-0.976,1.829,0.503,1.877     c0.802,0.026,1.598,0.008,2.398-0.003c-0.465-0.011-0.539-0.006-0.221,0.017c-0.353-0.076-0.4-0.077-0.143-0.004     c-0.381-0.12,0.023,0.051,0.075,0.136c0.413,0.674,0.401,1.629,0.426,2.385c-0.009-0.262-0.156,0.289-0.204,0.387     c-0.101,0.207-0.188,0.309-0.383,0.547c-0.075,0.092-0.654,0.666-0.479,0.521c-0.146,0.115-0.297,0.225-0.453,0.326     c0.38-0.256,0.801-0.426,1.263-0.512c1.004-0.318,1.856,0.152,1.742-0.32c-0.091-0.379-0.157-0.762-0.22-1.145     c-0.119-0.729-0.201-1.512-0.121-2.248c0.037-0.344,0.131-0.674,0.246-0.999c0.137-0.205,0.154-0.269,0.053-0.188     c1.021-1.469-5.127,1.115-3.185,1.109c1.573-0.005,3.769-0.637,4.879-1.817C169.811,258.287,167.592,258.084,166.824,258.086z"
   id="path3921" />
		</g>
		<path
   fill="#D067D3"
   d="M221.507,283.717c-0.424,1.844-0.166,3.621,0.92,5.18c0.758,1.088,2.887,0.82,3.927,0.541    c1.302-0.348,2.684-1.08,3.131-2.432c0.41-1.238,0.581-2.43,0.301-3.729c-0.204-0.947-1.494-1.223-2.28-1.262    c-1.271-0.066-2.629,0.291-3.694,0.988c-0.95,0.623-2.243,1.889-1.658,3.182c0.695,1.537,2.831,1.41,4.201,1.043    c0.882-0.236,1.765-0.646,2.429-1.285c0.375-0.361,0.954-1.133,0.688-1.719c-0.013-0.027-0.023-0.055-0.033-0.084    c-0.009-0.031-0.017-0.061-0.025-0.092c0.062,0.631-0.263,1.119-0.971,1.461c-1.991-0.09-3.983-0.182-5.975-0.271    c0.194,0.904-0.033,1.693-0.328,2.582c2.353-0.629,4.705-1.26,7.058-1.891c-0.627-0.898-0.598-1.926-0.344-3.027    c0.391-1.695-2.17-1.922-3.223-1.805C224.155,281.262,221.892,282.051,221.507,283.717L221.507,283.717z"
   id="path3923" />
		<g
   id="g3925">
			<path
   fill="#3C0C3F"
   d="M162.102,102.409c17.937,7.076,23.792,10.846,38.186,10.616c12.493-0.2,20.456-4.899,22.569-11.762     C200.287,99.259,169.773,101.89,162.102,102.409z"
   id="path3927" />
			<path
   fill="#1E0321"
   d="M199.068,115.561c-0.001,0-0.002,0-0.003,0c-11.495,0-17.799-2.593-29.243-7.3     c-2.538-1.044-5.415-2.227-8.647-3.502l-10.423-4.112l11.179-0.757c0.744-0.05,1.704-0.121,2.852-0.205     c7.483-0.548,23.055-1.689,38.747-1.689c7.35,0,13.927,0.253,19.551,0.753l3.108,0.276l-0.918,2.982     c-2.548,8.271-11.872,13.334-24.943,13.544C199.9,115.558,199.481,115.561,199.068,115.561z M173.137,104.162     c10.293,4.226,15.876,6.347,25.929,6.348c0.001,0,0.002,0,0.003,0c0.387,0,0.778-0.003,1.179-0.01     c8.883-0.142,15.574-2.703,18.698-7.003c-4.606-0.299-9.773-0.451-15.416-0.451C192.382,103.046,181.265,103.631,173.137,104.162     z"
   id="path3929" />
		</g>
		<path
   fill="#1E0321"
   d="M117.737,128.908c0,0,0.163-0.068,0.465-0.167c0.315-0.078,0.724-0.291,1.21-0.5    c0.503-0.235,1.09-0.517,1.743-0.868c0.653-0.347,1.374-0.743,2.146-1.193c3.083-1.786,7.032-4.182,10.85-6.641    c0.946-0.62,1.894-1.239,2.825-1.849c0.464-0.31,0.902-0.633,1.367-0.924c0.443-0.312,0.881-0.621,1.312-0.925    c0.859-0.611,1.685-1.212,2.454-1.807c0.779-0.587,1.49-1.173,2.163-1.73c0.657-0.562,1.253-1.107,1.793-1.613    c0.513-0.515,0.99-0.983,1.356-1.397c0.39-0.407,0.682-0.752,0.884-0.994c0.216-0.242,0.331-0.371,0.331-0.371    s0.042,0.167,0.09,0.484c0.034,0.312,0.145,0.801,0.127,1.399c0.024,0.614-0.044,1.341-0.171,2.191    c-0.076,0.416-0.189,0.85-0.299,1.322c-0.127,0.459-0.3,0.924-0.467,1.429c-0.195,0.48-0.415,0.979-0.653,1.492    c-0.257,0.493-0.527,1.016-0.838,1.519c-0.62,1.012-1.35,2.031-2.191,2.994c-0.837,0.969-1.762,1.91-2.78,2.76    c-1.001,0.876-2.089,1.663-3.209,2.394c-1.13,0.715-2.296,1.367-3.488,1.913c-1.18,0.57-2.393,1.027-3.584,1.407    c-2.389,0.751-4.724,1.145-6.775,1.178c-2.047,0.047-3.787-0.252-4.944-0.656c-0.594-0.2-1.039-0.421-1.298-0.583    C117.882,129.009,117.737,128.908,117.737,128.908z"
   id="path3931" />
		<path
   fill="#1E0321"
   d="M267.129,126.477c0,0-0.122,0.107-0.354,0.283c-0.248,0.151-0.543,0.475-1.045,0.697    c-0.256,0.117-0.555,0.229-0.897,0.353c-0.351,0.136-0.735,0.235-1.097,0.308c-0.757,0.167-1.646,0.32-2.577,0.336    c-0.959,0.065-1.954-0.011-3.021-0.121c-1.056-0.135-2.149-0.353-3.259-0.661c-1.094-0.33-2.233-0.69-3.312-1.213    c-1.112-0.462-2.174-1.072-3.219-1.708c-1.032-0.659-2.02-1.397-2.939-2.186c-0.457-0.402-0.897-0.817-1.318-1.239    c-0.435-0.401-0.826-0.857-1.191-1.315c-0.366-0.459-0.744-0.886-1.069-1.344c-0.306-0.487-0.613-0.948-0.883-1.417    c-0.577-0.898-0.96-1.885-1.302-2.76c-0.365-0.856-0.508-1.759-0.655-2.503c-0.059-0.382-0.134-0.722-0.156-1.054    c-0.005-0.342-0.012-0.65,0-0.93c0.036-1.115,0.148-1.718,0.148-1.718s0.517,0.436,1.261,1.14    c0.177,0.174,0.373,0.366,0.586,0.576c0.232,0.191,0.482,0.398,0.75,0.619c0.537,0.428,1.021,0.939,1.697,1.4    c0.639,0.48,1.244,1.02,1.995,1.51c0.363,0.251,0.705,0.529,1.064,0.798c0.397,0.242,0.769,0.519,1.159,0.782    c0.735,0.567,1.606,1.044,2.39,1.626c0.831,0.534,1.675,1.075,2.519,1.617c0.862,0.52,1.691,1.095,2.554,1.598    c0.434,0.243,0.835,0.551,1.264,0.785c0.424,0.245,0.844,0.488,1.247,0.757c0.83,0.495,1.633,0.973,2.395,1.427    c0.77,0.432,1.504,0.903,2.195,1.258c0.696,0.42,1.333,0.727,1.928,1.039c0.148,0.079,0.293,0.155,0.432,0.229    c0.127,0.06,0.251,0.118,0.369,0.174c0.262,0.124,0.502,0.238,0.719,0.341c0.473,0.201,0.922,0.281,1.191,0.375    C266.976,126.418,267.129,126.477,267.129,126.477z"
   id="path3933" />
	</g>
</g>
</svg>