<?xml version="1.0" encoding="UTF-8" standalone="no"?>
<!-- Generator: Adobe Illustrator 16.2.0, SVG Export Plug-In . SVG Version: 6.00 Build 0)  -->

<svg
   xmlns:dc="http://purl.org/dc/elements/1.1/"
   xmlns:cc="http://creativecommons.org/ns#"
   xmlns:rdf="http://www.w3.org/1999/02/22-rdf-syntax-ns#"
   xmlns:svg="http://www.w3.org/2000/svg"
   xmlns="http://www.w3.org/2000/svg"
   xmlns:sodipodi="http://sodipodi.sourceforge.net/DTD/sodipodi-0.dtd"
   xmlns:inkscape="http://www.inkscape.org/namespaces/inkscape"
   version="1.1"
   x="0px"
   y="0px"
   width="2272px"
   height="2272px"
   viewBox="0 0 2272 2272"
   enable-background="new 0 0 2272 2272"
   xml:space="preserve"
   id="svg4777"
   inkscape:version="0.48.2 r9819"
   sodipodi:docname="LACT1_BarnBurnin_Background.svg"><metadata
   id="metadata5333"><rdf:RDF><cc:Work
       rdf:about=""><dc:format>image/svg+xml</dc:format><dc:type
         rdf:resource="http://purl.org/dc/dcmitype/StillImage" /><dc:title></dc:title></cc:Work></rdf:RDF></metadata><defs
   id="defs5331" /><sodipodi:namedview
   pagecolor="#ffffff"
   bordercolor="#666666"
   borderopacity="1"
   objecttolerance="10"
   gridtolerance="10"
   guidetolerance="10"
   inkscape:pageopacity="0"
   inkscape:pageshadow="2"
   inkscape:window-width="640"
   inkscape:window-height="480"
   id="namedview5329"
   showgrid="false"
   inkscape:zoom="0.10387324"
   inkscape:cx="1136"
   inkscape:cy="1136"
   inkscape:window-x="0"
   inkscape:window-y="0"
   inkscape:window-maximized="0"
   inkscape:current-layer="svg4777" />
<g
   id="Fixed_BG">
</g>
<g
   id="Leroy_x27_s_House">
	<g
   id="g4781">
		<rect
   y="992"
   fill="#C4E0F8"
   width="2272"
   height="1280"
   id="rect4783" />
		<path
   fill="#C9D9EB"
   d="M0,1490.525c11.222,0.124,22.712-0.121,34.558-0.814c101.84-5.959,201.654-28.977,302.853-40.461    c65.904-7.48,132.984-14.988,199.064-5.322c99.178,14.508,188.768,63.842,287.034,81.929    c91.456,16.834,189.461,5.221,281.835,1.681c190.508-7.299,362.173-4.686,544.823,52.289    c132.819,41.43,294.917,13.023,429.376-0.232c33.367-3.289,113.98-9.831,192.457-16.024V992H0V1490.525z"
   id="path4785" />
		<g
   opacity="0.8"
   id="g4787">
			<g
   id="g4789">
				<path
   opacity="0.6"
   fill="#BE8A61"
   d="M757.33,1636.942c-0.287-1.729-1.714-3.151-3.888-4.208      c1.28-1.864,1.009-4.016-0.932-5.954c-1.482-1.482-3.89-2.505-6.623-3.034c0.047-1.131-0.467-2.263-1.84-3.31      c-3.062-2.334-8.344-3.338-13.567-3.302c-1.663,0.012-3.32,0.061-4.918,0.286c-2.89-2.57-4.659-5.982-13.231-3.966      c-0.661,0.156-1.427,0.09-2.122,0.174c-0.019-0.025-0.042-0.05-0.063-0.075c-0.232-0.928-1.605-2.915-3.244-3.385      c-0.636-0.183-1.357-0.306-2.099-0.37c-0.922-0.28-1.932-0.42-2.924-0.421c-2.018-0.188-3.943,1.274-4.996,2.22      c-0.294,0.265-0.542,0.535-0.753,0.809c-1.22-0.215-3.052-1.601-4.327-1.896c-3.024-0.698-5.241-1.008-8.143-0.432      c-1.441,0.286-3.671,1.829-4.645,2.439c-0.325,0.203-2.282,2.333-2.225,2.337c0,0-6.234-0.386-8.543-0.101      c-2.368,0.294-4.452,0.874-5.987,1.823c-1.209,0.748-1.654,1.736-1.812,2.718c-2.058,0.067-4.06,0.292-5.856,0.697      c-3.001,0.374-5.455,1.323-7.261,2.656c-2.996,2.21-3.131,4.941-1.206,7.349c-0.497,0.206-0.964,0.441-1.398,0.709      c-1.989,1.229-1.677,2.962-0.487,4.409c0.703,0.854,1.814,1.639,3.154,2.342c-2.202,1.233-3.338,2.852-2.321,4.791      c0.764,1.457,3.843,2.707,7.062,2.591c-2.654,2.089-0.424,3.2,2.052,4.025c0.824,1.426,2.639,2.751,5.577,3.709      c1.829,0.596,3.868,0.933,5.91,1.021c0.811,1.219,2.248,2.353,4.322,3.215c4.472,1.86,10.715,1.715,15.318,0.464      c0.445-0.122,0.874-0.253,1.292-0.392c1.819,1.015,4.182,1.79,6.689,2.347c6.421,1.427,13.898,0.805,18.454-1.438      c7.42,1.826,17.313,1.091,20.484-2.372c3.832-0.007,7.635-0.688,10.531-1.803c2.149-0.826,3.577-2.331,3.443-3.739      c-0.004-0.044-0.017-0.088-0.022-0.132c6.314-1.694,10.698-5.582,8.508-8.76C756.528,1639.915,757.595,1638.541,757.33,1636.942      z"
   id="path4791" />
				<path
   fill="#8A6441"
   stroke="#6C482F"
   stroke-width="2.9791"
   stroke-miterlimit="10"
   d="M666.415,1635.942      c0,0,25.809-21.446,23.286-83.95c9.969,0.394,27.514-1.41,27.514-1.41s-3.748,72.92,16.507,88.472      c-6.845,1.648-15.562-0.993-22.409-3.943c-2.857,8.319-11.25,13.205-11.25,13.205s-7.425-7.002-9.988-13.217      C683.938,1637.595,675.525,1639.262,666.415,1635.942z"
   id="path4793" />
				<path
   fill="#6C482F"
   d="M711.481,1599.209c-3.89,0.396-7.658,2.299-11.533,3.041c-3.684,0.706-7.479,0.215-10.958-1.117      c-5.936-2.271-9.955,6.702-4.665,9.948c4.827,2.963,9.975,4.078,15.625,3.902c5.091-0.158,11.703-0.964,15.993-3.9      C722.114,1606.859,718.776,1598.466,711.481,1599.209z"
   id="path4795" />
				<path
   fill="#9D8E38"
   d="M774.696,1552.896c-0.306-3.873-2.103-7.008-4.879-9.298c1.728-4.232,1.458-9.053-0.983-13.333      c-1.865-3.271-4.946-5.475-8.467-6.561c0.104-2.542-0.521-5.064-2.259-7.361c-3.879-5.126-10.683-7.18-17.452-6.903      c-2.155,0.088-4.303,0.262-6.383,0.827c-3.647-5.662-5.811-13.256-16.992-8.408c-0.863,0.374-1.852,0.257-2.755,0.469      c-0.024-0.055-0.052-0.109-0.079-0.165c-0.266-2.078-1.971-6.483-4.075-7.48c-0.816-0.386-1.747-0.635-2.705-0.75      c-1.183-0.593-2.486-0.87-3.772-0.835c-2.606-0.347-5.156,3.008-6.556,5.172c-0.391,0.606-0.722,1.221-1.007,1.844      c-1.572-0.439-3.893-3.481-5.533-4.094c-3.892-1.454-6.752-2.067-10.533-0.665c-1.877,0.696-4.824,4.245-6.109,5.649      c-0.429,0.47-3.044,5.325-2.97,5.33c0,0-8.062-0.631-11.064,0.097c-3.079,0.748-5.8,2.128-7.825,4.317      c-1.594,1.725-2.208,3.958-2.45,6.169c-2.669,0.228-5.271,0.809-7.612,1.784c-3.902,0.951-7.117,3.175-9.507,6.235      c-3.964,5.074-4.241,11.211-1.838,16.544c-0.651,0.482-1.266,1.026-1.837,1.644c-2.624,2.836-2.284,6.715-0.796,9.916      c0.879,1.892,2.288,3.611,3.997,5.14c-2.898,2.851-4.431,6.526-3.186,10.841c0.935,3.241,4.877,5.933,9.052,5.55      c-3.517,4.79-0.669,7.203,2.507,8.96c1.014,3.171,3.315,6.079,7.085,8.117c2.347,1.27,4.976,1.949,7.618,2.072      c1.005,2.704,2.824,5.194,5.479,7.052c5.723,4.007,13.816,3.449,19.826,0.466c0.582-0.289,1.142-0.599,1.688-0.924      c2.318,2.206,5.35,3.858,8.577,5.014c8.265,2.962,17.975,1.285,23.961-3.922c9.544,3.822,22.389,1.798,26.627-6.096      c4.964-0.159,9.917-1.831,13.711-4.441c2.814-1.937,4.721-5.368,4.601-8.523c-0.004-0.102-0.018-0.198-0.024-0.297      c8.244-4.039,14.069-12.933,11.352-19.985C773.546,1559.603,774.979,1556.476,774.696,1552.896z"
   id="path4797" />
				<g
   id="g4799">
					<path
   fill="#8A7C36"
   d="M768.598,1542.681c-2.663-5.264-13.416-1.928-12.021,5.239c-0.335,1.231-1.129,3.285-1.379,3.642       c-1.633,2.333-1.941,4.915-1.228,7.544c0.095,0.351,0.181,0.637,0.259,0.881c-0.666,1.151-1.521,2.247-2.357,3.294       c-1.296,1.623-3.074,2.985-4.65,4.396c-2.108,1.887-3.248,4.176-4.358,6.599c-0.498,1.087-1.187,1.667-2.628,2.391       c-0.895,0.448-0.899,0.382-1.886,0.597c0.345-0.075-1.313-0.252-0.507,0.128c-3.993-1.881-7.928-1.072-10.647,2.01       c-1.264,1.432-2.204,3.258-3.55,4.35c-1.217,0.986-4.142,1.051-5.715,1.089c-2.572,0.062-5.021-0.808-7.562-1.091       c-3.003-0.334-5.667,0.372-8.306,1.571c-3.787,1.721-5.413,4.128-9.548,1.945c-4.441-2.344-8.38-5.965-13.98-5.639       c-2.529,0.147-4.761,0.729-6.927,1.886c-0.611,0.327-1.198,0.694-1.796,1.039c-0.203,0.117-1.151,0.499-1.601,0.706       c-0.305,0.027-0.784,0.112-0.568,0.155c-0.292-0.058-0.468-0.079-0.57-0.082c-0.015-0.062-0.102-0.183-0.352-0.4       c-1.186-1.035-1.625-1.862-2.822-3.353c-2.992-3.722-6.232-5.799-10.926-7.666c-2.013-0.8-1.901-0.669-3.746-1.722       c0.78,0.445,0.145-0.088-0.1-0.166c0.016-0.092,0.03-0.201,0.038-0.35c0.119-2.214,0.253-1.288-1.701-2.545       c0.008-0.085,0.012-0.171,0.021-0.255c0.214-1.896-0.401-3.771-1.911-5.206c-1.109-1.053-2.456-1.554-3.918-2.031       c0.058-0.114,0.122-0.239,0.2-0.389c2.737-5.227-7.051-6.283-9.73-3.322c-3.018,3.337-5.412,8.015-2.496,12.105       c1.223,1.715,2.555,2.994,4.224,4.228c0.053,1.009,3.052-0.349,3.27,0.608c0.434,1.909-0.934,6.68,2.89,8.617       c1.123,3.074,2.54,4.896,4.377,5.765c2.146,1.013,4.394,1.968,6.605,2.844c-1.09-0.432,1.231,0.607,1.461,0.729       c-0.96-0.51,1.504,1.564,1.225,1.208c3.319,4.227,6.14,7.938,11.929,9.718c5.868,1.805,10.979-0.272,15.846-2.807       c0.619,0.359,1.413,0.86,1.843,1.13c2.606,1.64,5.129,2.996,8.034,4.201c6.862,2.847,13.811,0.413,19.608-2.856       c0.302-0.168,0.61-0.327,0.924-0.478c-0.196,0.014-0.377-0.027-0.538-0.149c0.207,0.036,0.412,0.076,0.619,0.113       c0.247-0.117,2.663-1.391,2.917-1.497c-0.245,0.192-2.636,1.46-2.844,1.51c1.55,0.285,1.984-1.428,3.549-1.186       c3.348,0.518,7.893,2.248,11.209,1.736c3.684-0.569,6.881-2.129,9.862-4.001c1.267-0.796,2.252-1.907,3.153-3.09       c7.732,0.365,15.68-3.334,19.073-9.674c0.758-1.417,1.239-3.074,2.296-4.014c2.247-1.998,4.374-4.044,6.338-6.266       c1.874-2.119,3.322-4.68,4.354-7.193c0.888-2.162,0.609-4.113,0.138-6.101c0.469-0.851,0.869-1.687,1.25-2.572       c0.871-2.024,1.29-4.131,1.651-6.27C775.656,1549.762,770.716,1546.871,768.598,1542.681z"
   id="path4801" />
					<path
   fill="#707936"
   d="M711.865,1602.94c0.05-0.003,0.101-0.01,0.153-0.023c-0.024-0.004-0.048-0.009-0.072-0.013       C711.919,1602.917,711.892,1602.928,711.865,1602.94z"
   id="path4803" />
				</g>
				<g
   id="g4805">
					<g
   id="g4807">
						<path
   fill="#8A7C36"
   d="M759.308,1581.175c0,0,0.323-0.226,0.9-0.595c0.295-0.182,0.646-0.407,0.985-0.678        c0.35-0.281,0.759-0.536,1.185-0.907c0.424-0.362,0.907-0.719,1.363-1.162c0.233-0.214,0.473-0.435,0.717-0.659        c0.232-0.238,0.468-0.48,0.709-0.727c0.5-0.476,0.918-1.052,1.407-1.58c0.423-0.578,0.891-1.141,1.268-1.758        c0.423-0.592,0.751-1.23,1.094-1.85c0.286-0.638,0.625-1.253,0.812-1.887c0.244-0.622,0.393-1.236,0.538-1.824        c0.08-0.292,0.086-0.582,0.14-0.86c0.039-0.278,0.103-0.55,0.092-0.808c0.001-0.516,0.07-1.002,0.003-1.418        c-0.044-0.418-0.037-0.8-0.129-1.09c-0.13-0.595-0.191-0.95-0.191-0.95l-0.027-0.159c-0.092-0.537,0.269-1.047,0.806-1.14        c0.459-0.079,0.899,0.174,1.074,0.585c0,0,0.168,0.393,0.438,1.105c0.157,0.352,0.225,0.807,0.349,1.324        c0.145,0.518,0.17,1.113,0.217,1.767c0.039,0.329,0.001,0.664-0.012,1.014c-0.025,0.348-0.022,0.718-0.088,1.081        c-0.127,0.728-0.242,1.507-0.507,2.264c-0.206,0.781-0.555,1.525-0.88,2.295c-0.387,0.734-0.77,1.49-1.245,2.18        c-0.43,0.725-0.984,1.352-1.479,2.008c-0.553,0.602-1.07,1.225-1.655,1.737c-0.284,0.265-0.564,0.524-0.837,0.779        c-0.293,0.231-0.58,0.457-0.859,0.677c-0.544,0.457-1.117,0.81-1.63,1.151c-0.497,0.354-1.039,0.611-1.481,0.856        c-0.455,0.257-0.834,0.426-1.146,0.56c-0.628,0.276-0.994,0.42-0.994,0.42c-0.514,0.202-1.094-0.051-1.296-0.565        C758.777,1581.922,758.938,1581.434,759.308,1581.175z"
   id="path4809" />
					</g>
					<g
   id="g4811">
						<path
   fill="#8A7C36"
   d="M715.195,1600.472c0,0,0.446,0.124,1.227,0.341c0.194,0.057,0.409,0.12,0.643,0.189        c0.224,0.046,0.466,0.096,0.725,0.148c0.517,0.107,1.084,0.237,1.75,0.321c0.326,0.049,0.667,0.101,1.019,0.154        c0.352,0.05,0.722,0.061,1.098,0.102c0.75,0.092,1.548,0.099,2.371,0.115c0.411,0.027,0.828-0.006,1.25-0.019        c0.422-0.025,0.851-0.011,1.278-0.066c0.427-0.043,0.858-0.087,1.291-0.131c0.434-0.035,0.857-0.138,1.287-0.203        c0.429-0.068,0.857-0.143,1.271-0.263c0.417-0.105,0.838-0.193,1.247-0.306c0.801-0.27,1.604-0.504,2.331-0.836        c0.76-0.273,1.406-0.683,2.064-1.003c0.315-0.18,0.596-0.389,0.884-0.572c0.284-0.188,0.571-0.357,0.8-0.569        c0.479-0.403,0.953-0.747,1.286-1.131c0.348-0.37,0.698-0.667,0.89-0.979c0.434-0.59,0.709-0.923,0.709-0.923l0.102-0.123        c0.347-0.42,0.97-0.479,1.39-0.131c0.358,0.296,0.453,0.793,0.258,1.194c0,0-0.218,0.448-0.648,1.223        c-0.191,0.407-0.54,0.812-0.903,1.313c-0.344,0.524-0.856,0.989-1.393,1.528c-0.26,0.282-0.571,0.52-0.896,0.765        c-0.325,0.243-0.651,0.515-1.009,0.754c-0.732,0.445-1.502,0.94-2.359,1.301c-0.833,0.431-1.75,0.708-2.668,1.028        c-0.934,0.243-1.883,0.527-2.853,0.649c-0.963,0.18-1.935,0.264-2.892,0.328c-0.478,0.043-0.954,0.016-1.422,0.026        c-0.469-0.002-0.932,0.016-1.385-0.028c-0.908-0.064-1.783-0.128-2.604-0.273c-0.826-0.102-1.592-0.285-2.297-0.456        c-0.704-0.141-1.353-0.382-1.924-0.565c-0.285-0.094-0.551-0.182-0.797-0.264c-0.225-0.094-0.432-0.18-0.619-0.258        c-0.742-0.324-1.167-0.509-1.167-0.509c-0.504-0.22-0.734-0.807-0.514-1.311        C714.217,1600.572,714.725,1600.341,715.195,1600.472z"
   id="path4813" />
					</g>
					<g
   id="g4815">
						<path
   fill="#8A7C36"
   d="M656.249,1593.343c0,0,0.057,0.11,0.163,0.318c0.108,0.192,0.259,0.547,0.459,0.867        c0.193,0.333,0.431,0.737,0.764,1.194c0.149,0.235,0.343,0.461,0.537,0.705c0.184,0.25,0.396,0.5,0.631,0.746        c0.221,0.258,0.47,0.51,0.741,0.757c0.255,0.262,0.541,0.509,0.845,0.752c0.289,0.259,0.622,0.48,0.952,0.718l0.248,0.181        l0.031,0.023c-0.021-0.014,0.058,0.039-0.045-0.03l0.009,0.006l0.018,0.011l0.072,0.044l0.146,0.089        c0.195,0.119,0.392,0.239,0.591,0.36l0.297,0.178l0.272,0.13c0.181,0.088,0.363,0.177,0.546,0.266        c0.37,0.181,0.8,0.332,1.202,0.504c0.424,0.132,0.847,0.279,1.282,0.396c0.444,0.088,0.874,0.234,1.327,0.297        c0.45,0.074,0.896,0.166,1.354,0.197c0.453,0.054,0.907,0.088,1.362,0.094c0.904,0.051,1.804,0.012,2.671-0.062        c1.738-0.144,3.349-0.491,4.699-0.887c0.677-0.193,1.29-0.405,1.828-0.604c0.267-0.105,0.517-0.204,0.748-0.295        c0.042-0.016,0.151-0.062,0.134-0.051l0.167-0.08c0.108-0.052,0.211-0.102,0.309-0.148c0.79-0.366,1.241-0.574,1.241-0.574        c0.499-0.231,1.09-0.014,1.321,0.485c0.211,0.458,0.046,0.993-0.368,1.257l-0.004,0.002c0,0-0.419,0.268-1.153,0.736        c-0.093,0.057-0.19,0.117-0.292,0.181l-0.156,0.097c-0.07,0.037-0.141,0.076-0.213,0.115c-0.244,0.127-0.508,0.266-0.79,0.414        c-0.571,0.277-1.219,0.6-1.958,0.864c-1.464,0.565-3.244,1.061-5.208,1.312c-0.982,0.118-2.007,0.196-3.054,0.173        c-0.524,0-1.051-0.034-1.581-0.09c-0.53-0.033-1.06-0.13-1.589-0.214c-0.532-0.071-1.052-0.228-1.573-0.348        c-0.517-0.146-1.025-0.325-1.529-0.495c-0.495-0.214-0.979-0.391-1.466-0.638c-0.242-0.13-0.482-0.261-0.721-0.39        c-0.247-0.13-0.472-0.26-0.652-0.388c-0.193-0.128-0.386-0.255-0.577-0.382l-0.143-0.094l-0.071-0.047l-0.088-0.06        l-0.037-0.028l-0.29-0.227c-0.384-0.302-0.757-0.599-1.088-0.928c-0.345-0.312-0.666-0.629-0.953-0.961        c-0.301-0.316-0.566-0.646-0.806-0.973c-0.252-0.317-0.475-0.633-0.668-0.947c-0.198-0.31-0.385-0.604-0.53-0.898        c-0.315-0.565-0.554-1.102-0.741-1.55c-0.207-0.449-0.262-0.749-0.349-0.979c-0.071-0.223-0.11-0.341-0.11-0.341        c-0.169-0.523,0.118-1.085,0.642-1.254C655.527,1592.695,656.03,1592.915,656.249,1593.343z"
   id="path4817" />
					</g>
					<g
   id="g4819">
						<path
   fill="#8A7C36"
   d="M638.543,1575.753c0,0-0.067,0.168-0.201,0.449c-0.067,0.141-0.148,0.312-0.25,0.501        c-0.106,0.198-0.145,0.371-0.239,0.574c-0.089,0.197-0.172,0.41-0.237,0.64c-0.034,0.112-0.082,0.23-0.109,0.342        c-0.021,0.105-0.042,0.214-0.063,0.324c-0.038,0.113-0.028,0.209-0.026,0.302c0,0.092-0.033,0.195-0.001,0.267        c0.008,0.167,0.069,0.299,0.12,0.454c0.051,0.074,0.074,0.152,0.129,0.234c0.069,0.08,0.13,0.163,0.194,0.249        c0.164,0.175,0.331,0.357,0.547,0.527c0.2,0.172,0.427,0.348,0.644,0.509c0.23,0.166,0.447,0.323,0.648,0.468        c0.41,0.295,0.774,0.558,1.021,0.755c0.249,0.198,0.388,0.317,0.388,0.317c0.424,0.365,0.472,1.006,0.106,1.43        c-0.265,0.308-0.675,0.418-1.042,0.315l-0.026-0.008c0,0-0.169-0.048-0.458-0.142c-0.289-0.099-0.704-0.235-1.212-0.449        c-0.249-0.103-0.533-0.226-0.823-0.374c-0.292-0.158-0.61-0.312-0.932-0.537c-0.322-0.208-0.656-0.483-0.988-0.788        c-0.158-0.176-0.314-0.365-0.467-0.553c-0.148-0.2-0.276-0.441-0.404-0.666c-0.235-0.483-0.374-1.029-0.393-1.554        c-0.036-0.271,0.006-0.507,0.03-0.751c0.031-0.244,0.067-0.481,0.143-0.679c0.068-0.206,0.135-0.408,0.201-0.605        c0.076-0.187,0.175-0.343,0.259-0.507c0.087-0.16,0.173-0.315,0.255-0.465c0.101-0.136,0.198-0.268,0.292-0.395        c0.185-0.241,0.365-0.5,0.519-0.641c0.151-0.154,0.289-0.284,0.404-0.389c0.229-0.212,0.368-0.327,0.368-0.327l0.004-0.003        c0.438-0.358,1.084-0.294,1.442,0.144C638.63,1575.022,638.677,1575.418,638.543,1575.753z"
   id="path4821" />
					</g>
					<g
   id="g4823">
						<path
   fill="#9D8E38"
   d="M631.064,1542.599c0,0-0.185,0.235-0.527,0.629c-0.172,0.195-0.381,0.433-0.62,0.705l-0.045,0.051        l-0.002,0.004c-0.022,0.022,0.177-0.188,0.092-0.097l-0.005,0.007l-0.01,0.014l-0.02,0.029l-0.081,0.117        c-0.055,0.079-0.111,0.161-0.169,0.244c-0.139,0.18-0.19,0.306-0.274,0.452c-0.157,0.279-0.33,0.668-0.464,1.046        c-0.134,0.389-0.229,0.813-0.293,1.262c-0.068,0.448-0.065,0.925-0.056,1.414c0.03,0.49,0.085,0.992,0.2,1.495        c0.094,0.504,0.239,1.007,0.41,1.496c0.09,0.243,0.172,0.488,0.271,0.724l0.07,0.178l0.018,0.044l0.005,0.011l0.002,0.005        c0.037,0.074-0.048-0.094-0.038-0.074l0.012,0.023l0.048,0.095l0.19,0.375c0.255,0.494,0.48,1.007,0.722,1.331        c0.249,0.363,0.414,0.729,0.688,1.056c0.251,0.327,0.47,0.641,0.666,0.919c0.221,0.262,0.414,0.49,0.572,0.678        c0.317,0.379,0.491,0.608,0.491,0.609l0.054,0.071c0.333,0.438,0.248,1.063-0.19,1.396c-0.358,0.272-0.842,0.264-1.188,0.013        c0,0-0.251-0.183-0.68-0.524c-0.212-0.174-0.47-0.385-0.766-0.628c-0.277-0.266-0.594-0.568-0.925-0.912        c-0.344-0.315-0.675-0.782-1.03-1.238c-0.389-0.48-0.647-0.929-0.924-1.41l-0.211-0.363l-0.053-0.092l-0.014-0.023        l-0.053-0.106l-0.025-0.053l-0.101-0.214c-0.138-0.284-0.264-0.579-0.376-0.883c-0.227-0.607-0.423-1.242-0.562-1.899        c-0.273-1.311-0.319-2.713-0.051-4.006c0.059-0.322,0.154-0.637,0.241-0.941c0.118-0.297,0.211-0.595,0.349-0.868        c0.26-0.56,0.542-1.026,0.892-1.475c0.172-0.217,0.348-0.453,0.483-0.573c0.181-0.175,0.352-0.342,0.513-0.498        c0.287-0.222,0.537-0.416,0.742-0.575c0.414-0.317,0.66-0.487,0.66-0.487c0.456-0.316,1.082-0.203,1.397,0.253        C631.356,1541.777,631.328,1542.262,631.064,1542.599z"
   id="path4825" />
					</g>
					<g
   id="g4827">
						<path
   fill="#9D8E38"
   d="M671.114,1507.326c0,0-1.666,0.023-4.164,0.059c-0.62,0.015-1.292,0.031-2.001,0.048        c-0.697,0.042-1.453,0.055-2.192,0.124c-0.371,0.032-0.747,0.064-1.128,0.097c-0.341,0.062-0.688,0.124-1.037,0.187        c-0.026,0.003-0.127,0.023-0.091,0.011l-0.15,0.042l-0.3,0.084l-0.604,0.169l-1.062,0.366        c-0.712,0.293-1.419,0.588-2.069,0.956c-0.647,0.369-1.268,0.757-1.815,1.196c-0.28,0.213-0.548,0.431-0.784,0.671        c-0.125,0.113-0.248,0.227-0.37,0.338l-0.023,0.021c0.1-0.116,0.024-0.029,0.045-0.053l-0.006,0.007l-0.012,0.013        l-0.046,0.051l-0.092,0.104l-0.181,0.204c-0.279,0.292-0.374,0.48-0.538,0.69c-0.153,0.209-0.292,0.477-0.434,0.699        c-0.248,0.486-0.448,0.957-0.615,1.389c-0.148,0.441-0.275,0.832-0.353,1.167c-0.172,0.665-0.257,1.061-0.257,1.061        l-0.007,0.034c-0.116,0.538-0.645,0.879-1.182,0.764c-0.481-0.104-0.805-0.539-0.785-1.014c0,0,0.004-0.111,0.013-0.32        c0.013-0.208,0.008-0.515,0.064-0.907c0.035-0.393,0.115-0.871,0.22-1.423c0.069-0.276,0.143-0.57,0.221-0.879        c0.1-0.306,0.22-0.627,0.344-0.962c0.162-0.33,0.289-0.666,0.505-1.028c0.217-0.353,0.474-0.777,0.683-1.023l0.166-0.216        l0.084-0.11l0.042-0.054l0.072-0.086l0.026-0.028c0.142-0.149,0.285-0.301,0.43-0.454c0.286-0.312,0.606-0.599,0.941-0.88        c0.656-0.58,1.404-1.09,2.192-1.542c0.789-0.454,1.623-0.84,2.476-1.163c0.439-0.149,0.897-0.304,1.326-0.435l0.606-0.161        l0.302-0.081l0.15-0.04c0.137-0.032,0.139-0.025,0.215-0.04c0.469-0.066,0.934-0.131,1.393-0.196        c0.429-0.021,0.852-0.041,1.268-0.061c0.834-0.044,1.605,0.009,2.353,0.009c0.736,0.033,1.432,0.077,2.071,0.123        c1.277,0.101,2.333,0.236,3.074,0.322c0.746,0.099,1.16,0.17,1.16,0.17l0.009,0.001c0.543,0.094,0.906,0.61,0.812,1.153        C671.999,1506.98,671.584,1507.32,671.114,1507.326z"
   id="path4829" />
					</g>
					<g
   id="g4831">
						<path
   fill="#9D8E38"
   d="M733.313,1510.521c0,0-0.034-0.093-0.098-0.269c-0.062-0.173-0.16-0.443-0.274-0.729        c-0.221-0.593-0.609-1.46-1.143-2.401c-0.54-0.943-1.262-1.969-2.206-2.854c-0.943-0.882-2.1-1.622-3.394-2.063        c-0.643-0.229-1.312-0.404-1.993-0.522c-0.679-0.128-1.37-0.199-2.048-0.223c-1.361-0.063-2.671,0.08-3.78,0.304        c-0.139,0.028-0.275,0.055-0.408,0.082l-0.099,0.02l-0.049,0.01l-0.024,0.005l-0.006,0.001        c-0.063,0.02,0.079-0.025,0.062-0.02l-0.012,0.004l-0.196,0.063c-0.282,0.099-0.297,0.117-0.545,0.239        c-0.387,0.195-0.759,0.425-1.093,0.601c-0.333,0.178-0.633,0.324-0.871,0.407c-0.249,0.078-0.381,0.12-0.381,0.12        c-0.521,0.165-1.075-0.125-1.24-0.645c-0.162-0.512,0.115-1.057,0.619-1.231l0.167-0.058c0,0,0.055-0.019,0.16-0.055        c0.11-0.042,0.308-0.124,0.579-0.284c0.296-0.18,0.656-0.399,1.069-0.65c0.172-0.112,0.613-0.338,0.839-0.422l0.191-0.077        l0.277-0.088c0.143-0.044,0.288-0.089,0.436-0.136c1.191-0.357,2.625-0.698,4.234-0.851c0.805-0.056,1.65-0.066,2.516,0.013        c0.865,0.09,1.743,0.287,2.591,0.586c1.699,0.604,3.257,1.634,4.408,2.853c1.167,1.209,1.954,2.555,2.47,3.732        c0.53,1.183,0.78,2.2,0.957,2.931c0.096,0.374,0.125,0.633,0.159,0.818c0.031,0.184,0.047,0.282,0.047,0.282        c0.091,0.543-0.275,1.058-0.818,1.148C733.934,1511.244,733.475,1510.964,733.313,1510.521z"
   id="path4833" />
					</g>
					<g
   id="g4835">
						<path
   fill="#9D8E38"
   d="M768.878,1543.275c0,0,0.083-0.382,0.252-1.04c0.043-0.165,0.091-0.347,0.143-0.545        c0.044-0.194,0.052-0.382,0.083-0.593c0.027-0.206,0.056-0.426,0.086-0.658c0.046-0.223,0.062-0.477,0.067-0.746        c0.011-0.533,0.083-1.102,0.02-1.708c-0.016-0.302-0.032-0.611-0.048-0.928c-0.048-0.313-0.098-0.633-0.148-0.959        c-0.061-0.657-0.307-1.3-0.452-1.974c-0.091-0.333-0.239-0.651-0.355-0.981c-0.128-0.326-0.229-0.663-0.4-0.973l-0.465-0.949        l-0.058-0.119l-0.029-0.06l-0.014-0.029l-0.007-0.015c-0.01-0.017,0.073,0.12,0.035,0.059l-0.004-0.008l-0.154-0.244        l-0.307-0.485c-0.103-0.156-0.201-0.334-0.299-0.475l-0.289-0.372c-0.197-0.246-0.355-0.501-0.597-0.735        c-0.222-0.239-0.439-0.475-0.653-0.705c-0.234-0.212-0.463-0.419-0.686-0.622c-0.214-0.214-0.468-0.368-0.688-0.55        c-0.231-0.168-0.435-0.36-0.667-0.492c-0.456-0.274-0.849-0.579-1.245-0.77c-0.388-0.203-0.715-0.411-1.013-0.524        c-0.58-0.259-0.911-0.422-0.911-0.422l-0.084-0.042c-0.493-0.242-0.695-0.836-0.454-1.329        c0.208-0.425,0.681-0.634,1.123-0.528c0,0,0.399,0.096,1.098,0.289c0.354,0.084,0.758,0.262,1.236,0.435        c0.484,0.162,0.994,0.431,1.559,0.713c0.288,0.13,0.555,0.327,0.85,0.5c0.287,0.185,0.599,0.356,0.878,0.593        c0.288,0.226,0.584,0.458,0.886,0.694c0.287,0.256,0.566,0.535,0.853,0.816c0.293,0.263,0.559,0.618,0.837,0.948l0.416,0.51        c0.123,0.165,0.217,0.316,0.325,0.478l0.313,0.481l0.157,0.242l0.05,0.081l0.009,0.018l0.018,0.035l0.036,0.07l0.072,0.141        l0.573,1.128c0.21,0.368,0.333,0.778,0.48,1.173c0.135,0.4,0.301,0.788,0.407,1.192c0.184,0.815,0.421,1.607,0.466,2.407        c0.04,0.396,0.08,0.785,0.119,1.166c-0.008,0.383-0.017,0.757-0.024,1.122c0.017,0.729-0.12,1.409-0.213,2.033        c-0.062,0.619-0.285,1.21-0.422,1.713c-0.078,0.248-0.141,0.499-0.218,0.694c-0.081,0.188-0.155,0.361-0.222,0.518        c-0.271,0.624-0.44,0.976-0.44,0.976c-0.24,0.498-0.838,0.707-1.335,0.467        C768.997,1544.182,768.783,1543.717,768.878,1543.275z"
   id="path4837" />
					</g>
				</g>
				<g
   id="g4839">
					
						<path
   fill="none"
   stroke="#9D8E38"
   stroke-width="2.9791"
   stroke-linecap="round"
   stroke-linejoin="round"
   stroke-miterlimit="10"
   d="       M714.862,1601.408"
   id="path4841" />
					<g
   id="g4843">
						<path
   fill="#8A7C36"
   d="M770.39,1561.401c0,0,0.188-0.271,0.533-0.731c0.194-0.233,0.354-0.501,0.529-0.799        c0.09-0.148,0.187-0.307,0.288-0.474c0.086-0.185,0.187-0.372,0.288-0.568c0.227-0.381,0.371-0.835,0.569-1.291        c0.106-0.225,0.147-0.479,0.228-0.725c0.069-0.249,0.158-0.497,0.194-0.763c0.049-0.261,0.099-0.527,0.15-0.796        c0.02-0.273,0.038-0.549,0.058-0.828c0.043-0.276,0.009-0.56,0.005-0.842l-0.011-0.425l-0.002-0.106l-0.001-0.027v-0.013        c0.015,0.147,0.003,0.037,0.007,0.067l-0.001-0.007l-0.008-0.061l-0.034-0.243l-0.124-0.973        c-0.045-0.311-0.123-0.541-0.177-0.814c-0.088-0.519-0.318-1.066-0.461-1.585c-0.108-0.25-0.216-0.495-0.32-0.736        c-0.09-0.249-0.203-0.48-0.331-0.697c-0.119-0.223-0.234-0.439-0.347-0.648c-0.121-0.204-0.253-0.394-0.372-0.581        c-0.231-0.381-0.482-0.706-0.705-0.997c-0.214-0.299-0.417-0.549-0.604-0.738c-0.358-0.394-0.555-0.636-0.555-0.636        l-0.067-0.083c-0.347-0.426-0.282-1.053,0.144-1.399c0.349-0.284,0.833-0.292,1.188-0.051c0,0,0.289,0.197,0.781,0.571        c0.253,0.18,0.537,0.425,0.85,0.726c0.16,0.148,0.33,0.306,0.509,0.473c0.174,0.172,0.33,0.377,0.508,0.581        c0.172,0.207,0.361,0.417,0.539,0.648c0.162,0.244,0.33,0.495,0.502,0.754c0.373,0.504,0.623,1.119,0.939,1.724        c0.23,0.649,0.532,1.266,0.679,2.02c0.082,0.356,0.191,0.752,0.244,1.085l0.128,0.973l0.029,0.244l0.007,0.061l0.01,0.09        l0,0.018l0,0.035l0.002,0.139l0.008,0.555c0,0.369,0.026,0.736-0.028,1.1c-0.043,0.363-0.087,0.723-0.13,1.079        c-0.083,0.348-0.166,0.692-0.247,1.03c-0.067,0.342-0.198,0.658-0.318,0.968c-0.128,0.307-0.219,0.622-0.372,0.897        c-0.287,0.561-0.556,1.09-0.879,1.526c-0.154,0.222-0.302,0.435-0.442,0.638c-0.165,0.192-0.322,0.375-0.469,0.546        c-0.296,0.346-0.554,0.634-0.762,0.812c-0.422,0.39-0.672,0.606-0.672,0.606c-0.418,0.361-1.05,0.315-1.412-0.103        C770.15,1562.274,770.137,1561.768,770.39,1561.401z"
   id="path4845" />
					</g>
					<g
   id="g4847">
						<path
   fill="#8A7C36"
   d="M741.421,1594.321c0,0,0.386-0.072,1.063-0.173c0.333-0.053,0.768-0.093,1.188-0.205        c0.433-0.097,0.922-0.205,1.455-0.324c0.537-0.158,1.124-0.294,1.733-0.477c0.599-0.219,1.25-0.385,1.891-0.648        c0.645-0.252,1.312-0.507,1.964-0.823c0.67-0.279,1.307-0.646,1.954-0.989c0.333-0.159,0.631-0.368,0.942-0.557l0.463-0.288        l0.23-0.143l0.058-0.036c0.018-0.013-0.134,0.099-0.066,0.049l0.007-0.005l0.015-0.011l0.028-0.022l0.114-0.088        c0.295-0.236,0.627-0.463,0.895-0.686c0.212-0.213,0.426-0.418,0.642-0.618c0.404-0.473,0.842-0.935,1.146-1.438        c0.357-0.475,0.576-0.986,0.83-1.437c0.161-0.479,0.409-0.902,0.482-1.306c0.109-0.399,0.219-0.751,0.229-1.042        c0.031-0.287,0.078-0.538,0.097-0.671c0.002-0.184,0.004-0.281,0.004-0.281c0.007-0.549,0.458-0.989,1.007-0.981        c0.487,0.006,0.887,0.36,0.967,0.823l0.009,0.054c0,0,0.017,0.097,0.049,0.278c0.014,0.232,0.033,0.517,0.038,0.912        c0.03,0.396-0.034,0.856-0.104,1.392c-0.038,0.547-0.24,1.113-0.411,1.754c-0.251,0.601-0.476,1.292-0.883,1.924        c-0.356,0.669-0.827,1.298-1.359,1.946c-0.307,0.314-0.618,0.633-0.934,0.957c-0.303,0.268-0.586,0.492-0.891,0.736        l-0.113,0.09l-0.13,0.099l-0.064,0.042l-0.258,0.167l-0.521,0.334c-0.35,0.219-0.691,0.46-1.06,0.646        c-0.726,0.397-1.458,0.782-2.21,1.089c-0.734,0.351-1.495,0.594-2.225,0.841c-0.724,0.265-1.46,0.405-2.14,0.587        c-0.687,0.156-1.35,0.249-1.954,0.35c-0.614,0.087-1.198,0.116-1.702,0.154c-0.518,0.051-0.915,0.026-1.261,0.03        c-0.685-0.005-1.077-0.023-1.077-0.023c-0.552-0.026-0.978-0.495-0.952-1.046        C740.628,1594.786,740.976,1594.405,741.421,1594.321z"
   id="path4849" />
					</g>
					<g
   id="g4851">
						<path
   fill="#8A7C36"
   d="M682.961,1599.554c0,0,0.447,0.327,1.23,0.898c0.194,0.145,0.409,0.306,0.642,0.481        c0.234,0.163,0.491,0.284,0.761,0.443c0.269,0.153,0.554,0.315,0.856,0.487c0.148,0.088,0.3,0.179,0.456,0.271        c0.172,0.08,0.347,0.163,0.526,0.247c0.357,0.168,0.729,0.343,1.114,0.524c0.377,0.194,0.789,0.354,1.22,0.503        c0.426,0.157,0.864,0.317,1.312,0.482l0.294,0.107l0.364,0.11c0.243,0.074,0.489,0.148,0.738,0.224        c0.512,0.173,0.954,0.237,1.435,0.357c0.463,0.121,0.979,0.186,1.48,0.28c1.011,0.169,2.051,0.266,3.093,0.301        c2.083,0.092,4.178-0.09,6.099-0.46c0.957-0.197,1.882-0.407,2.737-0.68c0.435-0.117,0.842-0.27,1.237-0.42        c0.397-0.144,0.78-0.286,1.132-0.457c0.721-0.309,1.357-0.635,1.923-0.93c0.562-0.299,1.021-0.61,1.418-0.841        c0.752-0.524,1.182-0.823,1.182-0.823l0.053-0.038c0.45-0.313,1.069-0.203,1.382,0.248c0.285,0.409,0.219,0.957-0.132,1.289        c0,0-0.421,0.399-1.192,1.076c-0.41,0.301-0.892,0.699-1.483,1.095c-0.299,0.193-0.618,0.399-0.954,0.616        c-0.336,0.218-0.719,0.391-1.104,0.602c-0.384,0.214-0.8,0.4-1.233,0.588c-0.431,0.194-0.878,0.392-1.353,0.554        c-0.938,0.359-1.951,0.675-3.019,0.915c-2.132,0.5-4.474,0.725-6.809,0.642c-1.167-0.046-2.333-0.171-3.466-0.372        c-0.568-0.108-1.124-0.189-1.689-0.356c-0.55-0.152-1.147-0.284-1.613-0.46c-0.246-0.083-0.489-0.165-0.73-0.247l-0.36-0.122        l-0.09-0.031l-0.045-0.02l-0.09-0.04l-0.18-0.079c-0.478-0.209-0.945-0.415-1.399-0.614c-0.921-0.363-1.722-0.89-2.49-1.287        c-0.19-0.105-0.376-0.208-0.558-0.308c-0.178-0.123-0.352-0.242-0.521-0.359c-0.333-0.24-0.649-0.467-0.946-0.68        c-0.289-0.215-0.583-0.409-0.809-0.603c-0.214-0.198-0.412-0.38-0.59-0.543c-0.704-0.667-1.106-1.047-1.106-1.047        c-0.399-0.377-0.417-1.007-0.039-1.407c0.349-0.368,0.911-0.411,1.309-0.12L682.961,1599.554z"
   id="path4853" />
					</g>
					<g
   id="g4855">
						<path
   fill="#8A7C36"
   d="M641.558,1583.185c0,0,0.147,0.262,0.379,0.729c0.057,0.117,0.121,0.247,0.19,0.388        c0.076,0.116,0.157,0.241,0.244,0.375c0.18,0.263,0.338,0.561,0.595,0.887c0.242,0.323,0.483,0.682,0.798,1.021        c0.15,0.173,0.304,0.351,0.461,0.533c0.172,0.17,0.347,0.343,0.525,0.52c0.336,0.371,0.768,0.673,1.158,1.027        c0.403,0.341,0.87,0.624,1.297,0.953l0.696,0.425l0.347,0.212l0.086,0.053l0.043,0.026l0.021,0.014l0.011,0.006        c0.072,0.036-0.092-0.046-0.072-0.036l0.006,0.002l0.198,0.095c0.523,0.261,1.038,0.517,1.537,0.766        c0.458,0.175,0.901,0.344,1.322,0.504c0.404,0.184,0.863,0.271,1.255,0.395c0.402,0.098,0.761,0.255,1.096,0.309        c0.334,0.066,0.626,0.124,0.866,0.171c0.482,0.101,0.761,0.172,0.761,0.172l0.115,0.029c0.532,0.135,0.853,0.675,0.718,1.207        c-0.111,0.437-0.497,0.731-0.925,0.748c0,0-0.312,0.012-0.864,0.01c-0.277-0.004-0.613-0.009-0.999-0.015        c-0.389,0.003-0.817-0.079-1.291-0.142c-0.474-0.084-0.983-0.105-1.534-0.292c-0.545-0.159-1.142-0.313-1.723-0.513        c-0.511-0.222-1.039-0.45-1.575-0.683l-0.2-0.091l-0.104-0.053l-0.025-0.015l-0.052-0.03l-0.103-0.06l-0.414-0.242        l-0.831-0.488c-0.525-0.378-1.058-0.746-1.543-1.164c-0.477-0.429-0.958-0.836-1.35-1.312        c-0.203-0.229-0.402-0.455-0.597-0.676c-0.171-0.242-0.338-0.478-0.5-0.708c-0.341-0.447-0.589-0.921-0.817-1.355        c-0.247-0.413-0.408-0.87-0.556-1.251c-0.073-0.191-0.141-0.371-0.204-0.536c-0.041-0.152-0.078-0.291-0.112-0.417        c-0.133-0.505-0.194-0.799-0.194-0.799c-0.113-0.543,0.236-1.075,0.779-1.188        C640.916,1582.602,641.349,1582.813,641.558,1583.185z"
   id="path4857" />
					</g>
					<g
   id="g4859">
						<path
   fill="#8A7C36"
   d="M632.986,1558.853c0,0-0.217,0.296-0.611,0.8c-0.098,0.125-0.207,0.264-0.326,0.414        c-0.087,0.145-0.183,0.302-0.285,0.469c-0.102,0.164-0.209,0.339-0.324,0.523c-0.111,0.186-0.201,0.41-0.312,0.624        c-0.104,0.22-0.23,0.441-0.329,0.681c-0.079,0.247-0.166,0.498-0.259,0.753c-0.043,0.129-0.098,0.256-0.136,0.39        c-0.026,0.136-0.052,0.273-0.079,0.413c-0.048,0.278-0.125,0.556-0.164,0.844c-0.021,0.584-0.117,1.179-0.015,1.793        c-0.001,0.614,0.177,1.23,0.308,1.85l0.025,0.116l0.012,0.059l0.006,0.029c-0.049-0.152-0.012-0.038-0.022-0.069l0.003,0.008        l0.006,0.016l0.092,0.257c0.061,0.175,0.12,0.359,0.17,0.435c0.08,0.197,0.231,0.447,0.373,0.694        c0.308,0.482,0.688,0.924,1.085,1.339c0.413,0.402,0.864,0.745,1.316,1.045c0.456,0.293,0.917,0.534,1.362,0.714        c0.445,0.181,0.872,0.299,1.254,0.386c0.384,0.084,0.724,0.13,1.006,0.151c0.282,0.045,0.504,0.011,0.656,0.014        c0.152-0.002,0.232-0.015,0.232-0.015l0.064-0.011c0.546-0.089,1.06,0.281,1.15,0.827c0.089,0.546-0.281,1.061-0.827,1.15        c-0.068,0.011-0.14,0.015-0.207,0.012c0,0-0.102-0.005-0.292,0.009c-0.19,0.001-0.469,0.047-0.824,0.043        c-0.356,0.013-0.789,0.005-1.285-0.046c-0.495-0.051-1.05-0.147-1.646-0.302c-0.597-0.152-1.23-0.376-1.877-0.678        c-0.647-0.304-1.29-0.71-1.917-1.198c-0.621-0.496-1.204-1.1-1.706-1.805c-0.231-0.366-0.463-0.731-0.669-1.205        c-0.119-0.247-0.175-0.409-0.231-0.579l-0.088-0.258l-0.035-0.11l-0.008-0.038l-0.016-0.076l-0.033-0.151        c-0.169-0.808-0.368-1.608-0.369-2.439c-0.082-0.819,0.056-1.631,0.14-2.409c0.067-0.385,0.192-0.753,0.288-1.116        c0.051-0.181,0.103-0.359,0.153-0.535c0.062-0.171,0.142-0.333,0.211-0.497c0.146-0.322,0.288-0.636,0.425-0.939        c0.156-0.291,0.338-0.552,0.497-0.812c0.168-0.254,0.305-0.507,0.487-0.725c0.182-0.216,0.355-0.422,0.518-0.614        c0.163-0.19,0.315-0.368,0.456-0.532c0.141-0.133,0.27-0.256,0.387-0.367c0.47-0.435,0.747-0.675,0.747-0.675        c0.416-0.363,1.047-0.321,1.41,0.095C633.247,1557.963,633.256,1558.484,632.986,1558.853z"
   id="path4861" />
					</g>
					<g
   id="g4863">
						<path
   fill="#9D8E38"
   d="M649.956,1517.906c0,0-0.141,0.025-0.405,0.073c-0.256,0.051-0.67,0.11-1.128,0.209        c-0.461,0.097-1.018,0.211-1.667,0.392c-0.324,0.077-0.663,0.185-1.019,0.294c-0.36,0.1-0.733,0.219-1.117,0.358        c-0.773,0.261-1.593,0.589-2.441,0.97c-0.843,0.391-1.718,0.83-2.578,1.355c-0.868,0.512-1.712,1.116-2.537,1.762        c-0.827,0.646-1.583,1.393-2.304,2.161c-0.72,0.772-1.343,1.622-1.879,2.496c-0.545,0.871-1.005,1.772-1.331,2.688        c-0.334,0.912-0.581,1.823-0.714,2.706c-0.156,0.881-0.175,1.733-0.164,2.52c0.029,0.787,0.11,1.511,0.226,2.149        c0.066,0.318,0.127,0.616,0.185,0.892c0.077,0.272,0.147,0.522,0.211,0.748c0.102,0.462,0.302,0.784,0.319,1.051        c-0.003,0.139-0.028,0.256-0.079,0.352c-0.036,0.088-0.074,0.144-0.074,0.144l-0.032,0.045        c-0.256,0.366-0.691,0.533-1.104,0.467c0,0-0.066-0.011-0.154-0.051c-0.103-0.033-0.207-0.105-0.311-0.214        c-0.101-0.11-0.158-0.276-0.247-0.461c-0.089-0.185-0.183-0.402-0.271-0.652c-0.094-0.249-0.198-0.524-0.311-0.825        c-0.092-0.308-0.192-0.642-0.299-0.998c-0.195-0.72-0.364-1.551-0.476-2.473c-0.082-0.923-0.127-1.938-0.019-3.006        c0.079-1.07,0.305-2.19,0.672-3.303c0.354-1.117,0.844-2.231,1.469-3.283c0.626-1.05,1.354-2.061,2.182-2.972        c0.821-0.917,1.716-1.765,2.67-2.496c0.949-0.736,1.925-1.405,2.927-1.943c0.99-0.56,1.985-1.023,2.95-1.398        c0.966-0.374,1.892-0.688,2.766-0.904c0.867-0.24,1.676-0.398,2.396-0.507c0.713-0.12,1.358-0.184,1.886-0.236        c0.53-0.061,0.902-0.049,1.177-0.067c0.268-0.01,0.412-0.015,0.412-0.015c0.549-0.021,1.012,0.408,1.032,0.957        C650.793,1517.392,650.437,1517.82,649.956,1517.906z"
   id="path4865" />
					</g>
					<g
   id="g4867">
						<path
   fill="#9D8E38"
   d="M695.777,1500.938c0,0-0.112-0.065-0.321-0.188c-0.226-0.14-0.526-0.32-0.895-0.575        c-0.735-0.502-1.753-1.212-2.966-1.98c-1.209-0.749-2.667-1.572-4.181-1.896c-0.365-0.08-0.769-0.123-1.089-0.121        c-0.237,0.005-0.476,0.011-0.716,0.017l-0.63,0.042c-0.882,0.073-1.764,0.244-2.62,0.496c-1.721,0.485-3.309,1.381-4.649,2.43        c-1.339,1.06-2.417,2.285-3.244,3.414c-0.82,1.135-1.41,2.165-1.777,2.909c-0.372,0.743-0.564,1.181-0.564,1.181l-0.008,0.018        c-0.221,0.503-0.808,0.731-1.311,0.51c-0.462-0.203-0.692-0.716-0.554-1.189c0,0,0.037-0.126,0.105-0.362        c0.069-0.236,0.172-0.583,0.332-1.016c0.325-0.859,0.817-2.094,1.654-3.46c0.831-1.364,1.997-2.871,3.549-4.204        c1.548-1.33,3.497-2.463,5.625-3.084c1.061-0.312,2.157-0.498,3.236-0.576c0.27-0.022,0.56-0.028,0.836-0.035        c0.248,0.004,0.494,0.008,0.738,0.012c0.644,0.019,1.189,0.11,1.735,0.245c1.077,0.267,2,0.709,2.817,1.16        c0.819,0.453,1.524,0.949,2.154,1.414c1.254,0.937,2.182,1.796,2.843,2.347c0.318,0.271,0.568,0.484,0.739,0.63        c0.177,0.142,0.272,0.218,0.272,0.218l0.014,0.011c0.429,0.344,0.498,0.97,0.154,1.398        C696.743,1501.092,696.196,1501.184,695.777,1500.938z"
   id="path4869" />
					</g>
					<g
   id="g4871">
						<path
   fill="#9D8E38"
   d="M713.623,1502.74c0,0-0.05-0.083-0.145-0.238c-0.087-0.151-0.243-0.424-0.397-0.739        c-0.302-0.616-0.733-1.496-1.251-2.553c-0.512-0.998-1.137-2.118-1.993-2.912c-0.423-0.399-0.894-0.716-1.43-0.912        c-0.026-0.005-0.379-0.137-0.437-0.139c-0.1-0.028-0.243-0.056-0.389-0.083c-0.291-0.044-0.593-0.063-0.904-0.059        c-0.624,0.014-1.279,0.115-1.924,0.299c-0.642,0.192-1.284,0.419-1.883,0.71c-1.203,0.567-2.28,1.27-3.085,1.941        c-0.201,0.17-0.388,0.33-0.553,0.488c-0.199,0.198-0.387,0.387-0.564,0.564c-0.344,0.327-0.644,0.613-0.891,0.848        c-0.107,0.106-0.203,0.201-0.287,0.284c-0.067,0.074-0.124,0.137-0.17,0.188c-0.048,0.067-0.084,0.1-0.084,0.1l-0.294,0.267        c-0.391,0.353-0.993,0.323-1.347-0.067c-0.26-0.288-0.312-0.692-0.165-1.026c0,0,0.061-0.138,0.197-0.393        c0.062-0.098,0.14-0.219,0.232-0.362c0.089-0.122,0.192-0.272,0.31-0.418c0.225-0.27,0.497-0.596,0.81-0.972        c0.068-0.085,0.138-0.172,0.21-0.263c0.078-0.104,0.158-0.211,0.24-0.321c0.191-0.247,0.393-0.5,0.624-0.735        c0.457-0.479,0.974-0.957,1.566-1.404c0.592-0.444,1.237-0.889,1.96-1.267c1.43-0.767,3.137-1.395,5.057-1.436        c0.479,0,0.965,0.039,1.451,0.123c0.239,0.047,0.481,0.097,0.756,0.182c0.321,0.096,0.332,0.106,0.668,0.239        c0.912,0.38,1.708,0.974,2.33,1.619c0.625,0.65,1.074,1.353,1.442,2.012c0.366,0.662,0.627,1.3,0.857,1.877        c0.443,1.159,0.715,2.102,0.941,2.732c0.222,0.637,0.349,1.001,0.349,1.001c0.181,0.521-0.093,1.088-0.613,1.27        c-0.453,0.158-0.941-0.03-1.18-0.423L713.623,1502.74z"
   id="path4873" />
					</g>
					<g
   id="g4875">
						<path
   fill="#9D8E38"
   d="M759.375,1523.701c0,0-0.008-0.132-0.024-0.379c-0.012-0.249-0.036-0.628-0.099-1.006        c-0.042-0.389-0.146-0.903-0.299-1.454c-0.16-0.553-0.379-1.162-0.694-1.788c-0.289-0.638-0.727-1.267-1.212-1.908        c-0.225-0.243-0.592-0.698-0.879-0.98c-0.309-0.28-0.576-0.579-0.936-0.869c-0.662-0.61-1.451-1.122-2.254-1.625        c-0.829-0.47-1.689-0.927-2.61-1.266c-0.91-0.359-1.852-0.656-2.797-0.888c-0.95-0.218-1.896-0.409-2.827-0.521        c-0.929-0.124-1.837-0.181-2.701-0.225c-0.871-0.025-1.666-0.021-2.476-0.004c-0.798,0.014-1.457,0.058-2.083,0.078        c-0.609,0.061-1.149,0.093-1.583,0.154c-0.861,0.142-1.364,0.205-1.364,0.205l-0.093,0.012        c-0.543,0.069-1.04-0.316-1.108-0.859c-0.061-0.482,0.234-0.926,0.681-1.069c0,0,0.528-0.17,1.471-0.436        c0.472-0.121,1.048-0.222,1.711-0.361c0.655-0.104,1.44-0.227,2.226-0.295c0.772-0.084,1.693-0.15,2.638-0.172        c0.952-0.014,1.959,0.006,2.999,0.114c1.041,0.085,2.113,0.262,3.19,0.508c1.075,0.257,2.166,0.561,3.214,0.999        c1.06,0.405,2.07,0.948,3.041,1.517c0.943,0.622,1.855,1.269,2.633,2.025c0.405,0.342,0.776,0.785,1.139,1.18        c0.361,0.417,0.559,0.707,0.915,1.161c0.564,0.838,1.056,1.666,1.376,2.494c0.358,0.811,0.539,1.609,0.669,2.308        c0.12,0.706,0.179,1.307,0.185,1.841c0.028,0.543-0.016,0.891-0.032,1.138c-0.018,0.248-0.027,0.379-0.027,0.379        c-0.039,0.548-0.515,0.961-1.063,0.922C759.794,1524.595,759.405,1524.191,759.375,1523.701z"
   id="path4877" />
					</g>
					<g
   id="g4879">
						<path
   fill="none"
   d="M714.862,1601.408"
   id="path4881" />
					</g>
				</g>
				<g
   display="none"
   id="g4883">
					<path
   display="inline"
   fill="none"
   d="M714.9,1600.458"
   id="path4885" />
				</g>
				<g
   display="none"
   id="g4887">
					<path
   display="inline"
   fill="none"
   d="M714.9,1600.458"
   id="path4889" />
				</g>
				<g
   display="none"
   id="g4891">
					<path
   display="inline"
   fill="none"
   d="M714.9,1600.458"
   id="path4893" />
				</g>
				<g
   display="none"
   id="g4895">
					<path
   display="inline"
   fill="none"
   d="M714.9,1600.458"
   id="path4897" />
				</g>
				<g
   display="none"
   id="g4899">
					<path
   display="inline"
   fill="none"
   d="M714.9,1600.458"
   id="path4901" />
				</g>
				<path
   fill="#9D8E38"
   d="M680.233,1575.8c0,0,12.694,3.011,6.825,16.7C680.758,1590.611,676.521,1585.012,680.233,1575.8z"
   id="path4903" />
				<path
   fill="#9D8E38"
   d="M689.135,1576.897c0,0,12.693,3.01,6.824,16.7C689.659,1591.708,685.422,1586.109,689.135,1576.897z"
   id="path4905" />
				<path
   fill="#9D8E38"
   d="M704.028,1577.237c0,0,12.693,3.01,6.825,16.7C704.553,1592.048,700.315,1586.45,704.028,1577.237z"
   id="path4907" />
				<path
   fill="#9D8E38"
   d="M720.271,1574.897c0,0,12.693,3.01,6.825,16.7C720.795,1589.708,716.558,1584.11,720.271,1574.897z"
   id="path4909" />
				<path
   fill="#9D8E38"
   d="M742.688,1560.875c0,0,12.693,3.011,6.825,16.701C743.213,1575.687,738.976,1570.088,742.688,1560.875z"
   id="path4911" />
				<path
   fill="#9D8E38"
   d="M752.605,1548.845c0,0,12.693,3.01,6.824,16.7C753.129,1563.655,748.892,1558.057,752.605,1548.845z"
   id="path4913" />
				<path
   fill="#9D8E38"
   d="M658.97,1568.341c0,0,1.488,12.96-13.382,12.1C645.222,1573.873,649.044,1567.984,658.97,1568.341z"
   id="path4915" />
				<path
   fill="#9D8E38"
   d="M649.449,1557.778c0,0,1.488,12.96-13.382,12.099C635.701,1563.31,639.523,1557.421,649.449,1557.778z"
   id="path4917" />
				<path
   fill="#9D8E38"
   d="M672.489,1578.316c0,0,1.488,12.961-13.382,12.1C658.741,1583.848,662.563,1577.959,672.489,1578.316z"
   id="path4919" />
			</g>
		</g>
		<g
   opacity="0.8"
   id="g4921">
			<g
   id="g4923">
				<path
   opacity="0.6"
   fill="#BE8A61"
   d="M198.555,1687.83c-0.649-1.629-2.347-2.713-4.696-3.28      c0.852-2.095,0.128-4.139-2.181-5.618c-1.765-1.131-4.335-1.616-7.118-1.55c-0.195-1.116-0.939-2.111-2.503-2.841      c-3.49-1.627-8.864-1.48-13.959-0.331c-1.623,0.366-3.23,0.769-4.744,1.329c-3.372-1.894-5.828-4.85-13.773-1.051      c-0.613,0.294-1.375,0.393-2.036,0.623c-0.024-0.021-0.052-0.04-0.078-0.061c-0.424-0.857-2.19-2.505-3.891-2.615      c-0.66-0.042-1.391-0.009-2.129,0.087c-0.96-0.076-1.977,0.002-2.946,0.214c-2.011,0.246-3.581,2.086-4.407,3.234      c-0.231,0.322-0.415,0.638-0.563,0.951c-1.237,0.05-3.323-0.913-4.631-0.929c-3.104-0.037-5.335,0.133-8.047,1.315      c-1.347,0.587-3.196,2.57-4.017,3.374c-0.274,0.268-1.732,2.767-1.675,2.758c0,0-6.173,0.953-8.367,1.725      c-2.251,0.793-4.163,1.804-5.46,3.059c-1.022,0.988-1.246,2.049-1.19,3.042c-1.996,0.505-3.904,1.151-5.572,1.93      c-2.852,1.006-5.046,2.457-6.526,4.145c-2.456,2.799-2.004,5.496,0.39,7.438c-0.442,0.307-0.848,0.637-1.214,0.99      c-1.681,1.626-1.006,3.253,0.465,4.411c0.87,0.685,2.122,1.214,3.581,1.615c-1.888,1.674-2.652,3.498-1.245,5.175      c1.057,1.261,4.332,1.825,7.452,1.024c-2.147,2.607,0.269,3.217,2.864,3.494c1.109,1.218,3.165,2.125,6.239,2.434      c1.914,0.192,3.978,0.086,5.992-0.264c1.052,1.018,2.698,1.818,4.908,2.218c4.766,0.862,10.834-0.611,15.063-2.816      c0.409-0.213,0.8-0.434,1.179-0.657c1.993,0.603,4.467,0.856,7.035,0.864c6.577,0.024,13.75-2.179,17.721-5.344      c7.639,0.201,17.146-2.629,19.505-6.688c3.742-0.825,7.312-2.302,9.903-4.008c1.923-1.267,2.997-3.041,2.566-4.389      c-0.014-0.042-0.035-0.082-0.05-0.124c5.807-3.002,9.26-7.736,6.443-10.373C198.406,1690.905,199.154,1689.336,198.555,1687.83z      "
   id="path4925" />
				<path
   fill="#8A6441"
   stroke="#6C482F"
   stroke-width="2.979"
   stroke-miterlimit="10"
   d="M109.523,1706.256      c0,0,20.637-26.459,4.833-86.982c9.823-1.743,26.578-7.249,26.578-7.249s11.9,72.038,35.006,82.907      c-6.335,3.071-15.414,2.352-22.733,0.931c-1.016,8.736-8.171,15.301-8.171,15.301s-8.748-5.255-12.579-10.78      C126.996,1704.13,119.133,1707.554,109.523,1706.256z"
   id="path4927" />
				<path
   fill="#6C482F"
   d="M145.71,1660.752c-3.716,1.217-6.991,3.881-10.617,5.433c-3.449,1.476-7.261,1.806-10.944,1.247      c-6.283-0.952-8.295,8.672-2.435,10.714c5.349,1.865,10.616,1.855,16.098,0.478c4.94-1.241,11.227-3.439,14.792-7.224      C157.731,1665.957,152.679,1658.47,145.71,1660.752z"
   id="path4929" />
				<path
   fill="#9D8E38"
   d="M197.583,1602.018c-1.125-3.718-3.549-6.397-6.751-8.042c0.785-4.503-0.508-9.155-3.805-12.815      c-2.52-2.798-6-4.293-9.672-4.603c-0.441-2.506-1.589-4.837-3.778-6.709c-4.884-4.18-11.969-4.734-18.522-3.019      c-2.087,0.546-4.147,1.174-6.059,2.17c-4.771-4.752-8.505-11.71-18.394-4.588c-0.763,0.55-1.754,0.646-2.591,1.046      c-0.036-0.049-0.075-0.096-0.112-0.144c-0.703-1.973-3.309-5.913-5.577-6.438c-0.88-0.203-1.842-0.248-2.803-0.155      c-1.283-0.327-2.615-0.319-3.864-0.011c-2.621,0.218-4.395,4.04-5.301,6.452c-0.253,0.676-0.445,1.347-0.59,2.016      c-1.629-0.093-4.546-2.57-6.279-2.818c-4.113-0.589-7.038-0.578-10.432,1.598c-1.685,1.081-3.807,5.177-4.762,6.823      c-0.319,0.551-1.838,5.852-1.764,5.841c0,0-8.011,1.104-10.788,2.455c-2.848,1.388-5.212,3.317-6.723,5.888      c-1.189,2.025-1.312,4.338-1.077,6.55c-2.559,0.792-4.976,1.915-7.056,3.367c-3.609,1.761-6.275,4.62-7.957,8.12      c-2.79,5.803-1.751,11.857,1.735,16.554c-0.534,0.61-1.018,1.273-1.444,1.998c-1.958,3.331-0.798,7.047,1.338,9.856      c1.263,1.661,3.006,3.04,5.002,4.169c-2.223,3.403-2.936,7.321-0.799,11.271c1.605,2.967,6.03,4.755,10.028,3.49      c-2.414,5.43,0.883,7.18,4.361,8.219c1.667,2.882,4.536,5.23,8.653,6.418c2.564,0.739,5.278,0.842,7.885,0.397      c1.559,2.428,3.868,4.472,6.857,5.72c6.447,2.693,14.234,0.421,19.468-3.776c0.506-0.405,0.987-0.828,1.452-1.263      c2.735,1.66,6.05,2.627,9.45,3.068c8.706,1.13,17.834-2.581,22.571-8.945c10.139,1.697,22.255-3.021,24.711-11.638      c4.815-1.215,9.297-3.905,12.446-7.265c2.336-2.493,3.467-6.252,2.676-9.309c-0.025-0.098-0.059-0.189-0.087-0.285      c7.192-5.705,10.985-15.637,6.825-21.946C197.892,1608.815,198.624,1605.454,197.583,1602.018z"
   id="path4931" />
				<g
   id="g4933">
					<path
   fill="#8A7C36"
   d="M189.445,1593.34c-3.724-4.574-13.518,0.979-10.626,7.683c-0.064,1.274-0.402,3.45-0.57,3.853       c-1.097,2.628-0.847,5.215,0.411,7.632c0.167,0.323,0.312,0.584,0.44,0.805c-0.404,1.267-1.005,2.52-1.599,3.722       c-0.92,1.862-2.366,3.572-3.605,5.287c-1.656,2.293-2.281,4.773-2.849,7.377c-0.254,1.168-0.803,1.882-2.057,2.896       c-0.779,0.628-0.797,0.565-1.716,0.985c0.32-0.146-1.336,0.034-0.468,0.233c-4.302-0.986-7.974,0.645-9.973,4.236       c-0.929,1.669-1.458,3.653-2.54,5.008c-0.978,1.223-3.822,1.91-5.35,2.283c-2.5,0.608-5.078,0.282-7.62,0.547       c-3.005,0.314-5.457,1.572-7.779,3.308c-3.333,2.489-4.407,5.188-8.913,3.938c-4.839-1.343-9.46-4.039-14.861-2.524       c-2.439,0.683-4.496,1.728-6.365,3.32c-0.527,0.449-1.022,0.934-1.533,1.397c-0.173,0.158-1.018,0.732-1.413,1.031       c-0.292,0.092-0.741,0.277-0.521,0.273c-0.298,0.005-0.474,0.022-0.575,0.041c-0.027-0.058-0.138-0.156-0.429-0.316       c-1.379-0.757-1.984-1.472-3.473-2.673c-3.717-2.997-7.326-4.335-12.31-5.156c-2.137-0.353-2-0.249-4.026-0.883       c0.857,0.269,0.123-0.117-0.133-0.141c-0.004-0.093-0.014-0.203-0.038-0.35c-0.357-2.189-0.028-1.312-2.205-2.124       c-0.01-0.085-0.025-0.17-0.034-0.254c-0.195-1.898-1.196-3.598-2.978-4.678c-1.308-0.792-2.731-0.994-4.262-1.147       c0.032-0.123,0.068-0.259,0.113-0.423c1.559-5.69-8.229-4.633-10.214-1.168c-2.236,3.903-3.577,8.984,0.145,12.358       c1.561,1.414,3.136,2.38,5.029,3.229c0.267,0.975,2.907-0.992,3.324-0.104c0.831,1.772,0.513,6.725,4.662,7.802       c1.752,2.763,3.526,4.241,5.506,4.697c2.313,0.531,4.712,0.984,7.06,1.369c-1.157-0.189,1.333,0.33,1.583,0.399       c-1.047-0.293,1.803,1.208,1.454,0.92c4.145,3.421,7.693,6.444,13.728,6.948c6.118,0.511,10.668-2.609,14.881-6.124       c0.682,0.22,1.564,0.539,2.042,0.711c2.896,1.046,5.65,1.832,8.745,2.39c7.311,1.316,13.58-2.545,18.546-6.975       c0.259-0.229,0.527-0.45,0.801-0.664c-0.188,0.056-0.374,0.055-0.558-0.03c0.21-0.01,0.419-0.015,0.628-0.021       c0.217-0.167,2.305-1.927,2.53-2.085c-0.198,0.239-2.264,1.988-2.457,2.082c1.575-0.053,1.633-1.819,3.214-1.916       c3.381-0.209,8.19,0.512,11.321-0.697c3.477-1.342,6.268-3.548,8.78-6.013c1.068-1.048,1.793-2.344,2.421-3.691       c7.632-1.294,14.606-6.604,16.569-13.521c0.438-1.546,0.554-3.268,1.386-4.411c1.769-2.432,3.41-4.885,4.855-7.474       c1.378-2.47,2.246-5.281,2.718-7.957c0.406-2.301-0.283-4.148-1.167-5.99c0.277-0.932,0.488-1.833,0.671-2.779       c0.419-2.163,0.378-4.312,0.275-6.478C197.852,1598.751,192.41,1596.98,189.445,1593.34z"
   id="path4935" />
					<path
   fill="#707936"
   d="M146.882,1664.315c0.048-0.014,0.096-0.031,0.145-0.055c-0.025,0.001-0.049,0.001-0.074,0.003       C146.93,1664.281,146.905,1664.298,146.882,1664.315z"
   id="path4937" />
				</g>
				<g
   id="g4939">
					<g
   id="g4941">
						<path
   fill="#8A7C36"
   d="M188.585,1632.928c0,0,0.267-0.289,0.752-0.773c0.25-0.241,0.544-0.535,0.817-0.873        c0.282-0.35,0.626-0.686,0.964-1.139c0.337-0.444,0.732-0.896,1.083-1.426c0.182-0.259,0.369-0.525,0.56-0.797        c0.176-0.281,0.355-0.569,0.537-0.861c0.387-0.571,0.673-1.224,1.038-1.844c0.29-0.655,0.626-1.305,0.863-1.988        c0.287-0.669,0.471-1.363,0.674-2.041c0.143-0.684,0.343-1.358,0.391-2.017c0.105-0.66,0.12-1.292,0.136-1.896        c0.015-0.303-0.04-0.587-0.047-0.87c-0.022-0.28-0.017-0.559-0.082-0.809c-0.109-0.504-0.146-0.994-0.3-1.386        c-0.132-0.399-0.206-0.773-0.358-1.037c-0.254-0.554-0.39-0.887-0.39-0.887l-0.061-0.15c-0.204-0.505,0.04-1.081,0.545-1.286        c0.432-0.175,0.915-0.021,1.174,0.342c0,0,0.249,0.348,0.664,0.986c0.229,0.31,0.392,0.74,0.624,1.219        c0.252,0.476,0.404,1.051,0.589,1.68c0.108,0.313,0.143,0.648,0.205,0.993c0.05,0.345,0.132,0.706,0.145,1.075        c0.031,0.738,0.084,1.524-0.013,2.319c-0.034,0.807-0.216,1.608-0.37,2.43c-0.222,0.8-0.434,1.62-0.75,2.396        c-0.265,0.8-0.673,1.53-1.016,2.277c-0.412,0.707-0.783,1.425-1.246,2.05c-0.221,0.319-0.439,0.632-0.652,0.939        c-0.237,0.289-0.468,0.57-0.694,0.845c-0.434,0.562-0.918,1.029-1.347,1.472c-0.41,0.452-0.884,0.818-1.264,1.152        c-0.39,0.349-0.725,0.595-1,0.792c-0.555,0.403-0.881,0.623-0.881,0.622c-0.459,0.308-1.08,0.184-1.387-0.275        C188.226,1633.771,188.279,1633.26,188.585,1632.928z"
   id="path4943" />
					</g>
					<g
   id="g4945">
						<path
   fill="#8A7C36"
   d="M149.609,1661.193c0,0,0.462,0.025,1.271,0.071c0.202,0.014,0.425,0.03,0.668,0.047        c0.229-0.003,0.476-0.006,0.739-0.009c0.528-0.006,1.11-0.001,1.778-0.061c0.329-0.021,0.673-0.043,1.028-0.066        c0.354-0.026,0.718-0.095,1.094-0.135c0.753-0.07,1.534-0.234,2.34-0.394c0.407-0.061,0.808-0.183,1.218-0.284        c0.406-0.115,0.829-0.193,1.234-0.338c0.408-0.134,0.82-0.269,1.233-0.403c0.416-0.127,0.808-0.318,1.214-0.474        c0.405-0.158,0.807-0.322,1.186-0.527c0.385-0.192,0.778-0.368,1.153-0.565c0.725-0.435,1.459-0.835,2.098-1.314        c0.684-0.43,1.228-0.967,1.803-1.42c0.269-0.244,0.5-0.508,0.742-0.748c0.237-0.244,0.482-0.47,0.661-0.727        c0.382-0.495,0.771-0.933,1.015-1.379c0.262-0.436,0.54-0.8,0.661-1.146c0.298-0.669,0.496-1.053,0.496-1.053l0.073-0.141        c0.25-0.485,0.846-0.675,1.331-0.426c0.413,0.214,0.612,0.679,0.506,1.111c0,0-0.118,0.484-0.372,1.334        c-0.1,0.438-0.354,0.907-0.602,1.475c-0.224,0.585-0.625,1.149-1.034,1.79c-0.194,0.331-0.447,0.629-0.712,0.938        c-0.266,0.307-0.526,0.642-0.825,0.951c-0.62,0.591-1.267,1.239-2.027,1.775c-0.722,0.599-1.558,1.064-2.387,1.573        c-0.861,0.437-1.727,0.916-2.649,1.242c-0.903,0.382-1.834,0.671-2.755,0.938c-0.458,0.145-0.928,0.219-1.383,0.329        c-0.458,0.098-0.907,0.214-1.359,0.269c-0.901,0.131-1.77,0.255-2.603,0.288c-0.829,0.077-1.617,0.062-2.342,0.046        c-0.718,0.013-1.403-0.085-2-0.142c-0.298-0.031-0.577-0.061-0.834-0.088c-0.24-0.044-0.46-0.084-0.66-0.12        c-0.794-0.158-1.249-0.249-1.249-0.249c-0.539-0.107-0.889-0.631-0.782-1.17        C148.674,1661.5,149.121,1661.166,149.609,1661.193z"
   id="path4947" />
					</g>
					<g
   id="g4949">
						<path
   fill="#8A7C36"
   d="M90.501,1666.809c0,0,0.079,0.096,0.227,0.276c0.146,0.164,0.37,0.479,0.633,0.749        c0.259,0.284,0.578,0.628,1.001,1.004c0.196,0.197,0.433,0.377,0.674,0.573c0.233,0.206,0.493,0.404,0.776,0.594        c0.271,0.205,0.568,0.397,0.885,0.581c0.305,0.202,0.637,0.383,0.985,0.555c0.337,0.191,0.71,0.337,1.084,0.498l0.28,0.124        l0.036,0.016c-0.023-0.009,0.064,0.026-0.051-0.02l0.01,0.004l0.02,0.007l0.081,0.028l0.162,0.056        c0.216,0.074,0.434,0.149,0.654,0.226l0.328,0.109l0.294,0.069c0.195,0.047,0.393,0.095,0.591,0.144        c0.399,0.098,0.853,0.152,1.281,0.235c0.443,0.039,0.887,0.092,1.337,0.113c0.453-0.009,0.904,0.042,1.36,0.007        c0.455-0.023,0.911-0.029,1.364-0.097c0.455-0.044,0.906-0.107,1.351-0.199c0.895-0.143,1.766-0.373,2.597-0.631        c1.667-0.511,3.167-1.194,4.402-1.869c0.62-0.333,1.173-0.671,1.657-0.979c0.239-0.16,0.462-0.31,0.668-0.448        c0.038-0.024,0.135-0.093,0.12-0.078l0.145-0.113c0.095-0.074,0.185-0.145,0.271-0.211c0.693-0.525,1.09-0.826,1.09-0.826        c0.438-0.332,1.062-0.246,1.395,0.192c0.304,0.402,0.257,0.961-0.091,1.307l-0.003,0.003c0,0-0.353,0.351-0.969,0.965        c-0.078,0.075-0.161,0.155-0.247,0.239l-0.132,0.128c-0.06,0.051-0.121,0.104-0.184,0.157        c-0.211,0.177-0.439,0.368-0.683,0.572c-0.499,0.394-1.062,0.847-1.728,1.262c-1.31,0.865-2.943,1.729-4.808,2.394        c-0.934,0.324-1.918,0.619-2.946,0.82c-0.511,0.112-1.034,0.19-1.564,0.249c-0.525,0.081-1.062,0.1-1.598,0.131        c-0.534,0.043-1.076,0.002-1.611-0.005c-0.536-0.032-1.07-0.099-1.599-0.156c-0.529-0.104-1.041-0.174-1.568-0.311        c-0.264-0.076-0.527-0.151-0.788-0.227c-0.269-0.074-0.516-0.153-0.719-0.24c-0.216-0.084-0.432-0.168-0.645-0.25l-0.16-0.062        l-0.079-0.03l-0.1-0.039l-0.042-0.021l-0.332-0.16c-0.44-0.212-0.868-0.423-1.262-0.674c-0.403-0.231-0.785-0.473-1.136-0.735        c-0.362-0.244-0.691-0.51-0.995-0.778c-0.314-0.255-0.6-0.517-0.855-0.782c-0.26-0.261-0.505-0.507-0.71-0.764        c-0.429-0.484-0.776-0.959-1.054-1.356c-0.298-0.395-0.416-0.675-0.55-0.881c-0.118-0.202-0.18-0.31-0.18-0.31        c-0.277-0.476-0.116-1.085,0.359-1.362C89.658,1666.33,90.196,1666.437,90.501,1666.809z"
   id="path4951" />
					</g>
					<g
   id="g4953">
						<path
   fill="#8A7C36"
   d="M69.451,1653.404c0-0.001-0.029,0.178-0.1,0.48c-0.035,0.152-0.079,0.336-0.138,0.544        c-0.061,0.216-0.062,0.393-0.111,0.611c-0.045,0.211-0.081,0.438-0.095,0.676c-0.009,0.116-0.031,0.242-0.034,0.356        c0.002,0.108,0.004,0.219,0.007,0.331c-0.012,0.119,0.018,0.21,0.04,0.3c0.019,0.09,0.01,0.198,0.056,0.262        c0.043,0.161,0.131,0.277,0.214,0.417c0.066,0.062,0.105,0.134,0.177,0.201c0.084,0.064,0.162,0.132,0.243,0.202        c0.198,0.136,0.399,0.278,0.647,0.397c0.232,0.127,0.491,0.249,0.737,0.36c0.26,0.113,0.506,0.22,0.732,0.318        c0.464,0.201,0.876,0.38,1.159,0.52c0.286,0.14,0.446,0.227,0.446,0.227c0.493,0.267,0.676,0.883,0.41,1.375        c-0.194,0.357-0.571,0.552-0.952,0.53l-0.027-0.002c0,0-0.176-0.011-0.478-0.04c-0.304-0.035-0.737-0.079-1.279-0.181        c-0.265-0.048-0.569-0.106-0.884-0.189c-0.319-0.092-0.663-0.174-1.025-0.325c-0.359-0.135-0.744-0.332-1.133-0.559        c-0.192-0.139-0.385-0.289-0.574-0.44c-0.187-0.164-0.363-0.372-0.537-0.564c-0.333-0.421-0.584-0.925-0.716-1.434        c-0.093-0.257-0.103-0.497-0.131-0.741c-0.022-0.244-0.037-0.484-0.005-0.693c0.022-0.216,0.045-0.427,0.067-0.634        c0.035-0.199,0.098-0.372,0.145-0.551c0.051-0.174,0.102-0.344,0.15-0.508c0.069-0.155,0.136-0.305,0.2-0.448        c0.129-0.275,0.25-0.566,0.37-0.737c0.114-0.182,0.222-0.338,0.311-0.466c0.178-0.256,0.29-0.398,0.291-0.398l0.003-0.004        c0.352-0.443,0.996-0.518,1.439-0.167C69.379,1652.671,69.51,1653.048,69.451,1653.404z"
   id="path4955" />
					</g>
					<g
   id="g4957">
						<path
   fill="#9D8E38"
   d="M55.068,1622.611c0,0-0.13,0.27-0.38,0.727c-0.126,0.228-0.279,0.504-0.455,0.821l-0.033,0.06        l-0.002,0.004c-0.016,0.027,0.133-0.221,0.069-0.114l-0.003,0.008l-0.006,0.016l-0.013,0.033l-0.054,0.131        c-0.037,0.089-0.074,0.181-0.113,0.275c-0.098,0.205-0.12,0.339-0.171,0.5c-0.094,0.307-0.18,0.723-0.23,1.121        c-0.048,0.409-0.051,0.843-0.018,1.295c0.03,0.453,0.134,0.918,0.248,1.393c0.133,0.473,0.294,0.951,0.514,1.418        c0.2,0.473,0.449,0.933,0.72,1.374c0.14,0.218,0.271,0.44,0.419,0.649l0.107,0.159l0.027,0.04l0.007,0.01l0.003,0.005        c0.052,0.064-0.066-0.082-0.053-0.065l0.017,0.021l0.067,0.083l0.266,0.325c0.354,0.427,0.684,0.881,0.99,1.146        c0.321,0.302,0.56,0.623,0.898,0.885c0.315,0.266,0.595,0.525,0.846,0.756c0.271,0.208,0.509,0.391,0.704,0.54        c0.391,0.304,0.609,0.49,0.609,0.49l0.068,0.058c0.418,0.357,0.469,0.986,0.112,1.405c-0.292,0.342-0.767,0.437-1.158,0.266        c0,0-0.285-0.124-0.775-0.366c-0.245-0.125-0.542-0.276-0.882-0.45c-0.328-0.201-0.701-0.428-1.099-0.693        c-0.403-0.234-0.826-0.62-1.27-0.99c-0.483-0.386-0.831-0.769-1.204-1.181l-0.284-0.309l-0.071-0.078l-0.019-0.02        l-0.074-0.093l-0.036-0.047l-0.144-0.188c-0.195-0.247-0.381-0.509-0.557-0.782c-0.351-0.544-0.679-1.123-0.954-1.736        c-0.547-1.222-0.891-2.583-0.905-3.902c-0.012-0.327,0.014-0.655,0.034-0.971c0.052-0.316,0.079-0.627,0.155-0.922        c0.134-0.603,0.31-1.119,0.557-1.631c0.121-0.249,0.243-0.517,0.35-0.663c0.139-0.21,0.271-0.409,0.395-0.596        c0.232-0.278,0.435-0.521,0.602-0.72c0.336-0.398,0.541-0.617,0.541-0.617c0.378-0.406,1.014-0.429,1.419-0.051        C55.179,1621.745,55.254,1622.225,55.068,1622.611z"
   id="path4959" />
					</g>
					<g
   id="g4961">
						<path
   fill="#9D8E38"
   d="M86.667,1579.604c0,0-1.622,0.379-4.055,0.946c-0.603,0.147-1.255,0.306-1.945,0.475        c-0.672,0.189-1.408,0.364-2.115,0.588c-0.355,0.11-0.716,0.222-1.082,0.335c-0.32,0.133-0.645,0.268-0.973,0.404        c-0.025,0.008-0.12,0.049-0.086,0.031l-0.138,0.073l-0.275,0.146l-0.554,0.294l-0.959,0.584        c-0.633,0.438-1.261,0.877-1.817,1.375c-0.554,0.499-1.077,1.01-1.518,1.556c-0.228,0.268-0.443,0.538-0.623,0.823        c-0.098,0.138-0.194,0.274-0.29,0.409l-0.018,0.025c0.073-0.134,0.018-0.033,0.033-0.061l-0.004,0.008l-0.008,0.015        l-0.034,0.061l-0.068,0.12l-0.134,0.238c-0.21,0.344-0.263,0.549-0.377,0.789c-0.105,0.236-0.183,0.528-0.275,0.775        c-0.139,0.528-0.234,1.03-0.305,1.488c-0.051,0.462-0.091,0.872-0.095,1.216c-0.026,0.686-0.025,1.091-0.025,1.091l0,0.035        c0.001,0.549-0.442,0.997-0.992,0.999c-0.492,0.001-0.902-0.354-0.983-0.823c0,0-0.02-0.11-0.056-0.315        c-0.031-0.206-0.102-0.505-0.131-0.9c-0.049-0.391-0.073-0.875-0.088-1.438c0.009-0.284,0.019-0.587,0.028-0.906        c0.033-0.321,0.082-0.66,0.131-1.014c0.087-0.356,0.14-0.712,0.273-1.112c0.137-0.391,0.297-0.86,0.449-1.145l0.116-0.247        l0.059-0.125l0.029-0.062l0.052-0.1l0.02-0.033c0.106-0.176,0.214-0.354,0.323-0.535c0.213-0.366,0.464-0.714,0.731-1.061        c0.517-0.707,1.139-1.365,1.813-1.975c0.673-0.612,1.406-1.167,2.17-1.664c0.397-0.239,0.812-0.488,1.203-0.708l0.557-0.287        l0.278-0.143l0.138-0.071c0.127-0.061,0.13-0.055,0.202-0.085c0.444-0.165,0.884-0.328,1.319-0.489        c0.415-0.112,0.824-0.222,1.226-0.33c0.806-0.221,1.57-0.333,2.3-0.493c0.726-0.125,1.416-0.23,2.049-0.323        c1.27-0.173,2.329-0.267,3.072-0.341c0.75-0.062,1.17-0.081,1.17-0.081l0.009,0c0.55-0.024,1.016,0.403,1.039,0.953        C87.457,1579.078,87.125,1579.498,86.667,1579.604z"
   id="path4963" />
					</g>
					<g
   id="g4965">
						<path
   fill="#9D8E38"
   d="M148.112,1569.452c0,0-0.054-0.084-0.153-0.241c-0.097-0.156-0.25-0.399-0.423-0.654        c-0.343-0.532-0.907-1.296-1.629-2.102c-0.729-0.806-1.653-1.654-2.764-2.317c-1.11-0.661-2.397-1.136-3.756-1.292        c-0.677-0.086-1.369-0.114-2.058-0.084c-0.691,0.02-1.381,0.098-2.049,0.22c-1.343,0.228-2.593,0.647-3.628,1.104        c-0.13,0.057-0.257,0.112-0.381,0.167l-0.093,0.041l-0.046,0.02l-0.023,0.01l-0.006,0.002        c-0.058,0.033,0.072-0.042,0.057-0.033l-0.011,0.006l-0.178,0.103c-0.254,0.157-0.265,0.177-0.481,0.35        c-0.336,0.273-0.65,0.577-0.94,0.82c-0.287,0.245-0.549,0.452-0.764,0.583c-0.226,0.129-0.347,0.199-0.347,0.199        c-0.474,0.271-1.077,0.108-1.349-0.366c-0.267-0.465-0.113-1.057,0.342-1.335l0.15-0.092c0,0,0.05-0.03,0.145-0.087        c0.099-0.064,0.274-0.187,0.504-0.401c0.251-0.239,0.556-0.529,0.906-0.863c0.145-0.146,0.527-0.461,0.73-0.591l0.17-0.116        l0.252-0.146c0.129-0.074,0.262-0.149,0.396-0.226c1.087-0.604,2.416-1.242,3.955-1.734c0.774-0.227,1.598-0.417,2.461-0.524        c0.864-0.097,1.764-0.092,2.657,0.02c1.788,0.228,3.53,0.901,4.916,1.846c1.398,0.933,2.453,2.079,3.209,3.119        c0.771,1.042,1.231,1.982,1.561,2.659c0.173,0.345,0.257,0.592,0.33,0.765c0.069,0.173,0.106,0.265,0.106,0.265        c0.205,0.512-0.043,1.092-0.554,1.297C148.873,1570.026,148.364,1569.851,148.112,1569.452z"
   id="path4967" />
					</g>
					<g
   id="g4969">
						<path
   fill="#9D8E38"
   d="M189.846,1593.86c0,0-0.001-0.391,0.025-1.07c0.007-0.17,0.015-0.358,0.023-0.563        c0.002-0.199-0.031-0.384-0.045-0.597c-0.018-0.208-0.037-0.428-0.057-0.661c-0.002-0.228-0.041-0.479-0.094-0.743        c-0.103-0.522-0.154-1.095-0.345-1.673c-0.08-0.292-0.162-0.59-0.246-0.896c-0.114-0.296-0.23-0.598-0.349-0.905        c-0.199-0.628-0.577-1.205-0.862-1.832c-0.16-0.306-0.373-0.585-0.557-0.883c-0.195-0.291-0.365-0.599-0.599-0.865        l-0.657-0.828l-0.082-0.104l-0.041-0.052l-0.02-0.026l-0.01-0.013c-0.013-0.014,0.096,0.102,0.047,0.05l-0.006-0.007        l-0.203-0.206l-0.403-0.409c-0.134-0.131-0.267-0.283-0.394-0.4l-0.362-0.302c-0.246-0.199-0.454-0.415-0.74-0.591        c-0.268-0.187-0.531-0.37-0.788-0.549c-0.274-0.157-0.542-0.311-0.803-0.461c-0.254-0.164-0.536-0.26-0.79-0.391        c-0.261-0.115-0.501-0.259-0.757-0.338c-0.504-0.17-0.953-0.384-1.38-0.486c-0.422-0.116-0.787-0.249-1.101-0.296        c-0.622-0.129-0.98-0.218-0.98-0.218l-0.091-0.022c-0.533-0.131-0.858-0.669-0.727-1.202c0.113-0.459,0.53-0.765,0.984-0.755        c0,0,0.41,0.008,1.134,0.048c0.364,0.007,0.797,0.094,1.301,0.161c0.507,0.055,1.063,0.209,1.674,0.364        c0.31,0.066,0.612,0.201,0.937,0.308c0.32,0.119,0.661,0.22,0.985,0.391c0.33,0.159,0.668,0.323,1.014,0.489        c0.335,0.189,0.667,0.402,1.007,0.616c0.342,0.195,0.678,0.484,1.021,0.748l0.515,0.409c0.155,0.135,0.28,0.263,0.419,0.398        l0.409,0.403l0.206,0.203l0.066,0.069l0.013,0.015l0.025,0.03l0.05,0.061l0.1,0.122l0.801,0.979        c0.284,0.315,0.491,0.689,0.719,1.043c0.218,0.361,0.462,0.706,0.651,1.078c0.354,0.757,0.755,1.48,0.969,2.252        c0.124,0.377,0.245,0.75,0.364,1.113c0.074,0.376,0.146,0.744,0.216,1.102c0.172,0.708,0.183,1.402,0.226,2.032        c0.072,0.618-0.02,1.244-0.047,1.764c-0.023,0.259-0.031,0.518-0.065,0.725c-0.039,0.201-0.074,0.386-0.106,0.553        c-0.131,0.668-0.222,1.047-0.222,1.047c-0.129,0.538-0.668,0.869-1.205,0.741        C190.156,1594.721,189.848,1594.312,189.846,1593.86z"
   id="path4971" />
					</g>
				</g>
				<g
   id="g4973">
					
						<path
   fill="none"
   stroke="#9D8E38"
   stroke-width="2.979"
   stroke-linecap="round"
   stroke-linejoin="round"
   stroke-miterlimit="10"
   d="       M149.483,1662.179"
   id="path4975" />
					<g
   id="g4977">
						<path
   fill="#8A7C36"
   d="M195.192,1611.246c0,0,0.126-0.306,0.364-0.829c0.14-0.269,0.239-0.565,0.346-0.893        c0.057-0.165,0.117-0.34,0.181-0.524c0.045-0.199,0.104-0.403,0.16-0.616c0.14-0.421,0.184-0.896,0.281-1.382        c0.055-0.243,0.041-0.5,0.068-0.756c0.015-0.258,0.048-0.52,0.026-0.787c-0.007-0.266-0.015-0.536-0.023-0.81        c-0.039-0.271-0.08-0.544-0.12-0.82c-0.017-0.279-0.111-0.549-0.174-0.824l-0.102-0.413l-0.025-0.104l-0.007-0.025        l-0.003-0.013c0.046,0.14,0.012,0.035,0.021,0.064l-0.002-0.007l-0.021-0.058l-0.085-0.23l-0.328-0.924        c-0.111-0.294-0.235-0.502-0.347-0.757c-0.197-0.487-0.538-0.973-0.789-1.45c-0.16-0.221-0.317-0.438-0.47-0.65        c-0.141-0.224-0.301-0.426-0.472-0.611c-0.164-0.191-0.323-0.378-0.477-0.559c-0.162-0.173-0.332-0.33-0.488-0.488        c-0.307-0.323-0.622-0.587-0.901-0.824c-0.273-0.246-0.524-0.448-0.748-0.591c-0.434-0.309-0.678-0.503-0.678-0.503        l-0.083-0.067c-0.43-0.342-0.5-0.968-0.158-1.397c0.28-0.352,0.752-0.462,1.149-0.303c0,0,0.324,0.13,0.885,0.391        c0.285,0.122,0.615,0.301,0.985,0.528c0.188,0.11,0.387,0.229,0.598,0.353c0.207,0.131,0.403,0.298,0.621,0.458        c0.212,0.166,0.441,0.331,0.665,0.519c0.21,0.204,0.428,0.414,0.651,0.63c0.471,0.413,0.847,0.96,1.286,1.484        c0.363,0.584,0.79,1.123,1.094,1.828c0.156,0.331,0.347,0.694,0.469,1.008l0.333,0.922l0.081,0.231l0.021,0.059l0.028,0.085        l0.004,0.017l0.008,0.034l0.032,0.135l0.126,0.54c0.079,0.361,0.183,0.714,0.208,1.081c0.035,0.364,0.069,0.725,0.104,1.082        c-0.007,0.358-0.014,0.711-0.021,1.059c0.007,0.349-0.053,0.685-0.104,1.014c-0.06,0.327-0.082,0.654-0.172,0.956        c-0.16,0.608-0.31,1.184-0.533,1.678c-0.103,0.25-0.202,0.49-0.296,0.718c-0.12,0.223-0.234,0.435-0.342,0.633        c-0.216,0.401-0.406,0.738-0.571,0.956c-0.329,0.472-0.527,0.736-0.527,0.736c-0.331,0.442-0.958,0.532-1.401,0.201        C195.144,1612.149,195.022,1611.657,195.192,1611.246z"
   id="path4979" />
					</g>
					<g
   id="g4981">
						<path
   fill="#8A7C36"
   d="M173.917,1649.588c0,0,0.361-0.153,1.002-0.396c0.314-0.123,0.73-0.255,1.117-0.454        c0.403-0.187,0.857-0.397,1.353-0.627c0.49-0.269,1.035-0.527,1.591-0.835c0.539-0.342,1.139-0.644,1.709-1.037        c0.577-0.385,1.174-0.776,1.744-1.224c0.595-0.416,1.139-0.909,1.698-1.383c0.291-0.227,0.539-0.495,0.802-0.745l0.391-0.38        l0.194-0.188l0.049-0.047c0.015-0.018-0.11,0.125-0.055,0.062l0.006-0.007l0.012-0.014l0.023-0.028l0.093-0.11        c0.238-0.293,0.514-0.586,0.728-0.86c0.162-0.253,0.327-0.5,0.495-0.741c0.294-0.548,0.624-1.093,0.812-1.648        c0.248-0.54,0.353-1.087,0.504-1.581c0.055-0.502,0.207-0.969,0.193-1.379c0.021-0.413,0.053-0.78,0.001-1.067        c-0.031-0.286-0.039-0.542-0.048-0.677c-0.037-0.179-0.056-0.275-0.056-0.275c-0.11-0.537,0.236-1.063,0.774-1.173        c0.477-0.098,0.943,0.163,1.12,0.597l0.021,0.051c0,0,0.037,0.091,0.107,0.261c0.062,0.224,0.142,0.498,0.231,0.884        c0.114,0.379,0.15,0.843,0.195,1.381c0.08,0.543,0.004,1.139-0.026,1.802c-0.117,0.641-0.189,1.363-0.452,2.068        c-0.205,0.729-0.531,1.445-0.913,2.191c-0.232,0.372-0.469,0.75-0.708,1.134c-0.239,0.325-0.467,0.605-0.713,0.908        l-0.091,0.112l-0.106,0.124l-0.054,0.055l-0.217,0.218l-0.437,0.438c-0.295,0.289-0.577,0.598-0.898,0.858        c-0.624,0.543-1.258,1.075-1.926,1.535c-0.643,0.499-1.333,0.899-1.994,1.297c-0.651,0.413-1.34,0.708-1.965,1.03        c-0.638,0.299-1.266,0.53-1.834,0.759c-0.581,0.216-1.146,0.369-1.63,0.514c-0.495,0.16-0.888,0.221-1.226,0.299        c-0.67,0.141-1.057,0.206-1.057,0.206c-0.544,0.093-1.061-0.273-1.153-0.818C173.241,1650.21,173.5,1649.765,173.917,1649.588        z"
   id="path4983" />
					</g>
					<g
   id="g4985">
						<path
   fill="#8A7C36"
   d="M117.922,1667.176c0,0,0.507,0.224,1.394,0.614c0.22,0.101,0.464,0.212,0.729,0.333        c0.264,0.109,0.54,0.172,0.838,0.271c0.295,0.092,0.609,0.19,0.94,0.293c0.164,0.055,0.332,0.11,0.504,0.167        c0.185,0.042,0.374,0.085,0.566,0.129c0.385,0.088,0.786,0.18,1.201,0.274c0.41,0.11,0.846,0.178,1.299,0.231        c0.45,0.062,0.912,0.126,1.384,0.19l0.311,0.042l0.378,0.03c0.254,0.021,0.51,0.04,0.769,0.062        c0.538,0.059,0.982,0.028,1.478,0.042c0.478,0.02,0.997-0.027,1.506-0.042c1.023-0.051,2.061-0.179,3.086-0.366        c2.056-0.354,4.062-0.979,5.86-1.751c0.893-0.396,1.751-0.799,2.528-1.248c0.4-0.207,0.766-0.443,1.119-0.675        c0.357-0.225,0.702-0.445,1.009-0.688c0.638-0.455,1.19-0.91,1.68-1.318c0.486-0.412,0.867-0.814,1.207-1.125        c0.623-0.672,0.979-1.056,0.979-1.056l0.044-0.049c0.373-0.402,1.001-0.426,1.403-0.053c0.365,0.338,0.418,0.888,0.146,1.287        c0,0-0.327,0.479-0.935,1.306c-0.337,0.381-0.722,0.873-1.215,1.386c-0.251,0.253-0.519,0.522-0.801,0.806        c-0.282,0.284-0.619,0.535-0.95,0.823c-0.33,0.292-0.696,0.562-1.08,0.838c-0.379,0.282-0.774,0.57-1.203,0.83        c-0.839,0.551-1.762,1.075-2.753,1.537c-1.976,0.944-4.216,1.663-6.515,2.081c-1.15,0.204-2.315,0.33-3.465,0.376        c-0.578,0.016-1.138,0.055-1.726,0.013c-0.57-0.031-1.182-0.033-1.674-0.105c-0.258-0.028-0.513-0.057-0.766-0.085        l-0.377-0.042l-0.095-0.011l-0.049-0.01l-0.096-0.02l-0.193-0.039c-0.511-0.103-1.011-0.203-1.498-0.301        c-0.977-0.158-1.872-0.502-2.707-0.727c-0.208-0.062-0.412-0.122-0.611-0.182c-0.2-0.081-0.395-0.161-0.585-0.239        c-0.376-0.163-0.733-0.317-1.069-0.462c-0.328-0.149-0.657-0.275-0.918-0.417c-0.252-0.147-0.483-0.283-0.692-0.405        c-0.83-0.501-1.304-0.786-1.304-0.786c-0.471-0.284-0.622-0.896-0.338-1.366c0.262-0.434,0.801-0.597,1.253-0.396        L117.922,1667.176z"
   id="path4987" />
					</g>
					<g
   id="g4989">
						<path
   fill="#8A7C36"
   d="M73.981,1660.021c0,0,0.199,0.224,0.526,0.632c0.081,0.102,0.171,0.215,0.268,0.338        c0.099,0.098,0.205,0.202,0.318,0.314c0.232,0.219,0.45,0.476,0.77,0.739c0.305,0.264,0.618,0.563,0.998,0.827        c0.184,0.137,0.372,0.278,0.564,0.422c0.204,0.13,0.413,0.262,0.625,0.396c0.407,0.29,0.894,0.494,1.35,0.757        c0.466,0.247,0.983,0.424,1.471,0.653l0.771,0.267l0.384,0.133l0.095,0.034l0.048,0.017l0.024,0.009l0.012,0.004        c0.078,0.02-0.099-0.025-0.079-0.021l0.007,0.002l0.214,0.05c0.566,0.144,1.125,0.284,1.665,0.421        c0.485,0.072,0.954,0.144,1.398,0.21c0.434,0.094,0.901,0.08,1.31,0.117c0.414,0.011,0.798,0.087,1.136,0.068        c0.341-0.007,0.638-0.013,0.883-0.019c0.493-0.004,0.78,0.006,0.78,0.006l0.118,0.004c0.548,0.019,0.978,0.479,0.959,1.026        c-0.015,0.45-0.329,0.82-0.744,0.928c0,0-0.303,0.078-0.842,0.193c-0.272,0.056-0.601,0.122-0.979,0.199        c-0.379,0.086-0.815,0.097-1.291,0.136c-0.481,0.019-0.983,0.107-1.562,0.043c-0.566-0.039-1.183-0.062-1.792-0.134        c-0.546-0.107-1.111-0.218-1.684-0.331l-0.215-0.046l-0.113-0.029l-0.028-0.01l-0.057-0.018l-0.113-0.037l-0.456-0.147        l-0.916-0.3c-0.594-0.258-1.193-0.503-1.756-0.808c-0.558-0.317-1.115-0.612-1.599-0.994c-0.247-0.181-0.49-0.358-0.728-0.532        c-0.218-0.2-0.432-0.395-0.64-0.585c-0.429-0.364-0.772-0.774-1.087-1.149c-0.329-0.351-0.584-0.763-0.81-1.104        c-0.112-0.172-0.216-0.332-0.313-0.48c-0.072-0.14-0.139-0.268-0.199-0.384c-0.237-0.465-0.36-0.739-0.36-0.739        c-0.227-0.507,0-1.102,0.507-1.328C73.23,1659.588,73.698,1659.702,73.981,1660.021z"
   id="path4991" />
					</g>
					<g
   id="g4993">
						<path
   fill="#8A7C36"
   d="M60.415,1638.08c0,0-0.149,0.335-0.426,0.911c-0.069,0.144-0.146,0.302-0.23,0.475        c-0.055,0.16-0.114,0.333-0.178,0.519c-0.064,0.183-0.133,0.376-0.205,0.58c-0.069,0.205-0.109,0.443-0.173,0.677        c-0.054,0.236-0.131,0.479-0.175,0.734c-0.024,0.259-0.056,0.522-0.092,0.792c-0.016,0.135-0.042,0.271-0.05,0.409        c0.003,0.139,0.007,0.278,0.011,0.42c0.012,0.282-0.002,0.57,0.02,0.86c0.104,0.575,0.138,1.177,0.369,1.755        c0.129,0.601,0.436,1.164,0.695,1.741l0.049,0.107l0.024,0.055l0.012,0.027c-0.08-0.139-0.02-0.034-0.036-0.063l0.004,0.007        l0.009,0.015l0.145,0.232c0.097,0.157,0.193,0.324,0.259,0.388c0.12,0.175,0.321,0.388,0.512,0.599        c0.403,0.405,0.869,0.756,1.345,1.076c0.489,0.305,1.003,0.544,1.509,0.739c0.508,0.19,1.01,0.326,1.483,0.407        c0.474,0.082,0.916,0.106,1.308,0.109c0.393,0.001,0.735-0.027,1.015-0.066c0.286-0.017,0.495-0.098,0.644-0.127        c0.148-0.034,0.223-0.064,0.223-0.064l0.061-0.023c0.514-0.204,1.096,0.048,1.3,0.562c0.204,0.515-0.048,1.097-0.562,1.3        c-0.063,0.025-0.134,0.044-0.199,0.057c0-0.001-0.101,0.017-0.284,0.07c-0.185,0.042-0.447,0.146-0.795,0.219        c-0.345,0.089-0.77,0.173-1.265,0.229c-0.494,0.056-1.057,0.081-1.673,0.057c-0.616-0.021-1.282-0.105-1.979-0.262        c-0.696-0.159-1.411-0.419-2.128-0.761c-0.713-0.353-1.411-0.817-2.052-1.399c-0.304-0.309-0.608-0.616-0.91-1.035        c-0.169-0.215-0.258-0.362-0.35-0.516l-0.141-0.233l-0.058-0.1l-0.016-0.035l-0.032-0.07l-0.064-0.142        c-0.338-0.753-0.703-1.491-0.882-2.304c-0.255-0.783-0.293-1.605-0.377-2.383c-0.017-0.391,0.027-0.776,0.043-1.151        c0.012-0.188,0.024-0.373,0.035-0.556c0.025-0.181,0.068-0.356,0.101-0.53c0.074-0.346,0.146-0.683,0.215-1.009        c0.091-0.317,0.213-0.611,0.312-0.898c0.11-0.285,0.189-0.561,0.32-0.812c0.132-0.25,0.257-0.488,0.375-0.711        c0.119-0.22,0.229-0.426,0.332-0.616c0.109-0.16,0.209-0.308,0.299-0.441c0.367-0.524,0.586-0.818,0.586-0.818        c0.329-0.443,0.954-0.537,1.397-0.209C60.479,1637.154,60.6,1637.661,60.415,1638.08z"
   id="path4995" />
					</g>
					<g
   id="g4997">
						<path
   fill="#9D8E38"
   d="M68.254,1594.456c0,0-0.132,0.055-0.38,0.158c-0.239,0.105-0.631,0.251-1.057,0.444        c-0.43,0.193-0.949,0.424-1.544,0.738c-0.3,0.145-0.608,0.322-0.933,0.505c-0.33,0.174-0.669,0.371-1.014,0.588        c-0.7,0.42-1.431,0.916-2.178,1.469c-0.74,0.562-1.5,1.178-2.229,1.874c-0.739,0.685-1.435,1.456-2.103,2.263        c-0.669,0.809-1.249,1.699-1.789,2.603c-0.539,0.908-0.966,1.871-1.303,2.84c-0.346,0.966-0.604,1.946-0.727,2.91        c-0.132,0.962-0.179,1.905-0.121,2.796c0.036,0.895,0.199,1.73,0.377,2.496c0.197,0.763,0.431,1.453,0.679,2.052        c0.133,0.296,0.256,0.574,0.371,0.832c0.133,0.249,0.255,0.479,0.366,0.686c0.198,0.43,0.462,0.702,0.536,0.958        c0.027,0.136,0.027,0.257-0.002,0.36c-0.016,0.094-0.042,0.156-0.042,0.156l-0.021,0.051        c-0.172,0.412-0.562,0.667-0.979,0.692c0,0-0.067,0.004-0.161-0.017c-0.108-0.01-0.225-0.059-0.35-0.143        c-0.123-0.086-0.213-0.236-0.34-0.398c-0.126-0.162-0.264-0.354-0.404-0.579c-0.145-0.224-0.305-0.471-0.479-0.739        c-0.156-0.282-0.325-0.586-0.505-0.912c-0.344-0.662-0.686-1.438-0.993-2.314c-0.277-0.884-0.539-1.866-0.66-2.933        c-0.152-1.062-0.17-2.205-0.049-3.37c0.107-1.167,0.348-2.36,0.735-3.521c0.388-1.16,0.883-2.302,1.497-3.369        c0.606-1.071,1.3-2.09,2.076-3.008c0.77-0.922,1.581-1.784,2.444-2.523c0.847-0.759,1.721-1.424,2.583-1.996        c0.864-0.571,1.702-1.076,2.51-1.474c0.795-0.419,1.552-0.747,2.232-1.006c0.671-0.269,1.287-0.47,1.792-0.633        c0.505-0.172,0.871-0.241,1.136-0.317c0.26-0.067,0.398-0.103,0.398-0.103c0.532-0.138,1.076,0.183,1.213,0.715        C68.963,1593.774,68.706,1594.27,68.254,1594.456z"
   id="path4999" />
					</g>
					<g
   id="g5001">
						<path
   fill="#9D8E38"
   d="M109.396,1568.101c0,0-0.123-0.04-0.354-0.115c-0.25-0.088-0.582-0.2-0.997-0.371        c-0.825-0.333-1.972-0.81-3.321-1.301c-1.341-0.474-2.941-0.967-4.489-0.961c-0.374,0-0.777,0.044-1.09,0.115        c-0.23,0.056-0.462,0.113-0.696,0.169l-0.607,0.176c-0.846,0.26-1.67,0.615-2.453,1.043c-1.578,0.841-2.938,2.056-4.023,3.367        c-1.082,1.321-1.874,2.748-2.44,4.027c-0.559,1.284-0.915,2.416-1.116,3.221c-0.205,0.804-0.299,1.274-0.299,1.274        l-0.004,0.019c-0.109,0.539-0.633,0.887-1.172,0.778c-0.495-0.1-0.83-0.552-0.795-1.043c0,0,0.009-0.131,0.026-0.376        c0.017-0.246,0.043-0.607,0.107-1.062c0.135-0.909,0.352-2.221,0.877-3.734c0.521-1.51,1.338-3.231,2.57-4.865        c1.228-1.629,2.891-3.153,4.837-4.214c0.97-0.531,2.001-0.947,3.039-1.253c0.259-0.079,0.541-0.147,0.81-0.213        c0.243-0.049,0.484-0.098,0.724-0.146c0.633-0.119,1.185-0.146,1.747-0.131c1.109,0.031,2.104,0.266,3,0.532        c0.896,0.269,1.691,0.602,2.406,0.922c1.425,0.647,2.515,1.289,3.279,1.686c0.369,0.197,0.658,0.352,0.856,0.458        c0.204,0.101,0.312,0.155,0.312,0.155l0.016,0.008c0.492,0.245,0.693,0.842,0.449,1.333        C110.374,1568.045,109.858,1568.252,109.396,1568.101z"
   id="path5003" />
					</g>
					<g
   id="g5005">
						<path
   fill="#9D8E38"
   d="M127.215,1566.053c0,0-0.067-0.07-0.192-0.202c-0.117-0.13-0.328-0.363-0.546-0.637        c-0.427-0.538-1.036-1.306-1.767-2.228c-0.712-0.865-1.562-1.826-2.568-2.419c-0.498-0.3-1.026-0.509-1.591-0.585        c-0.027,0-0.4-0.053-0.457-0.043c-0.104-0.006-0.249-0.002-0.398,0.002c-0.293,0.019-0.593,0.064-0.895,0.136        c-0.606,0.147-1.226,0.385-1.816,0.703c-0.586,0.324-1.165,0.684-1.688,1.095c-1.055,0.811-1.957,1.727-2.6,2.555        c-0.16,0.208-0.309,0.405-0.437,0.595c-0.151,0.236-0.295,0.461-0.43,0.672c-0.266,0.393-0.498,0.736-0.689,1.019        c-0.082,0.127-0.155,0.24-0.219,0.339c-0.05,0.086-0.092,0.16-0.126,0.22c-0.032,0.076-0.061,0.116-0.061,0.116l-0.231,0.324        c-0.306,0.428-0.901,0.528-1.33,0.222c-0.315-0.225-0.453-0.609-0.38-0.967c0,0,0.03-0.148,0.109-0.426        c0.04-0.109,0.09-0.244,0.149-0.403c0.062-0.138,0.13-0.307,0.214-0.475c0.162-0.311,0.358-0.689,0.583-1.122        c0.048-0.098,0.098-0.198,0.15-0.302c0.054-0.118,0.109-0.24,0.166-0.364c0.134-0.282,0.277-0.572,0.453-0.852        c0.344-0.565,0.748-1.143,1.23-1.707c0.484-0.56,1.019-1.133,1.645-1.656c1.233-1.055,2.767-2.032,4.634-2.481        c0.468-0.103,0.951-0.169,1.443-0.19c0.244-0.005,0.491-0.008,0.778,0.017c0.334,0.025,0.347,0.033,0.704,0.091        c0.972,0.177,1.876,0.587,2.621,1.084c0.75,0.501,1.338,1.093,1.839,1.658c0.499,0.569,0.89,1.137,1.238,1.651        c0.681,1.038,1.147,1.901,1.503,2.468c0.353,0.575,0.554,0.904,0.554,0.904c0.288,0.47,0.141,1.083-0.328,1.371        c-0.409,0.25-0.926,0.172-1.243-0.162L127.215,1566.053z"
   id="path5007" />
					</g>
					<g
   id="g5009">
						<path
   fill="#9D8E38"
   d="M176.385,1576.766c0,0-0.037-0.127-0.104-0.366c-0.065-0.24-0.169-0.606-0.312-0.961        c-0.124-0.371-0.335-0.851-0.603-1.356c-0.274-0.506-0.619-1.055-1.06-1.599c-0.418-0.562-0.98-1.082-1.591-1.605        c-0.272-0.189-0.728-0.556-1.068-0.77c-0.361-0.208-0.686-0.442-1.1-0.649c-0.776-0.455-1.656-0.786-2.549-1.106        c-0.91-0.282-1.848-0.545-2.82-0.679c-0.965-0.157-1.949-0.246-2.922-0.271c-0.975-0.011-1.94,0.005-2.873,0.094        c-0.934,0.077-1.833,0.216-2.687,0.357c-0.857,0.162-1.632,0.335-2.42,0.524c-0.776,0.184-1.411,0.367-2.018,0.521        c-0.582,0.189-1.103,0.335-1.514,0.488c-0.811,0.322-1.288,0.491-1.288,0.491l-0.088,0.032        c-0.517,0.183-1.083-0.087-1.267-0.604c-0.162-0.458,0.032-0.955,0.438-1.189c0,0,0.479-0.278,1.343-0.739        c0.436-0.219,0.977-0.44,1.595-0.718c0.618-0.242,1.359-0.529,2.112-0.764c0.736-0.247,1.622-0.508,2.541-0.731        c0.926-0.217,1.915-0.413,2.954-0.529c1.035-0.139,2.12-0.195,3.225-0.185c1.104,0.022,2.235,0.086,3.353,0.291        c1.122,0.169,2.225,0.484,3.294,0.833c1.054,0.406,2.083,0.844,3.004,1.417c0.468,0.247,0.925,0.601,1.365,0.909        c0.441,0.33,0.696,0.572,1.142,0.938c0.729,0.699,1.387,1.402,1.877,2.143c0.522,0.715,0.87,1.458,1.146,2.112        c0.268,0.664,0.454,1.239,0.573,1.759c0.143,0.525,0.174,0.874,0.212,1.119c0.035,0.246,0.054,0.377,0.054,0.377        c0.079,0.544-0.298,1.049-0.842,1.127C176.986,1577.55,176.52,1577.238,176.385,1576.766z"
   id="path5011" />
					</g>
					<g
   id="g5013">
						<path
   fill="none"
   d="M149.483,1662.179"
   id="path5015" />
					</g>
				</g>
				<g
   display="none"
   id="g5017">
					<path
   display="inline"
   fill="none"
   d="M149.317,1661.242"
   id="path5019" />
				</g>
				<g
   display="none"
   id="g5021">
					<path
   display="inline"
   fill="none"
   d="M149.317,1661.242"
   id="path5023" />
				</g>
				<g
   display="none"
   id="g5025">
					<path
   display="inline"
   fill="none"
   d="M149.317,1661.242"
   id="path5027" />
				</g>
				<g
   display="none"
   id="g5029">
					<path
   display="inline"
   fill="none"
   d="M149.317,1661.242"
   id="path5031" />
				</g>
				<g
   display="none"
   id="g5033">
					<path
   display="inline"
   fill="none"
   d="M149.317,1661.242"
   id="path5035" />
				</g>
				<path
   fill="#9D8E38"
   d="M110.188,1644.552c0,0,13.043,0.232,10.231,14.858C113.862,1658.909,108.527,1654.345,110.188,1644.552z      "
   id="path5037" />
				<path
   fill="#9D8E38"
   d="M119.118,1643.724c0,0,13.043,0.232,10.231,14.859C122.792,1658.081,117.457,1653.517,119.118,1643.724z      "
   id="path5039" />
				<path
   fill="#9D8E38"
   d="M133.741,1640.878c0,0,13.043,0.232,10.231,14.858C137.414,1655.235,132.08,1650.67,133.741,1640.878z"
   id="path5041" />
				<path
   fill="#9D8E38"
   d="M149.109,1635.126c0,0,13.043,0.232,10.231,14.858C152.782,1649.482,147.448,1644.918,149.109,1635.126z      "
   id="path5043" />
				<path
   fill="#9D8E38"
   d="M168.017,1616.644c0,0,13.043,0.232,10.231,14.858C171.69,1631,166.356,1626.436,168.017,1616.644z"
   id="path5045" />
				<path
   fill="#9D8E38"
   d="M175.137,1602.774c0,0,13.043,0.232,10.231,14.858C178.81,1617.131,173.476,1612.566,175.137,1602.774z"
   id="path5047" />
				<path
   fill="#9D8E38"
   d="M87.824,1641.804c0,0,4.22,12.344-10.491,14.676C75.574,1650.142,78.051,1643.572,87.824,1641.804z"
   id="path5049" />
				<path
   fill="#9D8E38"
   d="M76.269,1633.516c0,0,4.219,12.345-10.491,14.677C64.018,1641.854,66.495,1635.285,76.269,1633.516z"
   id="path5051" />
				<path
   fill="#9D8E38"
   d="M103.16,1648.663c0,0,4.219,12.344-10.491,14.676C90.91,1657.001,93.387,1650.433,103.16,1648.663z"
   id="path5053" />
			</g>
		</g>
		<g
   id="g5055">
			<path
   fill="#D6C6C9"
   d="M0,1355.226c57.082,0.874,109.816-28.343,172.399-33.59c14.801,101.229,298.081,9.931,356.439-5.403     c51.243-13.465,47.479-9.333,84.159,20.775c26.916,22.094,71.214,41.672,102.905,55.206     c75.611,32.294,174.759,52.071,257.78,48.774c64.531-2.562,136.059-10.519,195.524-27.781     c21.475-6.233,91.377-45.104,91.377-45.104s16.499,41.998,58.497,52.498c128.424,32.105,278.963-25.518,405.919-39.615     c132.651-14.73,253.485,8.414,384,20.014c53.995,4.799,108.654,3.713,163,1.463V992H0V1355.226z"
   id="path5057" />
		</g>
		<g
   id="g5059">
			<path
   fill="#BBBACA"
   d="M0,1154.142c16.072,18.486,40.027,30.901,64.915,38.89c49.859,16.004,89.274-4.572,135.452-7.425     c10.666,100.625,158.176,11.104,215.708-1.589c68.094-15.021,148.407-24.666,213.804-11.904     c119.108,23.244,215.209,119.834,335.529,151.999c57.432,15.353,140.509,26.448,198.699,11.999     c46.504-11.548,102.477-46.005,128.879-66.62c33.594,68.612,77.225,65.368,150.219,55.495     c99.744-13.491,195.899-45.176,294.694-63.631c101.198-18.902,203.598-29.863,306.229-37.215     c58.47-4.188,117.031-7.012,175.607-9.235c17.605-0.668,34.992-1.177,52.265-1.639V992H0V1154.142z"
   id="path5061" />
		</g>
		<g
   id="g5063">
			<path
   fill="#C7D083"
   d="M2105,1937c-136.072-8.331-400.115-70.949-525.517-123.229     c-113.75-47.421-230.177-90.671-348.226-126.127c-420.246-126.222-764.483-164.319-1196.548-34.698     c-10.578,3.174-22.285,7.039-34.709,11.391V2272h2272v-340.31C2224.002,1938.136,2168.023,1940.858,2105,1937z"
   id="path5065" />
		</g>
		<g
   id="g5067">
			<path
   fill="#BAC161"
   d="M1579.483,1813.771c-113.75-47.421-230.177-90.671-348.226-126.127     c-44.586-13.392-111.188-19.332-154.258-30.645c-320-32-609.044,75.274-740,476c0,0-14.48,64.364-26.094,139h1641.746     c9.36-13.675,17.513-27.997,24.348-43C2028.947,2114.971,1696.83,1862.692,1579.483,1813.771z"
   id="path5069" />
		</g>
		<g
   id="g5071">
			<path
   fill="#D9E09D"
   d="M34.709,1652.821c-10.578,3.174-22.285,7.037-34.709,11.386v36.344     c13.342-4.977,25.311-9.247,35.146-12.464c160.492-52.498,265.334-83.901,431.606-95.271     c351.035-24.003,594.342,51.274,947.867,156.171c-60.581-22.245-121.747-42.898-183.361-61.404     C811.012,1561.36,466.775,1523.2,34.709,1652.821z"
   id="path5073" />
		</g>
		<g
   opacity="0.6"
   id="g5075">
			<path
   fill="#B5BF6D"
   d="M652.827,1651.193c-4.822-14.801-14.283-25.031-26.956-33.609c-8.307-5.623-18.294-9.104-27.787-12.176     c-8.053-2.605-16.363-4.412-24.677-5.957c-38.979-7.245-78.9-9.828-118.479-8.643c-58.232,1.745-116.434,8.078-174.191,15.485     c-57.642,7.393-116.37,17.569-167.1,47.72c-11.175,6.642-23.652,14.233-32.213,24.026     c-14.016,16.031-18.725,35.351-13.336,56.077c7.912,30.428,33.959,54,64.536,60.21c17.207,3.494,33.911,2.984,50.901,1.584     c0.843,7.097,1.904,11.731,5.968,18.987c4.528,8.085,9.384,11.314,16.522,16.741c5.397,4.104,12.875,6.49,19.625,7.56     c8.657,1.372,16.936,2.303,25.651,1.935c31.468-1.326,63.085-9.158,93.288-17.688c15.209-4.296,30.2-8.927,44.699-15.244     c-3.1,1.308-6.2,2.616-9.3,3.925c30.28-10.005,60.652-19.729,90.715-30.378c22.923-8.119,45.223-17.729,67.949-26.335     c19.448-7.363,38.854-14.957,57.688-23.793c19.666-9.227,38.246-20.614,50.911-38.684     C655.23,1681.541,657.087,1664.27,652.827,1651.193z"
   id="path5077" />
		</g>
		<g
   opacity="0.2"
   id="g5079">
			<path
   fill="#8A7968"
   d="M268.691,1653.201c-5.605-4.725-13.612-3.004-20.188-1.442c-2.52,0.599-4.57,2.79-5.245,5.245     c-0.978,3.555,0.729,6.401,3.451,8.48c6.791,5.188,20.254,3.662,23.219-5.074c0.024-0.07,0.034-0.143,0.055-0.213     C271.058,1657.882,270.909,1655.07,268.691,1653.201z"
   id="path5081" />
		</g>
		<g
   opacity="0.2"
   id="g5083">
			<path
   fill="#8A7968"
   d="M305.005,1649.931c-0.439-3.267-2.192-5.368-4.84-7.201c-2.289-1.584-4.761-1.393-6.779-0.233     c-4.579,0.191-10.063,0.989-14.174,3.522c-3.978,2.452-5.163,8.431-1.519,11.789c6.613,6.094,14.192,4.22,21.877,1.697     C304.017,1658.046,305.593,1654.305,305.005,1649.931z"
   id="path5085" />
		</g>
		<g
   opacity="0.2"
   id="g5087">
			<path
   fill="#8A7968"
   d="M515.667,1681c-1.137-12.444-0.957-17.931-1.152-30.401c-0.069-4.444-50.838-7.001-56.251-8.719     c-16.59-5.265-19.825-25.021-34.907-31.636c-14.565-6.389-31.969-1.622-47.011-0.078c-30.209,3.1-60.016,7.973-89.287,16.238     c-22.023,6.219-70.266,17.074-75.479,44.642c-6.809,36.001,73.245,40.339,94.385,39.921c38.609-0.764,77.278-2.055,115.684-6.321     C434.755,1703.189,517.43,1700.3,515.667,1681z"
   id="path5089" />
		</g>
		<g
   id="g5091">
			<polygon
   fill="#ADA092"
   points="400.996,1694.25 516,1682.387 517,1628.803 398.675,1636.047    "
   id="polygon5093" />
		</g>
		<g
   id="g5095">
			<g
   id="g5097">
				<path
   fill="#917F6D"
   d="M321.52,1607.887c1.154-0.155,2.308-0.311,3.462-0.465      C323.829,1607.573,322.674,1607.729,321.52,1607.887z"
   id="path5099" />
			</g>
			<g
   id="g5101">
				<path
   fill="#917F6D"
   d="M319.001,1608.225c0.432-0.06,0.864-0.11,1.295-0.17c0.408-0.057,0.816-0.113,1.223-0.168      C320.681,1607.998,319.841,1608.112,319.001,1608.225z"
   id="path5103" />
			</g>
		</g>
		<g
   id="g5105">
			<polygon
   fill="#918072"
   points="398.108,1636.047 400.617,1694.25 323.491,1630.695 317.982,1568.303    "
   id="polygon5107" />
		</g>
		<g
   id="g5109">
			<polygon
   fill="#E0AC77"
   points="391.651,1643.979 389.625,1607.006 457.854,1512.262 527,1586.209 527,1632.424    "
   id="polygon5111" />
		</g>
		<g
   id="g5113">
			<polygon
   fill="#B38A60"
   points="389.437,1607.006 391.273,1643.979 312.982,1577.856 311.146,1545.504    "
   id="polygon5115" />
		</g>
		<g
   id="g5117">
			<path
   fill="#AB845C"
   d="M282,1621c0,0-10,13-1,31c9,3,17,0,17,0s10-14,0-30C293,1614,282,1621,282,1621z"
   id="path5119" />
		</g>
		<g
   id="g5121">
			<path
   fill="#AB845C"
   d="M252,1629c0,0-10,13-1,31c9,6,17,0,17,0s10-14,0-30C263,1622,252,1629,252,1629z"
   id="path5123" />
		</g>
		<g
   id="g5125">
			<polygon
   fill="#AB845C"
   points="189.814,1643.406 182.644,1646.735 225.5,1686.686 233.852,1682.889    "
   id="polygon5127" />
		</g>
		<g
   id="g5129">
			<polygon
   fill="#AB845C"
   points="187.536,1650.722 180.366,1654.05 223.222,1694 231.574,1690.204    "
   id="polygon5131" />
		</g>
		<g
   id="g5133">
			<polygon
   fill="#AB845C"
   points="198.166,1630.499 190.5,1635.5 233.852,1673.777 242.204,1669.981    "
   id="polygon5135" />
		</g>
		<g
   id="g5137">
			<polygon
   fill="#AB845C"
   points="190.536,1637.369 183.366,1640.698 226.222,1680.648 234.574,1676.852    "
   id="polygon5139" />
		</g>
		<g
   id="g5141">
			<polygon
   fill="#AB845C"
   points="198.962,1642.647 191.792,1645.976 237.648,1685.926 246,1682.13    "
   id="polygon5143" />
		</g>
		<g
   id="g5145">
			<polygon
   fill="#FEE6A5"
   points="457.382,1512.262 383,1616 304,1549 376.743,1466.803    "
   id="polygon5147" />
		</g>
		<g
   id="g5149">
			<polygon
   fill="#FEE6A5"
   points="455.382,1516.262 534,1599 539,1596 458,1512    "
   id="polygon5151" />
		</g>
		<g
   id="g5153">
			<polygon
   fill="#837467"
   points="445,1689 444,1652 477,1649 478,1685    "
   id="polygon5155" />
		</g>
		<g
   id="g5157">
			<path
   fill="#AB845C"
   d="M443,1587l-23,3c1,3-0.332,23.665-0.332,23.665l24-2L443,1587z"
   id="path5159" />
		</g>
		<g
   id="g5161">
			<path
   fill="#AB845C"
   d="M475,1586c0,3,0,24,0,24l20-2l1-24L475,1586z"
   id="path5163" />
		</g>
		<g
   id="g5165">
			<polygon
   fill="#AB845C"
   points="445,1532 445,1640 440,1639.666 440,1537    "
   id="polygon5167" />
		</g>
		<g
   id="g5169">
			<polygon
   fill="#AB845C"
   points="476,1538.333 477,1636.999 471,1638.666 471,1533.666    "
   id="polygon5171" />
		</g>
		<g
   id="g5173">
			<polygon
   fill="#AB845C"
   points="500,1562.333 500,1635 495,1636.666 495,1557.666    "
   id="polygon5175" />
		</g>
		<g
   id="g5177">
			<polygon
   fill="#AB845C"
   points="527,1590.333 527,1632 522,1631.666 522,1585.666    "
   id="polygon5179" />
		</g>
		<g
   id="g5181">
			<polygon
   fill="#AB845C"
   points="422,1564 422,1643 417,1642.666 417,1569    "
   id="polygon5183" />
		</g>
		<g
   id="g5185">
			<polygon
   fill="#AB845C"
   points="396,1600 397.667,1643.666 391.651,1643.979 389,1609    "
   id="polygon5187" />
		</g>
		<g
   id="g5189">
			<polygon
   fill="#AB845C"
   points="394.668,1614.665 524.334,1602.998 525.668,1608.998 393.334,1619.998    "
   id="polygon5191" />
		</g>
		<g
   id="g5193">
			<polygon
   fill="#AB845C"
   points="403.668,1587.665 513.334,1576.998 518.334,1582.998 398.334,1594.332    "
   id="polygon5195" />
		</g>
		<g
   opacity="0.2"
   id="g5197">
			<path
   fill="#8A7968"
   d="M232.306,1677.325c-3.161,1.9-6.307,3.92-9.362,6.042c-11.728-8.906-20.526-21.634-31.35-31.462     c-5.757-5.228-16.468,1.913-11.315,8.731c10.845,14.349,23.469,26.805,36.858,38.727c2.634,2.345,6.892,3.49,10.048,1.296     c5.023-3.492,10.544-6.269,15.19-10.284C249.621,1684.114,240.274,1672.536,232.306,1677.325z"
   id="path5199" />
		</g>
		<g
   opacity="0.2"
   id="g5201">
			<path
   fill="#8A7968"
   d="M268.909,1635.356c-6.557,0.959-12.187,3.267-18.361-0.649c-1.974-1.252-4.318,1.714-2.516,3.261     c6.031,5.178,15.664,4.68,22.59,1.451C273.109,1638.26,271.179,1635.024,268.909,1635.356z"
   id="path5203" />
		</g>
		<g
   opacity="0.2"
   id="g5205">
			<path
   fill="#8A7968"
   d="M299.884,1626.767c-7.002,2.514-13.46,5.114-20.789,1.86c-2.527-1.123-4.555,2.164-2.19,3.746     c6.944,4.649,18.079,3.223,24.764-1.373C303.712,1629.596,302.498,1625.828,299.884,1626.767z"
   id="path5207" />
		</g>
		<g
   opacity="0.2"
   id="g5209">
			<path
   fill="#8A7968"
   d="M269.73,1648.328c-6.511,3.22-13.632,2.7-20.138-0.196c-2.539-1.131-4.492,2.112-2.185,3.736     c7.149,5.033,17.285,4.576,24.862,0.804C275.176,1651.225,272.626,1646.896,269.73,1648.328z"
   id="path5211" />
		</g>
		<g
   opacity="0.2"
   id="g5213">
			<path
   fill="#8A7968"
   d="M299.852,1639.147c-6.668,2.188-13.772,5.516-20.729,2.434c-2.578-1.142-4.702,2.254-2.244,3.838     c7.415,4.779,17.472,1.422,24.854-1.812C304.276,1642.491,302.452,1638.294,299.852,1639.147z"
   id="path5215" />
		</g>
	</g>
</g>
<g
   id="Ground">
</g>
<g
   id="Fence">
</g>
<g
   id="foreground">
</g>
<g
   id="Ground_color">
</g>
<g
   id="Smoke">
</g>
<g
   id="Layer_17">
	<g
   id="bucket">
	</g>
	<g
   id="waterdrop">
	</g>
</g>
<g
   id="Barn__x28_not_burnt_x29_"
   display="none">
	<polygon
   display="inline"
   fill="#967657"
   points="1387.844,1237.54 1162.825,1878.606 1306.836,1900.607 1426.848,1387.555  "
   id="polygon5226" />
	<polygon
   display="inline"
   fill="#B8906A"
   points="1406.027,1289 1231.832,1884.607 1255.832,2502.859 1555,2648 2690,2669    2690,1934.809 2467.946,1289  "
   id="polygon5228" />
	<rect
   x="1868"
   y="2170"
   display="inline"
   fill="#382313"
   width="201"
   height="312"
   id="rect5230" />
	<rect
   x="2237"
   y="2170"
   display="inline"
   fill="#382313"
   width="216"
   height="312"
   id="rect5232" />
	<polygon
   display="inline"
   fill="#F5C89A"
   points="1561.862,2637.873 1606.867,1896.797 1405.847,1260.733 1231.832,1884.607    1258.831,2487.858  "
   id="polygon5234" />
	<polygon
   display="inline"
   fill="#70513A"
   points="1277,1867 1291,2523 1243.838,2505.602 1230.838,1888.578  "
   id="polygon5236" />
	<polygon
   display="inline"
   fill="#634834"
   points="1604,1935 1604,2687 1664,2687 1652,1935  "
   id="polygon5238" />
	<polygon
   display="inline"
   fill="#634834"
   points="1830.492,1935 1815.49,2687 1878.496,2687 1881.498,1935  "
   id="polygon5240" />
	<polygon
   display="inline"
   fill="#634834"
   points="2072.018,1935 2053.984,2687 2114.053,2687 2119.992,1935  "
   id="polygon5242" />
	<polygon
   display="inline"
   fill="#634834"
   points="2201.018,1935 2182.984,2687 2243.053,2687 2248.992,1935  "
   id="polygon5244" />
	<polygon
   display="inline"
   opacity="0.6"
   fill="#986E46"
   points="1606.866,2082.817 2685,2021 2685,1965 1601,1953  "
   id="polygon5246" />
	<polygon
   display="inline"
   fill="#634834"
   points="1604,2132 2690,2132 2690,2182.633 1604,2176.633  "
   id="polygon5248" />
	<polygon
   display="inline"
   fill="#70513A"
   points="1369,1381 1375.844,1908.8 1328.838,1903.602 1322.838,1567.578  "
   id="polygon5250" />
	<polygon
   display="inline"
   fill="#70513A"
   points="1499.081,1567 1501.121,1926.797 1457,1914.602 1457,1569.578  "
   id="polygon5252" />
	<polygon
   display="inline"
   fill="#8A6245"
   points="1231.833,1884.6 1567.861,1939.604 1558.861,1882.599 1243.834,1833.595  "
   id="polygon5254" />
	<polygon
   display="inline"
   fill="#8A6245"
   points="1438.851,1501.565 1444.854,1906.604 1483.856,1911.604 1483.854,1668.582  "
   id="polygon5256" />
	<polygon
   display="inline"
   fill="#8A6245"
   points="1569,1965 1567.854,2667 1604,2687 1609,1969  "
   id="polygon5258" />
	<polygon
   display="inline"
   fill="#8A6245"
   points="1231.833,1884.6 1243.854,2506 1280,2526 1265,1877  "
   id="polygon5260" />
	<polygon
   display="inline"
   fill="#8A6245"
   points="1359,1415 1366.843,1902.799 1318.838,1899.602 1322.838,1567.578  "
   id="polygon5262" />
	<polygon
   display="inline"
   opacity="0.6"
   fill="#987452"
   points="1231,1889 1342.841,1902.799 1519.859,1551.764 1405.847,1260.733     "
   id="polygon5264" />
	<polygon
   display="inline"
   fill="#70513A"
   points="1369.843,1266.735 1546.86,1980.807 2746.98,1983.807 2752.975,1961    1744.881,1446.753 1388,1238  "
   id="polygon5266" />
	<polygon
   display="inline"
   fill="#483324"
   points="1306.842,2537.67 1306.836,1950.805 1540.859,1998.81 1535,2630    1339.84,2532.863  "
   id="polygon5268" />
	<polygon
   display="inline"
   fill="#B8A28E"
   points="1370,1238 1561.861,1954.609 2752.975,1961 2551.962,1251.734  "
   id="polygon5270" />
	<polygon
   display="inline"
   fill="#B8A28E"
   points="1388,1238 1370,1238 1147.824,1868.796 1162.825,1878.606  "
   id="polygon5272" />
	<polygon
   display="inline"
   fill="#573F2D"
   points="1306.842,2537.67 1339.84,2532.863 1349.001,1960 1306.836,1950.805  "
   id="polygon5274" />
	<polygon
   display="inline"
   opacity="0.6"
   fill="#987452"
   points="1231,1889 1245.585,1891.102 1389,1349 1385,1335  "
   id="polygon5276" />
	<polygon
   display="inline"
   fill="#968574"
   points="1445,1305 1471,1407 1669,1401 1637,1307  "
   id="polygon5278" />
	<polygon
   display="inline"
   fill="#968574"
   points="1875,1319 1901,1421 2099,1425 2073,1317  "
   id="polygon5280" />
	<polygon
   display="inline"
   fill="#968574"
   points="1725,1485 1751,1587 1951,1593 1917,1487  "
   id="polygon5282" />
	<polygon
   display="inline"
   fill="#968574"
   points="2000,1664 2026,1766 2224,1760 2192.039,1664.614  "
   id="polygon5284" />
	<polygon
   display="inline"
   fill="#C7AF99"
   points="2015,1453 2041,1555 2245,1563 2207,1455  "
   id="polygon5286" />
	<polygon
   display="inline"
   fill="#C7AF99"
   points="2109,1265 2135,1367 2339,1375 2301,1267  "
   id="polygon5288" />
	<polygon
   display="inline"
   fill="#C7AF99"
   points="1786,1860 1812,1962 2016,1970 1978,1862  "
   id="polygon5290" />
	<polygon
   display="inline"
   fill="#C7AF99"
   points="1435,1487 1461,1589 1665,1597 1627,1489  "
   id="polygon5292" />
	<polygon
   display="inline"
   fill="#C7AF99"
   points="1803,1247 1829,1349 2033,1357 1995,1249  "
   id="polygon5294" />
	<polygon
   display="inline"
   fill="#C7AF99"
   points="2260,1718 2286,1820 2490,1828 2452,1720  "
   id="polygon5296" />
	<polygon
   display="inline"
   fill="#C7AF99"
   points="1595,1354 1621,1456 1821,1449 1787,1356  "
   id="polygon5298" />
	<polygon
   display="inline"
   fill="#968574"
   points="2064,1864 2090,1966 2288,1960 2256,1866  "
   id="polygon5300" />
	<polygon
   display="inline"
   fill="#968574"
   points="1762,1703 1788,1805 2000,1809 1967,1705  "
   id="polygon5302" />
	<polygon
   display="inline"
   fill="#968574"
   points="1479,1664 1505,1766 1717,1770 1684,1666  "
   id="polygon5304" />
	<polygon
   display="inline"
   fill="#968574"
   points="1529,1866 1555,1968 1752.06,1971.098 1721,1868  "
   id="polygon5306" />
	<polygon
   display="inline"
   fill="#968574"
   points="2261,1534 2287,1636 2511,1644 2473,1536  "
   id="polygon5308" />
	<polygon
   display="inline"
   fill="#C7AF99"
   points="1634,1623 1660,1725 1858,1719 1826.058,1618.117  "
   id="polygon5310" />
</g>
<g
   id="Layer_7">
</g>
<g
   id="Barn">
</g>
<g
   id="Layer_13">
</g>
<g
   id="Leroy">
</g>
<g
   id="well">
	<g
   id="rope_part_8_">
	</g>
	<g
   id="rope_part_7_">
	</g>
	<g
   id="rope_part_6_">
	</g>
	<g
   id="rope_part_5_">
	</g>
	<g
   id="rope_part_4_">
	</g>
	<g
   id="rope_part_3_">
	</g>
	<g
   id="rope_part_2_">
	</g>
	<g
   id="rope_part_1_">
	</g>
	<g
   id="fire_2">
	</g>
	<g
   id="rope_part">
	</g>
</g>
<g
   id="fire">
</g>
<g
   id="Layer_2">
</g>
</svg>