<?xml version="1.0" encoding="UTF-8" standalone="no"?>
<!-- Generator: Adobe Illustrator 16.2.0, SVG Export Plug-In . SVG Version: 6.00 Build 0)  -->

<svg
   xmlns:dc="http://purl.org/dc/elements/1.1/"
   xmlns:cc="http://creativecommons.org/ns#"
   xmlns:rdf="http://www.w3.org/1999/02/22-rdf-syntax-ns#"
   xmlns:svg="http://www.w3.org/2000/svg"
   xmlns="http://www.w3.org/2000/svg"
   xmlns:sodipodi="http://sodipodi.sourceforge.net/DTD/sodipodi-0.dtd"
   xmlns:inkscape="http://www.inkscape.org/namespaces/inkscape"
   version="1.1"
   x="0px"
   y="0px"
   width="420px"
   height="420px"
   viewBox="0 0 420 420"
   enable-background="new 0 0 420 420"
   xml:space="preserve"
   id="svg3057"
   inkscape:version="0.48.2 r9819"
   sodipodi:docname="LACT1_BarnBurnin_WellHandle_Up.svg"><metadata
   id="metadata3103"><rdf:RDF><cc:Work
       rdf:about=""><dc:format>image/svg+xml</dc:format><dc:type
         rdf:resource="http://purl.org/dc/dcmitype/StillImage" /><dc:title></dc:title></cc:Work></rdf:RDF></metadata><defs
   id="defs3101" /><sodipodi:namedview
   pagecolor="#ffffff"
   bordercolor="#666666"
   borderopacity="1"
   objecttolerance="10"
   gridtolerance="10"
   guidetolerance="10"
   inkscape:pageopacity="0"
   inkscape:pageshadow="2"
   inkscape:window-width="640"
   inkscape:window-height="480"
   id="namedview3099"
   showgrid="false"
   inkscape:zoom="0.56190476"
   inkscape:cx="210"
   inkscape:cy="210"
   inkscape:window-x="0"
   inkscape:window-y="0"
   inkscape:window-maximized="0"
   inkscape:current-layer="svg3057" />
<g
   id="Fixed_BG">
</g>
<g
   id="Leroy_x27_s_House">
</g>
<g
   id="Ground">
</g>
<g
   id="Fence">
</g>
<g
   id="foreground">
</g>
<g
   id="Ground_color">
</g>
<g
   id="Smoke">
</g>
<g
   id="Layer_17">
	<g
   id="bucket">
	</g>
	<g
   id="waterdrop">
	</g>
</g>
<g
   id="Barn__x28_not_burnt_x29_"
   display="none">
</g>
<g
   id="Layer_7">
</g>
<g
   id="Barn">
</g>
<g
   id="Layer_13">
</g>
<g
   id="Leroy">
</g>
<g
   id="well">
	<g
   id="g3075">
		<polygon
   fill="#CFBEB3"
   points="135.025,102 95.025,102 91.657,24.565 90.157,14.135 102.156,15.669 106.656,86.182     132.155,89.054   "
   id="polygon3077" />
		<path
   fill="#6A584A"
   d="M90.529,11.227l12,1.5c1.43,0.179,2.53,1.348,2.622,2.785l4.34,68l23.015,2.708    c1.27,0.149,2.305,1.087,2.58,2.336l2.871,13.074c0.195,0.888-0.023,1.679-0.592,2.387c-0.57,0.708-1.429,0.983-2.338,0.983h-40    c-1.606,0-2.928-1.128-2.997-2.733l-3.362-77.355l-1.479-10.318c-0.132-0.925,0.174-1.843,0.83-2.509    c0.567-0.578,1.34-0.89,2.14-0.89C90.28,11.194,90.405,11.211,90.529,11.227z M131.295,99l-1.613-7.208l-23.377-2.682    c-1.439-0.169-2.551-1.309-2.644-2.754L99.32,18.355l-5.638-0.697l0.944,6.615c0.014,0.098,0.023,0.062,0.027,0.16L97.898,99    H131.295z"
   id="path3079" />
	</g>
	<g
   id="g3081">
		<polygon
   fill="#47413A"
   points="93.841,31.737 46.251,32.255 44.659,11.273 94.025,15.273   "
   id="polygon3083" />
		<path
   fill="#483324"
   d="M97.057,12.509l-0.249,22.196l-53.335,0.58L41.402,8L97.057,12.509z M90.874,28.77l0.12-10.731    l-43.078-3.491l1.114,14.678L90.874,28.77z"
   id="path3085" />
	</g>
	<g
   id="rope_part_8_">
	</g>
	<g
   id="rope_part_7_">
	</g>
	<g
   id="rope_part_6_">
	</g>
	<g
   id="rope_part_5_">
	</g>
	<g
   id="rope_part_4_">
	</g>
	<g
   id="rope_part_3_">
	</g>
	<g
   id="rope_part_2_">
	</g>
	<g
   id="rope_part_1_">
	</g>
	<g
   id="fire_2">
	</g>
	<g
   id="rope_part">
	</g>
</g>
<g
   id="fire">
</g>
<g
   id="Layer_2">
</g>
</svg>