<?xml version="1.0" encoding="UTF-8" standalone="no"?>
<!-- Generator: Adobe Illustrator 16.2.0, SVG Export Plug-In . SVG Version: 6.00 Build 0)  -->

<svg
   xmlns:dc="http://purl.org/dc/elements/1.1/"
   xmlns:cc="http://creativecommons.org/ns#"
   xmlns:rdf="http://www.w3.org/1999/02/22-rdf-syntax-ns#"
   xmlns:svg="http://www.w3.org/2000/svg"
   xmlns="http://www.w3.org/2000/svg"
   xmlns:sodipodi="http://sodipodi.sourceforge.net/DTD/sodipodi-0.dtd"
   xmlns:inkscape="http://www.inkscape.org/namespaces/inkscape"
   version="1.1"
   x="0px"
   y="0px"
   width="360px"
   height="360px"
   viewBox="0 0 360 360"
   enable-background="new 0 0 360 360"
   xml:space="preserve"
   id="svg3651"
   inkscape:version="0.48.2 r9819"
   sodipodi:docname="LACT1_BarnBurnin_Fire01.svg"><metadata
   id="metadata3697"><rdf:RDF><cc:Work
       rdf:about=""><dc:format>image/svg+xml</dc:format><dc:type
         rdf:resource="http://purl.org/dc/dcmitype/StillImage" /><dc:title></dc:title></cc:Work></rdf:RDF></metadata><defs
   id="defs3695" /><sodipodi:namedview
   pagecolor="#ffffff"
   bordercolor="#666666"
   borderopacity="1"
   objecttolerance="10"
   gridtolerance="10"
   guidetolerance="10"
   inkscape:pageopacity="0"
   inkscape:pageshadow="2"
   inkscape:window-width="640"
   inkscape:window-height="480"
   id="namedview3693"
   showgrid="false"
   inkscape:zoom="0.65555556"
   inkscape:cx="180"
   inkscape:cy="180"
   inkscape:window-x="0"
   inkscape:window-y="0"
   inkscape:window-maximized="0"
   inkscape:current-layer="svg3651" />
<g
   id="Fixed_BG">
</g>
<g
   id="Leroy_x27_s_House">
</g>
<g
   id="Ground">
</g>
<g
   id="Fence">
</g>
<g
   id="foreground">
</g>
<g
   id="Ground_color">
</g>
<g
   id="Smoke">
</g>
<g
   id="Layer_17">
	<g
   id="bucket">
	</g>
	<g
   id="waterdrop">
	</g>
</g>
<g
   id="Barn__x28_not_burnt_x29_"
   display="none">
</g>
<g
   id="Layer_7">
</g>
<g
   id="Barn">
</g>
<g
   id="Layer_13">
</g>
<g
   id="Leroy">
</g>
<g
   id="well">
	<g
   id="rope_part_8_">
	</g>
	<g
   id="rope_part_7_">
	</g>
	<g
   id="rope_part_6_">
	</g>
	<g
   id="rope_part_5_">
	</g>
	<g
   id="rope_part_4_">
	</g>
	<g
   id="rope_part_3_">
	</g>
	<g
   id="rope_part_2_">
	</g>
	<g
   id="rope_part_1_">
	</g>
	<g
   id="fire_2">
		<g
   id="g3678">
			<path
   fill="#E34202"
   d="M314.981,142.271c-9.584-14.639-4.115-48.447-3.039-49.844c-31.839,16.968-30.611,39.886-28.262,56.951     c1.863,13.541,2.097,23.89,0.973,33.586c-1.575-19.238-5.569-38.143-11.439-55.502c-9.954-29.439-35.819-72.871-58.649-94.744     c-41.144,19.55-71.024,61.572-59.398,105.11c11.348,42.497-7.155,55.976-7.155,55.976s-20.1,28.867-28.446-44.587     c-4.614-40.6-22.233-59.315-22.233-59.315s-27.083,40.582-41.741,79.771c-10.123-10.231-16.26-22.362-10.796-40.894     c-5.219,1.596-8.69,10.326-10.841,15.141c-8.358,18.704-16.31,40.817-15.941,61.368c0.728,40.673,17.113,80.298,45.972,109.228     c14.405,14.438,38.946,28.877,61.543,32.825c0.291,0.111,0.459,0.177,0.459,0.177c54.017,16.132,134.442,2.073,180.238-41.259     c11.364-10.752,22.024-25.534,28.192-39.957C351.36,226.686,337.735,177.021,314.981,142.271z M297.99,275.845     c-6.071,12.612-16.698,25.403-27.553,34.195c-40.032,32.431-106.777,39.94-153.686,21.776     c-35.228-13.642-57.451-45.945-68.763-81.497c-4.081-12.825-6.396-26.339-6.725-39.793c-0.019-0.776,0.82-16.475,0.958-16.425     c7.564,2.757,14.274,10.879,20.833,22.199c2.895-55.12,34.277-103.293,34.277-103.293c23.086,20.826,4.57,105.912,45.884,105.912     c38.158,0,50.083-41.465,40.543-75.823c-12.513-45.065,24.445-66.938,24.445-66.938s37.364,22.905,54.854,94.778     c6.644,27.306,5.378,54.592-1.555,79.062c3.706-3.865,7.08-8.842,8.762-15.027c8.943-32.875,15.203-46.202,40.244-53.311     C284.576,221.646,317.665,234.973,297.99,275.845z"
   id="path3680" />
			<path
   fill="#E34202"
   d="M131.321,103.529c-8.944-14.219,7.155-31.991,17.889-53.32c10.733-21.326-1.789-39.1-37.566-46.209     c17.889,8.887,5.366,40.878,0,63.982C106.278,91.087,131.321,103.529,131.321,103.529z"
   id="path3682" />
			<path
   fill="#FE8A37"
   d="M270.267,234.973c-1.683,6.186-5.056,11.162-8.762,15.027c6.933-24.471,8.198-51.757,1.555-79.062     c-17.49-71.873-54.854-94.778-54.854-94.778s-36.958,21.872-24.445,66.938c9.54,34.358-2.385,75.823-40.543,75.823     c-41.314,0-22.797-85.086-45.884-105.912c0,0-31.382,48.173-34.277,103.293c-6.559-11.32-13.269-19.442-20.833-22.199     c-0.138-0.05-0.978,15.648-0.958,16.425c0.328,13.454,2.644,26.968,6.725,39.793c11.312,35.552,33.535,67.855,68.763,81.497     c46.908,18.164,113.653,10.654,153.686-21.776c10.854-8.792,21.481-21.583,27.553-34.195     c19.675-40.872-13.414-54.199,12.521-94.183C285.47,188.771,279.21,202.098,270.267,234.973z M104.487,201.873     c0,0,7.636,52.985,48.3,49.764c53.39-4.229,57.243-69.314,57.243-69.314s89.822,125.424-35.153,145.051     C87.195,341.144,65.133,246.305,104.487,201.873z"
   id="path3684" />
			<path
   fill="#E34202"
   d="M277.964,107.555c-3.578-13.625,3.577-23.695,11.328-30.805c33.389-22.51-7.751-43.242-7.751-43.242     s11.328,14.217-2.385,23.102C245.932,78.139,277.964,107.555,277.964,107.555z"
   id="path3686" />
			<path
   fill="#FFC642"
   d="M210.03,182.322c0,0-3.853,65.085-57.243,69.314c-40.664,3.222-48.3-49.764-48.3-49.764     c-39.354,44.432-17.292,139.271,70.39,125.5C299.852,307.746,210.03,182.322,210.03,182.322z"
   id="path3688" />
		</g>
	</g>
	<g
   id="rope_part">
	</g>
</g>
<g
   id="fire">
</g>
<g
   id="Layer_2">
</g>
</svg>