<?xml version="1.0" encoding="UTF-8" standalone="no"?>
<!-- Generator: Adobe Illustrator 16.2.0, SVG Export Plug-In . SVG Version: 6.00 Build 0)  -->

<svg
   xmlns:dc="http://purl.org/dc/elements/1.1/"
   xmlns:cc="http://creativecommons.org/ns#"
   xmlns:rdf="http://www.w3.org/1999/02/22-rdf-syntax-ns#"
   xmlns:svg="http://www.w3.org/2000/svg"
   xmlns="http://www.w3.org/2000/svg"
   xmlns:sodipodi="http://sodipodi.sourceforge.net/DTD/sodipodi-0.dtd"
   xmlns:inkscape="http://www.inkscape.org/namespaces/inkscape"
   version="1.1"
   x="0px"
   y="0px"
   width="1230px"
   height="1230px"
   viewBox="0 0 1230 1230"
   enable-background="new 0 0 1230 1230"
   xml:space="preserve"
   id="svg3153"
   inkscape:version="0.48.2 r9819"
   sodipodi:docname="LACT1_BarnBurnin_Barn.svg"><metadata
   id="metadata3649"><rdf:RDF><cc:Work
       rdf:about=""><dc:format>image/svg+xml</dc:format><dc:type
         rdf:resource="http://purl.org/dc/dcmitype/StillImage" /><dc:title></dc:title></cc:Work></rdf:RDF></metadata><defs
   id="defs3647" /><sodipodi:namedview
   pagecolor="#ffffff"
   bordercolor="#666666"
   borderopacity="1"
   objecttolerance="10"
   gridtolerance="10"
   guidetolerance="10"
   inkscape:pageopacity="0"
   inkscape:pageshadow="2"
   inkscape:window-width="640"
   inkscape:window-height="480"
   id="namedview3645"
   showgrid="false"
   inkscape:zoom="0.19186992"
   inkscape:cx="615"
   inkscape:cy="615"
   inkscape:window-x="0"
   inkscape:window-y="0"
   inkscape:window-maximized="0"
   inkscape:current-layer="svg3153" />
<g
   id="Fixed_BG">
</g>
<g
   id="Leroy_x27_s_House">
</g>
<g
   id="Ground">
</g>
<g
   id="Fence">
</g>
<g
   id="foreground">
</g>
<g
   id="Ground_color">
</g>
<g
   id="Smoke">
</g>
<g
   id="Layer_17">
	<g
   id="bucket">
	</g>
	<g
   id="waterdrop">
	</g>
</g>
<g
   id="Barn__x28_not_burnt_x29_"
   display="none">
</g>
<g
   id="Layer_7">
</g>
<g
   id="Barn">
	<g
   id="g3168">
		<path
   fill="#917F6D"
   d="M1197.008,1140.948c-1.885-20.186-17.448-46.308-23.225-62.069c-1.801-4.915-17.746-59.127-21.203-59.502    c-4.297-0.466-8.598-0.897-12.906-1.262c-16.236-1.373-32.701-0.64-48.98-0.513c-41.959,0.327-43.42,79.622-85.376,80.083    c-41.853,0.461-83.644-0.079-125.489-0.478c-41.381-0.395-82.752,1.271-124.062,3.254c-58.217,2.793-116.417,6.312-174.741,6.382    c-29.178,0.034-58.244-1.156-87.333-3.12c-26.299-1.775-52.772-1.294-79-3.91c-14.749-2.104-29.229-5.42-43.167-10.317    c-3.713-1.304-7.401-2.657-11.089-4.018c-1.865-0.688-3.727-1.39-5.586-2.09c-0.521-0.197-0.982-0.374-1.285-0.489    c-8.051-3.096-16.075-6.246-24.118-9.357c-18.315-7.084-36.909-13.469-55.297-20.363c-8.406-3.152-16.809-6.31-25.204-9.482    c-1.13-0.428-5.412-2.054-7.548-2.863c-3.778-1.444-7.556-2.893-11.331-4.347c-32.837-12.664-64.835-27.053-97.763-39.488    c-6.695-2.527-13.435-4.963-20.158-7.428c-3.085-1.132-6.167-2.272-9.244-3.424c-1.553-0.602-3.104-1.209-4.65-1.823    c-12.602-4.991-23.559-2.72-36.234-1.385c-14.024,1.476-28.719,3.348-42.017,8.26c-4.905,1.812-13.98,5.232-14.125,11.673    c-0.197,8.74,14.838,12.624,20.623,15.734c50.786,27.314,105.004,45.441,156.665,70.746    c48.112,23.566,95.494,48.803,144.115,71.313c4.595,2.128,10.017,5.493,15.062,6.443c21.125,3.974,89.653,1.305,111.179,2.063    c40.866,1.439,81.577,4.598,122.501,4.758c41.673,0.165,83.325-1.624,124.925-3.664c41.457-2.033,82.896-4.361,124.398-5.467    c41.547-1.105,83.047,0.183,124.595,0.229c46.993,0.053,93.979-0.864,140.966-1.506c27.34-0.373,56.468,0.345,83.789-3.92    C1193.866,1156.609,1198.303,1154.801,1197.008,1140.948z"
   id="path3170" />
		<g
   id="g3172">
			<g
   id="g3174">
				<polygon
   fill="#967657"
   points="187.832,57.965 19.604,537.235 127.27,553.683 216.992,170.118     "
   id="polygon3176" />
			</g>
			<g
   id="g3178">
				<polygon
   fill="#B8906A"
   points="201.426,97 71.195,542.003 98.11,995.105 322.244,1111.674 1161,1128.146 1161,579.254       995.332,97     "
   id="polygon3180" />
			</g>
			<g
   id="g3182">
				<rect
   x="548"
   y="755"
   fill="#382313"
   width="150"
   height="234"
   id="rect3184" />
			</g>
			<g
   id="g3186">
				<rect
   x="823"
   y="755"
   fill="#382313"
   width="162"
   height="234"
   id="rect3188" />
			</g>
			<g
   id="g3190">
				<polygon
   fill="#F5C89A"
   points="317.931,1104.874 351.577,550.835 201.29,75.305 71.195,541.721 91.38,992.721     "
   id="polygon3192" />
			</g>
			<g
   id="g3194">
				<polygon
   fill="#70513A"
   points="104.964,528.559 115.431,1018.994 80.172,1005.986 70.453,544.69     "
   id="polygon3196" />
			</g>
			<g
   id="g3198">
				<polygon
   fill="#634834"
   points="349,579 349,1142 394.291,1142 385.319,579     "
   id="polygon3200" />
			</g>
			<g
   id="g3202">
				<polygon
   fill="#634834"
   points="518.762,579 507.548,1142 554.65,1142 556.896,579     "
   id="polygon3204" />
			</g>
			<g
   id="g3206">
				<polygon
   fill="#634834"
   points="699.33,579 685.848,1142 730.756,1142 735.197,579     "
   id="polygon3208" />
			</g>
			<g
   id="g3210">
				<polygon
   fill="#634834"
   points="795.772,579 782.291,1142 827.198,1142 831.64,579     "
   id="polygon3212" />
			</g>
			<g
   id="g3214">
				<polygon
   fill="#634834"
   points="980.779,579 974.049,1142 1018.91,1142 1018.912,579     "
   id="polygon3216" />
			</g>
			<g
   id="g3218">
				<polygon
   fill="#634834"
   points="1123.181,579 1116.451,1142 1161,1142 1161,579     "
   id="polygon3220" />
			</g>
			<g
   opacity="0.6"
   id="g3222">
				<polygon
   fill="#695643"
   points="352.272,689.906 1159,643.69 1159,601.824 348.234,592.854     "
   id="polygon3224" />
			</g>
			<g
   id="g3226">
				<polygon
   fill="#634834"
   points="349,728 1161,728 1161,764.53 349,760.044     "
   id="polygon3228" />
			</g>
			<g
   id="g3230">
				<polygon
   fill="#70513A"
   points="173.744,165.218 178.861,559.81 143.718,555.922 139.232,304.707     "
   id="polygon3232" />
			</g>
			<g
   id="g3234">
				<polygon
   fill="#70513A"
   points="271.228,304.274 272.869,573.263 240,564.146 240,306.201     "
   id="polygon3236" />
			</g>
			<g
   id="g3238">
				<polygon
   fill="#634834"
   points="510,984.604 1020,986.099 1020,1023.952 510,1017.972     "
   id="polygon3240" />
			</g>
			<g
   id="g3242">
				<rect
   x="349"
   y="1104"
   fill="#634834"
   width="812"
   height="38"
   id="rect3244" />
			</g>
			<g
   id="g3246">
				<polygon
   fill="#8A6245"
   points="71.196,541.717 322.416,582.839 315.688,540.221 80.169,503.585     "
   id="polygon3248" />
			</g>
			<g
   id="g3250">
				<polygon
   fill="#8A6245"
   points="226.161,255.354 230.744,558.167 260,561.904 260,380.218     "
   id="polygon3252" />
			</g>
			<g
   id="g3254">
				<polygon
   fill="#8A6245"
   points="323.268,601.824 322.41,1126.651 349.434,1141.603 353.172,604.815     "
   id="polygon3256" />
			</g>
			<g
   id="g3258">
				<polygon
   fill="#8A6245"
   points="71.196,541.717 80.183,1006.283 107.206,1021.236 95.992,536.035     "
   id="polygon3260" />
			</g>
			<g
   id="g3262">
				<polygon
   fill="#8A6245"
   points="349.413,1103.599 80,971.785 80,1006.283 121.938,1030.398 151.945,1026.367 298,1098.989       298,1113.941 349.436,1141.603     "
   id="polygon3264" />
			</g>
			<g
   id="g3266">
				<polygon
   fill="#8A6245"
   points="166.268,190.637 172.132,555.322 136.241,552.932 139.232,304.707     "
   id="polygon3268" />
			</g>
			<g
   opacity="0.6"
   id="g3270">
				<polygon
   fill="#987452"
   points="70.573,545.006 154.187,555.322 286.529,292.883 201.29,75.305     "
   id="polygon3272" />
			</g>
			<g
   id="g3274">
				<polygon
   fill="#4D3728"
   points="174.557,80.097 299.344,616.777 1203.943,615.886 1208.424,598.835 454.758,214.376       187.948,58.309     "
   id="polygon3276" />
			</g>
			<g
   id="g3278">
				<path
   fill="#483324"
   d="M350.181,1144h-0.007c-2.068,0-3.737-1.762-3.731-3.826l1.549-523.725      c0.006-2.061,1.679-3.449,3.738-3.449h0.011c2.064,0,3.733,1.368,3.728,3.432l-1.549,523.921      C353.913,1142.414,352.24,1144,350.181,1144z"
   id="path3280" />
			</g>
			<g
   id="g3282">
				<path
   fill="#483324"
   d="M349.978,1144c-0.519,0-1.03-0.311-1.499-0.533l-53.627-25.517c-1.232-0.584-2.014-1.88-2.001-3.244      l4.455-483.142l-166.455-37.318l-2.974,435.255c-0.009,1.208-0.64,2.324-1.67,2.956c-1.029,0.633-2.312,0.688-3.395,0.146      l-47.873-23.914c-1.168-0.583-1.914-1.77-1.936-3.074l-7.525-460.508c-0.005-0.35,0.042-0.699,0.14-1.036l121.012-415.63      c0.54-1.856,2.479-2.924,4.339-2.382c1.855,0.541,2.922,2.483,2.382,4.339L72.486,545.521l7.482,457.855l40.946,20.453      l2.965-433.983c0.008-1.059,0.493-2.058,1.321-2.716c0.829-0.659,1.909-0.907,2.944-0.676l173.452,38.873      c1.61,0.36,2.749,1.797,2.734,3.447l-4.461,483.711l51.044,24.121l806.085-1.487V621.603c0-1.933,1.566-3.5,3.5-3.5      c1.933,0,3.5,1.567,3.5,3.5v517.01c0,1.931-1.717,3.692-3.646,3.696L349.984,1144H349.978z"
   id="path3284" />
			</g>
			<g
   id="g3286">
				<path
   fill="#483324"
   d="M124.397,1033.198c-1.794,0-3.378-1.295-3.683-3.124c-0.339-2.036,1.036-3.962,3.073-4.302l23.845-3.975      l7.422-417.049c0.037-2.064,1.764-3.747,3.804-3.671c2.064,0.036,3.708,1.739,3.671,3.804l-7.477,420.158      c-0.032,1.802-1.345,3.324-3.123,3.621l-26.913,4.486C124.809,1033.182,124.602,1033.198,124.397,1033.198z"
   id="path3288" />
			</g>
			<g
   id="g3290">
				<path
   fill="#483324"
   d="M387.693,730c-1.053,0-1.909-0.451-2.658-1.191c-0.761-0.75-1.035-1.81-1.035-2.879V614.603      c0-2.209,1.791-4,4-4s4,1.791,4,4v107.28l120.425-1.403l1.397-107.087c0.031-2.209,1.763-3.954,4.017-3.945      c2.209,0.031,3.956,1.846,3.927,4.055l-1.538,110.986c-0.03,2.17-1.789,3.956-3.958,3.981L387.74,730      C387.725,730,387.709,730,387.693,730z"
   id="path3292" />
			</g>
			<g
   id="g3294">
				<path
   fill="#483324"
   d="M508.677,1108c-0.032,0-0.065,0-0.098,0l-115.134-2.971c-2.144-0.053-3.864-1.864-3.901-4.007      l-5.98-341.31c-0.02-1.073,0.394-1.93,1.146-2.695c0.753-0.766,1.78-1.018,2.854-1.018h125.599c1.07,0,2.095,0.23,2.847,0.992      c0.752,0.761,1.167,1.693,1.153,2.762l-4.484,344.031c-0.015,1.069-0.455,2.221-1.225,2.963      C510.705,1107.467,509.71,1108,508.677,1108z M397.476,1097.166l107.254,2.718L509.108,764H391.633L397.476,1097.166z"
   id="path3296" />
			</g>
			<g
   id="g3298">
				<path
   fill="#483324"
   d="M556.523,732c-1.001,0-1.962-0.821-2.665-1.535c-0.712-0.725-1.099-1.917-1.071-2.931l2.99-110.753      c0.056-2.063,1.777-3.75,3.837-3.688c2.064,0.056,3.692,1.747,3.636,3.811l-2.885,106.755l131.624-1.422l4.339-105.609      c0.086-2.063,1.84-3.669,3.889-3.583c2.063,0.085,3.667,1.825,3.583,3.887l-4.486,109.152c-0.083,1.987-1.706,3.982-3.695,4.003      L556.563,732C556.55,732,556.537,732,556.523,732z"
   id="path3300" />
			</g>
			<g
   id="g3302">
				<path
   fill="#483324"
   d="M553.532,1109c-1.065,0-2.087-0.785-2.838-1.543c-0.762-0.766-1.181-1.989-1.161-3.069l1.494-83.568      c0.039-2.18,1.817-3.819,3.999-3.819h136.065c1.087,0,2.125,0.242,2.88,1.025c0.753,0.781,1.158,1.736,1.118,2.822      l-2.989,82.157c-0.077,2.134-1.817,4.167-3.953,4.19L553.576,1109C553.562,1109,553.547,1109,553.532,1109z M558.956,1025      l-1.351,75.432l126.64-1.282l2.699-74.149H558.956z"
   id="path3304" />
			</g>
			<g
   id="g3306">
				<path
   fill="#483324"
   d="M783.799,1108h-53.105c-2.209,0-3.693-2.188-3.693-4.397v-80.123c0-2.137,1.526-3.896,3.661-3.996      l54.884-2.553c1.096-0.051,2.149,0.359,2.941,1.134c0.794,0.774,1.211,1.844,1.186,2.952l-1.864,82.874      C787.759,1106.064,785.973,1108,783.799,1108z M735,1100h44.888l1.825-74.68L735,1027.298V1100z"
   id="path3308" />
			</g>
			<g
   id="g3310">
				<path
   fill="#483324"
   d="M973.691,1108H828.654c-2.181,0-3.959-1.945-3.999-4.125l-1.494-81.061      c-0.021-1.08,0.397-1.991,1.156-2.759c0.751-0.76,1.774-1.056,2.843-1.056c0.012,0,0.023,0,0.034,0l148.026,1.096      c1.068,0.01,2.088,0.356,2.833,1.122c0.744,0.765,1.152,1.752,1.132,2.819l-1.495,79.861      C977.649,1106.078,975.871,1108,973.691,1108z M832.581,1100h137.185l1.346-71.92l-139.877-1.106L832.581,1100z"
   id="path3312" />
			</g>
			<g
   id="g3314">
				<path
   fill="#483324"
   d="M1015.559,1110c-0.984,0-1.929-0.662-2.631-1.354c-0.712-0.707-1.111-1.807-1.107-2.811l1.494-342.475      c0.01-2.037,1.648-3.726,3.686-3.755l103.171-1.511c1.016-0.038,1.976,0.368,2.689,1.078c0.714,0.709,1.111,1.672,1.103,2.678      l-2.991,342.407c-0.019,2.03-1.653,3.947-3.684,3.977L1015.613,1110C1015.595,1110,1015.577,1110,1015.559,1110z       M1020.775,766.994l-1.462,334.928l94.214-1.383l2.926-334.932L1020.775,766.994z"
   id="path3316" />
			</g>
			<g
   id="g3318">
				<path
   fill="#483324"
   d="M1121.693,728h-101.65c-2.188,0-3.969-1.956-4-4.143l-1.508-107.692      c-0.03-2.209,1.735-4.165,3.943-4.165c0.02,0,0.039,0,0.057,0c2.185,0,3.969,1.963,4,4.153L1023.987,720H1118V614.603      c0-2.209,1.791-4,4-4s4,1.791,4,4v109C1126,725.812,1123.902,728,1121.693,728z"
   id="path3320" />
			</g>
			<g
   id="g3322">
				<path
   fill="#483324"
   d="M981.17,732H833.14c-2.167,0-3.94-1.923-3.999-4.089l-2.988-109.295      c-0.061-2.208,1.681-4.098,3.889-4.157c0.037-0.002,0.074-0.027,0.111-0.027c2.158,0,3.938,1.906,3.996,4.077L837.031,724      h140.084l-1.442-108.062c-0.029-2.209,1.737-3.938,3.946-3.938c0.019,0,0.037,0,0.055,0c2.185,0,3.97,1.442,3.999,3.631      l1.497,112.075c0.014,1.07-0.401,2.222-1.152,2.984C983.266,731.452,982.24,732,981.17,732z"
   id="path3324" />
			</g>
			<g
   id="g3326">
				<path
   fill="#483324"
   d="M734.455,732c-0.982,0-1.927-0.805-2.627-1.498c-0.724-0.715-1.125-1.902-1.111-2.919l1.498-110.771      c0.027-2.047,1.695-3.812,3.736-3.812c0.018,0,0.034,0,0.052,0c2.063,0,3.714,1.744,3.687,3.808l-1.444,106.77l50.835-1.298      l1.447-106.823c0.027-2.047,1.695-3.457,3.736-3.457c0.018,0,0.034,0,0.051,0c2.065,0,3.716,1.496,3.688,3.56l-1.495,110.535      c-0.026,2.007-1.635,3.997-3.642,4.048L734.551,732C734.518,732,734.487,732,734.455,732z"
   id="path3328" />
			</g>
			<g
   id="g3330">
				<path
   fill="#483324"
   d="M322.574,1096.425c-0.571,0-1.145-0.131-1.672-0.395l-24.67-12.335      c-1.847-0.924-2.595-3.169-1.672-5.016c0.924-1.847,3.167-2.594,5.016-1.672l19.288,9.645l2.214-468.126      c0.01-2.059,1.682-3.526,3.738-3.526h0.012c2.07,0,3.736,1.497,3.727,3.561l-2.242,474.241c-0.007,1.292-0.68,2.441-1.78,3.118      C323.934,1096.288,323.255,1096.425,322.574,1096.425z"
   id="path3332" />
			</g>
			<g
   id="g3334">
				<path
   fill="#483324"
   d="M121.848,996.625c-0.524,0-1.058-0.111-1.564-0.346l-14.577-6.729c-1.296-0.598-2.138-1.881-2.171-3.308      L93.442,547.789c-0.025-1.11,0.443-2.174,1.28-2.903c0.836-0.73,1.951-1.054,3.051-0.873l195.12,31.4      c2.038,0.328,3.425,2.246,3.097,4.284s-2.242,3.421-4.284,3.097l-190.686-30.686l9.936,431.633l12.46,5.752      c1.875,0.865,2.692,3.086,1.827,4.96C124.612,995.819,123.26,996.625,121.848,996.625z"
   id="path3336" />
			</g>
			<g
   id="g3338">
				<path
   fill="#483324"
   d="M688.104,989h-133.41c-2.209,0-3.693-2.188-3.693-4.397v-223c0-2.209,1.484-3.603,3.693-3.603h137.896      c1.075,0,2.104,0.234,2.856,1.001c0.753,0.768,1.164,1.707,1.143,2.781l-4.486,223.148C692.059,987.108,690.281,989,688.104,989      z M559,981h125.184l4.324-215H559V981z"
   id="path3340" />
			</g>
			<g
   id="g3342">
				<path
   fill="#483324"
   d="M973.692,987c-0.014,0-0.026,0-0.04,0l-142.047-1.572c-0.994-0.012-1.942-0.454-2.636-1.165      c-0.694-0.712-1.077-1.689-1.062-2.683l2.991-216.818c0.028-2.029,1.67-3.669,3.699-3.691l146.534-1.498      c1.035-0.019,2,0.395,2.712,1.125c0.713,0.729,1.097,1.718,1.062,2.738l-7.479,219.875C977.358,985.327,975.704,987,973.692,987      z M835.434,977.914l134.646,1.417l7.221-212.244l-138.977,1.418L835.434,977.914z"
   id="path3344" />
			</g>
			<g
   id="g3346">
				<path
   fill="#483324"
   d="M783.799,988h-52.334c-1.07,0-2.095-0.627-2.847-1.389c-0.751-0.762-1.167-1.893-1.153-2.963      l2.99-222.962c0.015-1.068,0.455-2.111,1.226-2.852c0.769-0.741,1.784-1.168,2.871-1.13l56.819,1.366      c1.067,0.026,2.08,0.474,2.812,1.25s1.125,1.812,1.089,2.878l-7.476,221.738C787.724,986.092,785.955,988,783.799,988z       M735.52,980h44.412l7.209-213.837l-48.74-1.078L735.52,980z"
   id="path3348" />
			</g>
			<g
   opacity="0.6"
   id="g3350">
				<path
   fill="#696766"
   d="M1054.444,651.596c-6.12-27.539-18.669-56.908-46.29-68.675c-15.464-6.588-33.34-5.903-48.624,0.916      c-10.11-9.933-23.583-13.95-37.458-12.086c-12.945,1.739-22.77-5.579-36.35-4.348c-15.939,1.444-29.108,8.042-39.406,20.404      c-27.314,2.625-55.525-14.528-80.602,8.55c-15.104-9.402-29.086-17.483-47.096-19.693c-21.865-2.684-43.816,5.73-65.391,8.467      c-46.29,5.873-89.771-1.062-135.621-6.301c12.457-25.85-7.516-56.552-35.934-56.552c-28.655,0-51.66,33.782-62.275,56.931      c-24.483,53.394-0.17,113.398,52.306,138.167c-17.765,38.559-3.178,91.491,34.478,112.694      c-4.234,19.881,1.646,41.075,12.31,58.013c8.315,13.209,4.317,12.601,2.131,28.116c-1.342,9.525-0.15,19.56,3.422,28.479      c6.179,15.428,25.482,40.322,43.05,40.322c23,0,46,0,69,0c17.221,0,34.443,0,51.664,0c9.956,0,36.113-36.118,42.213-43.771      c8.243-10.34,9.019-23.492,6.319-36.234c17.937-15.812,26.292-37.638,29.024-60.782c1.178-9.963-0.588-21.303-3.572-30.835      c-4.418-14.118-4.162-12.621,4.158-25.474c3.473-5.366,21.573-47.149,13.788-50.752c12.573,5.818,11.378,28.333,13.362,38.862      c2.047,10.875,5.865,21.37,11.225,31.048c6.023,10.875-1.713,20.369-4.432,32.433c-8.196,36.354-10.22,76.469,5.678,111.052      c4.658,10.135,14.6,30.684,26.072,35.453c11.775,4.896,35.982,0,48.523,0c24.526,0,49.053,0,73.579,0      c9.386,0,18.493,1.733,26.842-2.729c42.261-22.585,83.001-67.27,46.202-113.969c4.931-7.791,10.334-11.287,12.339-21.8      c4.067-21.327-0.044-49.945-24.498-56.953C1048.21,754.575,1065.215,700.087,1054.444,651.596      C1052.852,644.429,1059.482,674.284,1054.444,651.596z"
   id="path3352" />
			</g>
			<g
   id="g3354">
				<polygon
   fill="#33241A"
   points="127.274,1029.961 127.27,591.212 302.229,627.101 297.848,1098.989 151.944,1026.367     "
   id="polygon3356" />
			</g>
			<g
   id="g3358">
				<polygon
   fill="#B8A28E"
   points="183.527,58.791 321.453,592.557 1207.303,594.349 1058.143,68.577     "
   id="polygon3360" />
			</g>
			<g
   id="g3362">
				<polygon
   fill="#B8A28E"
   points="187.948,59 174.492,59 8.39,530.247 19.604,537.754     "
   id="polygon3364" />
			</g>
			<g
   id="g3366">
				<polygon
   fill="#573F2D"
   points="127.274,1029.961 151.944,1026.367 158.793,598.087 127.27,591.212     "
   id="polygon3368" />
			</g>
			<g
   opacity="0.6"
   id="g3370">
				<polygon
   fill="#987452"
   points="70.573,545.006 81.478,546.578 188.696,141.294 185.705,130.827     "
   id="polygon3372" />
			</g>
			<g
   id="g3374">
				<polygon
   fill="#968574"
   points="230.562,108.399 250.001,184.655 398.029,180.17 374.104,109.894     "
   id="polygon3376" />
			</g>
			<g
   id="g3378">
				<polygon
   fill="#968574"
   points="552.037,118.865 571.475,195.123 719.504,198.112 700.064,117.371     "
   id="polygon3380" />
			</g>
			<g
   id="g3382">
				<polygon
   fill="#968574"
   points="439.896,242.97 459.333,319.226 608.855,323.712 583.438,244.465     "
   id="polygon3384" />
			</g>
			<g
   id="g3386">
				<polygon
   fill="#968574"
   points="645.49,376.793 664.927,453.049 812.954,448.564 789.061,377.252     "
   id="polygon3388" />
			</g>
			<g
   id="g3390">
				<polygon
   fill="#C7AF99"
   points="656.703,219.045 676.141,295.303 828.654,301.284 800.247,220.542     "
   id="polygon3392" />
			</g>
			<g
   id="g3394">
				<polygon
   fill="#C7AF99"
   points="726.979,78.495 746.417,154.75 898.93,160.732 870.521,79.99     "
   id="polygon3396" />
			</g>
			<g
   id="g3398">
				<polygon
   fill="#C7AF99"
   points="918.367,526.316 937.807,602.573 1084.352,605.636 1061.91,527.811     "
   id="polygon3400" />
			</g>
			<g
   id="g3402">
				<polygon
   fill="#C7AF99"
   points="485.499,523.325 504.938,599.582 657.451,605.562 629.042,524.821     "
   id="polygon3404" />
			</g>
			<g
   id="g3406">
				<polygon
   fill="#C7AF99"
   points="223.087,244.465 242.525,320.722 395.039,326.702 366.628,245.96     "
   id="polygon3408" />
			</g>
			<g
   id="g3410">
				<polygon
   fill="#C7AF99"
   points="498.208,65.038 517.646,141.294 670.161,147.275 641.752,66.533     "
   id="polygon3412" />
			</g>
			<g
   id="g3414">
				<polygon
   fill="#C7AF99"
   points="839.867,417.164 859.309,493.42 1011.821,499.401 983.412,418.659     "
   id="polygon3416" />
			</g>
			<g
   id="g3418">
				<polygon
   fill="#C7AF99"
   points="342.705,145.033 362.144,221.289 511.666,216.056 486.248,146.527     "
   id="polygon3420" />
			</g>
			<g
   id="g3422">
				<polygon
   fill="#968574"
   points="907.902,124 927.341,199.933 1078.358,201.589 1049.95,124     "
   id="polygon3424" />
			</g>
			<g
   id="g3426">
				<polygon
   fill="#968574"
   points="1051.444,523.325 1070.883,599.582 1219.664,599.281 1194.986,524.821     "
   id="polygon3428" />
			</g>
			<g
   id="g3430">
				<polygon
   fill="#968574"
   points="693.336,526.316 712.775,602.573 860.801,598.087 836.879,527.811     "
   id="polygon3432" />
			</g>
			<g
   id="g3434">
				<polygon
   fill="#968574"
   points="467.558,405.95 486.995,482.206 645.49,485.197 620.818,407.445     "
   id="polygon3436" />
			</g>
			<g
   id="g3438">
				<polygon
   fill="#968574"
   points="255.982,376.793 275.42,453.049 433.913,456.04 409.242,378.288     "
   id="polygon3440" />
			</g>
			<g
   id="g3442">
				<polygon
   fill="#968574"
   points="293.363,527.811 311.361,599.285 460.125,606.384 436.905,529.306     "
   id="polygon3444" />
			</g>
			<g
   id="g3446">
				<polygon
   fill="#968574"
   points="840.617,279.603 860.056,355.859 1027.521,361.841 999.111,281.098     "
   id="polygon3448" />
			</g>
			<g
   id="g3450">
				<polygon
   fill="#C7AF99"
   points="906.407,231.755 925.844,308.012 1073.871,307.265 1049.95,233.251     "
   id="polygon3452" />
			</g>
			<g
   id="g3454">
				<polygon
   fill="#C7AF99"
   points="371.861,346.141 391.3,422.397 539.327,417.912 515.447,342.49     "
   id="polygon3456" />
			</g>
			<g
   id="g3458">
				<g
   id="g3460">
					<path
   fill="#695643"
   d="M813.865,696.635c-0.005,0.051-0.008,0.102-0.014,0.152       C813.887,696.483,813.887,696.465,813.865,696.635z"
   id="path3462" />
				</g>
				<g
   id="g3464">
					<path
   fill="#695643"
   d="M478.27,1003.954c-0.024-0.03-0.048-0.061-0.073-0.092       C480.596,1007.178,479.003,1004.887,478.27,1003.954z"
   id="path3466" />
				</g>
			</g>
			<g
   opacity="0.6"
   id="g3468">
				<path
   fill="#696766"
   d="M339.616,54.657c-7.937,7.943-10.622,14.473-14.664,24.639c-2.309,5.807-2.926,12.707-2.489,18.923      c0.75,10.674,2.697,19.738,8.334,29.035c3.705,6.111,8.568,11.753,14.172,16.469c-2.264,1.31-38.255-16.825-69.657,21.308      c-35.305,42.87-15.838,102.206,27.732,115.456c7.141,2.171,14.46,3.815,21.875,5.071c-0.823,3.341-1.2,6.783-1.121,10.326      c0.222,7.56,2.472,14.553,6.748,20.98c3.752,5.528,8.597,9.995,14.518,13.415c-2.587,4.515-4.68,9.307-6.439,14.583      c-3.796,11.378-2.755,24.268,0.325,35.603c3.778,13.905,14.05,26.499,26.814,34.879c-1.672,6.888-1.601,13.963,0.749,21.157      c3.537,10.827,11.438,19.201,21.861,24.885c45.8,24.971,103.263,26.114,153.952,33.435      c91.474,13.21,178.433,5.529,269.591-1.042c67.134-4.839,137.901-2.315,204.501-15.016c6.064-1.156,12.086-2.513,18.026-4.138      c8.928-2.442,17.104-5.956,25.604-9.532c3.93-1.655,7.749-3.562,11.123-6.074c8.8-6.547,17.37-12.607,22.187-22.526      c5.289-10.891,9.427-22.466,8.343-34.625c-0.979-11-3.973-22.598-11.269-31.606c-7.952-9.817-15.278-16.178-26.802-22.638      c-4.787-2.683-10.047-4.77-15.377-6.592c-0.008-0.111-0.012-0.225-0.021-0.335c-1.081-12.285-3.933-18.875-9.511-29.763      c-6.248-12.192-15.992-21.936-27.639-29.329c0.534-4.155,0.739-8.296,0.614-12.292c-0.415-13.375-4.359-25.05-10-36.761      c-2.823-6.222-5.877-12.477-10.05-18.021c-26.128-34.721-63.605-62.957-115.193-69.687c3.546-7.788,19.186-29.435,17.943-38.132      c-2.242-15.701-20.186-38.132-58.32-43.828L339.616,54.657z"
   id="path3470" />
			</g>
			<g
   id="g3472">
				<path
   fill="#38281C"
   d="M405.409,187.461c0,0,244.495-87.479,493.499-6.69c-13.457,22.43-31.414,40.356-31.414,40.356      l67.288,15.691l-24.678,22.426l38.13,11.213l-40.375,31.401l98.693,85.236l-23.141,31.643l56.789,49.264      c0,0-118.99,25.216-293.846,31.246c-195.147,6.729-304.966-31.246-304.966-31.246l49.258-33.803l-114.396-17.944l31.402-15.702      l-31.402-11.216l94.208-40.375l-75.421-22.26l39.532-18.115l-65.048-20.188l49.346-22.43l-52.241-20.008l47.756-18.69      l-49.348-17.378L405.409,187.461z"
   id="path3474" />
			</g>
			<g
   opacity="0.6"
   id="g3476">
				<path
   fill="#696766"
   d="M128.888,231.008C128.749,233.212,129.7,229.032,128.888,231.008      c-10.467,25.419-4.688,63.149,10.345,73.699c0.234,0.164-27.9,104.43-26.697,107.412c-3.301,5.757-5.895,11.931-9.453,20.991      c-2.451,6.244-3.381,21.55-3.507,22.868c-0.18,1.918-0.24,3.793-0.044,5.713c1.42,13.944,2.793,25.221,8.979,37.157      c-1.312,2.996-2.728,6.479-4.513,10.84c-3.207,7.84-4.176,17.487-3.205,26.025c2.145,18.866,3.257,24.188,11.668,41.55      c3.946,8.149,10.842,15.499,16.312,22.252c7.52,9.281,18.11,16.162,27.726,23.002c9.949,5.771,20.683,8.673,32.197,8.708      c16.852,0,33.199-6.773,45.108-18.683c7.906-7.96,13.374-17.343,16.404-28.15c3.023-10.988,3.264-24.583-0.325-36.35      c11.948-15.364,19.292-35.651,17.742-54.771c-1.188-14.633-2.799-24.076-8.706-36.138c2.897-5.619-1.115-13.927,0.801-19.038      L174.554,94.671L128.888,231.008z"
   id="path3478" />
			</g>
			<g
   opacity="0.6"
   id="g3480">
				<path
   fill="#696766"
   d="M389.584,482.318c-1.113-2.528-3.102-4.312-5.231-5.909c-1.124-1.149-2.396-2.15-3.823-2.995      c-4.206-2.464-9.332-3.129-14.031-1.836c-2.411,0.664-4.643,1.841-6.572,3.396c-1.041,0.382-2.136,0.888-3.463,1.582      c-1.456,0.762-2.769,1.858-3.926,3.02c-1.085,1.086-2.005,2.362-2.826,3.667c-1.93,3.06-2.093,5.475-2.44,8.973      c-0.438,4.402,2.21,10.449,5.648,13.193c1.278,1.02,2.799,2.392,4.368,3.251c1.839,1.005,3.876,1.698,5.785,2.502      c-0.342-0.145-0.681-0.288-1.021-0.432c1.758,0.681,3.027,0.942,6.074,1.207c0.506,0.044,1.012,0.088,1.517,0.132      c0.442,0.038,0.884,0.076,1.322,0.115c1.671,0.145,2.826,0.231,4.944-0.631c2.09-0.853,4.543-1.607,6.498-2.896      c1.459-0.96,2.941-1.971,4.141-3.247c2.813-2.99,3.461-4.517,4.876-8.337c0.609-1.646,0.694-3.485,0.726-5.24      C392.217,487.745,391.176,485.936,389.584,482.318z"
   id="path3482" />
			</g>
			<g
   opacity="0.6"
   id="g3484">
				<path
   fill="#696766"
   d="M317.602,329.11c-1.196-0.925-2.394-1.85-3.591-2.774c-2.767-1.605-5.751-2.412-8.954-2.422      c-0.884-0.119-1.83-0.043-2.723-0.059c-4.66-0.086-9.313,1.94-12.587,5.213c-3.323,3.323-5.213,7.885-5.213,12.587      c0,4.701,1.89,9.263,5.213,12.586c3.273,3.273,7.927,5.299,12.587,5.213c0.893-0.016,1.839,0.06,2.723-0.059      c1.572-0.21,3.146-0.422,4.718-0.633c3.004-0.844,5.614-2.365,7.827-4.563c3.312-3.312,5.196-7.858,5.196-12.544      C322.798,336.969,320.914,332.422,317.602,329.11z"
   id="path3486" />
			</g>
			<g
   opacity="0.6"
   id="g3488">
				<path
   fill="#696766"
   d="M469.093,807.266c-0.949-4.854-3.538-8.333-6.495-12.082c-2.797-3.543-7.057-5.613-11.191-7.089      c-11.249-4.008-24.397,3.345-30.806,12.259C394.204,837.073,479.417,860.102,469.093,807.266z"
   id="path3490" />
			</g>
			<g
   opacity="0.6"
   id="g3492">
				<path
   fill="#696766"
   d="M478.771,855.483c-8.439,0-15.481,7.042-15.481,15.483c0,8.439,7.042,15.481,15.481,15.481      c8.44,0,15.482-7.042,15.482-15.481C494.253,862.525,487.211,855.483,478.771,855.483z"
   id="path3494" />
			</g>
			<g
   id="g3496">
				<path
   fill="#3B3027"
   d="M658.198,611.544c-0.06,0-0.12-0.002-0.181-0.005l-155.503-7.477c-1.541-0.073-2.879-1.088-3.366-2.552      l-2.108-6.326l-37.735,1.217l3.372,6.742c0.591,1.183,0.514,2.59-0.204,3.701c-0.719,1.11-2.011,1.758-3.29,1.706l-148.028-5.98      c-1.588-0.064-2.962-1.126-3.425-2.646l-20.935-68.781c-0.555-1.824,0.352-3.773,2.104-4.524l7.527-3.226l-16.569-64.896      l-5.17-1.034c-1.465-0.293-2.614-1.43-2.924-2.892l-16.447-77.751l-10.212-53.977l-4.821-3.616      c-0.658-0.494-1.135-1.19-1.356-1.982l-20.934-74.761c-0.28-1.002-0.131-2.075,0.413-2.962c0.544-0.887,1.433-1.507,2.453-1.711      l3.521-0.705L180.61,80.999c-0.557-1.988,0.603-4.051,2.591-4.608c1.984-0.559,4.051,0.602,4.608,2.59l44.858,159.989      c0.28,1.002,0.131,2.076-0.413,2.963c-0.543,0.887-1.433,1.507-2.453,1.712l-3.523,0.705l19.505,69.657l4.967,3.726      c0.746,0.56,1.256,1.378,1.43,2.295l10.466,55.323l15.922,75.264l5.062,1.012c1.409,0.282,2.533,1.348,2.889,2.741      l17.942,70.276c0.455,1.785-0.457,3.635-2.149,4.361l-7.389,3.167l19.186,63.037l139.05,5.618l-3.15-6.3      c-0.569-1.14-0.52-2.491,0.133-3.586c0.652-1.094,1.817-1.781,3.091-1.822l46.354-1.495c1.638-0.051,3.143,0.986,3.667,2.555      l2.18,6.542l148.056,7.118l-1.928-8.678c-0.251-1.125,0.032-2.302,0.767-3.19c0.733-0.888,1.83-1.389,2.986-1.356l53.827,1.495      c1.378,0.038,2.623,0.831,3.239,2.064l1.927,3.852l218.914-5.916c1.171-0.041,2.287,0.486,3.02,1.401l4.874,6.092l140.064,1.444      l0.969-5.815c0.31-1.855,1.949-3.199,3.826-3.121l121.114,4.485c2.062,0.076,3.673,1.811,3.597,3.874s-1.779,3.679-3.875,3.597      l-117.828-4.363l-0.954,5.952c-0.302,1.805-1.862,3.347-3.688,3.347c-0.013,0-0.025,0-0.038,0l-145.037-1.718      c-1.123-0.012-2.18-0.638-2.881-1.515l-4.82-6.08l-219.436,5.902c-1.472,0.041-2.794-0.78-3.442-2.078l-1.99-3.984      l-46.797-1.304l1.95,8.775c0.252,1.138-0.04,2.328-0.791,3.218C660.344,611.061,659.298,611.544,658.198,611.544z"
   id="path3498" />
			</g>
			<g
   id="g3500">
				<path
   fill="#483324"
   d="M230.624,532.379c-0.221,0-0.441-0.02-0.662-0.06l-56.067-10.092c-1.775-0.319-3.069-1.862-3.076-3.666      l-1.122-323.942c-0.007-2.065,1.661-3.62,3.726-3.62h0.013c2.059,0,3.73,1.533,3.738,3.593l1.111,320.894l48.578,8.712      l-1.099-208.503c-0.011-2.064,1.654-3.696,3.719-3.696c0.007,0,0.014,0,0.014,0c2.062,0,3.733,1.583,3.744,3.64l1.122,213.021      c0.006,1.11-0.482,2.146-1.333,2.861C232.351,532.093,231.497,532.379,230.624,532.379z"
   id="path3502" />
			</g>
			<g
   id="g3504">
				<path
   fill="#483324"
   d="M136.429,513.316c-0.154,0-0.309-0.01-0.464-0.029l-53.824-6.728c-2.048-0.256-3.501-2.124-3.245-4.173      c0.256-2.049,2.132-3.507,4.173-3.245l49.671,6.208l2.194-188.672c0.024-2.049,1.693-3.677,3.737-3.677c0.015,0,0.029,0,0.045,0      c2.063,0,3.718,1.7,3.694,3.764l-2.243,192.866c-0.013,1.064-0.479,2.069-1.28,2.769      C138.201,512.996,137.327,513.316,136.429,513.316z"
   id="path3506" />
			</g>
			<g
   id="g3508">
				<path
   fill="#3B3027"
   d="M1207.693,620H644.741l-345.417-1.854c-1.852-0.009-3.455-1.387-3.876-3.19L174.021,94.589      c-0.502-2.151,0.835-4.327,2.986-4.83c2.151-0.501,4.303,0.822,4.805,2.974l120.709,517.434L644.76,612H1204v-11.671      c0-1.15,0.342-2.244,1.205-3.004c0.863-0.759,1.932-1.113,3.076-0.963l5.28,0.686l-21.61-66.438l-6.585-1.096      c-1.534-0.255-2.785-1.376-3.203-2.875l-126.29-454.646L176.269,61.702L13.57,529.874l8.511,3.869l47.605,7.31      c2.184,0.335,3.682,2.377,3.347,4.561c-0.336,2.184-2.38,3.679-4.562,3.347l-48.15-7.393c-0.361-0.056-0.714-0.161-1.048-0.312      l-12.335-5.606c-1.881-0.855-2.802-3.003-2.123-4.955L169.656,56.521c0.56-1.61,2.077-2.521,3.777-2.521      c0.017,0,0.032,0,0.048,0l885.485,10.193c1.779,0.021,3.331,1.132,3.808,2.846l126.411,455.043l6.458,1.056      c1.472,0.245,2.685,1.279,3.146,2.699l24.296,74.756c0.422,1.304,0.148,2.731-0.726,3.788c-0.876,1.057-2.08,1.591-3.438,1.412      l-6.923-0.915v10.725C1212,617.812,1209.902,620,1207.693,620z"
   id="path3510" />
			</g>
			<g
   id="g3512">
				<path
   fill="#6C482F"
   d="M483.693,277.603c-2.87-11.001,0.897-18.335,5.607-23c-63.23,0-94.569,3-98.607,3l27,9l-26,14l-20,9      l61,20l55.174-0.271C486.451,297.056,476.654,288.552,483.693,277.603z"
   id="path3514" />
			</g>
			<g
   id="g3516">
				<path
   fill="#4A3627"
   d="M501.693,290.801c-6.67-14.673-2.22-28.801,1.484-35.801c-4.387,0-9.031,0-13.877,0      c-4.71,4-8.478,11.8-5.607,22.801c-7.039,10.95,2.758,19.354,4.174,31.629l11.675-0.207      C497.752,303.567,498.1,297.391,501.693,290.801z"
   id="path3518" />
			</g>
			<g
   id="g3520">
				<g
   id="g3522">
					<path
   fill="#B21F2E"
   d="M534.491,308.739l9.255-0.089c0.136-0.51,0.273-1.02,0.398-1.531c0.011-0.871-0.005-1.741-0.051-2.612       c-0.151-0.779-0.311-1.556-0.473-2.333c-2.885-4.006-6.412-9.535-8.928-15.572c-3.298-7.914,1.403-19.565,4.873-26.408       c0.079-1.865,0.115-3.729,0.085-5.592h-9.887C522.929,262.382,508.398,284.324,534.491,308.739z"
   id="path3524" />
				</g>
				<g
   id="g3526">
					<path
   fill="#6E131C"
   d="M529.765,255c-6.796,0-15.927,0-26.587,0c-3.704,7-8.154,21.128-1.484,35.801       c-3.594,6.589-3.941,12.716-2.151,18.374l34.949-0.187C508.398,284.573,522.929,262,529.765,255z"
   id="path3528" />
				</g>
			</g>
			<g
   id="g3530">
				<path
   fill="#F58532"
   d="M532.896,263.603c-0.035-1.745-1.43-3.202-3.202-3.202s-3.167,1.458-3.202,3.202      c-0.026,1.304-0.062,2.536,0.208,3.826c0.622,2.974,5.366,2.974,5.988,0C532.957,266.139,532.922,264.906,532.896,263.603z"
   id="path3532" />
			</g>
			<g
   id="g3534">
				<path
   fill="#F58532"
   d="M530.519,297.824c-0.325-0.986-0.752-1.746-1.458-2.51c-0.201-0.219-0.393-0.447-0.583-0.676      c-0.019-0.022-0.023-0.027-0.039-0.046c-0.022-0.038-0.049-0.08-0.099-0.155c-0.044-0.067-0.182-0.352-0.232-0.438      c-0.062-0.181-0.128-0.36-0.182-0.544c-0.312-1.084-0.575-1.841-1.366-2.718c-0.882-0.978-2.872-1.092-3.732,0      c-0.903,1.146-1.326,2.104-1.197,3.57c0.104,1.182,0.407,2.141,0.924,3.208c0.86,1.78,2.499,3.296,4.36,3.913      C528.989,302.115,531.203,299.897,530.519,297.824z"
   id="path3536" />
			</g>
			<g
   opacity="0.6"
   id="g3538">
				<path
   fill="#696766"
   d="M496.693,291.087c-18.555-1.758-1.69-1.782-20.322-1.667c-18.625,0.115-91.678,4.183-91.678,4.183      s34.76,16.653,44,16c18.53-1.311,36.417-0.114,55,0c18.8,0.116-3.393,0.953,15.264-1.789c3.686-0.542,6.252-4.778,6.252-8.211      C505.209,294.629,501.312,291.524,496.693,291.087z"
   id="path3540" />
			</g>
			<g
   id="g3542">
				<path
   fill="#483324"
   d="M400.691,260.603c-2.151,0-3.928-1.708-3.996-3.874c-0.069-2.208,1.664-4.055,3.872-4.125l95-3      c2.248-0.088,4.054,1.664,4.124,3.872c0.069,2.208-1.664,4.055-3.872,4.125l-95,3      C400.776,260.602,400.733,260.603,400.691,260.603z"
   id="path3544" />
			</g>
			<g
   id="g3546">
				<path
   fill="#483324"
   d="M426.692,314c-2.186,0-3.971-1.956-3.999-4.147c-0.028-2.209,1.74-3.924,3.948-3.952l78-0.9      c0.018,0,0.035,0,0.053,0c2.186,0,3.971,1.559,3.999,3.75c0.028,2.209-1.74,4.122-3.948,4.15l-78,1.1      C426.728,314,426.71,314,426.692,314z"
   id="path3548" />
			</g>
			<g
   id="g3550">
				<path
   fill="#6C482F"
   d="M836.148,288.812c2.869,11.001-0.898,18.335-5.607,23c63.23,0,102.113-2.21,106.152-2.21l-24-11l36-27      l-38-12l-78.719-2.519C833.391,269.359,843.188,277.863,836.148,288.812z"
   id="path3552" />
			</g>
			<g
   id="g3554">
				<path
   fill="#4A3627"
   d="M818.148,275.906c6.67,14.673,2.219,29.094-1.484,36.094c4.387,0,9.031,0,13.877,0      c4.709-4,8.477-12.092,5.607-23.094c7.039-10.95-2.758-19.5-4.174-31.775l-11.676,0.279      C822.09,263.067,821.742,269.317,818.148,275.906z"
   id="path3556" />
			</g>
			<g
   id="g3558">
				<g
   id="g3560">
					<path
   fill="#B21F2E"
   d="M785.35,257.676l-9.254,0.089c-0.137,0.51-0.273,1.02-0.398,1.531       c-0.012,0.871,0.004,1.741,0.051,2.612c0.15,0.779,0.311,1.556,0.473,2.333c2.885,4.006-0.506,16.929,2.01,22.966       c3.297,7.914,5.514,12.171,2.045,19.014c-0.08,1.865-0.115,3.729-0.086,5.592h9.887       C796.912,304.033,811.443,282.091,785.35,257.676z"
   id="path3562" />
				</g>
				<g
   id="g3564">
					<path
   fill="#6E131C"
   d="M790.076,312c6.797,0,15.928,0,26.588,0c3.703-7,8.154-21.421,1.484-36.094       c3.594-6.589,3.941-12.862,2.15-18.52l-34.949,0.406C811.443,282.208,796.912,304,790.076,312z"
   id="path3566" />
				</g>
			</g>
			<g
   id="g3568">
				<path
   fill="#F58532"
   d="M789.945,293.812c0.035,1.745,1.43,3.202,3.203,3.202c1.771,0,3.166-1.458,3.201-3.202      c0.027-1.304,0.062-2.536-0.207-3.826c-0.623-2.974-5.367-2.974-5.988,0C789.885,291.276,789.92,292.509,789.945,293.812z"
   id="path3570" />
			</g>
			<g
   id="g3572">
				<path
   fill="#F58532"
   d="M780.322,276.591c0.326,0.986,0.752,1.746,1.459,2.51c0.201,0.219,0.393,0.447,0.582,0.676      c0.02,0.022,0.023,0.027,0.039,0.046c0.023,0.038,0.049,0.08,0.1,0.155c0.043,0.067,0.182,0.352,0.232,0.438      c0.062,0.181,0.127,0.36,0.182,0.544c0.312,1.084,0.574,1.841,1.365,2.718c0.883,0.978,2.873,1.092,3.732,0      c0.904-1.146,1.326-2.104,1.197-3.57c-0.104-1.182-0.406-2.141-0.924-3.208c-0.859-1.78-2.498-3.296-4.359-3.913      C781.852,272.3,779.639,274.518,780.322,276.591z"
   id="path3574" />
			</g>
			<g
   opacity="0.6"
   id="g3576">
				<path
   fill="#696766"
   d="M828.148,312.328c18.555,1.758,1.689,1.782,20.322,1.667c18.625-0.115,91.678-4.183,91.678-4.183      s-34.76-16.653-44-16c-18.531,1.311-36.418,0.114-55,0c-18.801-0.116,3.393-0.953-15.264,1.789      c-3.686,0.542-6.252,4.778-6.252,8.211C819.633,308.786,823.529,311.891,828.148,312.328z"
   id="path3578" />
			</g>
			<g
   id="g3580">
				<path
   fill="#483324"
   d="M824.146,316.812c-2.152,0-3.928-1.708-3.996-3.874c-0.069-2.208,1.664-4.055,3.872-4.125l95-3      c2.214-0.087,4.055,1.664,4.124,3.872c0.069,2.208-1.664,4.055-3.872,4.125l-95,3      C824.23,316.812,824.188,316.812,824.146,316.812z"
   id="path3582" />
			</g>
			<g
   id="g3584">
				<path
   fill="#483324"
   d="M815.147,262c-2.186,0-3.972-1.851-3.999-4.042c-0.028-2.209,1.74-4.069,3.948-4.097l78-1.024      c2.172-0.042,4.023,1.728,4.052,3.937c0.027,2.209-1.74,4.11-3.949,4.139l-78,1.088C815.182,262,815.165,262,815.147,262z"
   id="path3586" />
			</g>
			<g
   id="g3588">
				<path
   fill="#6C482F"
   d="M622.34,473.818c-10.678,3.904-18.337,0.851-23.429-3.392c-0.672,4.271,4.943,22.749,5.328,26.77      l52.497,1.5l-3.209-32.053C641.442,469.221,633.91,479.783,622.34,473.818z"
   id="path3590" />
			</g>
			<g
   id="g3592">
				<path
   fill="#4A3627"
   d="M633.672,454.653c-13.971,8.037-28.552,4.959-35.872,1.939c0.417,4.367,0.858,8.991,1.32,13.814      c4.431,4.307,12.646,7.306,23.325,3.402c11.568,5.964,19.049-4.592,31.135-7.17l-1.34-11.601      C646.779,457.358,640.574,457.603,633.672,454.653z"
   id="path3594" />
			</g>
			<g
   id="g3596">
				<g
   id="g3598">
					<path
   fill="#B21F2E"
   d="M648.499,420.286l-0.968-9.203c-0.521-0.088-1.042-0.175-1.562-0.251       c-0.868,0.071-1.732,0.169-2.596,0.299c-0.762,0.224-1.52,0.458-2.277,0.692c-3.712,3.253-13.088-3.202-18.857-0.123       c-7.563,4.036-15.404,10.958-22.546,8.156c-1.864,0.098-3.723,0.24-5.575,0.446l0.942,9.842       C603.454,436.209,626.68,448.585,648.499,420.286z"
   id="path3600" />
				</g>
				<g
   id="g3602">
					<path
   fill="#6E131C"
   d="M595.268,430.125c0.647,6.766,1.518,15.855,2.532,26.467c7.32,3.02,21.901,6.097,35.872-1.939       c6.902,2.95,13.081,2.708,18.543,0.387l-3.584-34.767C626.811,448.573,603.883,436.168,595.268,430.125z"
   id="path3604" />
				</g>
			</g>
			<g
   id="g3606">
				<path
   fill="#F58532"
   d="M626.72,415.172c-1.732,0.201-3.052,1.728-2.882,3.493c0.168,1.763,1.752,3.013,3.492,2.881      c1.301-0.096,2.53-0.179,3.788-0.57c2.901-0.903,2.448-5.626-0.57-5.961C629.238,414.87,628.016,415.022,626.72,415.172z"
   id="path3608" />
			</g>
			<g
   opacity="0.6"
   id="g3610">
				<path
   fill="#696766"
   d="M599.834,499.966c6.555,0.024,13.099,0.158,19.627,0.56c-0.512-7.035-0.981-14.1-1.621-21.253      c-0.391-4.361-0.529-6.511-0.571-7.477c-0.09,0.764-0.578,0.928-2.663-7.547c-0.89-3.618-5.351-5.769-8.77-5.442      c-4.95,0.473-7.671,4.647-7.666,9.288c0.017,18.638-1.612,1.851,0.275,20.389C598.727,491.249,599.213,495.221,599.834,499.966z      "
   id="path3612" />
			</g>
			<g
   id="g3614">
				<path
   fill="#483324"
   d="M601.688,501.603c-1.978,0-3.697-1.466-3.961-3.48l-4.386-33.445c-0.287-2.19,1.255-4.199,3.445-4.486      c2.202-0.292,4.199,1.256,4.486,3.446l4.386,33.445c0.287,2.19-1.255,4.199-3.445,4.486      C602.037,501.592,601.861,501.603,601.688,501.603z"
   id="path3616" />
			</g>
			<g
   id="g3618">
				<path
   fill="#483324"
   d="M656.73,502.697c-2.006,0-3.736-1.507-3.969-3.549l-5.535-48.734c-0.25-2.195,1.328-4.176,3.523-4.426      c2.201-0.245,4.176,1.328,4.426,3.523l5.535,48.734c0.248,2.195-1.328,4.176-3.523,4.426      C657.034,502.688,656.881,502.697,656.73,502.697z"
   id="path3620" />
			</g>
			<g
   opacity="0.6"
   id="g3622">
				<path
   fill="#696766"
   d="M940.693,261.324c-10.398-1.308-19.243-6.776-30-6.097c-9.717,0.613-9.254,13.572,0,14.752      c4.449,0.567,8.734,1.882,13.006,3.296c-7.383,5.353-15.305,10.072-21.885,16.449c-3.822,3.703-2.939,10.441,1.683,13.059      c6.014,3.407,15.293,7.62,22.319,5.521c8.035-2.4,7.15-12.657,0-15.4c-0.373-0.143-0.748-0.261-1.122-0.385      c7.56-5.347,15.487-10.226,21.853-17.061C951.879,269.731,947.682,262.203,940.693,261.324z"
   id="path3624" />
			</g>
			<g
   opacity="0.6"
   id="g3626">
				<path
   fill="#696766"
   d="M436.762,297.642c-9.502-4.458-20.511-7.03-30.634-9.714c-0.452-0.12-0.907-0.237-1.361-0.354      c6.356-3.222,12.515-6.851,18.399-11.029c7.122-5.056,0.908-16.328-6.945-11.883c-13.971,7.906-28.867,15.701-44.687,19.11      c-8.991,1.938-6.952,16.291,2.159,15.952c9.562-0.355,18.858,1.674,28.065,4.054c9.563,2.472,19.09,6.93,28.792,8.599      c3.615,0.622,7.143-0.357,9.104-3.705C441.723,305.141,440.74,299.508,436.762,297.642z"
   id="path3628" />
			</g>
		</g>
	</g>
</g>
<g
   id="Layer_13">
</g>
<g
   id="Leroy">
</g>
<g
   id="well">
	<g
   id="rope_part_8_">
	</g>
	<g
   id="rope_part_7_">
	</g>
	<g
   id="rope_part_6_">
	</g>
	<g
   id="rope_part_5_">
	</g>
	<g
   id="rope_part_4_">
	</g>
	<g
   id="rope_part_3_">
	</g>
	<g
   id="rope_part_2_">
	</g>
	<g
   id="rope_part_1_">
	</g>
	<g
   id="fire_2">
	</g>
	<g
   id="rope_part">
	</g>
</g>
<g
   id="fire">
</g>
<g
   id="Layer_2">
</g>
</svg>