%YAML 1.1
%TAG !u! tag:unity3d.com,2011:
--- !u!74 &7400000
AnimationClip:
  m_ObjectHideFlags: 0
  m_PrefabParentObject: {fileID: 0}
  m_PrefabInternal: {fileID: 0}
  m_Name: anim_Carriage_Moving
  serializedVersion: 3
  m_AnimationType: 1
  m_Compressed: 0
  m_RotationCurves:
  - curve:
      serializedVersion: 2
      m_Curve:
      - time: 0
        value: {x: 0, y: 0, z: 0, w: 1}
        inSlope: {x: 0, y: 0, z: 0, w: 0}
        outSlope: {x: 0, y: 0, z: 0, w: 0}
        tangentMode: -559038737
      - time: .00100000005
        value: {x: 0, y: 0, z: 0, w: 1}
        inSlope: {x: 0, y: 0, z: 0, w: 0}
        outSlope: {x: 0, y: 0, z: 0, w: 0}
        tangentMode: -542900206
      - time: .571428597
        value: {x: 0, y: 0, z: 0, w: 1}
        inSlope: {x: 0, y: 0, z: 0, w: 0}
        outSlope: {x: 0, y: 0, z: 0, w: 0}
        tangentMode: -33686019
      - time: 1.14285719
        value: {x: 0, y: 0, z: 0, w: 1}
        inSlope: {x: 0, y: 0, z: 0, w: 0}
        outSlope: {x: 0, y: 0, z: 0, w: 0}
        tangentMode: 1
      - time: 1.71428573
        value: {x: 0, y: 0, z: 0, w: 1}
        inSlope: {x: 0, y: 0, z: 0, w: 0}
        outSlope: {x: 0, y: 0, z: 0, w: 0}
        tangentMode: -559038737
      - time: 2.28571439
        value: {x: 0, y: 0, z: 0, w: 1}
        inSlope: {x: 0, y: 0, z: 0, w: 0}
        outSlope: {x: 0, y: 0, z: 0, w: 0}
        tangentMode: -559038737
      - time: 2.85714293
        value: {x: 0, y: 0, z: 0, w: 1}
        inSlope: {x: 0, y: 0, z: 0, w: 0}
        outSlope: {x: 0, y: 0, z: 0, w: 0}
        tangentMode: -559038737
      - time: 3.42857146
        value: {x: 0, y: 0, z: 0, w: 1}
        inSlope: {x: 0, y: 0, z: 0, w: 0}
        outSlope: {x: 0, y: 0, z: 0, w: 0}
        tangentMode: -559038737
      - time: 3.99900007
        value: {x: 0, y: 0, z: 0, w: 1}
        inSlope: {x: 0, y: 0, z: 0, w: 0}
        outSlope: {x: 0, y: 0, z: 0, w: 0}
        tangentMode: -559038737
      - time: 4
        value: {x: 0, y: 0, z: 0, w: 1}
        inSlope: {x: 0, y: 0, z: 0, w: 0}
        outSlope: {x: 0, y: 0, z: 0, w: 0}
        tangentMode: -559038737
      m_PreInfinity: 2
      m_PostInfinity: 2
    path: Root
  - curve:
      serializedVersion: 2
      m_Curve:
      - time: 0
        value: {x: 0, y: 0, z: 0, w: 1}
        inSlope: {x: 0, y: 0, z: 0, w: 0}
        outSlope: {x: 0, y: 0, z: 5.88852299e-06, w: 0}
        tangentMode: -559038737
      - time: .00100000005
        value: {x: 0, y: 0, z: 5.88852345e-09, w: 1}
        inSlope: {x: 0, y: 0, z: 5.88852299e-06, w: 0}
        outSlope: {x: 0, y: 0, z: .00152803841, w: -4.18697937e-07}
        tangentMode: -559038737
      - time: .285714298
        value: {x: 0, y: 0, z: .000435060269, w: .999999881}
        inSlope: {x: 0, y: 0, z: .00152803841, w: -4.18697937e-07}
        outSlope: {x: 0, y: 0, z: .00392698869, w: -3.75509239e-06}
        tangentMode: -559038737
      - time: .571428597
        value: {x: 0, y: 0, z: .00155705702, w: .999998808}
        inSlope: {x: 0, y: 0, z: .00392698869, w: -3.75509239e-06}
        outSlope: {x: 0, y: 0, z: .00536954496, w: -1.25169763e-05}
        tangentMode: -559038737
      - time: .857142866
        value: {x: 0, y: 0, z: .00309121259, w: .999995232}
        inSlope: {x: 0, y: 0, z: .00536954496, w: -1.25169763e-05}
        outSlope: {x: 0, y: 0, z: .00585036911, w: -2.29477846e-05}
        tangentMode: -559038737
      - time: 1.14285719
        value: {x: 0, y: 0, z: .00476274686, w: .999988675}
        inSlope: {x: 0, y: 0, z: .00585036911, w: -2.29477846e-05}
        outSlope: {x: 0, y: 0, z: .00536947651, w: -2.98321265e-05}
        tangentMode: -559038737
      - time: 1.42857146
        value: {x: 0, y: 0, z: .00629688287, w: .999980152}
        inSlope: {x: 0, y: 0, z: .00536947651, w: -2.98321265e-05}
        outSlope: {x: 0, y: 0, z: .00392689835, w: -2.69114989e-05}
        tangentMode: -559038737
      - time: 1.71428573
        value: {x: 0, y: 0, z: .0074188537, w: .999972463}
        inSlope: {x: 0, y: 0, z: .00392689835, w: -2.69114989e-05}
        outSlope: {x: 0, y: 0, z: .00152799115, w: -1.15141966e-05}
        tangentMode: -559038737
      - time: 1.99899995
        value: {x: 0, y: 0, z: .00785389449, w: .999969184}
        inSlope: {x: 0, y: 0, z: .00152799115, w: -1.15141966e-05}
        outSlope: {x: 0, y: 0, z: 6.51895334e-06, w: 0}
        tangentMode: -559038737
      - time: 2
        value: {x: 0, y: 0, z: .00785390101, w: .999969184}
        inSlope: {x: 0, y: 0, z: 6.51895334e-06, w: 0}
        outSlope: {x: 0, y: 0, z: -5.58834063e-06, w: 0}
        tangentMode: -559038737
      - time: 2.00099993
        value: {x: 0, y: 0, z: .00785389543, w: .999969184}
        inSlope: {x: 0, y: 0, z: -5.58834063e-06, w: 0}
        outSlope: {x: 0, y: 0, z: -.00152799475, w: 1.15141866e-05}
        tangentMode: -559038737
      - time: 2.28571439
        value: {x: 0, y: 0, z: .00741885323, w: .999972463}
        inSlope: {x: 0, y: 0, z: -.00152799475, w: 1.15141866e-05}
        outSlope: {x: 0, y: 0, z: -.00392689649, w: 2.69115098e-05}
        tangentMode: -559038737
      - time: 2.57142854
        value: {x: 0, y: 0, z: .00629688334, w: .999980152}
        inSlope: {x: 0, y: 0, z: -.00392689649, w: 2.69115098e-05}
        outSlope: {x: 0, y: 0, z: -.00536947884, w: 2.98321138e-05}
        tangentMode: -559038737
      - time: 2.85714293
        value: {x: 0, y: 0, z: .00476274593, w: .999988675}
        inSlope: {x: 0, y: 0, z: -.00536947884, w: 2.98321138e-05}
        outSlope: {x: 0, y: 0, z: -.00585036771, w: 2.29477992e-05}
        tangentMode: -559038737
      - time: 3.14285707
        value: {x: 0, y: 0, z: .00309121306, w: .999995232}
        inSlope: {x: 0, y: 0, z: -.00585036771, w: 2.29477992e-05}
        outSlope: {x: 0, y: 0, z: 0, w: 0}
        tangentMode: -559038737
      - time: 3.42857146
        value: {x: 0, y: 0, z: .00155705714, w: .999998808}
        inSlope: {x: 0, y: 0, z: -.00536954403, w: 1.25169709e-05}
        outSlope: {x: 0, y: 0, z: 0, w: 0}
        tangentMode: -559038737
      - time: 3.71428561
        value: {x: 0, y: 0, z: .000435061695, w: .999999881}
        inSlope: {x: 0, y: 0, z: -.0039269859, w: 3.75509444e-06}
        outSlope: {x: 0, y: 0, z: 0, w: 0}
        tangentMode: -559038737
      - time: 3.99900007
        value: {x: 0, y: 0, z: 6.76193235e-09, w: 1}
        inSlope: {x: 0, y: 0, z: -.00152803946, w: 4.18697709e-07}
        outSlope: {x: 0, y: 0, z: 0, w: 0}
        tangentMode: -559038737
      - time: 4
        value: {x: 0, y: 0, z: 0, w: 1}
        inSlope: {x: 0, y: 0, z: -6.76242234e-06, w: 0}
        outSlope: {x: 0, y: 0, z: 0, w: 0}
        tangentMode: -559038737
      m_PreInfinity: 2
      m_PostInfinity: 2
    path: Root/Carriage
  - curve:
      serializedVersion: 2
      m_Curve:
      - time: 0
        value: {x: 0, y: 0, z: 0, w: 1}
        inSlope: {x: 0, y: 0, z: 0, w: 0}
        outSlope: {x: 0, y: 0, z: -.00117770466, w: 0}
        tangentMode: -559038737
      - time: .00100000005
        value: {x: 0, y: 0, z: -1.17770469e-06, w: 1}
        inSlope: {x: 0, y: 0, z: -.00117770466, w: 0}
        outSlope: {x: 0, y: 0, z: -.305222154, w: -.013287588}
        tangentMode: -559038737
      - time: .285714298
        value: {x: 0, y: 0, z: -.0869022906, w: .996216834}
        inSlope: {x: 0, y: 0, z: -.305222154, w: -.013287588}
        outSlope: {x: 0, y: 0, z: -.768251121, w: -.155101806}
        tangentMode: -559038737
      - time: .571428597
        value: {x: 0, y: 0, z: -.306402624, w: .951902032}
        inSlope: {x: 0, y: 0, z: -.768251121, w: -.155101806}
        outSlope: {x: 0, y: 0, z: -.956207275, w: -.479514927}
        tangentMode: -559038737
      - time: .857142866
        value: {x: 0, y: 0, z: -.579604685, w: .814897776}
        inSlope: {x: 0, y: 0, z: -.956207275, w: -.479514927}
        outSlope: {x: 0, y: 0, z: -.823525906, w: -.823525906}
        tangentMode: -559038737
      - time: 1.14285719
        value: {x: 0, y: 0, z: -.814897835, w: .579604626}
        inSlope: {x: 0, y: 0, z: -.823525906, w: -.823525906}
        outSlope: {x: 0, y: 0, z: -.479514718, w: -.956207454}
        tangentMode: -559038737
      - time: 1.42857146
        value: {x: 0, y: 0, z: -.951902032, w: .306402504}
        inSlope: {x: 0, y: 0, z: -.479514718, w: -.956207454}
        outSlope: {x: 0, y: 0, z: -.155101821, w: -.768250525}
        tangentMode: -559038737
      - time: 1.71428573
        value: {x: 0, y: 0, z: -.996216834, w: .0869023725}
        inSlope: {x: 0, y: 0, z: -.155101821, w: -.768250525}
        outSlope: {x: 0, y: 0, z: -.0132875917, w: -.305223465}
        tangentMode: -559038737
      - time: 1.99899995
        value: {x: 0, y: 0, z: -1, w: 9.09962921e-07}
        inSlope: {x: 0, y: 0, z: -.0132875917, w: -.305223465}
        outSlope: {x: 0, y: 0, z: 0, w: -.000953629729}
        tangentMode: -559038737
      - time: 2
        value: {x: 0, y: 0, z: -1, w: -4.37113883e-08}
        inSlope: {x: 0, y: 0, z: 0, w: -.000953629729}
        outSlope: {x: 0, y: 0, z: 0, w: -.00119217928}
        tangentMode: -559038737
      - time: 2.00099993
        value: {x: 0, y: 0, z: -1, w: -1.23580423e-06}
        inSlope: {x: 0, y: 0, z: 0, w: -.00119217928}
        outSlope: {x: 0, y: 0, z: .0132875806, w: -.305221975}
        tangentMode: -559038737
      - time: 2.28571439
        value: {x: 0, y: 0, z: -.996216834, w: -.0869023427}
        inSlope: {x: 0, y: 0, z: .0132875806, w: -.305221975}
        outSlope: {x: 0, y: 0, z: .15510188, w: -.768250823}
        tangentMode: -559038737
      - time: 2.57142854
        value: {x: 0, y: 0, z: -.951902032, w: -.306402475}
        inSlope: {x: 0, y: 0, z: .15510188, w: -.768250823}
        outSlope: {x: 0, y: 0, z: .479514927, w: -.956207812}
        tangentMode: -559038737
      - time: 2.85714293
        value: {x: 0, y: 0, z: -.814897716, w: -.579604805}
        inSlope: {x: 0, y: 0, z: .479514927, w: -.956207812}
        outSlope: {x: 0, y: 0, z: .823525608, w: -.823525608}
        tangentMode: -559038737
      - time: 3.14285707
        value: {x: 0, y: 0, z: -.579604805, w: -.814897716}
        inSlope: {x: 0, y: 0, z: .823525608, w: -.823525608}
        outSlope: {x: 0, y: 0, z: 0, w: 0}
        tangentMode: -559038737
      - time: 3.42857146
        value: {x: 0, y: 0, z: -.306402594, w: -.951902032}
        inSlope: {x: 0, y: 0, z: .956207395, w: -.479514927}
        outSlope: {x: 0, y: 0, z: 0, w: 0}
        tangentMode: -559038737
      - time: 3.71428561
        value: {x: 0, y: 0, z: -.086902447, w: -.996216834}
        inSlope: {x: 0, y: 0, z: .768250883, w: -.15510188}
        outSlope: {x: 0, y: 0, z: 0, w: 0}
        tangentMode: -559038737
      - time: 3.99900007
        value: {x: 0, y: 0, z: -1.1046701e-06, w: -1}
        inSlope: {x: 0, y: 0, z: .30522278, w: -.0132875806}
        outSlope: {x: 0, y: 0, z: 0, w: 0}
        tangentMode: -559038737
      - time: 4
        value: {x: 0, y: 0, z: 8.74227766e-08, w: -1}
        inSlope: {x: 0, y: 0, z: .00119217928, w: 0}
        outSlope: {x: 0, y: 0, z: 0, w: 0}
        tangentMode: -559038737
      m_PreInfinity: 2
      m_PostInfinity: 2
    path: Root/BackWheel
  - curve:
      serializedVersion: 2
      m_Curve:
      - time: 0
        value: {x: 0, y: 0, z: 0, w: 1}
        inSlope: {x: 0, y: 0, z: 0, w: 0}
        outSlope: {x: 0, y: 0, z: -.00117770466, w: 0}
        tangentMode: -559038737
      - time: .00100000005
        value: {x: 0, y: 0, z: -1.17770469e-06, w: 1}
        inSlope: {x: 0, y: 0, z: -.00117770466, w: 0}
        outSlope: {x: 0, y: 0, z: -.305222154, w: -.013287588}
        tangentMode: -559038737
      - time: .285714298
        value: {x: 0, y: 0, z: -.0869022906, w: .996216834}
        inSlope: {x: 0, y: 0, z: -.305222154, w: -.013287588}
        outSlope: {x: 0, y: 0, z: -.768251121, w: -.155101806}
        tangentMode: -559038737
      - time: .571428597
        value: {x: 0, y: 0, z: -.306402624, w: .951902032}
        inSlope: {x: 0, y: 0, z: -.768251121, w: -.155101806}
        outSlope: {x: 0, y: 0, z: -.956207275, w: -.479514927}
        tangentMode: -559038737
      - time: .857142866
        value: {x: 0, y: 0, z: -.579604685, w: .814897776}
        inSlope: {x: 0, y: 0, z: -.956207275, w: -.479514927}
        outSlope: {x: 0, y: 0, z: -.823525906, w: -.823525906}
        tangentMode: -559038737
      - time: 1.14285719
        value: {x: 0, y: 0, z: -.814897835, w: .579604626}
        inSlope: {x: 0, y: 0, z: -.823525906, w: -.823525906}
        outSlope: {x: 0, y: 0, z: -.479514718, w: -.956207454}
        tangentMode: -559038737
      - time: 1.42857146
        value: {x: 0, y: 0, z: -.951902032, w: .306402504}
        inSlope: {x: 0, y: 0, z: -.479514718, w: -.956207454}
        outSlope: {x: 0, y: 0, z: -.155101821, w: -.768250525}
        tangentMode: -559038737
      - time: 1.71428573
        value: {x: 0, y: 0, z: -.996216834, w: .0869023725}
        inSlope: {x: 0, y: 0, z: -.155101821, w: -.768250525}
        outSlope: {x: 0, y: 0, z: -.0132875917, w: -.305223465}
        tangentMode: -559038737
      - time: 1.99899995
        value: {x: 0, y: 0, z: -1, w: 9.09962921e-07}
        inSlope: {x: 0, y: 0, z: -.0132875917, w: -.305223465}
        outSlope: {x: 0, y: 0, z: 0, w: -.000953629729}
        tangentMode: -559038737
      - time: 2
        value: {x: 0, y: 0, z: -1, w: -4.37113883e-08}
        inSlope: {x: 0, y: 0, z: 0, w: -.000953629729}
        outSlope: {x: 0, y: 0, z: 0, w: -.00119217928}
        tangentMode: -559038737
      - time: 2.00099993
        value: {x: 0, y: 0, z: -1, w: -1.23580423e-06}
        inSlope: {x: 0, y: 0, z: 0, w: -.00119217928}
        outSlope: {x: 0, y: 0, z: .0132875806, w: -.305221975}
        tangentMode: -559038737
      - time: 2.28571439
        value: {x: 0, y: 0, z: -.996216834, w: -.0869023427}
        inSlope: {x: 0, y: 0, z: .0132875806, w: -.305221975}
        outSlope: {x: 0, y: 0, z: .15510188, w: -.768250823}
        tangentMode: -559038737
      - time: 2.57142854
        value: {x: 0, y: 0, z: -.951902032, w: -.306402475}
        inSlope: {x: 0, y: 0, z: .15510188, w: -.768250823}
        outSlope: {x: 0, y: 0, z: .479514927, w: -.956207812}
        tangentMode: -559038737
      - time: 2.85714293
        value: {x: 0, y: 0, z: -.814897716, w: -.579604805}
        inSlope: {x: 0, y: 0, z: .479514927, w: -.956207812}
        outSlope: {x: 0, y: 0, z: .823525608, w: -.823525608}
        tangentMode: -559038737
      - time: 3.14285707
        value: {x: 0, y: 0, z: -.579604805, w: -.814897716}
        inSlope: {x: 0, y: 0, z: .823525608, w: -.823525608}
        outSlope: {x: 0, y: 0, z: 0, w: 0}
        tangentMode: -559038737
      - time: 3.42857146
        value: {x: 0, y: 0, z: -.306402594, w: -.951902032}
        inSlope: {x: 0, y: 0, z: .956207395, w: -.479514927}
        outSlope: {x: 0, y: 0, z: 0, w: 0}
        tangentMode: -559038737
      - time: 3.71428561
        value: {x: 0, y: 0, z: -.086902447, w: -.996216834}
        inSlope: {x: 0, y: 0, z: .768250883, w: -.15510188}
        outSlope: {x: 0, y: 0, z: 0, w: 0}
        tangentMode: -559038737
      - time: 3.99900007
        value: {x: 0, y: 0, z: -1.1046701e-06, w: -1}
        inSlope: {x: 0, y: 0, z: .30522278, w: -.0132875806}
        outSlope: {x: 0, y: 0, z: 0, w: 0}
        tangentMode: -559038737
      - time: 4
        value: {x: 0, y: 0, z: 8.74227766e-08, w: -1}
        inSlope: {x: 0, y: 0, z: .00119217928, w: 0}
        outSlope: {x: 0, y: 0, z: 0, w: 0}
        tangentMode: -559038737
      m_PreInfinity: 2
      m_PostInfinity: 2
    path: Root/FrontWheel
  m_CompressedRotationCurves: []
  m_PositionCurves:
  - curve:
      serializedVersion: 2
      m_Curve:
      - time: 0
        value: {x: 0, y: 0, z: 0}
        inSlope: {x: 0, y: 0, z: 0}
        outSlope: {x: 0, y: 0, z: 0}
        tangentMode: -559038737
      - time: 4
        value: {x: 0, y: 0, z: 0}
        inSlope: {x: 0, y: 0, z: 0}
        outSlope: {x: 0, y: 0, z: 0}
        tangentMode: -559038737
      m_PreInfinity: 2
      m_PostInfinity: 2
    path: Root
  - curve:
      serializedVersion: 2
      m_Curve:
      - time: 0
        value: {x: -434.445312, y: 360, z: 0}
        inSlope: {x: 0, y: 0, z: 0}
        outSlope: {x: 0, y: 0, z: 0}
        tangentMode: -559038737
      - time: 2
        value: {x: -434.445312, y: 363.043213, z: 0}
        inSlope: {x: 0, y: 0, z: 0}
        outSlope: {x: 0, y: 0, z: 0}
        tangentMode: -559038737
      - time: 4
        value: {x: -434.445312, y: 360, z: 0}
        inSlope: {x: 0, y: 0, z: 0}
        outSlope: {x: 0, y: 0, z: 0}
        tangentMode: -559038737
      m_PreInfinity: 2
      m_PostInfinity: 2
    path: Root/Carriage
  - curve:
      serializedVersion: 2
      m_Curve:
      - time: 0
        value: {x: -627.284729, y: 140, z: 0}
        inSlope: {x: 0, y: 0, z: 0}
        outSlope: {x: 0, y: 0, z: 0}
        tangentMode: -559038737
      - time: 2
        value: {x: -627.284729, y: 140, z: 0}
        inSlope: {x: 0, y: 0, z: 0}
        outSlope: {x: 0, y: 0, z: 0}
        tangentMode: -559038737
      - time: 4
        value: {x: -627.284729, y: 140, z: 0}
        inSlope: {x: 0, y: 0, z: 0}
        outSlope: {x: 0, y: 0, z: 0}
        tangentMode: -559038737
      m_PreInfinity: 2
      m_PostInfinity: 2
    path: Root/BackWheel
  - curve:
      serializedVersion: 2
      m_Curve:
      - time: 0
        value: {x: -197.284714, y: 120, z: 0}
        inSlope: {x: 0, y: 0, z: 0}
        outSlope: {x: 0, y: 0, z: 0}
        tangentMode: -559038737
      - time: 2
        value: {x: -197.284714, y: 120, z: 0}
        inSlope: {x: 0, y: 0, z: 0}
        outSlope: {x: 0, y: 0, z: 0}
        tangentMode: 1051463696
      - time: 4
        value: {x: -197.284714, y: 120, z: 0}
        inSlope: {x: 0, y: 0, z: 0}
        outSlope: {x: 0, y: 0, z: 0}
        tangentMode: -559038737
      m_PreInfinity: 2
      m_PostInfinity: 2
    path: Root/FrontWheel
  m_ScaleCurves:
  - curve:
      serializedVersion: 2
      m_Curve:
      - time: 0
        value: {x: 1, y: 1, z: 1}
        inSlope: {x: 0, y: 0, z: 0}
        outSlope: {x: 0, y: 0, z: 0}
        tangentMode: 1051463696
      - time: 4
        value: {x: 1, y: 1, z: 1}
        inSlope: {x: 0, y: 0, z: 0}
        outSlope: {x: 0, y: 0, z: 0}
        tangentMode: -559038737
      m_PreInfinity: 2
      m_PostInfinity: 2
    path: Root
  - curve:
      serializedVersion: 2
      m_Curve:
      - time: 0
        value: {x: 1, y: 1, z: 1}
        inSlope: {x: 0, y: 0, z: 0}
        outSlope: {x: 0, y: 0, z: 0}
        tangentMode: -559038737
      - time: 4
        value: {x: 1, y: 1, z: 1}
        inSlope: {x: 0, y: 0, z: 0}
        outSlope: {x: 0, y: 0, z: 0}
        tangentMode: -559038737
      m_PreInfinity: 2
      m_PostInfinity: 2
    path: Root/Carriage
  - curve:
      serializedVersion: 2
      m_Curve:
      - time: 0
        value: {x: 1, y: 1, z: 1}
        inSlope: {x: 0, y: 0, z: 0}
        outSlope: {x: 0, y: 0, z: 0}
        tangentMode: 0
      - time: 4
        value: {x: 1, y: 1, z: 1}
        inSlope: {x: 0, y: 0, z: 0}
        outSlope: {x: 0, y: 0, z: 0}
        tangentMode: 1051463696
      m_PreInfinity: 2
      m_PostInfinity: 2
    path: Root/Carriage/Carriage_Sprite
  - curve:
      serializedVersion: 2
      m_Curve:
      - time: 0
        value: {x: 1, y: 1, z: 1}
        inSlope: {x: 0, y: 0, z: 0}
        outSlope: {x: 0, y: 0, z: 0}
        tangentMode: -559038737
      - time: 4
        value: {x: 1, y: 1, z: 1}
        inSlope: {x: 0, y: 0, z: 0}
        outSlope: {x: 0, y: 0, z: 0}
        tangentMode: -559038737
      m_PreInfinity: 2
      m_PostInfinity: 2
    path: Root/BackWheel
  - curve:
      serializedVersion: 2
      m_Curve:
      - time: 0
        value: {x: 1, y: 1, z: 1}
        inSlope: {x: 0, y: 0, z: 0}
        outSlope: {x: 0, y: 0, z: 0}
        tangentMode: -559038737
      - time: 4
        value: {x: 1, y: 1, z: 1}
        inSlope: {x: 0, y: 0, z: 0}
        outSlope: {x: 0, y: 0, z: 0}
        tangentMode: -559038737
      m_PreInfinity: 2
      m_PostInfinity: 2
    path: Root/BackWheel/BackWheel_Sprite
  - curve:
      serializedVersion: 2
      m_Curve:
      - time: 0
        value: {x: .850000024, y: .850000024, z: 1}
        inSlope: {x: 0, y: 0, z: 0}
        outSlope: {x: 0, y: 0, z: 0}
        tangentMode: 0
      - time: 4
        value: {x: .850000024, y: .850000024, z: 1}
        inSlope: {x: 0, y: 0, z: 0}
        outSlope: {x: 0, y: 0, z: 0}
        tangentMode: 12
      m_PreInfinity: 2
      m_PostInfinity: 2
    path: Root/FrontWheel
  - curve:
      serializedVersion: 2
      m_Curve:
      - time: 0
        value: {x: 1, y: 1, z: 1}
        inSlope: {x: 0, y: 0, z: 0}
        outSlope: {x: 0, y: 0, z: 0}
        tangentMode: -559038737
      - time: 4
        value: {x: 1, y: 1, z: 1}
        inSlope: {x: 0, y: 0, z: 0}
        outSlope: {x: 0, y: 0, z: 0}
        tangentMode: -559038737
      m_PreInfinity: 2
      m_PostInfinity: 2
    path: Root/FrontWheel/FrontWheel_Sprite
  m_FloatCurves: []
  m_SampleRate: 60
  m_WrapMode: 2
  m_Bounds:
    m_Center: {x: 0, y: 0, z: 0}
    m_Extent: {x: 0, y: 0, z: 0}
  m_MuscleClipInfo:
    m_StartTime: 0
    m_StopTime: 1
    m_OrientationOffsetY: 0
    m_Level: 0
    m_CycleOffset: 0
    m_LoopBlend: 0
    m_LoopBlendOrientation: 0
    m_LoopBlendPositionY: 0
    m_LoopBlendPositionXZ: 0
    m_KeepOriginalOrientation: 0
    m_KeepOriginalPositionY: 1
    m_KeepOriginalPositionXZ: 0
    m_HeightFromFeet: 0
    m_Mirror: 0
  m_EditorCurves: []
  m_EulerEditorCurves: []
  m_Events:
  - time: 0
    functionName: AnimationEvent_Triggered
    data: 
    objectReferenceParameter: {fileID: 0}
    floatParameter: 0
    intParameter: 0
    messageOptions: 0
  - time: 4
    functionName: AnimationEvent_Triggered
    data: 
    objectReferenceParameter: {fileID: 0}
    floatParameter: 0
    intParameter: 1
    messageOptions: 0
