<?xml version="1.0" encoding="utf-8"?>
<!-- Generator: Adobe Illustrator 16.0.0, SVG Export Plug-In . SVG Version: 6.00 Build 0)  -->
<!DOCTYPE svg PUBLIC "-//W3C//DTD SVG 1.1//EN" "http://www.w3.org/Graphics/SVG/1.1/DTD/svg11.dtd">
<svg version="1.1" id="Layer_1" xmlns="http://www.w3.org/2000/svg" xmlns:xlink="http://www.w3.org/1999/xlink" x="0px" y="0px"
	 width="2272px" height="2272px" viewBox="0 0 2272 2272" enable-background="new 0 0 2272 2272" xml:space="preserve">
<g id="Eve_x5F_Boot">
	<path fill="#6B594A" d="M1107.73,1071.383l14.062,75.039l-70.344,89.078c0,0,84.391,9.391,121.918-51.578
		c4.688,4.688,32.844,46.906,32.844,46.906l14.734-194.969L1107.73,1071.383z"/>
	<path fill="#523C2E" d="M1063.777,1247.711L1063.777,1247.711c-8.199,0-13.402-0.57-13.621-0.594
		c-4.223-0.469-7.855-3.188-9.492-7.109c-1.641-3.922-1.023-8.422,1.609-11.75l67.051-84.906l-13.086-69.812
		c-1.09-5.82,2.344-11.539,7.992-13.312l113.215-35.523c3.688-1.156,7.727-0.414,10.766,2c3.031,2.414,4.68,6.172,4.391,10.039
		l-14.734,194.969c-0.375,4.977-3.875,9.164-8.695,10.43c-4.836,1.258-9.93-0.68-12.695-4.828
		c-7.922-11.891-16.656-24.719-22.984-33.719C1139.863,1243.102,1086.668,1247.711,1063.777,1247.711z M1121.133,1079.43
		l12.152,64.836c0.621,3.32-0.223,6.75-2.316,9.398l-55.461,70.234c24.992-1.82,65.996-10.508,87.906-46.102
		c1.875-3.047,5.047-5.07,8.594-5.484c3.562-0.406,7.102,0.82,9.625,3.344c2.453,2.445,8.695,11.125,15.438,20.867l10.914-144.344
		L1121.133,1079.43z"/>
</g>
</svg>
