<?xml version="1.0" encoding="utf-8"?>
<!-- Generator: Adobe Illustrator 16.0.0, SVG Export Plug-In . SVG Version: 6.00 Build 0)  -->
<!DOCTYPE svg PUBLIC "-//W3C//DTD SVG 1.1//EN" "http://www.w3.org/Graphics/SVG/1.1/DTD/svg11.dtd">
<svg version="1.1" id="Layer_1" xmlns="http://www.w3.org/2000/svg" xmlns:xlink="http://www.w3.org/1999/xlink" x="0px" y="0px"
	 width="2272px" height="2272px" viewBox="0 0 2272 2272" enable-background="new 0 0 2272 2272" xml:space="preserve">
<path fill="#E58B74" d="M1050.919,1318.472c0,0,59.625-27.688,136.983,34.392c50.203-47.5,78.312-46.547,97.703-43.431
	c-3.312-0.53-30.26,42.562-30.26,42.562s2.164,25.771-7.961,39.615c-12.607,17.26-38.99,25.188-60.852,25.022
	c-17.761-0.133-40.734-4.992-56.859-11.897c-18.93-8.095-37.133-18.912-51.492-33.845
	C1074.403,1366.956,1042.856,1322.222,1050.919,1318.472z"/>
<g>
	<path fill="#B05A29" d="M1294.638,1304.901c-0.891-5.681-6.356-9.587-12.219-8.732c-39.688,5.578-66.484,22.758-91.797,52.625
		c-48.859-33.932-111.306-52.932-147.875-41.742c-5.017,2.259-7.853,8.142-3.859,12.672
		c41.229,47.273,114.422,79.023,178.471,59.759c47.892-14.404,76.392-68.693,76.392-68.693
		C1294.638,1308.939,1294.912,1306.909,1294.638,1304.901z M1283.138,1291.895c-0.062,0.104-0.133,0.211-0.188,0.312l-0.484-0.594
		L1283.138,1291.895z M1211.013,1362.12c-51.766,17.852-109.529-7.211-147.742-41.148c17.683-2.477,38.261,4.923,59.492,12.892
		c19.836,7.438,44.719,18.125,63.773,27.143c2.719,1.281,6.461,1.703,8.844-0.484c25.203-23.141,50.461-46.422,74.836-45.75
		C1255.685,1335.753,1235.138,1353.55,1211.013,1362.12z"/>
	<path fill="#523C2E" d="M1070.56,1323.62C1070.841,1323.862,1071.498,1323.581,1070.56,1323.62L1070.56,1323.62z"/>
</g>
<path fill="#B05A29" d="M1257.49,1348.237c4.18,8.608,5.866,17.938,4.817,27.221c-0.758,5.818-2.625,12.711-7.201,19.353
	c-4.338,6.729-11.358,12.979-19.846,17.643c-26.154,14.578-62.797,15.568-91.703,7.164c-20.74-6.26-38.646-17.096-52.211-29.049
	c-24.068-20.732-41.818-47.357-52.318-75.017c-1.733-4.655,4.392-8.75,9.298-6.258c3.188,1.603,4.771,6.188,6.452,8.805
	c7.048,10.923,14.812,21.423,23.568,31.453c18.51,21.271,42.688,41.945,73.135,50.009c14.24,3.885,28.188,4.25,42.904,2.897
	c0.5-0.047-0.586,0.047-0.422,0.047c10.008-1.406,19.75-3.397,28.807-7.422c5.865-2.875,10.615-6.268,14.056-10.156
	c7.438-8.608,9.852-19.297,9.672-29.78c-0.031-1.857-0.656-4.267-0.142-6.125C1247.591,1344.395,1255.373,1343.862,1257.49,1348.237
	z"/>
<path fill="#B37645" d="M1228.427,1164.683l-5.805-46.344c-0.892-7.211-10.703-6.944-10.97,0.336l-1.952,55.367
	c-0.125,4.141,2.172,8.146,5.875,9.633l2.219,0.859l0,0c12.578,3.953,28.078,8.039,37.195,19.328
	c2.067,3.451,4.258,5.465,3.521,9.813c-2,11.688-14.094,14.832-22.896,14.832h-0.023c-1.047,0-2.359,1.613-3.25,2.426
	c-7.938,7.299-14.836,16.689-24.18,21.877c-5.203,2.875-11.134,3.735-16.808,4.645c-3.864,0-7.606-0.064-11.469-0.301
	c-7.602-3.087-11.93-7.149-17.922-12.791c0.141,0.103,0.297,0.229,0.414,0.36c-5.058-4.461-11.523-3.335-17.523-3.96
	c-7.875-0.844-18.688-2.296-24.688-8.812c0.938,2.078,0.562,1.312,0.531,1.188c-2.964-6.375-4.5-11.125-0.675-17.766
	c2.438-4.281,6.781-5.953,9.359-9.703c3.062-2.733,1.016-8.578-2.984-8.259c-4.797,0.375-9.192,1.345-13.469,3.781
	c-4.188,2.732-8.242,6.5-10.856,11.912c-5.058,10.26-4.386,27.703,4.469,36.234c4.531,5.211,9.641,7.688,14.231,9.266
	c9.847,3.414,21.234,2.484,30.675,3.109c10.778,13.405,25.969,22.438,42.231,21.062c21.211-1.797,36.117-16.634,45.25-36.75
	c16.125,1.03,33.984-6.857,37.906-25.779c0.781-3.656,0.938-7.531,0.516-11.234
	C1274.106,1183.011,1249.544,1170.487,1228.427,1164.683z"/>
<g>
	<path fill="#B37645" d="M1066.998,1127.409c-21.188-24.471-55.086-37.229-85.656-46.148c-18.062-5.272-36.438-9.727-55.203-11.655
		c-8.856-0.914-17.481-1.328-26.356-0.482c-6.938,0.654-15.781-1.625-14.148-10.742c1.354-7.578,11.604-9.383,17.82-10.483
		c9.146-1.625,18.453-2.337,27.758-1.892c22.358,1.068,43.414,6.392,64.586,13.267c32.406,11,66.438,28.547,84.469,58.577
		C1085.278,1126.189,1073.388,1134.792,1066.998,1127.409z"/>
	<path fill="#B37645" d="M1262.544,1098.37c20.608-52.57,80.922-81.695,135.586-79.523c6.289,0.312,10.022,7.595,6.522,12.884
		c-2.969,4.491-9.562,4.229-14.233,5.086c-15.234,2.838-30.18,6.608-44.812,11.75c-29.358,10.289-53.979,28.812-68.578,56.453
		C1272.466,1113.667,1258.981,1107.425,1262.544,1098.37z"/>
</g>
<path fill="#763C53" d="M1235.153,963.214c3.818-34.367,16.279-73.461,42.312-97.578c25.359-23.461,60.344-23.258,89.969-7.366
	c15.406,8.233,28.992,20.094,39.644,33.883c3.016,3.858,6.606,8.135,8.539,12.656c4.305,8.069-5.039,17.008-12.914,12.25
	c-5.019-3.048-9.031-8.453-13.51-12.25c-7.587-6.337-15.688-12.146-24.353-16.938c-15.094-8.328-32.867-14.25-50.141-10.26
	c0.094-0.009-0.656,0.143,0.094-0.009c-1.609,0.394-3.203,0.938-4.789,1.445c-23.479,9.266-36.758,38.664-46.219,60.172
	c-3.979,9.078-6.433,19.172-10.769,28.031C1248.56,976.331,1233.826,974.534,1235.153,963.214z"/>
<path fill="#763C53" d="M1063.708,992.979c-13.172-39.356-40.633-85.594-83.914-96.266c-19.055-4.695-39.695-2.25-57.719,5.211
	c-17.845,7.406-37.789,19.797-50.298,34.844c-3.905,5.384-12.397,4.769-15.471-1.155c-2.5-4.732,0.109-8.836,2.721-12.701
	c8.642-12.799,19.759-24.058,32.078-33.312c25.904-19.461,57.556-28.155,89.634-22.461c57.116,10.125,93.771,67.931,100.891,122.148
	C1083.216,1000.347,1066.833,1003.628,1063.708,992.979z"/>
</svg>
