<?xml version="1.0" encoding="utf-8"?>
<!-- Generator: Adobe Illustrator 16.0.0, SVG Export Plug-In . SVG Version: 6.00 Build 0)  -->
<!DOCTYPE svg PUBLIC "-//W3C//DTD SVG 1.1//EN" "http://www.w3.org/Graphics/SVG/1.1/DTD/svg11.dtd">
<svg version="1.1" id="Layer_1" xmlns="http://www.w3.org/2000/svg" xmlns:xlink="http://www.w3.org/1999/xlink" x="0px" y="0px"
	 width="1024px" height="1024px" viewBox="0 0 1024 1024" enable-background="new 0 0 1024 1024" xml:space="preserve">
<g>
	<path fill="#8E5236" d="M492.913,432.562c-5.664,6.105-9.938,14.369-10.871,22.672c-1.732,15.393,10.531,26.912,20.812,36.547
		c4.73,4.438,9.705,8.691,14,13.568c2.982,3.381,6.152,7.584,6.064,12.326c-0.092,5.035-3.932,9.461-7.338,12.787
		c-4.594,4.482-9.867,8.215-14.881,12.199c-4.76,3.779-9.557,7.799-13.068,12.814c-3.105,4.441-5.398,9.793-7.637,14.715
		c-5.281,11.605-7.094,24.023,0.502,35.113c8.232,12.018,22.324,20.209,37.02,16.559c6.984-1.734,13.818-5.607,18.959-10.676
		c-5.074,1.248-10.574,1.582-15.742,0.836c-9.908-1.439-16.625-8.043-17.633-18.139c-1.863-18.771,13.82-33.994,28.303-43.312
		c6.08-3.914,11.467-9.557,14.18-16.324c4.951-12.346-1.568-27.199-10.576-35.988c-6.211-6.059-13.488-11.268-20.312-16.641
		c-5.65-4.453-11.006-9.541-13.918-16.254c-7.412-17.074,3.826-36.064,13.75-49.465L492.913,432.562z"/>
	<path fill="#563021" d="M475.003,571.637c2.688-8.398,7.93-15.805,14.354-21.773c6.701-6.223,14.885-10.43,21.809-16.359
		c4.01-3.375,6.818-7.328,7.318-11.738c0.637-4.867-0.674-9.514-3.535-13.73c-8.764-13.172-24.936-19.547-32.406-33.928
		c-6.648-12.797-2.785-28.242,4.004-40.158c-0.559,0.982-2.328,4.078,0.027-0.047c0.195-0.342,0.148-0.26,0.004-0.002
		c1.672-2.906,6.273-1.549,6.09,1.805c-0.086,1.518-1.307,3.023-1.941,4.338c-0.936,1.934-1.754,3.924-2.449,5.951
		c-2.016,5.877-3.262,12.48-1.945,18.656c3.332,15.656,20.586,23.619,30.656,34.482c5.707,6.158,9.68,13.668,9.172,22.273
		c-0.451,7.715-4.857,13.938-10.562,18.842c-6.191,5.326-13.379,9.387-19.41,14.906c-5.707,5.221-10.457,11.725-12.707,19.189
		c-1.504,4.852-2.055,9.961-1.365,14.947c0.588,4.99,2.463,9.797,5.203,13.975c2.775,4.178,6.506,7.658,10.816,10.189
		c8.514,4.934,20.01,5.988,29.109,2.033c1.146-0.508,2.262-1.09,3.316-1.746c-5.889,0.695-12.373-0.387-16.619-2.15
		c-3.039-1.307-5.879-3.24-8.148-5.721c-4.578-4.984-6.721-11.775-6.58-18.303c0.15-9.033,4.291-17.002,10.646-23.225
		c3.039-2.973,6.137-5.883,9.217-8.814c7.875-7.5,16.643-15.439,21.164-25.547c3.896-8.719,3.896-20.006-1.629-28.008
		c-9.986-14.701-29.803-19.119-39.246-34.525c-6.717-11.119-4.02-22.945,0.701-34.217c2.684-6.4,5.836-12.611,9.211-18.674
		c1.797-3.229,3.67-6.416,5.604-9.568c1.252-2.039,2.904-6.4,5.463-6.998c2.646-0.619,4.773,2.344,3.379,4.652
		c-1.049,2.746-3.211,5.434-4.648,8.018c-3.549,6.365-6.936,12.838-9.9,19.5c-4.617,10.383-9.732,22.436-3,33.053
		c4.834,7.5,13.207,12.088,20.463,16.881c7.123,4.701,14.32,9.771,19.25,16.877c5.875,8.277,7.059,18.748,5.043,28.51
		c-2.387,10.67-9.055,19.359-16.727,26.889c-5.246,5.141-10.84,9.92-16.355,14.773c-6.371,5.611-11.559,11.717-12.004,20.625
		c-0.279,5.105,1.223,10.293,4.469,14.066c1.617,1.887,3.66,3.387,5.945,4.471c3.75,1.699,8.098,2.215,12.18,1.992
		c5.871-0.318,11.164-6.564,14.041-1.324c1.084,1.975-2.104,6.475-4.307,9.189c-9.182,11.318-26.666,12.195-39.535,7.215
		c-13.734-5.316-23.66-18.326-25.418-32.928C472.37,584.129,472.997,577.631,475.003,571.637z"/>
</g>
</svg>
