%YAML 1.1
%TAG !u! tag:unity3d.com,2011:
--- !u!114 &11400000
MonoBehaviour:
  m_ObjectHideFlags: 0
  m_PrefabParentObject: {fileID: 0}
  m_PrefabInternal: {fileID: 0}
  m_GameObject: {fileID: 0}
  m_Enabled: 1
  m_EditorHideFlags: 0
  m_Script: {fileID: -1545704558, guid: 2a53e83e1a186495ebcacce8848a4057, type: 3}
  m_Name: Orphan_Anims
  buildID: 201307251745113203
  needsRebuilt: 0
  boneDataList:
  - active: 1
    boneName: Root
    boneColor:
      blendingWeight: 0
      color: {r: 1, g: 1, b: 1, a: 1}
  - active: 1
    boneName: FemaleSadOrphan
    boneColor:
      blendingWeight: 0
      color: {r: 1, g: 1, b: 1, a: 1}
  dfsBoneNodeList:
  - parentBoneIndex: -1
    boneDataIndex: 0
    depth: 0
  - parentBoneIndex: 0
    boneDataIndex: 1
    depth: 1
  animationClips:
  - animationName: anim_SadOrphanMale_Idle
    bones:
    - boneDataIndex: 0
      keyframes:
      - boneDataIndex: 0
        frame: 0
        userTriggerCallback: 0
        userTriggerTag: 
        useKeyframeType: 1
        keyframeType: 0
        localPosition:
          val: {x: 0, y: 0}
          inTangentX: 0
          outTangentX: 0
          tangentModeX: 0
          inTangentY: 0
          outTangentY: 0
          tangentModeY: 0
          useX: 0
          useY: 0
        localPosition3:
          val: {x: 0, y: 0, z: 0}
          inTangentX: 0
          outTangentX: 0
          tangentModeX: 0
          inTangentY: 0
          outTangentY: 0
          tangentModeY: 0
          inTangentZ: 0
          outTangentZ: 0
          tangentModeZ: 0
          useX: 1
          useY: 1
          useZ: 1
        localRotation:
          val: 0
          inTangent: 0
          outTangent: 0
          tangentMode: 0
          use: 1
        localScale3:
          val: {x: 1, y: 1, z: 1}
          inTangentX: 0
          outTangentX: 0
          tangentModeX: 0
          inTangentY: 0
          outTangentY: 0
          tangentModeY: 0
          inTangentZ: 0
          outTangentZ: 0
          tangentModeZ: 0
          useX: 1
          useY: 1
          useZ: 1
        imageScale:
          val: {x: 1, y: 1}
          inTangentX: 0
          outTangentX: 0
          tangentModeX: 0
          inTangentY: 0
          outTangentY: 0
          tangentModeY: 0
          useX: 1
          useY: 1
        color:
          val: {r: 1, g: 1, b: 1, a: 1}
          inTangentR: 0
          outTangentR: 0
          tangentModeR: 0
          inTangentG: 0
          outTangentG: 0
          tangentModeG: 0
          inTangentB: 0
          outTangentB: 0
          tangentModeB: 0
          inTangentA: 0
          outTangentA: 0
          tangentModeA: 0
          use: 1
          blendWeight: 0
          inTangentBlendWeight: 0
          outTangentBlendWeight: 0
          tangentModeBlendWeight: 0
        useAtlas: 1
        atlas: {fileID: 0}
        useTextureGUID: 1
        textureGUID: 
        usePivotOffset: 1
        pivotOffset: {x: 0, y: 0}
        useDefaultPivot: 1
        useDepth: 1
        depth: 0
        useCollider: 1
        collider:
          type: 0
          center: {x: 0, y: 0, z: 0}
          boxSize: {x: 0, y: 0, z: 0}
          sphereRadius: 0
          useAnimationLayer: 1
          layer: 0
          isTrigger: 1
          tag: 
        textureIndex: -1
      mixTransform: 0
      visible: 1
      colorRCurveSerialized:
        keyframes: []
      colorGCurveSerialized:
        keyframes: []
      colorBCurveSerialized:
        keyframes: []
      colorACurveSerialized:
        keyframes: []
      colorBlendWeightCurveSerialized:
        keyframes: []
    - boneDataIndex: 1
      keyframes:
      - boneDataIndex: 1
        frame: 0
        userTriggerCallback: 0
        userTriggerTag: 
        useKeyframeType: 1
        keyframeType: 1
        localPosition:
          val: {x: 0, y: 0}
          inTangentX: 0
          outTangentX: 0
          tangentModeX: 0
          inTangentY: 0
          outTangentY: 0
          tangentModeY: 0
          useX: 0
          useY: 0
        localPosition3:
          val: {x: 0, y: 165, z: 0}
          inTangentX: 0
          outTangentX: 0
          tangentModeX: 0
          inTangentY: 0
          outTangentY: 0
          tangentModeY: 0
          inTangentZ: 0
          outTangentZ: 0
          tangentModeZ: 0
          useX: 1
          useY: 1
          useZ: 1
        localRotation:
          val: 0
          inTangent: 0
          outTangent: 0
          tangentMode: 0
          use: 1
        localScale3:
          val: {x: 1, y: 1, z: 1}
          inTangentX: 0
          outTangentX: 0
          tangentModeX: 0
          inTangentY: 0
          outTangentY: 0
          tangentModeY: 0
          inTangentZ: 0
          outTangentZ: 0
          tangentModeZ: 0
          useX: 1
          useY: 1
          useZ: 1
        imageScale:
          val: {x: 1, y: 1}
          inTangentX: 0
          outTangentX: 0
          tangentModeX: 0
          inTangentY: 0
          outTangentY: 0
          tangentModeY: 0
          useX: 1
          useY: 1
        color:
          val: {r: 1, g: 1, b: 1, a: 1}
          inTangentR: 0
          outTangentR: 0
          tangentModeR: 0
          inTangentG: 0
          outTangentG: 0
          tangentModeG: 0
          inTangentB: 0
          outTangentB: 0
          tangentModeB: 0
          inTangentA: 0
          outTangentA: 0
          tangentModeA: 0
          use: 1
          blendWeight: 0
          inTangentBlendWeight: 0
          outTangentBlendWeight: 0
          tangentModeBlendWeight: 0
        useAtlas: 1
        atlas: {fileID: 11400000, guid: 5015b2e3f37f344b5a4d8de057f61f1a, type: 2}
        useTextureGUID: 1
        textureGUID: f4b91966060e9484fb6f8b7fe04a3f0f
        usePivotOffset: 1
        pivotOffset: {x: 0, y: 0}
        useDefaultPivot: 1
        useDepth: 1
        depth: 0
        useCollider: 1
        collider:
          type: 0
          center: {x: 0, y: 0, z: 0}
          boxSize: {x: 0, y: 0, z: 0}
          sphereRadius: 0
          useAnimationLayer: 1
          layer: 0
          isTrigger: 1
          tag: 
        textureIndex: -1
      - boneDataIndex: 1
        frame: 1
        userTriggerCallback: 0
        userTriggerTag: 
        useKeyframeType: 0
        keyframeType: 0
        localPosition:
          val: {x: 0, y: 0}
          inTangentX: 0
          outTangentX: 0
          tangentModeX: 0
          inTangentY: 0
          outTangentY: 0
          tangentModeY: 0
          useX: 0
          useY: 0
        localPosition3:
          val: {x: 0, y: 306, z: 0}
          inTangentX: 0
          outTangentX: 0
          tangentModeX: 0
          inTangentY: 0
          outTangentY: 0
          tangentModeY: 0
          inTangentZ: 0
          outTangentZ: 0
          tangentModeZ: 0
          useX: 1
          useY: 1
          useZ: 0
        localRotation:
          val: 1.5
          inTangent: 0
          outTangent: 0
          tangentMode: 0
          use: 1
        localScale3:
          val: {x: 1, y: 1, z: 1}
          inTangentX: 0
          outTangentX: 0
          tangentModeX: 0
          inTangentY: 0
          outTangentY: 0
          tangentModeY: 0
          inTangentZ: 0
          outTangentZ: 0
          tangentModeZ: 0
          useX: 0
          useY: 0
          useZ: 0
        imageScale:
          val: {x: 1, y: 1}
          inTangentX: 0
          outTangentX: 0
          tangentModeX: 0
          inTangentY: 0
          outTangentY: 0
          tangentModeY: 0
          useX: 0
          useY: 0
        color:
          val: {r: 1, g: 1, b: 1, a: 1}
          inTangentR: 0
          outTangentR: 0
          tangentModeR: 0
          inTangentG: 0
          outTangentG: 0
          tangentModeG: 0
          inTangentB: 0
          outTangentB: 0
          tangentModeB: 0
          inTangentA: 0
          outTangentA: 0
          tangentModeA: 0
          use: 0
          blendWeight: 0
          inTangentBlendWeight: 0
          outTangentBlendWeight: 0
          tangentModeBlendWeight: 0
        useAtlas: 0
        atlas: {fileID: 0}
        useTextureGUID: 0
        textureGUID: 
        usePivotOffset: 0
        pivotOffset: {x: 0, y: 0}
        useDefaultPivot: 1
        useDepth: 0
        depth: 0
        useCollider: 0
        collider:
          type: 0
          center: {x: 0, y: 0, z: 0}
          boxSize: {x: 0, y: 0, z: 0}
          sphereRadius: 0
          useAnimationLayer: 1
          layer: 0
          isTrigger: 1
          tag: 
        textureIndex: -1
      - boneDataIndex: 1
        frame: 2
        userTriggerCallback: 0
        userTriggerTag: 
        useKeyframeType: 1
        keyframeType: 1
        localPosition:
          val: {x: 0, y: 0}
          inTangentX: 0
          outTangentX: 0
          tangentModeX: 0
          inTangentY: 0
          outTangentY: 0
          tangentModeY: 0
          useX: 0
          useY: 0
        localPosition3:
          val: {x: 0, y: 165, z: 0}
          inTangentX: 0
          outTangentX: 0
          tangentModeX: 0
          inTangentY: 0
          outTangentY: 0
          tangentModeY: 0
          inTangentZ: 0
          outTangentZ: 0
          tangentModeZ: 0
          useX: 1
          useY: 1
          useZ: 1
        localRotation:
          val: 0
          inTangent: 0
          outTangent: 0
          tangentMode: 0
          use: 1
        localScale3:
          val: {x: 1, y: 1, z: 1}
          inTangentX: 0
          outTangentX: 0
          tangentModeX: 0
          inTangentY: 0
          outTangentY: 0
          tangentModeY: 0
          inTangentZ: 0
          outTangentZ: 0
          tangentModeZ: 0
          useX: 1
          useY: 1
          useZ: 1
        imageScale:
          val: {x: 1, y: 1}
          inTangentX: 0
          outTangentX: 0
          tangentModeX: 0
          inTangentY: 0
          outTangentY: 0
          tangentModeY: 0
          useX: 1
          useY: 1
        color:
          val: {r: 1, g: 1, b: 1, a: 1}
          inTangentR: 0
          outTangentR: 0
          tangentModeR: 0
          inTangentG: 0
          outTangentG: 0
          tangentModeG: 0
          inTangentB: 0
          outTangentB: 0
          tangentModeB: 0
          inTangentA: 0
          outTangentA: 0
          tangentModeA: 0
          use: 1
          blendWeight: 0
          inTangentBlendWeight: 0
          outTangentBlendWeight: 0
          tangentModeBlendWeight: 0
        useAtlas: 1
        atlas: {fileID: 11400000, guid: 5015b2e3f37f344b5a4d8de057f61f1a, type: 2}
        useTextureGUID: 1
        textureGUID: f4b91966060e9484fb6f8b7fe04a3f0f
        usePivotOffset: 1
        pivotOffset: {x: 0, y: 0}
        useDefaultPivot: 1
        useDepth: 1
        depth: 0
        useCollider: 1
        collider:
          type: 0
          center: {x: 0, y: 0, z: 0}
          boxSize: {x: 0, y: 0, z: 0}
          sphereRadius: 0
          useAnimationLayer: 1
          layer: 0
          isTrigger: 1
          tag: 
        textureIndex: -1
      mixTransform: 0
      visible: 1
      colorRCurveSerialized:
        keyframes:
        - time: 0
          value: 1
          inTangent: 0
          outTangent: 0
        - time: 2
          value: 1
          inTangent: 0
          outTangent: 0
      colorGCurveSerialized:
        keyframes:
        - time: 0
          value: 1
          inTangent: 0
          outTangent: 0
        - time: 2
          value: 1
          inTangent: 0
          outTangent: 0
      colorBCurveSerialized:
        keyframes:
        - time: 0
          value: 1
          inTangent: 0
          outTangent: 0
        - time: 2
          value: 1
          inTangent: 0
          outTangent: 0
      colorACurveSerialized:
        keyframes:
        - time: 0
          value: 1
          inTangent: 0
          outTangent: 0
        - time: 2
          value: 1
          inTangent: 0
          outTangent: 0
      colorBlendWeightCurveSerialized:
        keyframes:
        - time: 0
          value: 0
          inTangent: 0
          outTangent: 0
        - time: 2
          value: 0
          inTangent: 0
          outTangent: 0
    fps: 5
    maxFrame: 2
    wrapMode: 1
    mix: 0
    blendMode: 0
    layer: 0
    blendWeight: 1
    animationNeedsTwoKeyframes: 0
  - animationName: anim_SadOrphanFemale_Idle
    bones:
    - boneDataIndex: 0
      keyframes:
      - boneDataIndex: 0
        frame: 0
        userTriggerCallback: 0
        userTriggerTag: 
        useKeyframeType: 1
        keyframeType: 0
        localPosition:
          val: {x: 0, y: 0}
          inTangentX: 0
          outTangentX: 0
          tangentModeX: 0
          inTangentY: 0
          outTangentY: 0
          tangentModeY: 0
          useX: 0
          useY: 0
        localPosition3:
          val: {x: 0, y: 0, z: 0}
          inTangentX: 0
          outTangentX: 0
          tangentModeX: 0
          inTangentY: 0
          outTangentY: 0
          tangentModeY: 0
          inTangentZ: 0
          outTangentZ: 0
          tangentModeZ: 0
          useX: 1
          useY: 1
          useZ: 1
        localRotation:
          val: 0
          inTangent: 0
          outTangent: 0
          tangentMode: 0
          use: 1
        localScale3:
          val: {x: 1, y: 1, z: 1}
          inTangentX: 0
          outTangentX: 0
          tangentModeX: 0
          inTangentY: 0
          outTangentY: 0
          tangentModeY: 0
          inTangentZ: 0
          outTangentZ: 0
          tangentModeZ: 0
          useX: 1
          useY: 1
          useZ: 1
        imageScale:
          val: {x: 1, y: 1}
          inTangentX: 0
          outTangentX: 0
          tangentModeX: 0
          inTangentY: 0
          outTangentY: 0
          tangentModeY: 0
          useX: 1
          useY: 1
        color:
          val: {r: 1, g: 1, b: 1, a: 1}
          inTangentR: 0
          outTangentR: 0
          tangentModeR: 0
          inTangentG: 0
          outTangentG: 0
          tangentModeG: 0
          inTangentB: 0
          outTangentB: 0
          tangentModeB: 0
          inTangentA: 0
          outTangentA: 0
          tangentModeA: 0
          use: 1
          blendWeight: 0
          inTangentBlendWeight: 0
          outTangentBlendWeight: 0
          tangentModeBlendWeight: 0
        useAtlas: 1
        atlas: {fileID: 0}
        useTextureGUID: 1
        textureGUID: 
        usePivotOffset: 1
        pivotOffset: {x: 0, y: 0}
        useDefaultPivot: 1
        useDepth: 1
        depth: 0
        useCollider: 1
        collider:
          type: 0
          center: {x: 0, y: 0, z: 0}
          boxSize: {x: 0, y: 0, z: 0}
          sphereRadius: 0
          useAnimationLayer: 1
          layer: 0
          isTrigger: 1
          tag: 
        textureIndex: -1
      mixTransform: 0
      visible: 1
      colorRCurveSerialized:
        keyframes: []
      colorGCurveSerialized:
        keyframes: []
      colorBCurveSerialized:
        keyframes: []
      colorACurveSerialized:
        keyframes: []
      colorBlendWeightCurveSerialized:
        keyframes: []
    - boneDataIndex: 1
      keyframes:
      - boneDataIndex: 1
        frame: 0
        userTriggerCallback: 0
        userTriggerTag: 
        useKeyframeType: 1
        keyframeType: 1
        localPosition:
          val: {x: 0, y: 0}
          inTangentX: 0
          outTangentX: 0
          tangentModeX: 0
          inTangentY: 0
          outTangentY: 0
          tangentModeY: 0
          useX: 0
          useY: 0
        localPosition3:
          val: {x: 0, y: 165, z: 0}
          inTangentX: 0
          outTangentX: 0
          tangentModeX: 0
          inTangentY: 0
          outTangentY: 0
          tangentModeY: 0
          inTangentZ: 0
          outTangentZ: 0
          tangentModeZ: 0
          useX: 1
          useY: 1
          useZ: 1
        localRotation:
          val: 0
          inTangent: 0
          outTangent: 0
          tangentMode: 0
          use: 1
        localScale3:
          val: {x: 1, y: 1, z: 1}
          inTangentX: 0
          outTangentX: 0
          tangentModeX: 0
          inTangentY: 0
          outTangentY: 0
          tangentModeY: 0
          inTangentZ: 0
          outTangentZ: 0
          tangentModeZ: 0
          useX: 1
          useY: 1
          useZ: 1
        imageScale:
          val: {x: 1, y: 1}
          inTangentX: 0
          outTangentX: 0
          tangentModeX: 0
          inTangentY: 0
          outTangentY: 0
          tangentModeY: 0
          useX: 1
          useY: 1
        color:
          val: {r: 1, g: 1, b: 1, a: 1}
          inTangentR: 0
          outTangentR: 0
          tangentModeR: 0
          inTangentG: 0
          outTangentG: 0
          tangentModeG: 0
          inTangentB: 0
          outTangentB: 0
          tangentModeB: 0
          inTangentA: 0
          outTangentA: 0
          tangentModeA: 0
          use: 1
          blendWeight: 0
          inTangentBlendWeight: 0
          outTangentBlendWeight: 0
          tangentModeBlendWeight: 0
        useAtlas: 1
        atlas: {fileID: 11400000, guid: 5015b2e3f37f344b5a4d8de057f61f1a, type: 2}
        useTextureGUID: 1
        textureGUID: e73a6070c9d9443c4bf698dfde9d9f19
        usePivotOffset: 1
        pivotOffset: {x: 0, y: 0}
        useDefaultPivot: 1
        useDepth: 1
        depth: 0
        useCollider: 1
        collider:
          type: 0
          center: {x: 0, y: 0, z: 0}
          boxSize: {x: 0, y: 0, z: 0}
          sphereRadius: 0
          useAnimationLayer: 1
          layer: 0
          isTrigger: 1
          tag: 
        textureIndex: -1
      - boneDataIndex: 1
        frame: 1
        userTriggerCallback: 0
        userTriggerTag: 
        useKeyframeType: 0
        keyframeType: 0
        localPosition:
          val: {x: 0, y: 0}
          inTangentX: 0
          outTangentX: 0
          tangentModeX: 0
          inTangentY: 0
          outTangentY: 0
          tangentModeY: 0
          useX: 0
          useY: 0
        localPosition3:
          val: {x: 0, y: 306, z: 0}
          inTangentX: 0
          outTangentX: 0
          tangentModeX: 0
          inTangentY: 0
          outTangentY: 0
          tangentModeY: 0
          inTangentZ: 0
          outTangentZ: 0
          tangentModeZ: 0
          useX: 1
          useY: 1
          useZ: 0
        localRotation:
          val: 1.5
          inTangent: 0
          outTangent: 0
          tangentMode: 0
          use: 1
        localScale3:
          val: {x: 1, y: 1, z: 1}
          inTangentX: 0
          outTangentX: 0
          tangentModeX: 0
          inTangentY: 0
          outTangentY: 0
          tangentModeY: 0
          inTangentZ: 0
          outTangentZ: 0
          tangentModeZ: 0
          useX: 0
          useY: 0
          useZ: 0
        imageScale:
          val: {x: 1, y: 1}
          inTangentX: 0
          outTangentX: 0
          tangentModeX: 0
          inTangentY: 0
          outTangentY: 0
          tangentModeY: 0
          useX: 0
          useY: 0
        color:
          val: {r: 1, g: 1, b: 1, a: 1}
          inTangentR: 0
          outTangentR: 0
          tangentModeR: 0
          inTangentG: 0
          outTangentG: 0
          tangentModeG: 0
          inTangentB: 0
          outTangentB: 0
          tangentModeB: 0
          inTangentA: 0
          outTangentA: 0
          tangentModeA: 0
          use: 0
          blendWeight: 0
          inTangentBlendWeight: 0
          outTangentBlendWeight: 0
          tangentModeBlendWeight: 0
        useAtlas: 0
        atlas: {fileID: 0}
        useTextureGUID: 1
        textureGUID: e73a6070c9d9443c4bf698dfde9d9f19
        usePivotOffset: 0
        pivotOffset: {x: 0, y: 0}
        useDefaultPivot: 1
        useDepth: 0
        depth: 0
        useCollider: 0
        collider:
          type: 0
          center: {x: 0, y: 0, z: 0}
          boxSize: {x: 0, y: 0, z: 0}
          sphereRadius: 0
          useAnimationLayer: 1
          layer: 0
          isTrigger: 1
          tag: 
        textureIndex: -1
      - boneDataIndex: 1
        frame: 2
        userTriggerCallback: 0
        userTriggerTag: 
        useKeyframeType: 1
        keyframeType: 1
        localPosition:
          val: {x: 0, y: 0}
          inTangentX: 0
          outTangentX: 0
          tangentModeX: 0
          inTangentY: 0
          outTangentY: 0
          tangentModeY: 0
          useX: 0
          useY: 0
        localPosition3:
          val: {x: 0, y: 165, z: 0}
          inTangentX: 0
          outTangentX: 0
          tangentModeX: 0
          inTangentY: 0
          outTangentY: 0
          tangentModeY: 0
          inTangentZ: 0
          outTangentZ: 0
          tangentModeZ: 0
          useX: 1
          useY: 1
          useZ: 1
        localRotation:
          val: 0
          inTangent: 0
          outTangent: 0
          tangentMode: 0
          use: 1
        localScale3:
          val: {x: 1, y: 1, z: 1}
          inTangentX: 0
          outTangentX: 0
          tangentModeX: 0
          inTangentY: 0
          outTangentY: 0
          tangentModeY: 0
          inTangentZ: 0
          outTangentZ: 0
          tangentModeZ: 0
          useX: 1
          useY: 1
          useZ: 1
        imageScale:
          val: {x: 1, y: 1}
          inTangentX: 0
          outTangentX: 0
          tangentModeX: 0
          inTangentY: 0
          outTangentY: 0
          tangentModeY: 0
          useX: 1
          useY: 1
        color:
          val: {r: 1, g: 1, b: 1, a: 1}
          inTangentR: 0
          outTangentR: 0
          tangentModeR: 0
          inTangentG: 0
          outTangentG: 0
          tangentModeG: 0
          inTangentB: 0
          outTangentB: 0
          tangentModeB: 0
          inTangentA: 0
          outTangentA: 0
          tangentModeA: 0
          use: 1
          blendWeight: 0
          inTangentBlendWeight: 0
          outTangentBlendWeight: 0
          tangentModeBlendWeight: 0
        useAtlas: 1
        atlas: {fileID: 11400000, guid: 5015b2e3f37f344b5a4d8de057f61f1a, type: 2}
        useTextureGUID: 1
        textureGUID: e73a6070c9d9443c4bf698dfde9d9f19
        usePivotOffset: 1
        pivotOffset: {x: 0, y: 0}
        useDefaultPivot: 1
        useDepth: 1
        depth: 0
        useCollider: 1
        collider:
          type: 0
          center: {x: 0, y: 0, z: 0}
          boxSize: {x: 0, y: 0, z: 0}
          sphereRadius: 0
          useAnimationLayer: 1
          layer: 0
          isTrigger: 1
          tag: 
        textureIndex: -1
      mixTransform: 0
      visible: 1
      colorRCurveSerialized:
        keyframes:
        - time: 0
          value: 1
          inTangent: 0
          outTangent: 0
        - time: 2
          value: 1
          inTangent: 0
          outTangent: 0
      colorGCurveSerialized:
        keyframes:
        - time: 0
          value: 1
          inTangent: 0
          outTangent: 0
        - time: 2
          value: 1
          inTangent: 0
          outTangent: 0
      colorBCurveSerialized:
        keyframes:
        - time: 0
          value: 1
          inTangent: 0
          outTangent: 0
        - time: 2
          value: 1
          inTangent: 0
          outTangent: 0
      colorACurveSerialized:
        keyframes:
        - time: 0
          value: 1
          inTangent: 0
          outTangent: 0
        - time: 2
          value: 1
          inTangent: 0
          outTangent: 0
      colorBlendWeightCurveSerialized:
        keyframes:
        - time: 0
          value: 0
          inTangent: 0
          outTangent: 0
        - time: 2
          value: 0
          inTangent: 0
          outTangent: 0
    fps: 5
    maxFrame: 2
    wrapMode: 1
    mix: 0
    blendMode: 0
    layer: 0
    blendWeight: 1
    animationNeedsTwoKeyframes: 0
  boneTransformPaths:
  - Root
  - Root/FemaleSadOrphan
  spriteTransformPaths:
  - Root/Root_Sprite
  - Root/FemaleSadOrphan/FemaleSadOrphan_Sprite
  meshColor: {r: 1, g: 1, b: 1, a: 1}
  importScale: 1
  dataVersion: 8
  textureAtlasDictionary:
    keys:
    - Orphans_Anim
    data:
    - {fileID: 11400000, guid: 5015b2e3f37f344b5a4d8de057f61f1a, type: 2}
  materialSource:
  - {fileID: 2100000, guid: 8b56939293b4e418a9a29a09296f373f, type: 2}
  animationClipSourceAssets:
  - {fileID: 7400000, guid: c802ffe0bbb334c06ad34385b352a9b8, type: 2}
  - {fileID: 7400000, guid: 4c2995e4ddff349e48251550c93bb8b7, type: 2}
  animationClipTriggerFrames:
  - clipIndex: 0
    triggerFrames:
    - clipIndex: 0
      frame: 0
      triggerFrameBones:
      - userTriggerTag: 
        boneNodeIndex: 0
        triggerEventTypes: 0100000006000000
        pivotOffset: {x: 0, y: 0}
        upperLeft: {x: 0, y: 0, z: 0}
        bottomLeft: {x: 0, y: 0, z: 0}
        bottomRight: {x: 0, y: 0, z: 0}
        upperRight: {x: 0, y: 0, z: 0}
        uv:
          serializedVersion: 2
          x: 0
          y: 0
          width: 0
          height: 0
        localPosition: {x: 0, y: 0, z: 0}
        localRotation: 0
        localScale: {x: 0, y: 0}
        atlas: {fileID: 0}
        textureGUID: 
        materialIndex: 0
        depth: 0
        collider:
          type: 0
          center: {x: 0, y: 0, z: 0}
          boxSize: {x: 0, y: 0, z: 0}
          sphereRadius: 0
          useAnimationLayer: 1
          layer: 0
          isTrigger: 1
          tag: 
        originalAtlas: {fileID: 0}
        originalTextureGUID: 
        originalMaterialIndex: 0
        originalUV:
          serializedVersion: 2
          x: 0
          y: 0
          width: 0
          height: 0
        originalPivotOffset: {x: 0, y: 0}
      - userTriggerTag: 
        boneNodeIndex: 1
        triggerEventTypes: 02000000040000000300000006000000
        pivotOffset: {x: 0, y: 0}
        upperLeft: {x: -512, y: 512, z: 0}
        bottomLeft: {x: -512, y: -512, z: 0}
        bottomRight: {x: 512, y: -512, z: 0}
        upperRight: {x: 512, y: 512, z: 0}
        uv:
          serializedVersion: 2
          x: 0
          y: .250244141
          width: .5
          height: .25
        localPosition: {x: 0, y: 0, z: 0}
        localRotation: 0
        localScale: {x: 0, y: 0}
        atlas: {fileID: 11400000, guid: 5015b2e3f37f344b5a4d8de057f61f1a, type: 2}
        textureGUID: f4b91966060e9484fb6f8b7fe04a3f0f
        materialIndex: 0
        depth: 0
        collider:
          type: 0
          center: {x: 0, y: 0, z: 0}
          boxSize: {x: 0, y: 0, z: 0}
          sphereRadius: 0
          useAnimationLayer: 1
          layer: 0
          isTrigger: 1
          tag: 
        originalAtlas: {fileID: 11400000, guid: 5015b2e3f37f344b5a4d8de057f61f1a,
          type: 2}
        originalTextureGUID: f4b91966060e9484fb6f8b7fe04a3f0f
        originalMaterialIndex: 0
        originalUV:
          serializedVersion: 2
          x: 0
          y: .250244141
          width: .5
          height: .25
        originalPivotOffset: {x: 0, y: 0}
    - clipIndex: 0
      frame: 2
      triggerFrameBones:
      - userTriggerTag: 
        boneNodeIndex: 1
        triggerEventTypes: 02000000040000000300000006000000
        pivotOffset: {x: 0, y: 0}
        upperLeft: {x: -512, y: 512, z: 0}
        bottomLeft: {x: -512, y: -512, z: 0}
        bottomRight: {x: 512, y: -512, z: 0}
        upperRight: {x: 512, y: 512, z: 0}
        uv:
          serializedVersion: 2
          x: 0
          y: .250244141
          width: .5
          height: .25
        localPosition: {x: 0, y: 0, z: 0}
        localRotation: 0
        localScale: {x: 0, y: 0}
        atlas: {fileID: 11400000, guid: 5015b2e3f37f344b5a4d8de057f61f1a, type: 2}
        textureGUID: f4b91966060e9484fb6f8b7fe04a3f0f
        materialIndex: 0
        depth: 0
        collider:
          type: 0
          center: {x: 0, y: 0, z: 0}
          boxSize: {x: 0, y: 0, z: 0}
          sphereRadius: 0
          useAnimationLayer: 1
          layer: 0
          isTrigger: 1
          tag: 
        originalAtlas: {fileID: 11400000, guid: 5015b2e3f37f344b5a4d8de057f61f1a,
          type: 2}
        originalTextureGUID: f4b91966060e9484fb6f8b7fe04a3f0f
        originalMaterialIndex: 0
        originalUV:
          serializedVersion: 2
          x: 0
          y: .250244141
          width: .5
          height: .25
        originalPivotOffset: {x: 0, y: 0}
  - clipIndex: 1
    triggerFrames:
    - clipIndex: 1
      frame: 0
      triggerFrameBones:
      - userTriggerTag: 
        boneNodeIndex: 0
        triggerEventTypes: 0100000006000000
        pivotOffset: {x: 0, y: 0}
        upperLeft: {x: 0, y: 0, z: 0}
        bottomLeft: {x: 0, y: 0, z: 0}
        bottomRight: {x: 0, y: 0, z: 0}
        upperRight: {x: 0, y: 0, z: 0}
        uv:
          serializedVersion: 2
          x: 0
          y: 0
          width: 0
          height: 0
        localPosition: {x: 0, y: 0, z: 0}
        localRotation: 0
        localScale: {x: 0, y: 0}
        atlas: {fileID: 0}
        textureGUID: 
        materialIndex: 0
        depth: 0
        collider:
          type: 0
          center: {x: 0, y: 0, z: 0}
          boxSize: {x: 0, y: 0, z: 0}
          sphereRadius: 0
          useAnimationLayer: 1
          layer: 0
          isTrigger: 1
          tag: 
        originalAtlas: {fileID: 0}
        originalTextureGUID: 
        originalMaterialIndex: 0
        originalUV:
          serializedVersion: 2
          x: 0
          y: 0
          width: 0
          height: 0
        originalPivotOffset: {x: 0, y: 0}
      - userTriggerTag: 
        boneNodeIndex: 1
        triggerEventTypes: 02000000040000000300000006000000
        pivotOffset: {x: 0, y: 0}
        upperLeft: {x: -512, y: 512, z: 0}
        bottomLeft: {x: -512, y: -512, z: 0}
        bottomRight: {x: 512, y: -512, z: 0}
        upperRight: {x: 512, y: 512, z: 0}
        uv:
          serializedVersion: 2
          x: 0
          y: 0
          width: .5
          height: .25
        localPosition: {x: 0, y: 0, z: 0}
        localRotation: 0
        localScale: {x: 0, y: 0}
        atlas: {fileID: 11400000, guid: 5015b2e3f37f344b5a4d8de057f61f1a, type: 2}
        textureGUID: e73a6070c9d9443c4bf698dfde9d9f19
        materialIndex: 0
        depth: 0
        collider:
          type: 0
          center: {x: 0, y: 0, z: 0}
          boxSize: {x: 0, y: 0, z: 0}
          sphereRadius: 0
          useAnimationLayer: 1
          layer: 0
          isTrigger: 1
          tag: 
        originalAtlas: {fileID: 11400000, guid: 5015b2e3f37f344b5a4d8de057f61f1a,
          type: 2}
        originalTextureGUID: e73a6070c9d9443c4bf698dfde9d9f19
        originalMaterialIndex: 0
        originalUV:
          serializedVersion: 2
          x: 0
          y: 0
          width: .5
          height: .25
        originalPivotOffset: {x: 0, y: 0}
    - clipIndex: 1
      frame: 1
      triggerFrameBones:
      - userTriggerTag: 
        boneNodeIndex: 1
        triggerEventTypes: 04000000
        pivotOffset: {x: 0, y: 0}
        upperLeft: {x: -512, y: 512, z: 0}
        bottomLeft: {x: -512, y: -512, z: 0}
        bottomRight: {x: 512, y: -512, z: 0}
        upperRight: {x: 512, y: 512, z: 0}
        uv:
          serializedVersion: 2
          x: 0
          y: 0
          width: .5
          height: .25
        localPosition: {x: 0, y: 0, z: 0}
        localRotation: 0
        localScale: {x: 0, y: 0}
        atlas: {fileID: 11400000, guid: 5015b2e3f37f344b5a4d8de057f61f1a, type: 2}
        textureGUID: e73a6070c9d9443c4bf698dfde9d9f19
        materialIndex: -1
        depth: 0
        collider:
          type: 0
          center: {x: 0, y: 0, z: 0}
          boxSize: {x: 0, y: 0, z: 0}
          sphereRadius: 0
          useAnimationLayer: 1
          layer: 0
          isTrigger: 1
          tag: 
        originalAtlas: {fileID: 11400000, guid: 5015b2e3f37f344b5a4d8de057f61f1a,
          type: 2}
        originalTextureGUID: e73a6070c9d9443c4bf698dfde9d9f19
        originalMaterialIndex: -1
        originalUV:
          serializedVersion: 2
          x: 0
          y: 0
          width: .5
          height: .25
        originalPivotOffset: {x: 0, y: 0}
    - clipIndex: 1
      frame: 2
      triggerFrameBones:
      - userTriggerTag: 
        boneNodeIndex: 1
        triggerEventTypes: 02000000040000000300000006000000
        pivotOffset: {x: 0, y: 0}
        upperLeft: {x: -512, y: 512, z: 0}
        bottomLeft: {x: -512, y: -512, z: 0}
        bottomRight: {x: 512, y: -512, z: 0}
        upperRight: {x: 512, y: 512, z: 0}
        uv:
          serializedVersion: 2
          x: 0
          y: 0
          width: .5
          height: .25
        localPosition: {x: 0, y: 0, z: 0}
        localRotation: 0
        localScale: {x: 0, y: 0}
        atlas: {fileID: 11400000, guid: 5015b2e3f37f344b5a4d8de057f61f1a, type: 2}
        textureGUID: e73a6070c9d9443c4bf698dfde9d9f19
        materialIndex: 0
        depth: 0
        collider:
          type: 0
          center: {x: 0, y: 0, z: 0}
          boxSize: {x: 0, y: 0, z: 0}
          sphereRadius: 0
          useAnimationLayer: 1
          layer: 0
          isTrigger: 1
          tag: 
        originalAtlas: {fileID: 11400000, guid: 5015b2e3f37f344b5a4d8de057f61f1a,
          type: 2}
        originalTextureGUID: e73a6070c9d9443c4bf698dfde9d9f19
        originalMaterialIndex: 0
        originalUV:
          serializedVersion: 2
          x: 0
          y: 0
          width: .5
          height: .25
        originalPivotOffset: {x: 0, y: 0}
  triggerFrames:
  - clipIndex: 0
    frame: 0
    triggerFrameBones:
    - userTriggerTag: 
      boneNodeIndex: 0
      triggerEventTypes: 0100000006000000
      pivotOffset: {x: 0, y: 0}
      upperLeft: {x: 0, y: 0, z: 0}
      bottomLeft: {x: 0, y: 0, z: 0}
      bottomRight: {x: 0, y: 0, z: 0}
      upperRight: {x: 0, y: 0, z: 0}
      uv:
        serializedVersion: 2
        x: 0
        y: 0
        width: 0
        height: 0
      localPosition: {x: 0, y: 0, z: 0}
      localRotation: 0
      localScale: {x: 0, y: 0}
      atlas: {fileID: 0}
      textureGUID: 
      materialIndex: 0
      depth: 0
      collider:
        type: 0
        center: {x: 0, y: 0, z: 0}
        boxSize: {x: 0, y: 0, z: 0}
        sphereRadius: 0
        useAnimationLayer: 1
        layer: 0
        isTrigger: 1
        tag: 
      originalAtlas: {fileID: 0}
      originalTextureGUID: 
      originalMaterialIndex: 0
      originalUV:
        serializedVersion: 2
        x: 0
        y: 0
        width: 0
        height: 0
      originalPivotOffset: {x: 0, y: 0}
    - userTriggerTag: 
      boneNodeIndex: 1
      triggerEventTypes: 02000000040000000300000006000000
      pivotOffset: {x: 0, y: 0}
      upperLeft: {x: -512, y: 512, z: 0}
      bottomLeft: {x: -512, y: -512, z: 0}
      bottomRight: {x: 512, y: -512, z: 0}
      upperRight: {x: 512, y: 512, z: 0}
      uv:
        serializedVersion: 2
        x: 0
        y: .250244141
        width: .5
        height: .25
      localPosition: {x: 0, y: 0, z: 0}
      localRotation: 0
      localScale: {x: 0, y: 0}
      atlas: {fileID: 11400000, guid: 5015b2e3f37f344b5a4d8de057f61f1a, type: 2}
      textureGUID: f4b91966060e9484fb6f8b7fe04a3f0f
      materialIndex: 0
      depth: 0
      collider:
        type: 0
        center: {x: 0, y: 0, z: 0}
        boxSize: {x: 0, y: 0, z: 0}
        sphereRadius: 0
        useAnimationLayer: 1
        layer: 0
        isTrigger: 1
        tag: 
      originalAtlas: {fileID: 11400000, guid: 5015b2e3f37f344b5a4d8de057f61f1a, type: 2}
      originalTextureGUID: f4b91966060e9484fb6f8b7fe04a3f0f
      originalMaterialIndex: 0
      originalUV:
        serializedVersion: 2
        x: 0
        y: .250244141
        width: .5
        height: .25
      originalPivotOffset: {x: 0, y: 0}
  - clipIndex: 0
    frame: 2
    triggerFrameBones:
    - userTriggerTag: 
      boneNodeIndex: 1
      triggerEventTypes: 02000000040000000300000006000000
      pivotOffset: {x: 0, y: 0}
      upperLeft: {x: -512, y: 512, z: 0}
      bottomLeft: {x: -512, y: -512, z: 0}
      bottomRight: {x: 512, y: -512, z: 0}
      upperRight: {x: 512, y: 512, z: 0}
      uv:
        serializedVersion: 2
        x: 0
        y: .250244141
        width: .5
        height: .25
      localPosition: {x: 0, y: 0, z: 0}
      localRotation: 0
      localScale: {x: 0, y: 0}
      atlas: {fileID: 11400000, guid: 5015b2e3f37f344b5a4d8de057f61f1a, type: 2}
      textureGUID: f4b91966060e9484fb6f8b7fe04a3f0f
      materialIndex: 0
      depth: 0
      collider:
        type: 0
        center: {x: 0, y: 0, z: 0}
        boxSize: {x: 0, y: 0, z: 0}
        sphereRadius: 0
        useAnimationLayer: 1
        layer: 0
        isTrigger: 1
        tag: 
      originalAtlas: {fileID: 11400000, guid: 5015b2e3f37f344b5a4d8de057f61f1a, type: 2}
      originalTextureGUID: f4b91966060e9484fb6f8b7fe04a3f0f
      originalMaterialIndex: 0
      originalUV:
        serializedVersion: 2
        x: 0
        y: .250244141
        width: .5
        height: .25
      originalPivotOffset: {x: 0, y: 0}
  - clipIndex: 1
    frame: 0
    triggerFrameBones:
    - userTriggerTag: 
      boneNodeIndex: 0
      triggerEventTypes: 0100000006000000
      pivotOffset: {x: 0, y: 0}
      upperLeft: {x: 0, y: 0, z: 0}
      bottomLeft: {x: 0, y: 0, z: 0}
      bottomRight: {x: 0, y: 0, z: 0}
      upperRight: {x: 0, y: 0, z: 0}
      uv:
        serializedVersion: 2
        x: 0
        y: 0
        width: 0
        height: 0
      localPosition: {x: 0, y: 0, z: 0}
      localRotation: 0
      localScale: {x: 0, y: 0}
      atlas: {fileID: 0}
      textureGUID: 
      materialIndex: 0
      depth: 0
      collider:
        type: 0
        center: {x: 0, y: 0, z: 0}
        boxSize: {x: 0, y: 0, z: 0}
        sphereRadius: 0
        useAnimationLayer: 1
        layer: 0
        isTrigger: 1
        tag: 
      originalAtlas: {fileID: 0}
      originalTextureGUID: 
      originalMaterialIndex: 0
      originalUV:
        serializedVersion: 2
        x: 0
        y: 0
        width: 0
        height: 0
      originalPivotOffset: {x: 0, y: 0}
    - userTriggerTag: 
      boneNodeIndex: 1
      triggerEventTypes: 02000000040000000300000006000000
      pivotOffset: {x: 0, y: 0}
      upperLeft: {x: -512, y: 512, z: 0}
      bottomLeft: {x: -512, y: -512, z: 0}
      bottomRight: {x: 512, y: -512, z: 0}
      upperRight: {x: 512, y: 512, z: 0}
      uv:
        serializedVersion: 2
        x: 0
        y: 0
        width: .5
        height: .25
      localPosition: {x: 0, y: 0, z: 0}
      localRotation: 0
      localScale: {x: 0, y: 0}
      atlas: {fileID: 11400000, guid: 5015b2e3f37f344b5a4d8de057f61f1a, type: 2}
      textureGUID: e73a6070c9d9443c4bf698dfde9d9f19
      materialIndex: 0
      depth: 0
      collider:
        type: 0
        center: {x: 0, y: 0, z: 0}
        boxSize: {x: 0, y: 0, z: 0}
        sphereRadius: 0
        useAnimationLayer: 1
        layer: 0
        isTrigger: 1
        tag: 
      originalAtlas: {fileID: 11400000, guid: 5015b2e3f37f344b5a4d8de057f61f1a, type: 2}
      originalTextureGUID: e73a6070c9d9443c4bf698dfde9d9f19
      originalMaterialIndex: 0
      originalUV:
        serializedVersion: 2
        x: 0
        y: 0
        width: .5
        height: .25
      originalPivotOffset: {x: 0, y: 0}
  - clipIndex: 1
    frame: 1
    triggerFrameBones:
    - userTriggerTag: 
      boneNodeIndex: 1
      triggerEventTypes: 04000000
      pivotOffset: {x: 0, y: 0}
      upperLeft: {x: -512, y: 512, z: 0}
      bottomLeft: {x: -512, y: -512, z: 0}
      bottomRight: {x: 512, y: -512, z: 0}
      upperRight: {x: 512, y: 512, z: 0}
      uv:
        serializedVersion: 2
        x: 0
        y: 0
        width: .5
        height: .25
      localPosition: {x: 0, y: 0, z: 0}
      localRotation: 0
      localScale: {x: 0, y: 0}
      atlas: {fileID: 11400000, guid: 5015b2e3f37f344b5a4d8de057f61f1a, type: 2}
      textureGUID: e73a6070c9d9443c4bf698dfde9d9f19
      materialIndex: -1
      depth: 0
      collider:
        type: 0
        center: {x: 0, y: 0, z: 0}
        boxSize: {x: 0, y: 0, z: 0}
        sphereRadius: 0
        useAnimationLayer: 1
        layer: 0
        isTrigger: 1
        tag: 
      originalAtlas: {fileID: 11400000, guid: 5015b2e3f37f344b5a4d8de057f61f1a, type: 2}
      originalTextureGUID: e73a6070c9d9443c4bf698dfde9d9f19
      originalMaterialIndex: -1
      originalUV:
        serializedVersion: 2
        x: 0
        y: 0
        width: .5
        height: .25
      originalPivotOffset: {x: 0, y: 0}
  - clipIndex: 1
    frame: 2
    triggerFrameBones:
    - userTriggerTag: 
      boneNodeIndex: 1
      triggerEventTypes: 02000000040000000300000006000000
      pivotOffset: {x: 0, y: 0}
      upperLeft: {x: -512, y: 512, z: 0}
      bottomLeft: {x: -512, y: -512, z: 0}
      bottomRight: {x: 512, y: -512, z: 0}
      upperRight: {x: 512, y: 512, z: 0}
      uv:
        serializedVersion: 2
        x: 0
        y: 0
        width: .5
        height: .25
      localPosition: {x: 0, y: 0, z: 0}
      localRotation: 0
      localScale: {x: 0, y: 0}
      atlas: {fileID: 11400000, guid: 5015b2e3f37f344b5a4d8de057f61f1a, type: 2}
      textureGUID: e73a6070c9d9443c4bf698dfde9d9f19
      materialIndex: 0
      depth: 0
      collider:
        type: 0
        center: {x: 0, y: 0, z: 0}
        boxSize: {x: 0, y: 0, z: 0}
        sphereRadius: 0
        useAnimationLayer: 1
        layer: 0
        isTrigger: 1
        tag: 
      originalAtlas: {fileID: 11400000, guid: 5015b2e3f37f344b5a4d8de057f61f1a, type: 2}
      originalTextureGUID: e73a6070c9d9443c4bf698dfde9d9f19
      originalMaterialIndex: 0
      originalUV:
        serializedVersion: 2
        x: 0
        y: 0
        width: .5
        height: .25
      originalPivotOffset: {x: 0, y: 0}
  vertices:
  - {x: 0, y: 0, z: 0}
  - {x: 0, y: 0, z: 0}
  - {x: 0, y: 0, z: 0}
  - {x: 0, y: 0, z: 0}
  - {x: -512, y: 512, z: 0}
  - {x: -512, y: -512, z: 0}
  - {x: 512, y: -512, z: 0}
  - {x: 512, y: 512, z: 0}
  uvs:
  - {x: 0, y: 0}
  - {x: 0, y: 0}
  - {x: 0, y: 0}
  - {x: 0, y: 0}
  - {x: 0, y: .500244141}
  - {x: 0, y: .250244141}
  - {x: .5, y: .250244141}
  - {x: .5, y: .500244141}
  colors:
  - {r: 1, g: 1, b: 1, a: 1}
  - {r: 1, g: 1, b: 1, a: 1}
  - {r: 1, g: 1, b: 1, a: 1}
  - {r: 1, g: 1, b: 1, a: 1}
  - {r: 1, g: 1, b: 1, a: 1}
  - {r: 1, g: 1, b: 1, a: 1}
  - {r: 1, g: 1, b: 1, a: 1}
  - {r: 1, g: 1, b: 1, a: 1}
  normals:
  - {x: 0, y: 0, z: -1}
  - {x: 0, y: 0, z: -1}
  - {x: 0, y: 0, z: -1}
  - {x: 0, y: 0, z: -1}
  - {x: 0, y: 0, z: -1}
  - {x: 0, y: 0, z: -1}
  - {x: 0, y: 0, z: -1}
  - {x: 0, y: 0, z: -1}
  bindPoses:
  - e00: 1
    e01: 0
    e02: 0
    e03: 0
    e10: 0
    e11: 1
    e12: 0
    e13: 0
    e20: 0
    e21: 0
    e22: 1
    e23: 0
    e30: 0
    e31: 0
    e32: 0
    e33: 1
  - e00: 1
    e01: 0
    e02: 0
    e03: 0
    e10: 0
    e11: 1
    e12: 0
    e13: 0
    e20: 0
    e21: 0
    e22: 1
    e23: 0
    e30: 0
    e31: 0
    e32: 0
    e33: 1
  - e00: 1
    e01: 0
    e02: 0
    e03: 0
    e10: 0
    e11: 1
    e12: 0
    e13: 0
    e20: 0
    e21: 0
    e22: 1
    e23: 0
    e30: 0
    e31: 0
    e32: 0
    e33: 1
  - e00: 1
    e01: 0
    e02: 0
    e03: 0
    e10: 0
    e11: 1
    e12: 0
    e13: 0
    e20: 0
    e21: 0
    e22: 1
    e23: 0
    e30: 0
    e31: 0
    e32: 0
    e33: 1
