<?xml version="1.0" encoding="utf-8"?>
<!-- Generator: Adobe Illustrator 16.0.0, SVG Export Plug-In . SVG Version: 6.00 Build 0)  -->
<!DOCTYPE svg PUBLIC "-//W3C//DTD SVG 1.1//EN" "http://www.w3.org/Graphics/SVG/1.1/DTD/svg11.dtd">
<svg version="1.1" id="Layer_1" xmlns="http://www.w3.org/2000/svg" xmlns:xlink="http://www.w3.org/1999/xlink" x="0px" y="0px"
	 width="1024px" height="1024px" viewBox="0 0 1024 1024" enable-background="new 0 0 1024 1024" xml:space="preserve">
<g>
	<path fill="#88BE40" d="M500.417,481.632c0,0-7.679,0.832-10.154,6.721c-2.476,5.887-1.875,11.436-4.571,15.242
		c-2.701,3.809-10.988,27.855-10.988,27.855s-1.22,7.621,16.858,10.416c7.517,1.162,37.806,1.369,45.02-2.852
		c11.879-6.949,1.975-5.961,4.283-25.1c0.35-2.889,10.782-29.891,10.782-29.891l0,0c0,0-5.387,1.66,0,0
		C557.035,482.364,511.208,495.218,500.417,481.632"/>
	<path fill="#244A22" d="M506.691,545.055c-6.569,0-12.511-0.288-15.507-0.751c-8.667-1.34-14.479-3.967-17.274-7.807
		c-1.96-2.691-1.712-5.001-1.643-5.437l0.104-0.414c0.859-2.495,8.483-24.496,11.308-28.479c1.16-1.638,1.593-3.936,2.094-6.597
		c0.465-2.466,0.99-5.261,2.216-8.175c3.004-7.146,11.79-8.176,12.162-8.217l1.352-0.146l0.845,1.064
		c2.792,3.516,9.317,5.373,18.868,5.373c0,0,0.001,0,0.003,0c8.036,0,17.872-1.271,29.236-3.778
		c0.648-0.143,0.979-0.216,1.201-0.252l4.123-1.271l-1.266,3.275l0.01,0.062c0.09,0.596,0.043,1.553-0.91,2.271
		c-4.853,12.587-10.027,26.602-10.302,28.443c-0.922,7.643,0.187,11.718,0.996,14.693c1.534,5.639,0.87,7.928-6.481,12.229
		C531.793,544.673,514.043,545.055,506.691,545.055z M477.162,531.885c0.104,0.903,1.306,5.462,14.776,7.544
		c2.723,0.421,8.514,0.693,14.753,0.693c14.041,0,25.284-1.271,28.645-3.236c5.201-3.043,5.146-3.248,4.213-6.676
		c-0.865-3.178-2.172-7.98-1.133-16.59c0.3-2.48,6.017-17.667,9.325-26.312c-10.137,2.054-19.045,3.094-26.522,3.095h-0.003
		c-10.337,0-17.624-2.049-21.704-6.094c-1.907,0.458-5.607,1.743-6.976,4.999c-1.022,2.43-1.477,4.843-1.915,7.176
		c-0.583,3.095-1.134,6.018-2.917,8.536C485.908,507.552,480.345,522.677,477.162,531.885z"/>
	<g>
		<path fill="#CADC48" d="M469.473,533.339c0,0,17.521-47.176,19.683-10.707c0.716,12.039-1.186,18.395-1.186,18.395
			S472.996,541.058,469.473,533.339z"/>
		<path fill="#647E37" d="M487.972,543.185h-0.005c-0.167,0-4.132-0.012-8.513-1.028c-6.182-1.435-10.2-4.1-11.944-7.921
			l-0.37-0.812l0.311-0.836c2.896-7.802,10.356-25.946,17.028-25.946c5.221,0,6.393,8.478,6.831,15.862
			c0.729,12.278-1.19,18.866-1.272,19.141l-0.46,1.536L487.972,543.185z M471.838,533.179c2.594,4.032,10.126,5.352,14.423,5.629
			c0.481-2.521,1.221-7.97,0.74-16.048c-0.639-10.773-2.555-11.805-2.574-11.813C482.219,511.013,476.283,521.489,471.838,533.179z"
			/>
	</g>
</g>
</svg>
