<?xml version="1.0" encoding="utf-8"?>
<!-- Generator: Adobe Illustrator 16.0.0, SVG Export Plug-In . SVG Version: 6.00 Build 0)  -->
<!DOCTYPE svg PUBLIC "-//W3C//DTD SVG 1.1//EN" "http://www.w3.org/Graphics/SVG/1.1/DTD/svg11.dtd">
<svg version="1.1" id="Layer_1" xmlns="http://www.w3.org/2000/svg" xmlns:xlink="http://www.w3.org/1999/xlink" x="0px" y="0px"
	 width="1024px" height="1024px" viewBox="0 0 1024 1024" enable-background="new 0 0 1024 1024" xml:space="preserve">
<ellipse fill="#B9B9B9" cx="480.88" cy="774.828" rx="385" ry="37.501"/>
<g>
	<path fill="#88BE40" d="M216.549,595.548c0,0-12.322,28.6-21.121,30.359c-8.799,1.758-15.838,2.637-18.479,7.037
		c-2.64,4.4-25.517,6.16-30.796,0c-5.28-6.16,4.399,24.635,18.479,32.559c14.078,7.92,26.873,14.074,49.514,10.559
		c22.64-3.52,22.64-3.52,22.64-3.52l31.022-16.051l0,0l0,0L216.549,595.548"/>
	<path fill="#5F7E37" d="M241.642,628.374c-7.398-8.492-14.542-17.209-21.271-26.242c-1.134-1.521-2.342-3.018-3.561-4.516
		c-5.712,4.684-6.572,12.465-3.391,19.137c0.93,1.949,2.445,3.627,3.758,5.336c1.992,2.596,3.976,5.207,6.033,7.756
		c3.266,4.047,6.635,8.01,9.92,12.039c3.299,4.041,6.477,8.117,10.001,11.965c1.526,1.668,2.917,3.59,4.686,5.002
		c1.466,1.172,2.938,2.682,4.535,3.619c1.555,0.912,3.086,1.223,4.743,1.688c4.852,1.363,10.493-1.535,11.854-6.48
		C259.606,648.134,250.416,638.442,241.642,628.374z"/>
	<path fill="#A7D165" d="M217.323,606.675c-2.42-0.914-4.854,0.641-6.192,2.52c-0.75,1.053-1.005,2.33-0.952,3.6
		c0.018,0.41,0.174,1.67,0.244,2.115c0.003,0.1,0.012,0.201,0.011,0.303c-0.019-0.182-0.161,0.9-0.285,1.332
		c-0.053,0.086-0.122,0.205-0.218,0.379c-0.132,0.229-0.271,0.455-0.417,0.674c-0.03,0.049-0.052,0.082-0.075,0.119
		c-0.363,0.434-0.765,0.836-1.168,1.232c-0.203,0.199-1.441,1.215-1.276,1.117c-5.46,4.051-10.547,5.604-16.962,7.619
		c-7.031,2.207-14.235,3.842-21.438,5.377c-5.675,1.209-11.1,2.4-16.342,4.834c-4.238,1.965-2.281,9.521,2.435,8.984
		c0.282-0.031,0.563-0.061,0.846-0.086c-1.028,0.117,1.377,0.053,2.054-0.004c1.771-0.15,3.5-0.51,5.244-0.828
		c3.345-0.607,6.7-1.154,10.031-1.838c8.074-1.66,16.133-3.51,23.959-6.119c7.098-2.367,14.371-5.418,19.896-10.611
		C221.821,622.597,226.344,610.083,217.323,606.675z"/>
	<path fill="#244A22" d="M201.785,680.911c-0.001,0-0.002,0-0.003,0c-16.266,0-27.3-5.463-39.032-12.062
		c-12.862-7.24-23.114-32.004-21.718-37.332c0.505-1.924,2.133-3.219,4.052-3.219c2.141,0,3.527,1.617,3.982,2.15
		c1.094,1.275,5.261,2.646,11.827,2.646c6.753,0,11.79-1.445,12.874-2.301c3.278-5.238,10.154-6.566,18.102-8.102
		c0.913-0.176,1.85-0.355,2.808-0.547c3.29-0.658,11.448-12.113,18.349-28.117l2.461-5.707l58.348,69.373l-35.841,18.543
		l-23.258,3.617C210.15,680.565,205.914,680.911,201.785,680.911z M150.398,639.509c2.954,7.477,9.092,18.697,16.115,22.65
		c11.156,6.275,20.838,11.078,35.269,11.078c0.001,0,0.002,0,0.003,0c3.731,0,7.581-0.316,11.771-0.967l22.021-3.424l26.204-13.559
		l-44.254-52.615c-4.628,9.705-13.256,25.379-21.346,26.998c-0.976,0.195-1.929,0.379-2.857,0.559
		c-6.232,1.203-11.615,2.242-13.085,4.691c-3.339,5.566-16.701,5.848-19.346,5.85C158.121,640.771,154.091,640.548,150.398,639.509z
		"/>
	<g>
		<path fill="#88BE40" d="M202.03,638.665c0,0-2.199-0.439-7.479-5.279s-14.52-6.16-15.84,0s-1.32,6.16-1.32,6.16
			s5.279,9.238,12.32,8.359"/>
		<path fill="#244A22" d="M202.03,638.665c-0.367-0.021-0.706-0.123-1.062-0.236c-0.347-0.111-0.741-0.201-1.065-0.365
			c-0.657-0.316-1.333-0.625-1.991-0.973c-0.68-0.328-1.245-0.771-1.877-1.156l-1.821-1.25l-1.737-1.17l-0.812-0.459l-0.873-0.432
			c-0.285-0.154-0.595-0.262-0.895-0.383c-0.302-0.119-0.597-0.248-0.907-0.336c-0.605-0.221-1.229-0.35-1.839-0.504
			c-0.616-0.104-1.228-0.205-1.827-0.217c-0.592-0.029-1.183-0.02-1.71,0.088c-0.282,0.021-0.519,0.113-0.761,0.182
			c-0.261,0.047-0.452,0.172-0.662,0.268c-0.417,0.199-0.701,0.49-0.974,0.791c-0.135,0.154-0.203,0.367-0.331,0.537
			c-0.092,0.201-0.139,0.443-0.228,0.658c-0.166,0.596-0.332,1.365-0.498,2.039c-0.336,1.393-0.686,2.781-1.061,4.166l-0.191-1.234
			c0.107,0.219,0.271,0.502,0.417,0.758l0.476,0.781c0.322,0.52,0.668,1.031,1.03,1.525c0.352,0.508,0.738,0.98,1.127,1.457
			c0.39,0.475,0.797,0.934,1.233,1.361c0.208,0.23,0.444,0.414,0.672,0.619c0.229,0.203,0.457,0.41,0.701,0.586
			c0.244,0.18,0.479,0.391,0.737,0.549l0.787,0.477c0.27,0.145,0.551,0.262,0.833,0.4c0.28,0.154,0.579,0.232,0.882,0.32
			c0.303,0.08,0.609,0.217,0.929,0.24l0.979,0.152c-0.317,0.084-0.646,0.158-0.979,0.23c-0.336,0.096-0.675,0.088-1.021,0.1
			c-0.346,0.01-0.7,0.027-1.041-0.035c-0.343-0.051-0.704-0.07-1.043-0.158l-1.015-0.295c-0.341-0.104-0.651-0.258-0.983-0.389
			c-0.336-0.125-0.645-0.291-0.946-0.471c-0.303-0.176-0.624-0.338-0.905-0.541c-0.593-0.379-1.154-0.797-1.701-1.236
			c-0.53-0.451-1.049-0.922-1.534-1.418c-0.492-0.494-0.948-1.018-1.394-1.553c-0.229-0.264-0.436-0.547-0.648-0.824
			c-0.211-0.293-0.404-0.555-0.627-0.902l-0.311-0.482l0.119-0.75c0.226-1.416,0.477-2.828,0.739-4.234
			c0.146-0.725,0.243-1.363,0.429-2.154c0.144-0.461,0.259-0.926,0.457-1.375c0.245-0.438,0.456-0.9,0.77-1.299
			c0.629-0.811,1.443-1.48,2.319-1.9c0.439-0.209,0.882-0.424,1.328-0.52c0.447-0.129,0.897-0.244,1.334-0.271
			c0.886-0.125,1.74-0.098,2.57-0.02c0.833,0.086,1.625,0.275,2.407,0.477c0.767,0.24,1.519,0.512,2.233,0.852
			c0.365,0.152,0.713,0.338,1.055,0.535c0.343,0.193,0.69,0.375,1.012,0.604c0.325,0.225,0.652,0.424,0.972,0.666l0.948,0.775
			c0.312,0.258,0.53,0.502,0.791,0.764l0.78,0.801l1.462,1.52c0.487,0.506,0.934,1.094,1.463,1.541
			c0.523,0.459,1.029,0.961,1.555,1.451c0.262,0.25,0.542,0.42,0.821,0.654C201.406,638.271,201.704,638.495,202.03,638.665z"/>
	</g>
</g>
<g>
	<path fill="#88BE40" d="M684.2,670.037c0,0,8.8,0.004,12.32,7.045c3.52,7.041,3.518,14.07,7.039,18.475
		c3.521,4.404,15.84,33.406,15.84,33.406s2.311,9.383-17.819,15.322c-8.369,2.471-25.053,5.75-33.822,1.65
		c-23.169-10.826-9.479-19.438-10.157-23.027c-0.679-3.588-31.117-42.961-31.117-42.961l0,0c0,0,6.303,1.354,0,0
		C620.181,678.598,673.64,688.508,684.2,670.037"/>
	<path fill="#5F7E37" d="M692.142,671.882c-1.187-1.065-2.729-2.323-4.24-3.411c-9.338,5.782-21.55,13.534-31.69,9.448
		c-0.244-0.098-0.48-0.208-0.716-0.316c-4.989,0.713-9.974,1.446-14.273,3.551c-21.512,10.528,14.569,18.418,22.89,18.389
		c8.77-0.031,19.645-1.718,26.35-7.938c3.387-3.142,6.466-8.733,7.129-14.172C695.98,675.532,694.149,673.685,692.142,671.882z"/>
	<path fill="#244A22" d="M678.924,751.718c-5.215,0-9.519-0.775-12.791-2.306c-8.658-4.046-13.637-8.403-15.221-13.322
		c-1.631-5.065,0.721-9.263,2.125-11.771c0.175-0.312,0.387-0.69,0.55-1.006c-2.572-4.584-16.455-23.293-29.496-40.187
		c-2.077-1.151-1.988-3.233-1.938-3.711c0.207-1.952,1.88-3.438,3.843-3.438c0.339,0,0.627,0.035,1.7,0.166
		c3.206,0.392,11.723,1.431,21.323,1.431c17.058,0,28.369-3.354,31.851-9.442c0.683-1.195,1.954-1.934,3.331-1.934
		c0,0,0.001,0,0.002,0c0.456,0.001,11.222,0.109,15.751,9.167c1.765,3.531,2.709,6.984,3.541,10.031
		c0.877,3.206,1.634,5.976,3.062,7.763c3.664,4.584,14.283,29.379,16.375,34.303c0.08,0.188,0.145,0.384,0.194,0.582
		c0.326,1.325,2.523,13.14-20.46,19.921C699.686,748.846,689.163,751.717,678.924,751.718z M634.926,684.622
		c17.044,22.237,25.933,34.864,26.445,37.573c0.417,2.207-0.628,4.071-1.638,5.875c-1.281,2.287-2.079,3.917-1.516,5.667
		c0.496,1.541,2.606,4.723,11.165,8.722c2.216,1.036,5.516,1.584,9.541,1.584c7.318-0.001,15.94-1.776,21.569-3.438
		c14.162-4.179,15.126-9.708,15.179-10.601c-4.715-11.075-12.817-29.183-15.109-32.052c-2.42-3.026-3.417-6.672-4.472-10.531
		c-0.774-2.836-1.576-5.77-3.003-8.623c-1.572-3.146-4.904-4.282-7.02-4.693c-5.85,7.398-18.292,11.146-37.05,11.146
		C643.793,685.25,638.895,684.959,634.926,684.622z"/>
	<g>
		<path fill="#88BE40" d="M658.685,695.779c0,0,12.207,4.617,18.148,3.299"/>
		<path fill="#244A22" d="M658.685,695.779c0,0,0.333-0.058,0.884-0.098c0.552-0.044,1.324-0.075,2.219-0.044
			c0.895,0.03,1.913,0.113,2.978,0.263c1.065,0.142,2.177,0.357,3.272,0.589c1.094,0.255,2.172,0.526,3.176,0.813
			c0.501,0.15,0.986,0.296,1.446,0.434c0.464,0.165,0.892,0.271,1.303,0.416c0.412,0.156,0.78,0.246,1.124,0.365
			c0.345,0.119,0.65,0.231,0.903,0.291c0.513,0.146,0.844,0.27,0.844,0.27s-0.244,0.212-0.738,0.511
			c-0.248,0.158-0.558,0.324-0.924,0.456c-0.365,0.14-0.796,0.309-1.257,0.402c-0.461,0.099-0.981,0.221-1.511,0.26
			c-0.532,0.046-1.106,0.099-1.679,0.073c-0.577-0.011-1.177-0.032-1.766-0.122c-0.599-0.061-1.192-0.18-1.781-0.305
			c-2.359-0.525-4.564-1.515-6.092-2.541c-0.768-0.505-1.373-1.006-1.779-1.392C658.896,696.043,658.685,695.779,658.685,695.779z"
			/>
	</g>
	<g>
		<path fill="#CADC48" d="M725.553,730.625c0,0-25.596-56.725-23.597-10.76c0.659,15.18,3.584,22.885,3.584,22.885
			S722.502,740.77,725.553,730.625z"/>
		<path fill="#647E37" d="M703.295,746.446l-0.944-2.485c-0.127-0.336-3.127-8.397-3.803-23.947
			c-0.605-13.933,1.363-17.856,3.146-19.719c1.134-1.184,2.565-1.81,4.141-1.81c3.069,0,7.294,1.911,15.357,16.089
			c4.117,7.237,7.336,14.349,7.471,14.647l0.524,1.164l-0.367,1.222c-3.654,12.15-22.101,14.439-22.884,14.53L703.295,746.446z
			 M706.311,705.602c-0.494,1.229-1.354,4.768-0.946,14.115c0.407,9.389,1.717,15.819,2.578,19.156
			c4.643-1.021,11.653-3.495,13.913-8.133C716.283,718.673,709.457,707.671,706.311,705.602z"/>
	</g>
</g>
<g>
	<path fill="#88BE40" d="M371.72,703.029c0,0-7.679,0.832-10.154,6.721c-2.476,5.887-1.875,11.436-4.571,15.242
		c-2.701,3.809-10.988,27.855-10.988,27.855s-1.22,7.621,16.858,10.416c7.517,1.162,37.806,1.369,45.02-2.852
		c11.879-6.949,1.975-5.961,4.283-25.1c0.35-2.889,10.782-29.891,10.782-29.891l0,0c0,0-5.387,1.66,0,0
		C428.338,703.762,382.511,716.615,371.72,703.029"/>
	<path fill="#244A22" d="M377.994,766.452c-6.569,0-12.511-0.288-15.507-0.751c-8.667-1.34-14.479-3.967-17.274-7.807
		c-1.96-2.691-1.712-5.001-1.643-5.437l0.104-0.414c0.859-2.495,8.483-24.496,11.308-28.479c1.16-1.638,1.593-3.936,2.094-6.597
		c0.465-2.466,0.99-5.261,2.216-8.175c3.004-7.146,11.79-8.176,12.162-8.217l1.352-0.146l0.845,1.064
		c2.792,3.516,9.317,5.373,18.868,5.373c0,0,0.001,0,0.003,0c8.036,0,17.872-1.271,29.236-3.778
		c0.648-0.143,0.979-0.216,1.201-0.252l4.123-1.271l-1.266,3.275l0.01,0.062c0.09,0.596,0.043,1.553-0.91,2.271
		c-4.853,12.587-10.027,26.602-10.302,28.443c-0.922,7.643,0.187,11.718,0.996,14.693c1.534,5.639,0.87,7.928-6.481,12.229
		C403.096,766.07,385.346,766.452,377.994,766.452z M348.465,753.282c0.104,0.903,1.306,5.462,14.776,7.544
		c2.723,0.421,8.514,0.693,14.753,0.693c14.041,0,25.284-1.271,28.645-3.236c5.201-3.043,5.146-3.248,4.213-6.676
		c-0.865-3.178-2.172-7.98-1.133-16.59c0.3-2.48,6.017-17.667,9.325-26.312c-10.137,2.054-19.045,3.094-26.522,3.095h-0.003
		c-10.337,0-17.624-2.049-21.704-6.094c-1.907,0.458-5.607,1.743-6.976,4.999c-1.022,2.43-1.477,4.843-1.915,7.176
		c-0.583,3.095-1.134,6.018-2.917,8.536C357.211,728.949,351.647,744.074,348.465,753.282z"/>
	<g>
		<path fill="#CADC48" d="M340.775,754.736c0,0,17.521-47.176,19.683-10.707c0.716,12.039-1.186,18.395-1.186,18.395
			S344.299,762.455,340.775,754.736z"/>
		<path fill="#647E37" d="M359.274,764.582h-0.005c-0.167,0-4.132-0.012-8.513-1.028c-6.182-1.435-10.2-4.1-11.944-7.921
			l-0.37-0.812l0.311-0.836c2.896-7.802,10.356-25.946,17.028-25.946c5.221,0,6.393,8.478,6.831,15.862
			c0.729,12.278-1.19,18.866-1.272,19.141l-0.46,1.536L359.274,764.582z M343.141,754.576c2.594,4.032,10.126,5.352,14.423,5.629
			c0.481-2.521,1.221-7.97,0.74-16.048c-0.639-10.773-2.555-11.805-2.574-11.813C353.521,732.41,347.586,742.887,343.141,754.576z"
			/>
	</g>
</g>
<g>
	<path fill="#88BE40" d="M739.741,576.38c0,0,10.968,10.125,25.972,11.162c15.001,1.035,30.796,3.52,46.637,0
		c15.838-3.52,14.958-6.744,36.076-4.691s35.199,2.93,49.278,4.691c14.077,1.76,28.158,19.359,30.797,24.639
		c2.641,5.281,7.986,1.59,14.236,0.369c1.759-2.639,28,40.848,22.722,46.199c-5.28,5.348-14.079,5.34-29.038,9.744
		c-14.959,4.406-52.797,18.482-68.636,19.363s-40.477-10.564-49.276-15.84c-8.8-5.279-24.64-11.438-41.358-9.678
		c-16.718,1.758-16.718,1.758-16.718,1.758s-30.798,0.871-42.237,4.396c-11.44,3.523-31.913,3.523-31.913,3.523
		S708.491,581.056,739.741,576.38"/>
	<path fill="#A7D165" d="M880.758,601.112c4.177,0.168,8.487-0.199,12.573-1.08c1.748-0.48,3.451-1.035,5.084-1.697
		c1.198-0.486,2.309-1.021,3.353-1.594c2.29-1.85,4.346-3.969,6.099-6.074c-1.21-0.895-2.963-1.426-4.673-1.338
		c-0.096-0.045,1.72-2.098,1.608-2.131c-20.726-6.119-70.281-4.721-73.979-4.721c-16.623,3.396-42.144,6.625-63.559,4.75
		c-0.774,0.967-1.294,1.969-1.392,2.967c0.195,0.785,0.409,1.568,0.637,2.352c0.457,0.66,1.167,1.305,2.187,1.922
		c1.733,1.047,3.706,1.865,5.79,2.525c2.232,0.211,4.471,0.395,6.707,0.551c15.512,1.078,31.293,1.367,46.868,1.406
		c8.317,0.02,16.639-0.037,24.952,0.178c6.257,0.162,12.313,0.85,18.484,1.564c2.482,0.289,5.082,0.598,7.737,0.861
		C879.604,601.267,880.123,601.087,880.758,601.112z"/>
	<path fill="#5F7E37" d="M964.53,658.831c-1.957-7.219-3.894-14.441-6.522-21.428c-0.968-0.256-1.964-0.447-2.984-0.562
		c-9.217-1.064-19.072,0.502-28.048,2.561c-8.382,1.924-16.316,5.217-24.21,8.551c-3.412,1.441-6.789,2.965-10.168,4.479
		c-1.742,0.779-3.484,1.553-5.229,2.32c-0.893,0.393-1.783,0.779-2.676,1.164c-0.026,0.01-0.045,0.02-0.069,0.029
		c-0.339,0.139-0.677,0.281-1.017,0.42c-3.861,1.59-7.697,3.098-11.779,4.02c-0.586,0.133-1.18,0.244-1.772,0.35
		c-0.426,0.062-0.895,0.131-1.163,0.158c-2.137,0.197-4.285,0.201-6.426,0.123c-0.846-0.029-1.688-0.105-2.531-0.178
		c-22.582-2.037-42.53-18.871-65.095-22.73c-22.781-3.896-43.556,4.127-65.937,6.15c-4.474,0.404-24.221-2.664-33.096,1.154
		l-7.798,24.34c0,0,6.977,0.982,15.3,0.908c11.747-0.104,29.719-4.689,35.928-5.877c30.726-5.875,48.089-4.932,66.585,2.467
		c16.743,6.697,50.556,27.127,77.188,19.338c4.229-1.236,8.395-2.326,12.473-3.787c4.833-2.041,9.625-4.174,14.413-6.314
		c1.963-0.877,3.933-1.74,5.903-2.594c0.48-0.197,1.938-0.807,2.418-1c1.404-0.564,2.817-1.098,4.236-1.623
		c5.2-1.92,10.534-3.439,15.974-4.506c0.756-0.148,1.514-0.277,2.274-0.4c-1.293,0.221,2.752-0.305,3.605-0.373
		c2.843-0.232,5.696-0.242,8.546-0.318c3.927-1.756,8.202-3.922,11.687-6.793C964.537,658.862,964.532,658.847,964.53,658.831z"/>
	<path fill="#244A22" d="M833.472,605.581c0,0-0.077,0.488-0.107,1.41c-0.034,0.916,0.013,2.27,0.24,3.934
		c0.256,1.66,0.779,3.641,1.806,5.648c1.051,1.994,2.669,3.961,4.903,5.492c2.21,1.564,5.021,2.639,8.119,3.328
		c3.107,0.688,6.521,0.912,10.065,0.945c3.558,0.02,7.25-0.396,11.001-0.809c3.723-0.469,7.608-1.164,11.496-1.783
		c3.866-0.631,7.716-1.205,11.511-1.902c3.796-0.658,7.534-1.307,11.149-1.934c3.607-0.674,7.096-1.322,10.403-1.938
		c3.305-0.65,6.431-1.262,9.315-1.83c5.777-1.188,10.595-2.176,13.967-2.871c1.691-0.35,3.04-0.572,3.967-0.693
		c0.467-0.045,0.819-0.102,1.067-0.057c0.239,0.018,0.362,0.027,0.362,0.027s-0.123,0.02-0.362,0.053
		c-0.231,0.006-0.565,0.146-1.003,0.275c-0.871,0.277,5.434,0.068,3.822,0.678c-3.216,1.248-9.793,2.92-16.062,4.754
		c-2.82,0.914-10.896,2.615-14.177,3.502c-3.274,0.906-6.745,1.816-10.356,2.65c-3.618,0.795-7.344,1.709-11.173,2.396
		c-3.81,0.76-7.73,1.418-11.62,2.102c-3.89,0.559-7.757,1.193-11.728,1.631c-3.942,0.41-7.867,0.547-11.687,0.383
		c-3.821-0.166-7.536-0.744-10.97-1.785c-3.431-1.01-6.573-2.613-8.977-4.75c-1.227-1.023-2.227-2.221-3.051-3.412
		c-0.798-1.221-1.398-2.457-1.831-3.658c-0.864-2.406-1.022-4.617-1.003-6.377c0.031-1.773,0.316-3.131,0.521-4.039
		C833.296,606.044,833.472,605.581,833.472,605.581z"/>
	<g>
		<path fill="#88BE40" d="M835.89,598.542c0,0-14.52,1.318-17.818,13.859"/>
		<path fill="#244A22" d="M835.89,598.542c0,0-0.358,0.203-0.954,0.533c-0.581,0.318-1.409,0.771-2.404,1.314
			c-0.481,0.275-1.006,0.539-1.538,0.855c-0.545,0.287-1.093,0.625-1.662,0.951c-0.575,0.314-1.119,0.711-1.711,1.037
			c-0.535,0.408-1.146,0.727-1.668,1.152c-0.542,0.398-1.101,0.779-1.591,1.219c-0.25,0.213-0.507,0.418-0.769,0.615
			c-0.233,0.223-0.455,0.451-0.693,0.662c-0.236,0.215-0.469,0.426-0.696,0.633c-0.207,0.225-0.403,0.453-0.612,0.666
			c-0.211,0.215-0.417,0.424-0.615,0.625c-0.193,0.209-0.347,0.436-0.521,0.639c-0.334,0.416-0.69,0.789-0.971,1.145
			c-0.253,0.367-0.506,0.688-0.711,0.959c-0.414,0.539-0.701,0.854-0.701,0.854s-0.05-0.395-0.047-1.1
			c0.003-0.352,0.003-0.787,0.039-1.285c0.058-0.49,0.203-1.023,0.35-1.621c0.08-0.297,0.159-0.611,0.27-0.926
			c0.137-0.303,0.278-0.615,0.423-0.936c0.148-0.324,0.318-0.648,0.485-0.986c0.183-0.326,0.42-0.623,0.638-0.947
			c0.221-0.322,0.459-0.639,0.705-0.959c0.268-0.295,0.548-0.588,0.838-0.875c0.552-0.613,1.223-1.096,1.876-1.6
			c0.66-0.498,1.389-0.875,2.087-1.273c0.729-0.328,1.44-0.674,2.165-0.893c1.432-0.492,2.822-0.723,4.014-0.811
			c1.196-0.076,2.195-0.004,2.892,0.113C835.5,598.403,835.89,598.542,835.89,598.542z"/>
	</g>
	<circle fill="#2C341B" cx="862.508" cy="598.103" r="7.04"/>
	<g>
		<path fill="#88BE40" d="M823.806,594.776c0,0-10.857,0.988-13.323,10.363"/>
		<path fill="#244A22" d="M823.806,594.776c0,0-0.264,0.195-0.697,0.496s-1.038,0.717-1.735,1.164
			c-0.67,0.432-1.452,0.936-2.29,1.477c-0.412,0.248-0.798,0.549-1.223,0.793c-0.38,0.307-0.822,0.537-1.194,0.846
			c-0.392,0.285-0.795,0.559-1.153,0.863c-0.182,0.15-0.371,0.293-0.566,0.428c-0.173,0.154-0.336,0.314-0.517,0.457
			c-0.18,0.148-0.355,0.293-0.528,0.434c-0.159,0.154-0.31,0.312-0.474,0.457c-0.332,0.289-0.648,0.574-0.906,0.871
			c-0.295,0.291-0.564,0.559-0.805,0.795c-0.216,0.26-0.438,0.482-0.615,0.676c-0.361,0.383-0.619,0.607-0.619,0.607
			s-0.08-0.305-0.13-0.852c-0.022-0.273-0.055-0.613-0.055-1.004c0.015-0.383,0.097-0.801,0.183-1.273
			c0.049-0.232,0.099-0.48,0.17-0.727c0.095-0.24,0.192-0.486,0.292-0.74c0.104-0.256,0.227-0.51,0.347-0.777
			c0.132-0.258,0.31-0.49,0.47-0.748c0.321-0.514,0.708-1.004,1.164-1.439c0.42-0.482,0.937-0.854,1.438-1.246
			c0.512-0.381,1.071-0.67,1.613-0.967c0.562-0.244,1.115-0.498,1.676-0.648c1.108-0.346,2.186-0.471,3.104-0.48
			c0.922-0.002,1.689,0.119,2.223,0.264C823.511,594.63,823.806,594.776,823.806,594.776z"/>
	</g>
	<g>
		<path fill="#88BE40" d="M884.867,625.784c0,0,17.349,11.035,16.688,19.283"/>
		<path fill="#244A22" d="M884.867,625.784c0,0,0.44,0.078,1.164,0.303c0.726,0.219,1.735,0.588,2.895,1.127
			c1.155,0.545,2.453,1.268,3.768,2.162c0.659,0.445,1.321,0.936,1.971,1.463c0.654,0.525,1.286,1.1,1.908,1.689
			c0.604,0.609,1.208,1.223,1.748,1.889c0.558,0.645,1.054,1.336,1.506,2.027c0.454,0.688,0.838,1.402,1.167,2.098
			c0.154,0.355,0.299,0.705,0.43,1.043c0.11,0.355,0.225,0.689,0.313,1.018c0.071,0.34,0.15,0.656,0.198,0.965
			c0.029,0.312,0.057,0.609,0.082,0.889c0.02,0.564-0.016,1.047-0.098,1.441c-0.043,0.389-0.184,0.684-0.246,0.877
			c-0.076,0.191-0.117,0.293-0.117,0.293s-0.038-0.104-0.109-0.299c-0.064-0.191-0.156-0.465-0.312-0.791
			c-0.127-0.328-0.361-0.699-0.576-1.111c-0.256-0.406-0.563-0.84-0.904-1.299c-0.353-0.457-0.746-0.936-1.181-1.432
			c-0.441-0.494-0.91-1.006-1.414-1.529c-1.004-1.045-2.116-2.143-3.25-3.242c-2.258-2.207-4.576-4.457-6.237-6.311
			c-0.831-0.926-1.514-1.73-1.98-2.318C885.122,626.151,884.867,625.784,884.867,625.784z"/>
	</g>
	<g>
		<path fill="#88BE40" d="M900.252,621.179c0,0,12.362,7.689,11.895,13.438"/>
		<path fill="#244A22" d="M900.252,621.179c0,0,0.337,0.008,0.886,0.107c0.552,0.094,1.316,0.275,2.18,0.594s1.828,0.77,2.796,1.363
			c0.968,0.592,1.941,1.32,2.834,2.164c0.437,0.434,0.873,0.869,1.259,1.35c0.399,0.465,0.751,0.969,1.068,1.477
			c0.318,0.506,0.583,1.035,0.805,1.553c0.216,0.521,0.372,1.045,0.479,1.537c0.097,0.502,0.136,0.971,0.127,1.389
			c-0.021,0.422-0.08,0.779-0.168,1.066c-0.059,0.283-0.19,0.496-0.254,0.633c-0.07,0.139-0.116,0.205-0.116,0.205
			s-0.038-0.072-0.111-0.211c-0.063-0.135-0.163-0.322-0.302-0.543c-0.121-0.219-0.326-0.463-0.519-0.725
			c-0.214-0.262-0.456-0.537-0.728-0.824c-1.102-1.145-2.681-2.529-4.267-4.037c-1.58-1.506-3.148-3.135-4.237-4.541
			c-0.55-0.697-0.984-1.328-1.278-1.797C900.407,621.478,900.252,621.179,900.252,621.179z"/>
	</g>
	<g>
		<path fill="#88BE40" d="M914.343,619.206c0,0,7.9,12.928,7.57,23.621"/>
		<path fill="#244A22" d="M914.343,619.206c0,0,0.352,0.246,0.881,0.74c0.538,0.49,1.246,1.232,2.017,2.184
			c0.753,0.957,1.569,2.121,2.297,3.449c0.379,0.656,0.721,1.361,1.052,2.086c0.343,0.719,0.611,1.486,0.907,2.24
			c0.247,0.775,0.503,1.549,0.696,2.328c0.183,0.785,0.357,1.555,0.461,2.318c0.094,0.77,0.196,1.502,0.21,2.217
			c0.009,0.715,0.02,1.383-0.025,2.004c-0.06,0.625-0.147,1.191-0.228,1.689c-0.06,0.496-0.228,0.932-0.32,1.281
			c-0.21,0.701-0.377,1.084-0.377,1.084s-0.179-0.4-0.41-1.07c-0.123-0.336-0.236-0.736-0.404-1.191
			c-0.172-0.453-0.364-0.959-0.537-1.504c-0.386-1.074-0.836-2.326-1.318-3.67c-0.226-0.668-0.51-1.348-0.729-2.053
			c-0.261-0.695-0.505-1.41-0.753-2.121c-1.002-2.852-1.962-5.76-2.558-8.055c-0.3-1.145-0.521-2.129-0.661-2.832
			C914.401,619.63,914.343,619.206,914.343,619.206z"/>
	</g>
	<path fill="#244A22" d="M866.005,691.743c-16.665,0-40.525-11.072-49.469-16.436c-3.691-2.213-17.012-9.438-33.466-9.438
		c-1.861,0-3.718,0.096-5.519,0.285l-17.011,1.777c-0.303,0.01-30.406,0.896-41.216,4.229c-11.856,3.652-32.184,3.693-33.043,3.693
		h-4.887l1.159-4.748c0.056-0.23,5.728-23.281,15.182-46.596c13.099-32.301,27.04-49.771,41.438-51.926l1.818-0.271l1.352,1.248
		c0.095,0.086,10.228,9.227,23.634,10.152c2.835,0.195,5.74,0.447,8.551,0.689c6.404,0.551,13.027,1.121,19.578,1.121
		c6.479,0,12.174-0.564,17.411-1.729c4.409-0.979,7.458-1.93,10.148-2.768c4.76-1.484,8.52-2.656,15.738-2.656
		c3.099,0,6.825,0.215,11.393,0.66c8.211,0.797,15.463,1.428,21.861,1.982c10.119,0.877,18.858,1.637,27.522,2.721
		c16.312,2.039,31.212,21.646,33.753,26.73c0.321,0.643,0.388,0.643,0.819,0.643c1.019,0,2.628-0.494,4.332-1.016
		c1.297-0.396,2.746-0.84,4.284-1.178c0.494-0.207,1.031-0.318,1.585-0.318c1.869,0,3.801,0,11.985,13.305
		c4.672,7.594,9.065,15.963,11.752,22.387c3.845,9.193,4.294,14.324,1.5,17.156c-4.337,4.393-10.108,5.711-18.098,7.537
		c-3.655,0.836-7.799,1.783-12.589,3.193c-3.851,1.135-9.253,2.924-15.509,4.994c-18.619,6.166-41.793,13.84-53.998,14.52
		C867.347,691.726,866.682,691.743,866.005,691.743z M783.07,658.194c18.427,0,33.295,8.062,37.413,10.531
		c8.302,4.979,32.22,16.125,47.089,15.301c11.187-0.623,34.782-8.438,52.012-14.143c6.32-2.094,11.778-3.9,15.753-5.07
		c5.018-1.479,9.283-2.453,13.047-3.314c6.662-1.521,11.165-2.551,13.963-5.08c0.534-6.051-14.925-33.758-20.256-39.787
		c-0.926,0.238-1.853,0.521-2.759,0.799c-2.269,0.695-4.411,1.352-6.579,1.352c-3.43,0-6.086-1.689-7.685-4.885
		c-2.367-4.736-15.675-21.025-27.84-22.547c-8.521-1.066-17.192-1.818-27.233-2.689c-6.417-0.557-13.69-1.189-21.94-1.99
		c-4.318-0.42-7.802-0.625-10.65-0.625c-6.051,0-8.837,0.869-13.454,2.309c-2.693,0.84-6.045,1.885-10.769,2.934
		c-5.791,1.287-12.03,1.912-19.075,1.912c-6.882,0-13.671-0.586-20.237-1.15c-2.778-0.24-5.65-0.488-8.421-0.68
		c-12.959-0.895-23.021-7.887-26.754-10.857c-21.452,5.752-40.342,60.92-47.441,87.559c6.63-0.23,18.389-0.959,25.812-3.244
		c11.509-3.547,40.488-4.484,43.11-4.562l16.573-1.742C778.815,658.306,780.942,658.194,783.07,658.194z"/>
	<g>
		<path fill="#88BE40" d="M705.173,623.62c0,0,51.216,0.221,68.288,5.061"/>
		<path fill="#244A22" d="M705.173,623.62c0,0,1.072-0.166,2.952-0.363c1.879-0.197,4.565-0.445,7.789-0.605
			c1.612-0.092,3.359-0.174,5.206-0.209c1.848-0.053,3.797-0.096,5.812-0.096c4.031,0,8.331,0.109,12.627,0.34
			c2.148,0.146,4.296,0.25,6.407,0.457c2.113,0.186,4.189,0.379,6.196,0.641c2.008,0.24,3.943,0.518,5.775,0.834
			c0.916,0.152,1.807,0.299,2.668,0.443c0.859,0.162,1.688,0.354,2.481,0.518c0.793,0.172,1.554,0.338,2.276,0.494
			c0.72,0.166,1.398,0.377,2.037,0.545c1.274,0.363,2.385,0.639,3.277,0.994c1.791,0.654,2.782,1.068,2.782,1.068
			s-1.094-0.082-2.951-0.299c-0.919-0.141-2.077-0.139-3.367-0.27c-1.292-0.121-2.765-0.176-4.361-0.279
			c-1.597-0.086-3.328-0.178-5.158-0.277c-1.831-0.086-3.762-0.178-5.76-0.271c-3.996-0.205-8.259-0.426-12.521-0.645
			c-4.265-0.24-8.532-0.502-12.534-0.793c-2.001-0.127-3.935-0.318-5.771-0.461c-1.835-0.133-3.57-0.318-5.173-0.471
			c-3.205-0.307-5.877-0.631-7.749-0.875C706.244,623.798,705.173,623.62,705.173,623.62z"/>
	</g>
	<path fill="none" d="M696.64,651.997c0,0,72.817-10.559,79.635-7.92"/>
	<g>
		<path fill="#88BE40" d="M690.772,655.956c0,0,51.404-9.66,79.122-8.129"/>
		<path fill="#244A22" d="M690.772,655.956c0,0,1.191-0.398,3.301-0.992c2.108-0.6,5.132-1.402,8.787-2.236
			c1.827-0.418,3.809-0.865,5.914-1.277c2.107-0.406,4.322-0.885,6.635-1.25c2.31-0.383,4.691-0.824,7.128-1.156
			c2.431-0.373,4.91-0.684,7.392-0.982c2.481-0.301,4.972-0.541,7.424-0.758c2.448-0.256,4.879-0.324,7.217-0.49
			c2.341-0.156,4.618-0.162,6.768-0.221c2.152-0.051,4.195,0.021,6.073,0.057c1.879,0.016,3.607,0.188,5.131,0.281
			c1.523,0.076,2.852,0.254,3.941,0.402c2.18,0.285,3.412,0.494,3.412,0.494s-1.256,0.137-3.432,0.293
			c-1.088,0.066-2.405,0.172-3.915,0.326c-1.511,0.162-3.208,0.275-5.061,0.475c-1.852,0.217-3.854,0.402-5.973,0.623
			c-2.117,0.236-4.35,0.486-6.659,0.744c-4.616,0.545-9.54,1.125-14.464,1.705c-4.933,0.561-9.865,1.123-14.489,1.65
			c-2.312,0.27-4.555,0.504-6.682,0.719c-2.122,0.242-4.138,0.426-5.998,0.6c-1.856,0.199-3.568,0.326-5.083,0.461
			c-1.513,0.141-2.84,0.227-3.93,0.312C692.028,655.896,690.772,655.956,690.772,655.956z"/>
	</g>
</g>
<g>
	<path fill="#88BE40" d="M526.236,699.132c0,0,18.633,8.383,14.686,36.311c-1.484,10.5,11.385,5.516,14.078,15.877
		c5.721,21.994-5.724,39.16,0,44.877c2.303,2.301,25.079,9.727,56.988,7.936c27.227-1.527,52.551,3.207,69.428-4.859
		c9.221-4.408,17.7-8.738,16.135-18.916c-3.52-22.881-14.958-33.438-16.719-39.596c-1.761-6.162-6.161-9.682-6.161-14.961
		c0-5.281-36.741-40.723-36.741-40.723S574.908,655.747,526.236,699.132"/>
	<path fill="#5F7E37" d="M544.424,684.18c-4.806,3.955-7.114,8.419-12.666,11.394c-5.662,3.035,3.618,17.104,5.495,20.671
		c1.936,3.676,4.016,7.388,5.247,11.376c0.693,3.561-0.505,8.029,0.923,11.352c1.04,2.421,3.882,3.715,6.414,3.375
		c2.96,3.228,6.723,5.716,8.615,9.799c-2.502,7.282-9.94,48.02,3.328,47.104c1.271-0.073,2.368-0.547,3.292-1.421
		c1.637,1.015,3.396,1.728,5.278,2.139c3.279,0.747,6.496,0.518,7.981-2.999c2.49-5.898-3.483-6.369-6.774-8.147
		c-1.948-1.052-2.334-4.039-2.539-5.906c2.195-10.094,4.214-20.872,1.302-31.043c-1.003-7.999-8.571-12.515-13.066-18.383
		c-5.295-6.915-3.376-16.74-5.383-24.949c30.73-14.935,62.825-14.875,95.98-12.062c-7.752-6.458-15.266-13.198-22.583-20.147
		C598.319,673.013,570.753,677.183,544.424,684.18C543.899,684.611,570.753,677.183,544.424,684.18z"/>
	<path fill="#244A22" d="M602.173,808.245c-26.618,0-46.625-6.076-49.885-9.334c-4.031-4.026-2.895-10.04-1.455-17.653
		c1.498-7.924,3.362-17.786,0.453-28.973c-0.764-2.938-2.537-3.772-5.867-5.108c-3.551-1.425-9.493-3.809-8.297-12.271
		c3.466-24.523-11.832-31.979-12.485-32.285c-1.169-0.547-1.997-1.65-2.185-2.927c-0.187-1.276,0.268-2.567,1.23-3.426
		c18.402-16.403,40.765-24.72,66.468-24.72c27.486,0,48.517,9.64,49.398,10.05c0.386,0.18,0.739,0.422,1.045,0.718
		c0.093,0.089,9.341,9.018,18.468,18.479c19.447,20.155,19.447,22.959,19.447,25.006c0,1.95,1.07,3.796,2.426,6.132
		c1.261,2.173,2.69,4.636,3.587,7.774c0.389,1.358,1.779,3.567,3.389,6.126c4.328,6.879,10.87,17.274,13.434,33.941
		c2.038,13.251-9.224,18.635-18.272,22.961c-9.667,4.62-21.492,5.258-32.83,5.258c-0.002,0-0.001,0-0.003,0
		c-3.89,0-7.832-0.083-12.006-0.171c-4.287-0.09-8.719-0.183-13.204-0.183c-4.74,0-8.935,0.106-12.825,0.324
		C608.87,808.15,605.495,808.245,602.173,808.245z M557.632,793.391c2.435,1.569,19.369,7.18,44.541,7.18
		c3.18,0,6.409-0.091,9.601-0.27c4.034-0.227,8.37-0.337,13.255-0.337c4.565,0,9.039,0.094,13.364,0.185
		c4.133,0.087,8.037,0.169,11.846,0.169c0.001,0,0.002,0,0.003,0c10.436,0,21.232-0.546,29.52-4.507
		c13.062-6.244,14.823-9.498,13.997-14.871c-2.321-15.093-8.353-24.678-12.344-31.02c-2.001-3.182-3.583-5.694-4.271-8.104
		c-0.635-2.222-1.709-4.072-2.846-6.031c-1.646-2.837-3.346-5.767-3.458-9.587c-1.735-4.148-19.31-22.638-35.084-37.886
		c-3.427-1.475-22.263-9.089-45.604-9.089c-21.994,0-41.318,6.564-57.517,19.525c6.008,4.841,15.103,15.899,12.088,37.231
		c-0.335,2.365-0.135,2.594,3.556,4.074c3.449,1.385,8.663,3.476,10.437,10.3c3.343,12.852,1.215,24.11-0.34,32.33
		C557.541,787.093,556.599,792.075,557.632,793.391z"/>
	<g>
		<path fill="#CADC48" d="M664.297,770.79c0.033-0.459,2.237-23.324,8.507-23.324c6.269,0,24.748,33.021,25.738,41.246
			c0.99,8.227-17.15,15.697-23.323,12.871C672.244,800.224,663.234,786.073,664.297,770.79z"/>
		<path fill="#647E37" d="M678.626,805.604c-1.872,0-3.496-0.31-4.827-0.919c-5.067-2.315-14.004-18.322-12.905-34.131
			c0.197-2.721,2.197-26.499,11.91-26.499c1.735,0,6.345,0,17.779,19.205c5.029,8.446,10.725,19.887,11.346,25.044
			c0.239,1.989-0.097,5.061-3.055,8.397C694.521,801.609,685.438,805.604,678.626,805.604z M676.719,798.516
			c0.257,0.101,0.84,0.266,1.907,0.266c4.383,0,11.79-2.825,15.144-6.607c0.704-0.794,1.517-1.969,1.386-3.055
			c-0.939-7.801-17.072-35.189-22.297-38.106c-2.056,1.928-4.506,12.288-5.161,20.046
			C666.756,784.6,674.633,797.006,676.719,798.516z"/>
	</g>
	<g>
		<path fill="#88BE40" d="M577.438,733.935c0,0,41.908-18.148,54.117-20.127"/>
		<path fill="#244A22" d="M577.438,733.935c0,0,0.761-0.516,2.129-1.339s3.336-1.972,5.75-3.231
			c1.203-0.639,2.509-1.325,3.914-1.996c1.398-0.688,2.873-1.414,4.42-2.114c3.087-1.417,6.424-2.831,9.795-4.16
			c3.378-1.313,6.795-2.535,10.041-3.569c3.256-1.01,6.323-1.875,9.003-2.461c1.342-0.296,2.562-0.566,3.675-0.729
			c1.105-0.179,2.068-0.313,2.868-0.397c1.616-0.115,2.522-0.129,2.522-0.129s-0.861,0.358-2.338,0.896
			c-0.736,0.289-1.617,0.694-2.636,1.088c-1.017,0.402-2.146,0.942-3.396,1.437c-1.245,0.514-2.579,1.136-4.012,1.704
			c-1.427,0.591-2.917,1.269-4.481,1.892c-1.559,0.645-3.165,1.325-4.813,1.969c-1.646,0.656-3.319,1.322-4.991,1.988
			c-1.684,0.644-3.366,1.287-5.022,1.921c-1.657,0.634-3.302,1.221-4.894,1.796c-1.589,0.58-3.147,1.087-4.615,1.593
			c-1.465,0.513-2.87,0.952-4.166,1.362c-2.587,0.828-4.775,1.447-6.315,1.864C578.336,733.733,577.438,733.935,577.438,733.935z"/>
	</g>
	<g>
		<path fill="#88BE40" d="M663.234,718.759c0,0-13.531,10.889-29.039,10.229c-15.509-0.66-40.257,2.309-48.177,4.947"/>
		<path fill="#244A22" d="M663.234,718.759c0,0-0.216,0.229-0.648,0.633c-0.438,0.396-1.072,0.993-1.941,1.677
			c-0.861,0.692-1.927,1.521-3.22,2.368c-1.278,0.873-2.777,1.778-4.471,2.677c-1.707,0.866-3.589,1.78-5.69,2.494
			c-0.524,0.183-1.056,0.368-1.594,0.557c-0.55,0.155-1.106,0.313-1.67,0.473c-1.117,0.362-2.315,0.518-3.515,0.766
			c-1.211,0.181-2.457,0.328-3.723,0.417c-0.637,0.018-1.278,0.036-1.922,0.055l-0.906,0.015h-0.92
			c-2.452,0.026-4.981-0.071-7.408,0.067c-1.226,0.032-2.45,0.064-3.671,0.097c-1.22,0.038-2.455,0.121-3.67,0.176
			c-1.218,0.067-2.426,0.12-3.622,0.158c-1.194,0.076-2.374,0.151-3.534,0.226c-2.321,0.155-4.57,0.267-6.696,0.45
			c-2.129,0.168-4.148,0.286-6.002,0.471c-1.854,0.185-3.575,0.268-5.072,0.464c-1.5,0.191-2.837,0.271-3.912,0.429
			c-2.142,0.347-3.408,0.509-3.408,0.509s1.146-0.487,3.226-1.275c1.045-0.372,2.33-0.729,3.812-1.15
			c1.479-0.454,3.166-0.819,5.012-1.224c0.924-0.197,1.885-0.431,2.884-0.621c1.002-0.173,2.038-0.352,3.104-0.535
			c1.067-0.179,2.163-0.362,3.284-0.551c1.122-0.169,2.275-0.288,3.446-0.438c2.34-0.301,4.765-0.583,7.239-0.745
			c1.24-0.087,2.476-0.225,3.742-0.265c1.268-0.044,2.539-0.089,3.811-0.134c2.565-0.116,5.034-0.005,7.499,0.057
			c1.198,0.031,2.387,0.062,3.561,0.091c1.138-0.017,2.27-0.087,3.38-0.188c1.106-0.16,2.203-0.265,3.266-0.489
			c0.534-0.099,1.062-0.196,1.584-0.292c0.518-0.129,1.027-0.257,1.531-0.383c2.017-0.51,3.898-1.137,5.634-1.746
			c1.71-0.669,3.289-1.292,4.657-1.925c1.37-0.629,2.562-1.202,3.527-1.708C662.153,719.41,663.234,718.759,663.234,718.759z"/>
	</g>
	<g>
		<path fill="#88BE40" d="M623.03,735.257c1.267,0.33,16.115,6.078,23.045,5.02"/>
		<path fill="#244A22" d="M623.03,735.257c0,0,0.396-0.062,1.095-0.052c0.693-0.002,1.657,0.039,2.784,0.16
			c2.259,0.226,5.144,0.803,7.947,1.531c0.697,0.19,1.395,0.381,2.081,0.568c0.686,0.179,1.353,0.405,1.999,0.587
			c1.291,0.408,2.497,0.789,3.53,1.116c0.522,0.184,1.001,0.331,1.431,0.455c0.432,0.129,0.819,0.286,1.136,0.35
			c0.64,0.165,1.042,0.304,1.042,0.304s-0.337,0.203-0.991,0.482c-0.329,0.153-0.731,0.274-1.204,0.395
			c-0.476,0.133-1.017,0.239-1.602,0.302c-0.592,0.081-1.232,0.13-1.899,0.128c-0.676,0.017-1.378-0.014-2.098-0.081
			c-0.726-0.052-1.458-0.161-2.2-0.293c-0.748-0.115-1.479-0.312-2.223-0.481c-1.467-0.395-2.902-0.883-4.207-1.439
			c-1.308-0.552-2.487-1.167-3.471-1.758c-0.983-0.589-1.771-1.158-2.307-1.583C623.346,735.529,623.03,735.257,623.03,735.257z"/>
	</g>
	<g>
		<path fill="#CADC48" d="M624.626,807.677c-7.59-3.564-8.034-61.086,21.449-56.912c13.198,1.869,25.762,29.586,29.585,53.367
			C670.273,813.351,632.215,811.241,624.626,807.677z"/>
		<path fill="#647E37" d="M649.049,814.124c-9.302,0-21.177-1.154-25.873-3.359c-7.159-3.362-7.487-24.513-4.568-37.596
			c3.746-16.787,12.44-26.032,24.483-26.032c1.125,0,2.29,0.085,3.463,0.251c16.543,2.343,28.949,34.275,32.475,56.203l0.193,1.206
			l-0.616,1.056C674.61,812.689,660.327,814.124,649.049,814.124z M626.229,804.658c2.964,1.285,12.386,2.645,22.819,2.645
			c12.758,0,20.496-2.02,22.992-4.128c-4.281-24.492-16.696-47.652-26.444-49.033c-8.145-1.151-14.194,3.259-18.104,13.134
			C621.427,782.604,623.817,802.081,626.229,804.658z"/>
	</g>
	<g>
		<path fill="#CADC48" d="M580.079,802.229c-3.849-4.605,4.925-42.166,19.036-42.676c12.907-0.465,21.144,9.359,23.86,45.566
			C620.259,812.911,586.238,809.599,580.079,802.229z"/>
		<path fill="#647E37" d="M608.357,813.002c-9.171,0-25.668-2.331-30.896-8.585c-4.108-4.916-0.013-21.922,4.39-31.798
			c4.698-10.542,10.626-16.239,17.141-16.475c0.327-0.012,0.654-0.018,0.976-0.018c16.16,0,23.812,14.12,26.409,48.738l0.054,0.708
			l-0.234,0.67C624.633,810.728,618.631,813.002,608.357,813.002z M582.809,800.17c2.646,2.863,13.971,6.01,25.549,6.01
			c7.161,0,10.219-1.284,11.128-1.948c-3.296-41.279-14.235-41.282-19.518-41.282c-0.24,0-0.485,0.005-0.729,0.014
			c-2.611,0.094-5.565,2.584-8.317,7.011C584.39,780.479,581.644,797.089,582.809,800.17z"/>
	</g>
</g>
<g>
	<path fill="#88BE40" d="M270.225,667.943c0,0-20.236,29.039-33.434,39.6c-13.2,10.557,3.519,12.318,0,15.838
		c-3.521,3.52-10.561,11.438-10.561,11.438s-13.198,31.68-14.959,36.078c-1.761,4.4,16.87,17.326,19.51,19.086
		s37.358,8.512,44.113,10.49c18.835,5.51,74.006-9.984,78.405-12.625c4.399-2.637-1.238-38.068-1.238-43.348s6.161-14.08,7.92-17.6
		s-0.88-10.559,0-13.199c0.879-2.641,8.798-8.805,8.798-8.805S338.859,652.98,270.225,667.943"/>
	<path fill="#5F7E37" d="M297.888,664.674c-9.758-1.088-19.04,2.064-27.977,5.91c-3.788,1.633-9.846,8.113-8.84,11.781
		c0.616-1.85,29.63,0.667,38.229,2.466c11.814,2.472,44.438,13.014,46.389,27.726c0.7,5.286-5.122,11.179-6.748,16.12
		c-1.249,3.798-2.823,8.903-3.419,12.799c-2.365,15.456-0.926,32.646-8.59,46.813c-1.249,2.309-0.605,4.613,0.863,6.086
		c2.022,2.029,22.102-4.363,23.721-5.893c3.646-3.439,1.433-9.877,1.706-14.535c0.421-7.201,2.228-14.055-0.188-21.195
		c-1.451-4.293-3.521-3.709-1.181-9.783c1.762-4.572,8.348-13.961,9.097-18.68c0.537-3.373-1.278-5.229,0-8.014
		c1.503-3.273-0.06-3.854,1.824-6.908c2.196-4.223,5.052-5.986,5.174-6.156C355.947,683.878,326.614,667.878,297.888,664.674z"/>
	<path fill="#244A22" d="M285.453,805.486c-0.001,0,0,0-0.002,0c-4.769,0-8.574-0.436-11.634-1.331
		c-2.55-0.746-9.679-2.293-17.226-3.931c-20.931-4.54-26.152-5.858-27.939-7.049c-0.061-0.041-6.146-4.109-11.743-8.807
		c-8.062-6.767-10.728-11.083-9.2-14.898c1.75-4.373,14.439-34.834,14.979-36.128c0.163-0.393,0.392-0.756,0.674-1.074
		c0.248-0.278,5.267-5.92,8.949-9.785c-1.865-1.505-4.512-3.897-4.517-7.666c-0.005-3.403,2.092-6.667,6.6-10.271
		c12.617-10.096,32.482-38.511,32.682-38.797c0.553-0.793,1.386-1.349,2.331-1.555c8.512-1.855,16.898-2.797,24.927-2.797
		c53.191,0,76.791,39.885,77.771,41.583c0.955,1.658,0.542,3.768-0.968,4.943c-3.357,2.616-6.768,5.809-7.5,7.006
		c-0.052,0.663,0.174,2.306,0.327,3.417c0.464,3.37,0.989,7.189-0.55,10.27c-0.481,0.964-1.19,2.169-2.012,3.564
		c-1.923,3.27-5.503,9.355-5.503,12.319c0,1.169,0.415,4.875,0.854,8.799c3.083,27.507,2.778,35.287-1.481,37.841
		C350.873,793.779,309.615,805.486,285.453,805.486z M232.769,786.695c2.333,1.014,16.222,4.027,25.45,6.029
		c8.019,1.739,14.944,3.242,17.755,4.065c2.315,0.678,5.505,1.021,9.479,1.021c22.027,0,59.154-10.385,65.29-12.982
		c1.323-4.459-0.798-23.381-1.615-30.676c-0.576-5.145-0.903-8.13-0.903-9.653c0-5.055,3.794-11.503,6.563-16.211
		c0.75-1.274,1.397-2.375,1.762-3.104c0.478-0.955,0.061-3.982-0.188-5.792c-0.363-2.645-0.678-4.928-0.02-6.904
		c0.804-2.415,4.04-5.62,7.34-8.402c-6.096-8.726-27.902-35.014-69.347-35.014c-7.025,0-14.365,0.778-21.84,2.313
		c-4.104,5.785-21.26,29.514-33.306,39.153c-3.638,2.909-3.72,4.257-3.719,4.27c0.089,0.454,1.474,1.555,2.064,2.024
		c1.533,1.219,3.441,2.736,3.585,5.265c0.083,1.453-0.49,2.872-1.614,3.996c-2.912,2.91-8.413,9.042-9.98,10.797
		c-1.74,4.178-12.068,28.981-14.408,34.733C216.558,774.481,225.309,781.704,232.769,786.695z"/>
	<g>
		<path fill="#88BE40" d="M244.379,712.27c1.321,0.33,3.3,10.23,24.749,10.062c21.448-0.162,38.606-1.152,50.488,4.127"/>
		<path fill="#244A22" d="M244.379,712.27c-0.007-0.017,0.33,0.085,0.713,0.549c0.394,0.438,0.944,1.089,1.695,1.836
			c0.753,0.745,1.75,1.546,2.976,2.305c1.234,0.749,2.718,1.418,4.399,1.965c1.683,0.547,3.573,0.93,5.595,1.21
			c2.024,0.271,4.189,0.368,6.434,0.408c1.127,0.022,2.259-0.018,3.438-0.053c1.19-0.049,2.396-0.092,3.61-0.115
			c2.429-0.05,4.896-0.101,7.363-0.151c2.473-0.018,4.95-0.031,7.393,0.011c2.443,0.025,4.852,0.155,7.185,0.276
			c2.335,0.122,4.591,0.346,6.728,0.613c2.138,0.253,4.151,0.601,5.994,1.004c1.847,0.374,3.514,0.859,4.973,1.321
			c0.725,0.256,1.404,0.48,2.022,0.714c0.616,0.245,1.17,0.504,1.673,0.719c1.015,0.406,1.748,0.881,2.267,1.143
			c0.509,0.284,0.78,0.436,0.78,0.436s-0.302-0.078-0.867-0.225c-0.564-0.145-1.371-0.399-2.43-0.606
			c-0.527-0.108-1.103-0.248-1.738-0.362c-0.642-0.093-1.325-0.221-2.057-0.343c-1.476-0.203-3.137-0.396-4.956-0.547
			c-1.819-0.146-3.798-0.228-5.89-0.306c-2.095-0.064-4.31-0.051-6.602-0.075c-2.298,0.026-4.673,0.053-7.086,0.08
			c-2.422,0.034-4.883,0.07-7.344,0.105c-2.47,0.01-4.94,0.02-7.371,0.028c-1.216,0.002-2.422-0.019-3.613-0.044
			c-1.202-0.031-2.425-0.058-3.61-0.147c-2.38-0.141-4.678-0.496-6.827-0.987c-2.154-0.476-4.15-1.164-5.902-2.005
			c-1.766-0.812-3.263-1.819-4.453-2.852c-1.201-1.024-2.066-2.102-2.687-3.021c-0.63-0.916-0.99-1.703-1.275-2.202
			c-0.141-0.249-0.254-0.443-0.353-0.543C244.462,712.295,244.371,712.277,244.379,712.27z"/>
	</g>
	<g>
		<path fill="#88BE40" d="M274.076,704.35c0,0,48.179,11.221,53.457,20.457"/>
		<path fill="#244A22" d="M274.076,704.35c0,0,0.92,0.038,2.51,0.203c1.591,0.163,3.856,0.438,6.546,0.903
			c2.695,0.44,5.812,1.086,9.13,1.868c3.313,0.801,6.819,1.779,10.287,2.9c1.729,0.574,3.458,1.155,5.138,1.798
			c1.687,0.619,3.327,1.295,4.901,1.984c1.578,0.677,3.071,1.42,4.478,2.145c1.412,0.713,2.709,1.479,3.883,2.221
			c0.587,0.374,1.143,0.749,1.663,1.109c0.505,0.39,0.984,0.759,1.435,1.105c0.437,0.37,0.841,0.722,1.199,1.058
			c0.352,0.352,0.654,0.697,0.933,0.994c0.521,0.642,0.897,1.161,1.071,1.571c0.186,0.389,0.284,0.597,0.284,0.597
			s-0.163-0.161-0.468-0.463c-0.266-0.32-0.8-0.666-1.413-1.118c-0.336-0.202-0.691-0.436-1.096-0.663
			c-0.412-0.218-0.858-0.453-1.335-0.704c-0.977-0.468-2.093-0.953-3.32-1.468c-1.239-0.494-2.593-0.998-4.027-1.533
			c-1.439-0.522-2.974-1.035-4.559-1.577c-3.172-1.075-6.576-2.187-9.99-3.291c-3.414-1.123-6.829-2.247-10.031-3.3
			c-1.604-0.524-3.143-1.08-4.61-1.583c-1.472-0.49-2.851-0.999-4.128-1.461c-2.557-0.914-4.675-1.741-6.156-2.333
			C274.917,704.722,274.076,704.35,274.076,704.35z"/>
	</g>
	<g>
		<path fill="#CADC48" d="M211.11,775.516c2.64-8.494,36.897-80.02,25.019,7.232c-4.618,6.406-4.618,6.406-7.267,9.52
			C222.491,792.236,208.47,784.01,211.11,775.516z"/>
		<path fill="#647E37" d="M230.433,795.687l-1.587-0.008c-5.283-0.026-14.271-4.29-18.724-10.367
			c-2.586-3.529-3.37-7.267-2.269-10.809c0.117-0.38,14.982-38.041,26.423-38.041c1.755,0,3.326,0.736,4.542,2.13
			c2.725,3.12,5.266,11.012,0.69,44.616l-0.115,0.844l-0.498,0.691c-4.609,6.395-4.698,6.517-7.436,9.734L230.433,795.687z
			 M233.934,743.455c-1.035,0.607-4.449,3.281-10.757,14.556c-4.511,8.062-8.133,16.34-8.809,18.518
			c-0.44,1.414-0.017,3.013,1.257,4.752c2.772,3.783,8.338,6.68,11.805,7.402c1.467-1.749,2.14-2.669,5.434-7.237
			C236.805,752.081,234.769,745.025,233.934,743.455z"/>
	</g>
	<g>
		<path fill="#CADC48" d="M229.751,792.793c0,0,10.01,10.201,44.325,7.893c2.723-35.498-3.188-49.127-15.509-50.924
			C245.443,747.85,229.751,792.793,229.751,792.793z"/>
		<path fill="#647E37" d="M264.353,804.437c-0.001,0-0.002,0-0.003,0c-27.165,0-36.104-8.307-37.033-9.254l-1.484-1.513l0.698-2.001
			c0.157-0.448,3.896-11.103,9.311-21.945c7.874-15.768,15.039-23.433,21.903-23.433c0.44,0,0.883,0.032,1.315,0.096
			c15.459,2.254,21.139,19.081,18.418,54.56l-0.227,2.944l-2.946,0.198C270.875,804.319,267.526,804.437,264.353,804.437z
			 M233.817,791.549c3.362,2.034,12.321,6.065,30.532,6.065c0.001,0,0.003,0,0.004,0c2.104,0,4.291-0.054,6.532-0.161
			c2.438-37.611-6.095-43.337-12.811-44.316c-0.109-0.016-0.221-0.023-0.331-0.023C251.503,753.113,240.731,772.628,233.817,791.549
			z"/>
	</g>
	<g>
		<path fill="#CADC48" d="M320.214,797.832c5.231-4.715-26.399-103.395-45.319,2.641
			C281.996,805.434,314.98,802.549,320.214,797.832z"/>
		<path fill="#647E37" d="M290.584,806.473c-0.002,0-0.001,0-0.002,0c-8.663,0-14.598-1.078-17.641-3.204l-1.788-1.248l0.383-2.147
			c6.297-35.289,14.416-51.725,25.551-51.725c10.516,0,18.138,15.754,21.745,25.145c1.447,3.769,8.427,22.782,3.665,27.073
			C317.824,804.578,301.022,806.473,290.584,806.473z M278.729,798.465c2.22,0.643,6.099,1.186,11.854,1.186
			c12.174,0,23.721-2.258,26.81-3.983c0.296-4.567-4.884-24.9-13.167-35.563c-2.572-3.311-5.107-5.134-7.138-5.134
			C294.649,754.97,286.243,758.156,278.729,798.465z"/>
	</g>
</g>
<g>
	<path fill="#4B7E3A" d="M744.292,556.608c-8.359-9.604-22-43.625-27.826-54.434c-5.828-10.807-21.01-48.03-32.889-80.051
		c-4.396-11.848-10.662-22.377-17.254-31.635c-11.223-15.762-23.402-27.834-28.945-36.408
		c-8.797-13.609-13.639-21.613-88.875-46.029c-75.234-24.414-140.35,8.807-147.388,10.808c-7.039,2.001-44.438,24.415-62.036,39.225
		c-17.598,14.809-70.396,99.263-76.115,108.468c-1.383,2.228-3.437,7.222-5.799,13.645c-7.399,20.129-17.824,54.322-20.159,61.604
		c-3.079,9.606-26.838,38.825-26.838,38.825c-0.88-1.201,1.32,19.212,2.198,22.013c0.881,2.803,54.993,62.439,61.596,63.639
		c0,0,64.236-8.805,98.554,33.619c27.72,9.611,130.23,17.605,138.152,5.604c7.92-12.004,77.971-45.627,161.029-16.811
		c11.311,3.926,23.756-8.805,32.557-16.01c0,0,8.801-27.613,13.641-36.02s20.678-26.016,28.598-36.023
		c7.92-10.007,10.998-15.207,11.879-21.612C759.249,572.618,752.649,566.216,744.292,556.608z"/>
	<g>
		<path fill="#88BE40" d="M407.345,704.612c0,0-10.264,4.795-15.559,4.312"/>
		<path fill="#244A22" d="M407.345,704.612c0,0-0.157,0.263-0.479,0.646c-0.317,0.391-0.797,0.899-1.42,1.421
			c-1.236,1.06-3.074,2.116-5.091,2.754c-0.505,0.152-1.014,0.301-1.532,0.396c-0.508,0.121-1.031,0.18-1.535,0.229
			c-1.01,0.095-1.985,0.054-2.822-0.091c-0.411-0.056-0.804-0.176-1.136-0.278c-0.332-0.095-0.619-0.226-0.851-0.35
			c-0.46-0.234-0.693-0.414-0.693-0.414s0.275-0.165,0.705-0.373c0.213-0.093,0.466-0.238,0.752-0.391
			c0.286-0.153,0.594-0.284,0.936-0.471c0.337-0.161,0.701-0.335,1.087-0.52c0.386-0.184,0.788-0.345,1.211-0.53
			c0.844-0.351,1.756-0.678,2.688-0.983c0.935-0.283,1.889-0.543,2.812-0.725c0.921-0.188,1.812-0.307,2.601-0.365
			c0.787-0.061,1.477-0.054,1.973-0.025C407.042,704.564,407.345,704.612,407.345,704.612z"/>
	</g>
	<g>
		<path fill="#EDE974" d="M222.292,510.876c-0.268,0.298-17.99,14.812-40.796,6.965c-22.805-7.846-8.945,11.072-8.945,11.072
			l9.898,2.424c0,0,26.218,0.773,37.379-6.485C230.989,517.591,222.292,510.876,222.292,510.876z"/>
		<path fill="#D3BE2A" d="M184.653,533.341c-1.431,0-2.262-0.024-2.262-0.024l-0.412-0.057l-10.599-2.595l-0.426-0.582
			c-1.059-1.443-6.223-8.868-3.987-13.278c0.659-1.3,2.195-2.85,5.768-2.85c2.392,0,5.468,0.659,9.406,2.014
			c4.274,1.471,8.674,2.217,13.077,2.217c14.635-0.001,24.92-8.1,25.68-8.72l1.149-1.28l1.455,1.123
			c0.171,0.132,4.18,3.283,3.99,7.969c-0.137,3.373-2.352,6.479-6.584,9.233C211.43,532.675,192.397,533.341,184.653,533.341z
			 M182.712,529.363c0.316,0.006,0.988,0.018,1.94,0.018c5.767,0,25.267-0.446,34.097-6.189c2.127-1.384,4.686-3.562,4.786-6.073
			c0.061-1.493-0.733-2.794-1.435-3.642c-3.776,2.685-13.697,8.668-26.883,8.668c-4.843,0-9.676-0.817-14.366-2.432
			c-3.467-1.192-6.198-1.798-8.117-1.798c-0.568,0-1.924,0.066-2.235,0.68c-0.701,1.382,1.058,5.406,3.239,8.57L182.712,529.363z"/>
	</g>
	<path fill="none" d="M499.229,417.38c-12.553-9.498-15.838-43.556-7.26-52.795c8.58-9.24,29.697-14.072,49.496-15.946
		c19.799-1.873,69.957,25.186,66.658,37.724c-3.303,12.539-10.764,27.059-20.893,31.018c-10.127,3.961-23.986,7.92-23.986,7.92
		S523.647,435.859,499.229,417.38z"/>
	<path fill="none" d="M574.538,493.276c0,0,19.064,11.879,21.045,15.178c1.98,3.301,17.818-15.178,17.818-15.178
		S600.349,449.719,574.538,493.276z"/>
	<path fill="#74B55B" d="M444.786,317.937c0.39-6.967-8.347-8.895-20.536-6.768c-20.217,3.525-39.536,17.527-55.488,28.615
		c-34.492,23.975-61.883,54.07-83.815,88.079c-0.003,0.005-0.006,0.009-0.009,0.014c-8.018,12.433-15.512,25.334-21.418,38.722
		c-5.143,11.656-8.526,23.898-11.979,36.034c-3.476,12.21-6.966,24.454-12.099,36.192c-0.074,0.168-0.194,0.434-0.313,0.697
		c-0.181,0.375-0.357,0.752-0.54,1.125c-0.654,1.342-1.35,2.666-2.061,3.983c-1.524,2.829-3.206,5.604-4.945,8.327
		c-7.242,11.339-29.91,51.721,6.216,30.381c24.287-14.347,32.682-49.723,39.963-73.121c15.071-48.428,42.186-94.059,81.451-129.797
		c14.09-12.82,29.451-24.053,46.61-33.297c12.364-6.662,24.871-6.854,33.704-18.279C443,324.351,444.631,320.735,444.786,317.937z"
		/>
	<path fill="#2F5D2D" d="M738.054,550.229c-7.41,24.696-34.031,59.176-44.781,75.309c-13.072,19.623-3.855,38.402-29.189,38.721
		c-37.105,0.467-72.799-12.057-109.4-0.529c-59.031,18.592-102.765,40.045-165.59,14.99c-36.432-14.521-72.91-31.873-108.806-48.166
		c-6.216-2.822-26.024-17.811-32.986-10.85c-9.954,9.953,23.604,42.566,29.036,45.695c22.192,3.699,37.501-5.465,62.288,5.838
		c14.729,6.717,35.211,26.182,35.211,26.182s51.514,13.383,75.373,14.205c18.173,0.625,43.119,2.949,60.496-4.322
		c7.398-11.098,36.191-26.057,59.184-28.668c45.15-5.131,83.736,5.006,107.277,7.398c27.424,2.785,29.338-17.549,36.891-35.027
		c12.51-28.949,44.186-56.008,43.102-75.617C756.013,572.76,738.054,550.229,738.054,550.229z"/>
	<path fill="#2F5D2D" d="M368.558,429.528c0,0,25.077-46.832,36.298-45.63c11.219,1.2,23.098,7.204,34.317,12.007
		c11.219,4.805,28.378,9.607,27.718,18.012c-0.661,8.406-2.64,8.406-8.58,18.611c-5.938,10.207-6.31,23.816-15.694,26.617
		c-9.385,2.803-32.481,2.803-32.481,2.803S366.578,455.343,368.558,429.528z"/>
	<path fill="#4A6F3A" d="M289.958,420.31c5.944-0.843,22.174-3.201,37.759-5.949c9.451-12.047,19.943-23.424,31.496-33.939
		c9.828-8.942,20.277-17.109,31.52-24.371c3.457-6.877,5.764-11.635,5.764-11.635l-11.63-15.15c0,0-0.306,0-1.007,0.186
		c-5.289,3.467-10.343,7.029-15.098,10.334C336.846,361.968,311.013,389.394,289.958,420.31z"/>
	<path fill="#2F5D2D" d="M305.863,494.969c-1.321-3.003-3.961-24.015,0-28.219c3.958-4.202,17.818-9.204,26.727-7.604
		c8.909,1.601,22.769,3.402,21.448,14.81c-1.318,11.407-14.409,32.722-17.598,34.222
		C333.25,509.679,307.182,497.971,305.863,494.969z"/>
	<path fill="#2F5D2D" d="M503.628,384.499c0,0,54.996-7.605,67.316-4.002c12.32,3.602,36.957,55.634,29.918,58.437
		c-7.039,2.802-35.848,12.407-46.082,15.209s-54.23,1.2-62.15-14.409C484.71,424.123,486.028,391.304,503.628,384.499z"/>
	<path fill="#2F5D2D" d="M568.745,314.054c0,0-6.16,45.63,0,48.031c6.158,2.402,8.361,1.201,11.879,3.602
		c3.518,2.402,20.68,5.269,31.678,13.842c11,8.572,17.598,10.174,27.277,10.574s17.598-2.402,21.119-4.403
		S610.103,318.058,568.745,314.054z"/>
	<path fill="#2F5D2D" d="M667.296,396.507c0,0,29.041,51.632,27.719,54.834c-1.318,3.203-4.398,2.402-7.037,1.601
		c-2.641-0.8-23.873-22.499-27.115-27.859C657.618,419.72,659.819,403.711,667.296,396.507z"/>
	<path fill="#2F5D2D" d="M668.618,479.759c0,0-15.84,22.415-11.881,27.617c3.961,5.205,7.482,9.207,17.602,7.605
		c10.117-1.602,11.438,0.801,15.838-11.607s9.68-17.211,0-21.213C680.497,478.157,676.536,475.757,668.618,479.759z"/>
	<path fill="#2F5D2D" d="M621.101,448.94c1.32-1.203,5.279-1.203,11.441-4.404c6.158-3.201,13.197-2.803,18.479,2.201
		c5.277,5.004,6.156,13.809,0,19.013c-6.162,5.204-12.32,11.208-17.162,8.005c-4.838-3.203-7.039-6.403-10.117-8.805
		c-3.08-2.402-6.602-3.559-7.039-6.383C616.263,455.744,621.101,448.94,621.101,448.94z"/>
	<path fill="#2F5D2D" d="M655.315,627.028c-0.666,3.848,1.92,12.76,4.092,15.396c2.172,2.643,16.666,0.881,16.459-9.678
		s1.113-10.119-2.406-12.318C669.938,618.228,655.981,623.179,655.315,627.028z"/>
	<path fill="#2F5D2D" d="M414.754,316.056c0,0-25.077,11.607,5.281,33.621c30.356,22.015,26.399,29.219,41.796,27.217
		c15.398-2.001,27.277-6.004,33.437-8.005c6.16-2,25.08-8.806,29.918-11.606c4.84-2.803,16.721-4.884,19.359-10.648
		c2.641-5.762,6.6-36.582,6.6-36.582S486.075,281.622,414.754,316.056z"/>
	<path fill="#2F5D2D" d="M413.433,589.3c-3.958,1.649-16.503,18.7-8.583,25.736c7.919,7.041,17.886,21.102,24.423,15.84
		c13.882-11.172,21.449-11.217,8.25-27.057C424.324,587.98,417.394,587.649,413.433,589.3z"/>
	<path fill="#2F5D2D" d="M574.464,513.782c-1.318-4.104,6.158-15.209,14.957-15.209s20.24-1.602,21.998,4.002
		c1.76,5.604,0,11.207,0,11.207s-8.689,15.309-14.078,15.209C591.952,528.89,575.782,517.888,574.464,513.782z"/>
	<path fill="#2F5D2D" d="M464.251,470.354c5.28,0.3,18.462,14.128,16.414,21.913c-2.047,7.787-7.356,21.154-13.755,21.409
		c-6.4,0.253-18.992-3.269-18.992-3.269s-12.934-11.748-12.985-15.994C434.884,490.165,458.972,470.053,464.251,470.354z"/>
	<g>
		<path fill="#EDE974" d="M237.006,513.956c0,0-5.72-11.221-11.88-5.83c-6.158,5.389-11.438,13.167-3.079,18.518
			c8.36,5.351,14.366,0,14.366,0L237.006,513.956z"/>
		<path fill="#D3BE2A" d="M229.488,531.002L229.488,531.002c-2.856-0.001-5.719-0.905-8.508-2.69
			c-3.229-2.067-4.983-4.662-5.211-7.71c-0.402-5.366,4.157-10.557,8.054-13.966c1.482-1.297,3.096-1.955,4.795-1.955
			c5.718,0,9.716,7.519,10.152,8.376l0.238,0.468l-0.656,14.043l-0.621,0.555C237.599,528.239,234.442,531.002,229.488,531.002z
			 M228.618,508.641c-0.722,0-1.438,0.319-2.188,0.976c-4.481,3.921-6.928,7.817-6.713,10.689c0.132,1.764,1.243,3.292,3.397,4.67
			c2.142,1.371,4.286,2.066,6.373,2.066c2.35,0,4.115-0.883,4.992-1.438l0.523-11.19
			C233.937,512.536,231.197,508.641,228.618,508.641z"/>
	</g>
	<path fill="#2F5D2D" d="M729.493,534.868c-2.594-5.085-5.174-10.177-7.59-15.344c-0.768-1.396-1.518-2.805-2.26-4.217
		c-0.598,0.223-1.191,0.475-1.766,0.789c-7.277,3.975-14.488,8.071-21.857,11.879c-3.361,1.738-6.773,3.383-10.225,4.934
		c-0.229,0.104-0.994,0.434-1.455,0.634c-0.592,0.243-1.186,0.486-1.781,0.725c-2.148,0.856-4.324,1.64-6.512,2.394
		c-17.869,6.147-37.061,9.395-55.721,12.041c-0.342,0.049-0.596,0.086-0.789,0.113c-0.152,0.02-0.33,0.043-0.543,0.07
		c-1.158,0.152-2.316,0.296-3.475,0.439c-2.281,0.282-4.564,0.539-6.85,0.791c37.447-9.09,74.354-22.18,108.018-40.627
		c-3.639-7.411-6.896-15.008-9.695-22.758c-6.037,3.361-12.176,6.529-18.408,9.515c-3.684,1.765-7.406,3.451-11.146,5.095
		c-0.943,0.414-1.891,0.821-2.838,1.229c-0.18,0.077-0.328,0.141-0.455,0.195c-0.121,0.051-0.256,0.107-0.42,0.177
		c-2.242,0.937-4.496,1.847-6.756,2.743c-16.396,6.525-33.205,12.012-50.209,16.729c-16.775,4.656-33.791,8.465-50.938,11.49
		c-3.961,0.699-7.932,1.34-11.91,1.947c-1.947,0.297-3.898,0.576-5.85,0.85c-0.131,0.016-0.297,0.034-0.514,0.059
		c-1.16,0.135-2.32,0.271-3.48,0.408c-7.666,0.907-15.316,1.906-22.971,2.899c-22.635,2.937-45.217,5.135-68.025,6.06
		c-11.147,0.453-22.328,0.326-33.444-0.662c-1.261-0.111-2.519-0.244-3.777-0.38c-0.278-0.03-2.02-0.25-2.546-0.31
		c-2.532-0.359-5.056-0.783-7.57-1.26c-5.308-1.008-10.566-2.18-15.899-3.055c-3.984-0.652-7.841,0.373-10.009,4.074
		c-0.77,1.312-1.149,2.77-1.179,4.223c-6.781-0.611-13.552-1.334-20.311-2.16c-1.159-0.143-2.318-0.291-3.477-0.44
		c-0.129-0.017-1.245-0.167-1.886-0.251c-2.142-0.293-4.283-0.602-6.422-0.916c-5.019-0.738-10.025-1.554-15.025-2.413
		c-8.943-1.54-17.857-3.051-26.631-5.405c-8.742-2.346-17.347-5.174-26.062-7.623c-6.502-1.828-13.144-3.252-19.839-4.157
		c-3.772-0.511-7.557-1.067-11.371-1.026c-4.885,0.053-8.619,1.383-13.02,3.324c-3.021,1.334-4.802,5.257-4.802,8.369
		c0,4.389,2.973,8.103,7.116,9.348c2.6,0.781,4.889,1.689,7.645,1.915c2.051,0.169,4.086,0.445,6.135,0.647
		c0.299,0.03,0.521,0.051,0.691,0.064c0.086,0.014,0.179,0.027,0.279,0.042c1.034,0.151,2.061,0.333,3.087,0.516
		c2.429,0.431,4.837,0.976,7.234,1.548c8.784,2.098,17.411,4.885,26.046,7.517c17.771,5.417,35.935,8.636,54.292,11.388
		c20.044,3.006,40.216,5.156,60.453,6.256c19.713,1.07,39.474,1.006,59.201,1.607c39.127,1.191,78.311,2.543,117.432,0.395
		c20.166-1.107,40.285-3.268,60.201-6.642c17.992-3.048,36.238-6.821,53.111-13.927c13.043-5.492,25.271-12.434,37.674-19.209
		c0.066-0.035,0.125-0.08,0.189-0.117C730.226,536.56,729.858,535.714,729.493,534.868z"/>
	<path fill="#1C2E17" d="M473.492,715.324c-35.51,0-84.154-5.652-102.059-11.859l-1.037-0.359l-0.689-0.854
		c-23.193-28.671-60.934-32.952-81.366-32.952c-8.27,0-13.633,0.715-13.687,0.722l-0.604,0.082l-0.603-0.108
		c-1.709-0.312-5.711-1.041-34.486-31.559c-10.604-11.247-28.095-30.477-29.879-34.195c-2.572-5.36-4.778-17.723-2.379-24.892
		c1.024-3.064,4.905-8.1,11.678-16.734c5.933-7.565,14.057-17.926,15.086-21.847c2.478-9.431,14.262-47,26.125-75.737
		c12.278-29.75,59.106-94.723,77.191-109.941c17.718-14.908,55.496-37.715,63.456-39.979c0.581-0.165,2.175-0.811,4.021-1.559
		c12.364-5.009,45.206-18.315,87.316-18.315c20.053,0,39.664,3.064,58.289,9.108c76.109,24.699,81.627,33.231,90.766,47.368
		l0.146,0.227c2.486,3.845,6.531,8.61,11.215,14.128c11.303,13.314,26.781,31.55,35.357,54.665
		c12.236,32.981,27.197,69.417,32.67,79.564c1.934,3.589,4.619,9.472,7.727,16.282c6.039,13.233,14.311,31.358,19.615,37.453
		c1.039,1.194,2.051,2.339,3.023,3.439c7.531,8.515,12.971,14.666,11.963,22.016c-1.055,7.679-4.926,13.688-12.672,23.474
		c-2.562,3.236-5.91,7.221-9.455,11.44c-7.359,8.759-15.699,18.686-18.826,24.116c-4.637,8.048-12.162,28.456-13.18,34.72
		c-1.514,9.337-24.785,19.578-33.961,19.578c-1.422,0-2.633-0.19-3.701-0.582c-21.273-7.779-43.361-11.724-65.654-11.724
		c-27.525,0-49.273,5.946-62.67,10.935c-16.955,6.313-26.285,13.231-28.184,16.109C511.657,711.172,504.89,715.324,473.492,715.324z
		 M374.957,696.552c18.042,5.851,64.358,11.098,98.535,11.098c30.462,0,34.019-4.158,34.156-4.335
		c7.012-10.629,46.604-30.479,97.25-30.479c23.193,0,46.17,4.102,68.291,12.19c0.033,0.013,0.334,0.115,1.064,0.115
		c8.361,0,25.418-9.716,26.393-13.172c1.139-7.017,8.902-28.264,14.098-37.281c3.465-6.018,12.037-16.222,19.602-25.224
		c3.508-4.175,6.82-8.118,9.312-11.267c7.764-9.81,10.354-14.425,11.086-19.753c0.529-3.86-4.166-9.169-10.107-15.889
		c-0.986-1.115-2.012-2.274-3.064-3.484c-6.035-6.936-14.227-24.884-20.809-39.306c-3.051-6.687-5.686-12.462-7.5-15.826
		c-5.707-10.582-20.561-46.711-33.109-80.537c-8.107-21.849-23.08-39.488-34.014-52.368c-4.857-5.722-9.051-10.663-11.809-14.928
		l-0.146-0.228c-8.215-12.707-13.174-20.377-86.689-44.233c-17.859-5.796-36.674-8.734-55.92-8.734
		c-40.615,0-72.449,12.898-84.434,17.754c-2.385,0.967-3.824,1.55-4.804,1.828c-6.355,1.808-43.259,23.866-60.613,38.47
		c-17.129,14.414-63.34,78.65-75.039,106.996c-12.513,30.313-23.991,67.892-25.795,74.759c-1.333,5.078-7.387,13.05-16.471,24.634
		c-4.359,5.559-9.784,12.476-10.438,14.433c-1.516,4.53-0.146,14.621,2.021,19.137c2.781,4.977,50.102,56.565,58.658,61.372
		c2.039-0.225,6.931-0.668,13.681-0.668C309.936,661.625,349.717,666.187,374.957,696.552z"/>
	<g>
		<path fill="#333333" d="M408.246,418.731c3.648,5.869,22.843-8.715,22.96-10.488c0.116-1.772-27.549-61.168-27.549-61.168
			l-17.732,11.834C385.924,358.909,404.599,412.864,408.246,418.731z"/>
		<path fill="#171717" d="M411.186,422.756L411.186,422.756c-3.087-0.001-4.571-1.648-5.183-2.631
			c-3.695-5.946-20.652-54.802-22.574-60.353l-0.667-1.927l21.988-14.674l1.299,2.789c27.951,60.008,27.847,61.6,27.79,62.455
			c-0.122,1.856-3.069,4.721-8.76,8.515C421.095,419.588,415.45,422.756,411.186,422.756z M389.086,359.973
			c7.498,21.593,18.915,53.365,21.401,57.365c0.05,0.08,0.343,0.138,0.698,0.138c4.528,0,14.419-6.95,17.112-9.692
			c-2.351-6.121-16.19-36.271-25.736-56.804L389.086,359.973z"/>
	</g>
	<g>
		<path fill="#333333" d="M580.185,355.659c0,0-16.109,46.131-10.01,55.547c3.629,5.604,20.568,1.871,20.568,1.871
			s1.98-57.418,5.281-57.418C599.323,355.659,580.185,355.659,580.185,355.659z"/>
		<path fill="#171717" d="M579.8,416.935c-6.096,0-9.969-1.404-11.84-4.294c-6.477-9.994,6.971-49.944,9.732-57.852l0.619-1.77
			h18.096v5.249c0.777-0.128,1.281-0.619,1.42-0.874c-1.688,3.147-3.586,30.83-4.445,55.773l-0.072,2.047l-1.998,0.44
			C591.073,415.707,585.438,416.935,579.8,416.935z M582.067,358.299c-6.357,18.653-13.281,45.907-9.676,51.472
			c0.285,0.442,1.666,1.885,7.408,1.885c3.146,0,6.379-0.444,8.383-0.782c0.174-4.529,0.631-15.656,1.328-26.672
			c0.531-8.384,1.094-15.075,1.676-19.887c0.295-2.449,0.58-4.434,0.91-6.016H582.067z"/>
	</g>
	<g>
		<path fill="#464646" d="M528.05,298.903c0,0-0.121-42.635,15.396-30.047c9.9,8.028-0.879,22.128,15.621,30.047
			c16.498,7.92,29.697,8.943,42.236,10.741s39.758,13.278,39.758,21.858s-2.25,21.297-12.811,26.577
			c-10.559,5.278-56.645,13.419-61.926-5.72c-5.279-19.139-12.32-39.379-21.117-46.857
			C538.288,299.622,528.05,298.903,528.05,298.903z"/>
		<path fill="#333333" d="M593.364,367.038c-16.83,0-27.061-4.832-29.584-13.976c-6.768-24.536-13.592-39.861-20.283-45.548
			c-6.186-5.259-15.539-5.972-15.633-5.978l-2.447-0.172l-0.008-2.454c-0.008-2.583,0.137-25.436,7.277-32.597
			c1.58-1.585,3.488-2.423,5.516-2.423c2.199,0,4.523,0.98,6.908,2.915c5.148,4.176,5.646,9.741,6.086,14.651
			c0.539,6.021,1.004,11.222,9.014,15.065c14.174,6.805,25.766,8.372,36.973,9.888c1.512,0.204,3.008,0.407,4.496,0.62
			c12.119,1.738,42.023,13.377,42.023,24.472c0,19.679-9.98,26.793-14.271,28.938C623.058,363.627,607.044,367.038,593.364,367.038z
			 M530.716,296.583c3.701,0.606,10.795,2.313,16.201,6.908c7.725,6.565,14.699,21.871,21.953,48.167
			c2.426,8.788,16.389,10.101,24.494,10.101c13.924,0,28.768-3.571,33.705-6.04c10.246-5.122,11.354-18.642,11.354-24.216
			c0-5.021-21.676-16.978-37.494-19.245c-1.475-0.212-2.957-0.412-4.453-0.614c-11.074-1.498-23.625-3.195-38.551-10.36
			c-10.715-5.143-11.42-13.022-11.986-19.354c-0.412-4.61-0.738-8.252-4.154-11.021c-1.4-1.136-2.639-1.735-3.582-1.735
			c-0.391,0-0.998,0.09-1.777,0.871C532.546,273.934,530.935,287.495,530.716,296.583z"/>
	</g>
	<g>
		<path fill="#464646" d="M304.481,317.188c13.852-4.315,31.01,28.072,73.187-5.451c42.179-33.522,53.215-14.56,46.696,8.04
			c-4.878,16.905-22.467,29.603-35.487,37.399c-4.387,2.627-8.254,4.698-10.944,6.186c-10.674,5.907-27.477-14.287-33.173-15.221
			c-10.389-1.705-17.467,9.582-21.012,10.432C315.7,360.501,284.841,323.309,304.481,317.188z"/>
		<path fill="#171717" d="M373.596,367.083c-7.375,0-15.346-6.224-21.75-11.225c-2.802-2.188-6.289-4.911-7.514-5.111
			c-0.568-0.094-1.142-0.141-1.707-0.141c-5.107,0-9.341,3.756-12.742,6.774c-2.103,1.865-3.764,3.339-5.521,3.76
			c-0.401,0.096-0.828,0.145-1.267,0.145c-5.847,0-13.82-8.864-16.125-11.581c-2.969-3.5-10.018-12.586-11.352-21.353
			c-1.047-6.875,1.821-11.734,8.076-13.684c1.116-0.348,2.3-0.523,3.518-0.523c4.137,0,8.215,1.944,12.937,4.196
			c6.028,2.875,12.86,6.134,21.556,6.134c10.561,0,21.787-4.843,34.319-14.804c15.648-12.438,28.299-18.743,37.6-18.743
			c4.98,0,9.008,1.854,11.646,5.36c3.958,5.261,4.552,14.089,1.629,24.221c-3.984,13.809-15.979,26.544-36.667,38.933
			c-3.617,2.166-6.834,3.931-9.419,5.349l-1.604,0.883C377.519,366.608,375.63,367.083,373.596,367.083z M342.625,345.327
			c0.851,0,1.713,0.07,2.562,0.21c2.437,0.399,5.212,2.493,9.908,6.16c5.462,4.265,12.943,10.106,18.501,10.105
			c1.146,0,2.146-0.245,3.058-0.75l1.621-0.892c2.546-1.396,5.714-3.135,9.245-5.249c19.218-11.508,30.761-23.575,34.308-35.866
			c2.422-8.397,2.132-15.719-0.775-19.583c-1.648-2.19-4.078-3.256-7.428-3.256c-5.554,0-16.016,3.053-34.314,17.597
			c-13.503,10.733-25.804,15.95-37.604,15.95c-9.891,0-17.618-3.686-23.828-6.647c-5.122-2.441-9.39-4.403-12.611-3.397
			c-2.499,0.778-5.26,2.374-4.427,7.848c1.775,11.664,17.704,28.449,22.257,28.449c0.583-0.18,2.144-1.564,3.282-2.574
			C330.016,350.204,335.513,345.327,342.625,345.327z"/>
	</g>
	<g>
		<g>
			<path fill="#C6BFB6" d="M581.063,405.836c4.566,0,4.566-7.08,0-7.08S576.497,405.836,581.063,405.836L581.063,405.836z"/>
		</g>
	</g>
	<path fill="#C6BFB6" d="M580.812,383.567c-1.48,1.156-2.34,3.884-1.182,5.537c0.494,0.703,1.057,1.232,1.908,1.467
		c1.002,0.275,2.416,0.04,3.104-0.82c0.42-0.526,0.723-0.861,0.906-1.527c0.104-0.376,0.102-0.769,0.141-1.152
		c-0.039,0.29-0.078,0.58-0.117,0.87c0.047-0.304,0.152-0.57,0.258-0.857c-0.109,0.258-0.219,0.517-0.326,0.774
		c0.076-0.167,0.162-0.315,0.264-0.469c0.781-1.17,0.465-2.865-0.494-3.822c-0.588-0.59-1.396-0.925-2.23-0.925
		C582.124,382.643,581.505,383.026,580.812,383.567L580.812,383.567z"/>
	<path fill="#C6BFB6" d="M419.046,407.134c1.069-1.414,0.396-3.358-0.456-4.708c-0.653-1.037-1.866-1.583-3.073-1.251
		c-1.385,0.381-2.355,1.936-1.901,3.349c0.221,0.688,0.517,1.272,0.997,1.825c0.305,0.351,0.759,0.597,1.134,0.877
		c0.266,0.198,0.873,0.465,1.154,0.542C417.758,408.003,418.506,407.849,419.046,407.134L419.046,407.134z"/>
	<g>
		<g>
			<path fill="#C6BFB6" d="M409.945,391.878c3.976,0,3.976-6.165,0-6.165S405.969,391.878,409.945,391.878L409.945,391.878z"/>
		</g>
	</g>
	<g>
		<path fill="#EDE974" d="M715.7,477.275c1.762,0,11.543,6.101,5.889,11.05c-8.482,7.422-18.322,13.174-37.9,20.523
			c-23.869,8.961-97.016,23.447-115.078,27.031c-22.883,4.541-108.325,8.611-133.678,10.853
			c-17.294,1.528-80.805,0.297-93.863-2.809c-10.909-2.595-47.303-3.294-53.461-5.934c-6.16-2.64-5.702-7.099-5.702-7.099
			s92.376,5.78,121.854,6.221c29.479,0.439,118.724-4.461,145.123-9.74c26.398-5.281,105.57-20.393,122.82-27.213
			C705.796,486.677,715.7,477.275,715.7,477.275z"/>
		<path fill="#D3BE2A" d="M410.538,549.367c-22.895,0-59.725-1.091-69.927-3.518c-5.029-1.195-15.955-2-26.521-2.777
			c-14.763-1.087-23.964-1.849-27.263-3.263c-7.413-3.176-6.916-8.879-6.892-9.12l0.194-1.893l1.899,0.119
			c0.923,0.058,92.665,5.782,121.759,6.217c1.228,0.019,2.562,0.027,3.988,0.027c33.812,0,116.105-4.808,140.716-9.729
			c3.395-0.679,7.66-1.521,12.553-2.485c33.223-6.553,95.062-18.75,109.928-24.627c33.152-13.11,43.27-22.391,43.369-22.483
			l0.57-0.535l0.787-0.004c2.105,0,7.686,3.441,9.186,7.435c0.975,2.592,0.266,5.107-1.992,7.085
			c-9.264,8.105-20.061,13.962-38.51,20.887c-10.893,4.089-39.693,12.102-115.053,27.053l-0.336,0.067
			c-15.914,3.158-60.689,6.017-96.667,8.313c-15.767,1.007-29.383,1.876-37.222,2.569
			C430.272,549.132,421.546,549.367,410.538,549.367z M284.457,533.033c0.571,0.989,1.701,2.182,3.932,3.138
			c2.928,1.255,15.182,2.156,25.992,2.952c10.722,0.789,21.809,1.605,27.146,2.875c8.856,2.105,42.718,3.409,69.011,3.409
			c10.896,0,19.497-0.229,24.221-0.646c7.887-0.697,21.525-1.568,37.318-2.577c33.969-2.168,80.491-5.139,96.147-8.246l0.336-0.066
			c75.098-14.899,103.68-22.839,114.432-26.876c18.197-6.831,28.305-12.295,37.295-20.16c1.174-1.028,1.143-1.84,0.984-2.432
			c-0.562-2.092-3.562-4.228-5.088-4.932c-3.09,2.531-14.766,11.065-43.752,22.528c-15.201,6.011-77.271,18.253-110.617,24.83
			c-4.891,0.965-9.152,1.805-12.543,2.483c-24.807,4.961-107.531,9.807-141.491,9.807c-0.002,0-0.001,0-0.003,0
			c-1.447,0-2.802-0.01-4.047-0.028C377.363,538.698,299.867,533.983,284.457,533.033z"/>
	</g>
	<g>
		<path fill="#EDE974" d="M233.491,513.353c0,0-10.999,7.92-3.52,13.64c7.48,5.718,119.117,41.519,218.111,37.56
			c98.993-3.959,132.981-3.062,195.346-11.879c64.688-9.146,84.477-30.954,88.436-39.754c3.959-8.801,1.873-16.286-2.523-11.885
			c-4.402,4.399-41.801,40.916-154.43,47.517c-112.635,6.599-168.274,7.317-186.991,4.399
			C369.205,550.032,236.128,523.912,233.491,513.353z"/>
		<path fill="#D3BE2A" d="M432.5,566.837c-50.828,0-101.248-9.219-134.595-16.951c-36.683-8.507-64.99-18.151-69.137-21.32
			c-2.84-2.172-3.407-4.619-3.383-6.291c0.078-5.427,6.245-10.022,6.947-10.528l2.37-1.707l0.708,2.834
			c0.458,0.951,6.111,6.726,70.747,21.451c34.859,7.942,72.499,15.178,82.066,16.67c6.85,1.067,18.74,1.609,35.344,1.609
			c32.062,0,82.94-2.028,151.225-6.029c47.016-2.755,86.422-10.972,117.123-24.421c21.678-9.496,32.414-18.912,36.025-22.52
			c1.244-1.246,2.512-1.879,3.766-1.879c1.268,0,2.381,0.641,3.135,1.805c1.834,2.838,1.363,8.533-1.172,14.172
			c-2.262,5.026-17.229,30.618-89.965,40.901c-47.924,6.775-79.104,7.826-135.709,9.735c-17.227,0.58-36.75,1.238-59.835,2.162
			C443.077,566.733,437.807,566.837,432.5,566.837z M233.117,516.23c-1.673,1.542-3.743,3.949-3.771,6.105
			c-0.015,1.123,0.584,2.132,1.829,3.083c6.572,5.024,106.688,37.458,201.326,37.458c5.254,0,10.471-0.103,15.503-0.304
			c23.097-0.924,42.628-1.582,59.859-2.163c56.471-1.903,87.576-2.952,135.289-9.697c72.176-10.204,85.613-35.729,86.908-38.606
			c2.432-5.409,2.096-9.379,1.51-10.332c-0.16,0.087-0.449,0.28-0.828,0.659c-9.717,9.712-49.664,41.879-155.715,48.094
			c-68.361,4.005-119.32,6.035-151.458,6.035c-16.807,0-28.903-0.557-35.953-1.656c-9.807-1.528-48.125-8.9-83.381-16.959
			C250.679,525.705,236.906,519.537,233.117,516.23z"/>
	</g>
</g>
</svg>
