<?xml version="1.0" encoding="utf-8"?>
<!-- Generator: Adobe Illustrator 16.0.0, SVG Export Plug-In . SVG Version: 6.00 Build 0)  -->
<!DOCTYPE svg PUBLIC "-//W3C//DTD SVG 1.1//EN" "http://www.w3.org/Graphics/SVG/1.1/DTD/svg11.dtd">
<svg version="1.1" id="Layer_1" xmlns="http://www.w3.org/2000/svg" xmlns:xlink="http://www.w3.org/1999/xlink" x="0px" y="0px"
	 width="1024px" height="1024px" viewBox="0 0 1024 1024" enable-background="new 0 0 1024 1024" xml:space="preserve">
<g>
	<path fill="#88BE40" d="M894.338,595.548l-51.26,60.943l0,0l0,0l31.022,16.051c0,0,0,0,22.64,3.521
		c22.642,3.515,35.437-2.64,49.515-10.56c14.08-7.924,23.759-38.719,18.479-32.559c-5.279,6.159-28.156,4.399-30.797,0
		c-2.641-4.4-9.68-5.279-18.479-7.037C906.66,624.148,894.338,595.548,894.338,595.548"/>
	<path fill="#5F7E37" d="M841.938,657.678c1.361,4.945,7.002,7.844,11.854,6.48c1.657-0.465,3.188-0.776,4.743-1.688
		c1.597-0.937,3.068-2.446,4.535-3.618c1.769-1.412,3.159-3.334,4.686-5.003c3.523-3.848,6.702-7.924,10.001-11.965
		c3.285-4.028,6.653-7.992,9.92-12.039c2.058-2.549,4.041-5.159,6.033-7.756c1.312-1.709,2.827-3.387,3.758-5.336
		c3.181-6.672,2.321-14.453-3.392-19.137c-1.219,1.498-2.427,2.995-3.561,4.516c-6.729,9.033-13.873,17.75-21.271,26.242
		C860.471,638.442,851.281,648.134,841.938,657.678z"/>
	<path fill="#A7D165" d="M894.169,627.394c5.524,5.193,12.798,8.244,19.896,10.611c7.826,2.609,15.885,4.459,23.959,6.119
		c3.331,0.684,6.687,1.231,10.031,1.838c1.744,0.318,3.473,0.678,5.244,0.828c0.677,0.057,3.082,0.121,2.054,0.004
		c0.283,0.025,0.564,0.055,0.847,0.086c4.715,0.537,6.672-7.019,2.435-8.983c-5.242-2.435-10.667-3.625-16.342-4.834
		c-7.203-1.535-14.407-3.171-21.438-5.378c-6.415-2.015-11.502-3.567-16.962-7.618c0.165,0.098-1.073-0.918-1.276-1.117
		c-0.402-0.396-0.805-0.798-1.168-1.232c-0.022-0.037-0.045-0.07-0.074-0.119c-0.146-0.219-0.285-0.444-0.418-0.674
		c-0.096-0.174-0.164-0.293-0.217-0.379c-0.125-0.432-0.267-1.514-0.285-1.332c-0.002-0.102,0.008-0.203,0.011-0.303
		c0.069-0.445,0.226-1.705,0.244-2.115c0.053-1.27-0.202-2.547-0.952-3.6c-1.338-1.879-3.771-3.435-6.192-2.521
		C884.543,610.083,889.065,622.597,894.169,627.394z"/>
	<path fill="#244A22" d="M896.15,679.853l-23.258-3.616l-35.841-18.543L895.4,588.32l2.461,5.707
		c6.9,16.004,15.059,27.459,18.349,28.116c0.958,0.192,1.895,0.371,2.808,0.548c7.948,1.535,14.824,2.863,18.102,8.102
		c1.084,0.856,6.121,2.301,12.875,2.301c6.565,0,10.732-1.371,11.826-2.646c0.455-0.533,1.842-2.15,3.982-2.15
		c1.919,0,3.547,1.295,4.052,3.219c1.396,5.328-8.856,30.093-21.718,37.332c-11.732,6.6-22.766,12.062-39.032,12.062
		c-0.001,0-0.002,0-0.003,0C904.973,680.911,900.736,680.565,896.15,679.853z M949.994,640.77
		c-2.646-0.002-16.008-0.283-19.347-5.85c-1.47-2.449-6.853-3.488-13.085-4.691c-0.928-0.18-1.881-0.363-2.857-0.559
		c-8.09-1.619-16.717-17.293-21.346-26.998l-44.254,52.615l26.204,13.559l22.021,3.424c4.19,0.651,8.041,0.968,11.771,0.968
		c0.001,0,0.002,0,0.003,0c14.431,0,24.113-4.804,35.269-11.078c7.023-3.953,13.162-15.173,16.115-22.65
		C956.796,640.548,952.766,640.771,949.994,640.77z"/>
	<g>
		<path fill="#88BE40" d="M921.176,647.905c7.041,0.879,12.32-8.359,12.32-8.359s0,0-1.32-6.16s-10.561-4.84-15.84,0
			c-5.28,4.84-7.479,5.279-7.479,5.279"/>
		<path fill="#244A22" d="M909.76,638.047c0.279-0.234,0.559-0.404,0.82-0.654c0.526-0.489,1.033-0.991,1.556-1.45
			c0.528-0.447,0.976-1.035,1.463-1.541l1.462-1.521l0.78-0.801c0.261-0.262,0.479-0.506,0.791-0.764l0.948-0.775
			c0.32-0.242,0.646-0.441,0.972-0.666c0.321-0.229,0.669-0.411,1.012-0.604c0.343-0.196,0.69-0.383,1.056-0.534
			c0.713-0.34,1.466-0.612,2.232-0.853c0.782-0.202,1.574-0.391,2.407-0.477c0.83-0.078,1.685-0.105,2.569,0.02
			c0.438,0.027,0.888,0.143,1.334,0.271c0.447,0.096,0.89,0.311,1.328,0.52c0.877,0.42,1.69,1.089,2.319,1.9
			c0.313,0.398,0.525,0.861,0.771,1.299c0.197,0.449,0.312,0.914,0.457,1.375c0.186,0.791,0.283,1.429,0.429,2.154
			c0.262,1.405,0.513,2.817,0.739,4.233l0.119,0.75l-0.312,0.482c-0.224,0.347-0.416,0.609-0.627,0.902
			c-0.212,0.276-0.419,0.56-0.647,0.823c-0.447,0.535-0.902,1.06-1.395,1.554c-0.484,0.496-1.004,0.967-1.534,1.418
			c-0.547,0.438-1.108,0.856-1.7,1.235c-0.281,0.203-0.603,0.365-0.906,0.541c-0.301,0.181-0.609,0.347-0.945,0.472
			c-0.332,0.131-0.643,0.284-0.982,0.389l-1.016,0.295c-0.339,0.088-0.7,0.107-1.043,0.158c-0.341,0.062-0.695,0.045-1.041,0.035
			c-0.346-0.013-0.686-0.004-1.021-0.101c-0.332-0.071-0.662-0.146-0.979-0.229l0.979-0.152c0.32-0.022,0.627-0.16,0.93-0.24
			c0.303-0.088,0.602-0.166,0.882-0.319c0.282-0.139,0.563-0.255,0.833-0.4l0.787-0.477c0.258-0.158,0.492-0.369,0.736-0.55
			c0.244-0.176,0.473-0.383,0.701-0.586c0.229-0.205,0.465-0.389,0.672-0.619c0.437-0.427,0.844-0.886,1.233-1.36
			c0.39-0.478,0.774-0.949,1.127-1.457c0.362-0.494,0.708-1.005,1.03-1.525l0.476-0.78c0.146-0.257,0.31-0.539,0.417-0.759
			l-0.191,1.234c-0.375-1.385-0.725-2.773-1.061-4.166c-0.166-0.674-0.332-1.443-0.498-2.039c-0.089-0.215-0.136-0.457-0.228-0.658
			c-0.128-0.17-0.196-0.383-0.331-0.537c-0.273-0.301-0.557-0.592-0.975-0.791c-0.209-0.096-0.4-0.221-0.662-0.268
			c-0.241-0.069-0.479-0.161-0.761-0.183c-0.526-0.107-1.118-0.116-1.71-0.088c-0.599,0.013-1.211,0.113-1.826,0.218
			c-0.61,0.153-1.234,0.282-1.84,0.504c-0.31,0.088-0.604,0.217-0.906,0.336c-0.301,0.121-0.61,0.229-0.896,0.383l-0.873,0.432
			l-0.812,0.459l-1.737,1.17l-1.821,1.25c-0.632,0.386-1.197,0.828-1.877,1.156c-0.658,0.349-1.334,0.657-1.99,0.974
			c-0.324,0.163-0.719,0.254-1.065,0.364c-0.356,0.113-0.695,0.215-1.062,0.236C909.183,638.495,909.48,638.271,909.76,638.047z"/>
	</g>
</g>
<g>
	<path fill="#88BE40" d="M426.687,670.037c10.561,18.471,64.02,8.561,57.716,9.91c-6.303,1.354,0,0,0,0l0,0
		c0,0-30.438,39.373-31.117,42.961c-0.678,3.589,13.013,12.201-10.156,23.026c-8.77,4.101-25.453,0.821-33.822-1.649
		c-20.13-5.939-17.819-15.322-17.819-15.322s12.319-29.002,15.841-33.406c3.521-4.404,3.519-11.434,7.039-18.475
		C417.887,670.041,426.687,670.037,426.687,670.037"/>
	<path fill="#5F7E37" d="M413.295,677.433c0.663,5.439,3.742,11.03,7.129,14.173c6.705,6.22,17.58,7.906,26.35,7.938
		c8.321,0.029,44.402-7.861,22.891-18.389c-4.299-2.105-9.284-2.838-14.273-3.551c-0.236,0.107-0.472,0.218-0.716,0.315
		c-10.14,4.086-22.353-3.666-31.69-9.448c-1.511,1.088-3.053,2.347-4.24,3.411C416.738,673.685,414.906,675.532,413.295,677.433z"/>
	<path fill="#244A22" d="M408.221,747.965c-22.983-6.781-20.786-18.596-20.46-19.921c0.049-0.198,0.114-0.394,0.194-0.582
		c2.092-4.924,12.711-29.719,16.375-34.303c1.428-1.787,2.185-4.558,3.062-7.763c0.832-3.048,1.776-6.5,3.541-10.031
		c4.529-9.059,15.295-9.166,15.751-9.167c0.001,0,0.002,0,0.002,0c1.377,0,2.648,0.739,3.331,1.934
		c3.482,6.088,14.793,9.442,31.851,9.442c9.601,0,18.117-1.039,21.323-1.432c1.073-0.131,1.361-0.166,1.7-0.166
		c1.963,0,3.636,1.486,3.843,3.438c0.05,0.478,0.14,2.56-1.938,3.711c-13.041,16.894-26.924,35.603-29.496,40.187
		c0.163,0.316,0.375,0.694,0.55,1.007c1.404,2.508,3.756,6.706,2.125,11.771c-1.584,4.919-6.562,9.276-15.221,13.322
		c-3.272,1.531-7.576,2.306-12.791,2.306C421.724,751.717,411.201,748.846,408.221,747.965z M461.869,685.251
		c-18.758,0-31.199-3.748-37.05-11.146c-2.116,0.41-5.448,1.547-7.02,4.692c-1.427,2.854-2.229,5.787-3.003,8.623
		c-1.055,3.859-2.053,7.505-4.473,10.531c-2.291,2.869-10.394,20.977-15.108,32.052c0.053,0.893,1.017,6.422,15.179,10.602
		c5.629,1.661,14.251,3.437,21.569,3.438c4.024,0,7.325-0.548,9.541-1.584c8.559-3.999,10.669-7.181,11.165-8.722
		c0.562-1.75-0.235-3.38-1.517-5.667c-1.01-1.805-2.055-3.668-1.638-5.875c0.512-2.709,9.401-15.336,26.445-37.573
		C471.992,684.959,467.094,685.25,461.869,685.251z"/>
	<g>
		<path fill="#88BE40" d="M434.054,699.078c5.941,1.318,18.147-3.299,18.147-3.299"/>
		<path fill="#244A22" d="M451.58,696.42c-0.406,0.386-1.012,0.887-1.779,1.392c-1.528,1.026-3.733,2.017-6.092,2.541
			c-0.589,0.125-1.183,0.244-1.781,0.306c-0.589,0.09-1.189,0.11-1.766,0.122c-0.573,0.025-1.147-0.027-1.68-0.073
			c-0.529-0.039-1.05-0.161-1.511-0.26c-0.461-0.094-0.892-0.263-1.257-0.402c-0.366-0.132-0.676-0.298-0.924-0.456
			c-0.494-0.299-0.738-0.511-0.738-0.511s0.331-0.124,0.844-0.271c0.253-0.06,0.559-0.172,0.903-0.291
			c0.344-0.118,0.712-0.209,1.124-0.364c0.411-0.146,0.839-0.251,1.303-0.416c0.46-0.139,0.945-0.284,1.446-0.435
			c1.004-0.287,2.082-0.558,3.176-0.812c1.095-0.232,2.207-0.447,3.272-0.589c1.064-0.15,2.083-0.233,2.978-0.264
			c0.896-0.031,1.667,0,2.219,0.044c0.552,0.04,0.884,0.099,0.884,0.099S451.99,696.043,451.58,696.42z"/>
	</g>
	<g>
		<path fill="#CADC48" d="M405.347,742.75c0,0,2.925-7.705,3.584-22.885c1.999-45.965-23.597,10.76-23.597,10.76
			C388.385,740.77,405.347,742.75,405.347,742.75z"/>
		<path fill="#647E37" d="M404.951,746.137c-0.783-0.091-19.23-2.38-22.885-14.529l-0.367-1.223l0.524-1.164
			c0.135-0.298,3.354-7.41,7.471-14.646c8.063-14.178,12.288-16.089,15.357-16.089c1.576,0,3.007,0.626,4.141,1.81
			c1.783,1.863,3.751,5.786,3.146,19.719c-0.676,15.551-3.676,23.611-3.804,23.947l-0.943,2.485L404.951,746.137z M389.031,730.74
			c2.26,4.638,9.27,7.111,13.912,8.133c0.861-3.337,2.172-9.768,2.578-19.156c0.408-9.347-0.451-12.886-0.945-14.115
			C401.43,707.671,394.604,718.673,389.031,730.74z"/>
	</g>
</g>
<g>
	<path fill="#88BE40" d="M739.167,703.029c-10.791,13.586-56.618,0.732-51.23,2.391c5.388,1.66,0,0,0,0l0,0
		c0,0,10.433,27.002,10.782,29.891c2.308,19.14-7.596,18.151,4.283,25.101c7.214,4.221,37.503,4.014,45.02,2.852
		c18.078-2.795,16.858-10.416,16.858-10.416s-8.287-24.046-10.988-27.854c-2.696-3.807-2.095-9.355-4.571-15.242
		C746.846,703.861,739.167,703.029,739.167,703.029"/>
	<path fill="#244A22" d="M701.758,762.538c-7.352-4.301-8.016-6.59-6.481-12.229c0.81-2.975,1.918-7.05,0.996-14.692
		c-0.274-1.841-5.448-15.856-10.302-28.443c-0.953-0.718-1-1.675-0.91-2.271l0.01-0.062l-1.266-3.274l4.123,1.271
		c0.222,0.036,0.553,0.109,1.201,0.252c11.363,2.507,21.2,3.778,29.236,3.778c0.002,0,0.002,0,0.002,0
		c9.552,0,16.076-1.857,18.868-5.373l0.846-1.064l1.352,0.146c0.372,0.041,9.158,1.071,12.162,8.217
		c1.226,2.914,1.751,5.709,2.216,8.175c0.501,2.661,0.934,4.959,2.094,6.598c2.825,3.982,10.449,25.983,11.309,28.479l0.104,0.414
		c0.069,0.436,0.317,2.746-1.643,5.438c-2.795,3.84-8.607,6.467-17.274,7.807c-2.996,0.463-8.938,0.751-15.507,0.751
		C725.541,766.452,707.791,766.07,701.758,762.538z M751.88,726.417c-1.783-2.519-2.334-5.441-2.917-8.536
		c-0.438-2.333-0.894-4.746-1.915-7.176c-1.369-3.256-5.069-4.541-6.976-4.999c-4.08,4.045-11.367,6.094-21.705,6.094h-0.002
		c-7.478-0.001-16.386-1.041-26.522-3.095c3.308,8.645,9.024,23.832,9.325,26.312c1.039,8.61-0.269,13.412-1.133,16.591
		c-0.934,3.428-0.988,3.633,4.213,6.676c3.36,1.965,14.604,3.235,28.645,3.235c6.239,0,12.03-0.271,14.753-0.692
		c13.47-2.082,14.672-6.642,14.776-7.544C759.24,744.074,753.676,728.949,751.88,726.417z"/>
	<g>
		<path fill="#CADC48" d="M751.615,762.424c0,0-1.902-6.355-1.187-18.395c2.162-36.47,19.683,10.707,19.683,10.707
			C766.588,762.455,751.615,762.424,751.615,762.424z"/>
		<path fill="#647E37" d="M750.007,764.578l-0.46-1.536c-0.082-0.275-2.001-6.863-1.272-19.141
			c0.438-7.385,1.61-15.862,6.831-15.862c6.672,0,14.133,18.144,17.028,25.946l0.311,0.836l-0.37,0.812
			c-1.743,3.821-5.762,6.486-11.943,7.921c-4.381,1.017-8.346,1.028-8.514,1.028h-0.004L750.007,764.578z M755.156,732.344
			c-0.019,0.008-1.935,1.04-2.573,11.813c-0.481,8.078,0.259,13.526,0.739,16.048c4.298-0.277,11.829-1.597,14.424-5.629
			C763.301,742.887,757.365,732.41,755.156,732.344z"/>
	</g>
</g>
<g>
	<path fill="#88BE40" d="M371.146,576.38c31.25,4.676,53.458,95.635,53.458,95.635s-20.473,0-31.913-3.522
		c-11.438-3.525-42.236-4.396-42.236-4.396s0,0-16.719-1.758c-16.718-1.76-32.558,4.399-41.357,9.678
		c-8.8,5.276-33.438,16.722-49.276,15.84c-15.839-0.881-53.677-14.956-68.636-19.362c-14.959-4.404-23.758-4.396-29.038-9.744
		c-5.278-5.351,20.963-48.838,22.722-46.199c6.25,1.222,11.595,4.912,14.236-0.369c2.639-5.279,16.72-22.879,30.797-24.639
		c14.079-1.761,28.16-2.638,49.278-4.691c21.117-2.053,20.238,1.171,36.076,4.691c15.841,3.521,31.636,1.035,46.637,0
		C360.178,586.505,371.146,576.38,371.146,576.38"/>
	<path fill="#A7D165" d="M231.652,601.553c2.655-0.263,5.256-0.571,7.737-0.86c6.171-0.715,12.228-1.402,18.484-1.564
		c8.312-0.215,16.635-0.158,24.952-0.178c15.574-0.039,31.355-0.328,46.867-1.406c2.236-0.156,4.476-0.34,6.707-0.551
		c2.084-0.66,4.058-1.479,5.79-2.525c1.021-0.617,1.73-1.262,2.188-1.922c0.228-0.784,0.442-1.567,0.637-2.352
		c-0.098-0.998-0.618-2-1.392-2.968c-21.415,1.875-46.937-1.354-63.56-4.75c-3.698,0-53.253-1.397-73.979,4.722
		c-0.112,0.032,1.704,2.086,1.607,2.131c-1.71-0.088-3.463,0.442-4.673,1.338c1.753,2.104,3.81,4.224,6.1,6.074
		c1.044,0.573,2.154,1.107,3.353,1.594c1.633,0.662,3.336,1.217,5.084,1.697c4.086,0.881,8.396,1.248,12.573,1.08
		C230.764,601.087,231.283,601.267,231.652,601.553z"/>
	<path fill="#5F7E37" d="M146.347,658.88c3.485,2.871,7.76,5.037,11.687,6.793c2.851,0.076,5.703,0.086,8.547,0.318
		c0.853,0.067,4.897,0.594,3.604,0.373c0.76,0.123,1.519,0.252,2.274,0.399c5.439,1.067,10.773,2.586,15.974,4.507
		c1.419,0.524,2.832,1.059,4.236,1.622c0.479,0.193,1.938,0.804,2.418,1c1.97,0.854,3.939,1.718,5.903,2.595
		c4.787,2.14,9.58,4.272,14.412,6.313c4.078,1.461,8.244,2.551,12.474,3.787c26.632,7.789,60.444-12.641,77.188-19.338
		c18.496-7.398,35.859-8.342,66.585-2.467c6.209,1.188,24.182,5.772,35.929,5.877c8.322,0.074,15.3-0.908,15.3-0.908l-7.798-24.34
		c-8.875-3.818-28.622-0.75-33.097-1.154c-22.381-2.022-43.155-10.046-65.937-6.149c-22.565,3.858-42.513,20.692-65.095,22.729
		c-0.844,0.073-1.686,0.149-2.531,0.178c-2.142,0.078-4.289,0.074-6.426-0.123c-0.269-0.026-0.737-0.096-1.163-0.157
		c-0.593-0.106-1.187-0.218-1.772-0.351c-4.082-0.922-7.918-2.43-11.779-4.02c-0.34-0.14-0.678-0.281-1.017-0.42
		c-0.024-0.01-0.043-0.02-0.069-0.029c-0.893-0.385-1.783-0.771-2.676-1.164c-1.745-0.767-3.486-1.541-5.229-2.32
		c-3.379-1.514-6.756-3.038-10.168-4.479c-7.895-3.334-15.828-6.627-24.211-8.551c-8.976-2.06-18.83-3.625-28.048-2.562
		c-1.02,0.115-2.016,0.307-2.983,0.562c-2.628,6.986-4.565,14.209-6.522,21.428C146.354,658.847,146.35,658.862,146.347,658.88z"/>
	<path fill="#244A22" d="M277.808,606.951c0.205,0.908,0.49,2.266,0.521,4.039c0.019,1.76-0.14,3.971-1.003,6.377
		c-0.434,1.201-1.033,2.437-1.831,3.658c-0.824,1.19-1.824,2.389-3.052,3.412c-2.403,2.137-5.546,3.739-8.977,4.75
		c-3.434,1.04-7.149,1.618-10.97,1.784c-3.82,0.164-7.745,0.027-11.688-0.383c-3.971-0.438-7.838-1.072-11.728-1.631
		c-3.891-0.684-7.811-1.342-11.62-2.102c-3.829-0.688-7.556-1.602-11.173-2.396c-3.611-0.834-7.082-1.744-10.356-2.65
		c-3.281-0.887-11.356-2.588-14.177-3.502c-6.27-1.834-12.846-3.506-16.062-4.754c-1.611-0.609,4.693-0.4,3.822-0.678
		c-0.438-0.129-0.771-0.269-1.003-0.275c-0.239-0.032-0.362-0.053-0.362-0.053s0.123-0.009,0.362-0.026
		c0.248-0.046,0.601,0.012,1.067,0.057c0.927,0.121,2.275,0.343,3.967,0.693c3.372,0.694,8.189,1.683,13.967,2.87
		c2.884,0.568,6.01,1.181,9.315,1.83c3.307,0.616,6.796,1.265,10.402,1.938c3.615,0.627,7.354,1.275,11.149,1.934
		c3.795,0.697,7.645,1.271,11.511,1.902c3.888,0.619,7.773,1.313,11.496,1.783c3.751,0.413,7.443,0.829,11.001,0.809
		c3.544-0.033,6.958-0.257,10.064-0.945c3.099-0.688,5.909-1.764,8.119-3.327c2.234-1.531,3.853-3.498,4.903-5.492
		c1.027-2.007,1.55-3.988,1.806-5.648c0.228-1.664,0.274-3.018,0.24-3.934c-0.029-0.922-0.106-1.41-0.106-1.41
		S277.591,606.044,277.808,606.951z"/>
	<g>
		<path fill="#88BE40" d="M292.814,612.401c-3.298-12.541-17.817-13.859-17.817-13.859"/>
		<path fill="#244A22" d="M276.079,598.302c0.696-0.117,1.695-0.188,2.892-0.112c1.192,0.088,2.582,0.318,4.014,0.811
			c0.726,0.219,1.437,0.565,2.165,0.893c0.698,0.398,1.427,0.775,2.087,1.273c0.653,0.504,1.324,0.987,1.876,1.6
			c0.29,0.287,0.57,0.58,0.839,0.875c0.246,0.32,0.483,0.638,0.705,0.959c0.218,0.324,0.454,0.621,0.638,0.947
			c0.167,0.338,0.337,0.662,0.484,0.986c0.146,0.32,0.286,0.633,0.423,0.936c0.111,0.315,0.19,0.629,0.271,0.926
			c0.147,0.599,0.292,1.132,0.35,1.621c0.036,0.498,0.036,0.934,0.039,1.285c0.003,0.705-0.047,1.101-0.047,1.101
			s-0.287-0.315-0.701-0.854c-0.204-0.271-0.458-0.592-0.711-0.959c-0.28-0.355-0.637-0.729-0.971-1.145
			c-0.174-0.203-0.328-0.431-0.521-0.64c-0.198-0.201-0.404-0.41-0.615-0.625c-0.209-0.213-0.405-0.44-0.612-0.666
			c-0.227-0.207-0.46-0.418-0.696-0.633c-0.237-0.211-0.46-0.438-0.692-0.662c-0.263-0.196-0.52-0.401-0.77-0.615
			c-0.489-0.439-1.049-0.82-1.591-1.219c-0.521-0.425-1.133-0.744-1.668-1.151c-0.592-0.326-1.136-0.724-1.711-1.037
			c-0.569-0.326-1.117-0.664-1.662-0.951c-0.532-0.316-1.057-0.58-1.538-0.855c-0.995-0.543-1.823-0.996-2.403-1.313
			c-0.597-0.33-0.954-0.533-0.954-0.533S275.387,598.403,276.079,598.302z"/>
	</g>
	<circle fill="#2C341B" cx="248.379" cy="598.104" r="7.04"/>
	<g>
		<path fill="#88BE40" d="M300.403,605.139c-2.466-9.375-13.322-10.362-13.322-10.362"/>
		<path fill="#244A22" d="M287.908,594.503c0.533-0.145,1.301-0.266,2.223-0.264c0.918,0.009,1.996,0.134,3.104,0.479
			c0.562,0.15,1.114,0.404,1.677,0.648c0.542,0.297,1.101,0.586,1.612,0.967c0.501,0.392,1.019,0.764,1.438,1.246
			c0.456,0.435,0.843,0.925,1.164,1.438c0.16,0.259,0.338,0.49,0.47,0.748c0.12,0.268,0.243,0.521,0.347,0.777
			c0.101,0.254,0.197,0.5,0.292,0.74c0.071,0.247,0.121,0.495,0.17,0.727c0.086,0.472,0.168,0.89,0.184,1.273
			c0,0.391-0.033,0.73-0.055,1.004c-0.051,0.547-0.131,0.852-0.131,0.852s-0.258-0.224-0.619-0.606
			c-0.177-0.194-0.398-0.416-0.614-0.677c-0.241-0.235-0.511-0.504-0.806-0.795c-0.258-0.297-0.573-0.582-0.905-0.87
			c-0.164-0.146-0.315-0.304-0.475-0.457c-0.173-0.142-0.348-0.286-0.527-0.435c-0.182-0.143-0.345-0.303-0.518-0.457
			c-0.194-0.135-0.384-0.277-0.565-0.428c-0.358-0.304-0.762-0.578-1.153-0.863c-0.372-0.309-0.813-0.539-1.194-0.846
			c-0.425-0.244-0.811-0.545-1.223-0.793c-0.838-0.541-1.62-1.045-2.29-1.478c-0.697-0.446-1.302-0.862-1.735-1.164
			c-0.433-0.301-0.696-0.495-0.696-0.495S287.376,594.63,287.908,594.503z"/>
	</g>
	<g>
		<path fill="#88BE40" d="M209.332,645.067c-0.661-8.248,16.688-19.283,16.688-19.283"/>
		<path fill="#244A22" d="M225.294,626.736c-0.466,0.588-1.149,1.392-1.98,2.317c-1.661,1.854-3.979,4.104-6.236,6.312
			c-1.134,1.099-2.246,2.197-3.25,3.242c-0.505,0.522-0.974,1.034-1.414,1.528c-0.436,0.496-0.828,0.976-1.182,1.433
			c-0.341,0.459-0.647,0.893-0.903,1.299c-0.215,0.412-0.449,0.783-0.576,1.111c-0.156,0.325-0.248,0.6-0.312,0.791
			c-0.07,0.194-0.108,0.299-0.108,0.299s-0.041-0.103-0.117-0.293c-0.062-0.193-0.203-0.488-0.246-0.877
			c-0.082-0.395-0.118-0.877-0.098-1.441c0.024-0.28,0.053-0.577,0.081-0.889c0.049-0.31,0.128-0.625,0.198-0.965
			c0.089-0.329,0.203-0.663,0.313-1.019c0.131-0.338,0.275-0.688,0.43-1.043c0.329-0.696,0.713-1.41,1.167-2.098
			c0.452-0.691,0.948-1.382,1.506-2.027c0.54-0.666,1.145-1.28,1.748-1.889c0.622-0.589,1.254-1.164,1.908-1.689
			c0.65-0.527,1.312-1.018,1.971-1.463c1.315-0.894,2.613-1.617,3.769-2.162c1.16-0.539,2.169-0.908,2.895-1.127
			c0.725-0.225,1.164-0.303,1.164-0.303S225.765,626.151,225.294,626.736z"/>
	</g>
	<g>
		<path fill="#88BE40" d="M198.74,634.617c-0.468-5.749,11.895-13.438,11.895-13.438"/>
		<path fill="#244A22" d="M210.181,621.938c-0.294,0.47-0.728,1.101-1.278,1.798c-1.088,1.405-2.656,3.034-4.236,4.541
			c-1.586,1.508-3.165,2.892-4.268,4.036c-0.271,0.287-0.514,0.562-0.728,0.824c-0.193,0.262-0.398,0.506-0.519,0.726
			c-0.14,0.221-0.239,0.407-0.303,0.543c-0.072,0.139-0.111,0.211-0.111,0.211s-0.045-0.066-0.115-0.205
			c-0.064-0.138-0.195-0.351-0.254-0.633c-0.088-0.287-0.147-0.645-0.168-1.066c-0.01-0.418,0.029-0.887,0.127-1.389
			c0.106-0.492,0.263-1.017,0.479-1.537c0.223-0.519,0.487-1.047,0.805-1.553c0.317-0.509,0.67-1.013,1.068-1.478
			c0.386-0.48,0.822-0.916,1.259-1.35c0.894-0.845,1.866-1.572,2.834-2.164c0.968-0.593,1.933-1.044,2.796-1.363
			c0.864-0.319,1.629-0.5,2.181-0.594c0.549-0.099,0.886-0.107,0.886-0.107S210.479,621.479,210.181,621.938z"/>
	</g>
	<g>
		<path fill="#88BE40" d="M188.974,642.827c-0.33-10.693,7.57-23.621,7.57-23.621"/>
		<path fill="#244A22" d="M196.343,620.33c-0.14,0.703-0.361,1.687-0.661,2.832c-0.596,2.295-1.556,5.203-2.558,8.055
			c-0.248,0.711-0.492,1.426-0.753,2.121c-0.22,0.705-0.504,1.385-0.729,2.053c-0.481,1.345-0.932,2.597-1.317,3.67
			c-0.174,0.546-0.365,1.052-0.537,1.505c-0.168,0.454-0.281,0.854-0.404,1.19c-0.23,0.67-0.41,1.07-0.41,1.07
			s-0.167-0.383-0.377-1.084c-0.092-0.35-0.26-0.785-0.32-1.281c-0.081-0.498-0.168-1.064-0.228-1.689
			c-0.045-0.62-0.034-1.288-0.025-2.004c0.015-0.715,0.116-1.446,0.21-2.217c0.104-0.763,0.278-1.533,0.461-2.317
			c0.193-0.779,0.449-1.554,0.696-2.328c0.296-0.754,0.563-1.521,0.907-2.24c0.331-0.725,0.673-1.43,1.052-2.086
			c0.728-1.328,1.544-2.492,2.297-3.449c0.771-0.952,1.479-1.694,2.018-2.184c0.528-0.494,0.881-0.74,0.881-0.74
			S196.485,619.63,196.343,620.33z"/>
	</g>
	<path fill="#244A22" d="M242.892,691.685c-12.205-0.68-35.379-8.354-53.998-14.52c-6.256-2.07-11.657-3.859-15.509-4.994
		c-4.79-1.41-8.934-2.357-12.589-3.193c-7.99-1.825-13.761-3.144-18.099-7.536c-2.793-2.832-2.345-7.964,1.5-17.156
		c2.688-6.424,7.08-14.793,11.753-22.388c8.184-13.305,10.115-13.305,11.984-13.305c0.554,0,1.091,0.111,1.585,0.318
		c1.538,0.338,2.987,0.782,4.284,1.178c1.704,0.522,3.313,1.016,4.332,1.016c0.431,0,0.498,0,0.819-0.643
		c2.541-5.084,17.44-24.691,33.753-26.73c8.664-1.084,17.402-1.844,27.521-2.721c6.398-0.554,13.65-1.185,21.861-1.981
		c4.567-0.445,8.294-0.66,11.393-0.66c7.218,0,10.979,1.172,15.738,2.656c2.69,0.838,5.739,1.788,10.148,2.768
		c5.236,1.165,10.932,1.729,17.411,1.729c6.551,0,13.174-0.569,19.577-1.12c2.812-0.242,5.716-0.494,8.552-0.689
		c13.405-0.925,23.539-10.066,23.634-10.152l1.352-1.248l1.818,0.271c14.397,2.155,28.339,19.625,41.438,51.926
		c9.454,23.315,15.126,46.366,15.183,46.597l1.158,4.747h-4.887c-0.858,0-21.187-0.041-33.043-3.692
		c-10.81-3.333-40.913-4.219-41.216-4.229l-17.011-1.776c-1.801-0.189-3.658-0.285-5.52-0.285c-16.453,0-29.774,7.225-33.466,9.438
		c-8.944,5.364-32.804,16.437-49.469,16.437C244.205,691.743,243.54,691.726,242.892,691.685z M334.138,658.526l16.573,1.741
		c2.622,0.078,31.601,1.016,43.109,4.562c7.424,2.285,19.183,3.014,25.812,3.244c-7.1-26.64-25.989-81.808-47.441-87.56
		c-3.732,2.971-13.795,9.962-26.754,10.857c-2.771,0.192-5.643,0.439-8.421,0.68c-6.565,0.564-13.354,1.15-20.237,1.15
		c-7.045,0-13.283-0.625-19.074-1.912c-4.725-1.049-8.076-2.094-10.77-2.935c-4.617-1.439-7.402-2.309-13.454-2.309
		c-2.848,0-6.332,0.205-10.649,0.625c-8.25,0.801-15.523,1.433-21.94,1.99c-10.041,0.871-18.712,1.623-27.233,2.688
		c-12.164,1.522-25.473,17.812-27.84,22.548c-1.599,3.195-4.255,4.885-7.685,4.885c-2.168,0-4.311-0.657-6.579-1.353
		c-0.906-0.277-1.833-0.561-2.759-0.799c-5.331,6.029-20.79,33.736-20.256,39.787c2.798,2.529,7.301,3.559,13.963,5.08
		c3.764,0.861,8.028,1.835,13.047,3.313c3.975,1.171,9.433,2.977,15.753,5.07c17.23,5.705,40.825,13.521,52.012,14.144
		c14.869,0.823,38.787-10.322,47.089-15.302c4.118-2.469,18.986-10.53,37.413-10.53
		C329.944,658.194,332.072,658.306,334.138,658.526z"/>
	<g>
		<path fill="#88BE40" d="M337.426,628.681c17.072-4.84,68.288-5.061,68.288-5.061"/>
		<path fill="#244A22" d="M402.773,624.04c-1.872,0.244-4.544,0.568-7.749,0.875c-1.603,0.153-3.338,0.338-5.173,0.471
			c-1.836,0.144-3.77,0.334-5.771,0.461c-4.002,0.291-8.27,0.554-12.534,0.793c-4.262,0.22-8.525,0.44-12.521,0.646
			c-1.998,0.093-3.929,0.185-5.76,0.271c-1.83,0.1-3.561,0.191-5.158,0.277c-1.596,0.103-3.068,0.158-4.36,0.279
			c-1.29,0.131-2.448,0.129-3.367,0.27c-1.857,0.217-2.951,0.299-2.951,0.299s0.991-0.414,2.782-1.067
			c0.892-0.355,2.003-0.631,3.276-0.994c0.64-0.168,1.317-0.379,2.037-0.545c0.722-0.156,1.483-0.322,2.276-0.494
			c0.793-0.164,1.622-0.356,2.48-0.518c0.861-0.145,1.752-0.291,2.668-0.443c1.832-0.316,3.768-0.594,5.775-0.834
			c2.007-0.262,4.083-0.455,6.196-0.641c2.11-0.207,4.259-0.312,6.407-0.457c4.296-0.231,8.596-0.341,12.627-0.341
			c2.015,0,3.964,0.043,5.812,0.097c1.847,0.035,3.594,0.117,5.206,0.209c3.225,0.16,5.91,0.407,7.789,0.604
			c1.88,0.197,2.952,0.363,2.952,0.363S404.643,623.798,402.773,624.04z"/>
	</g>
	<path fill="none" d="M334.611,644.077c6.818-2.64,79.636,7.92,79.636,7.92"/>
	<g>
		<path fill="#88BE40" d="M340.992,647.827c27.719-1.531,79.123,8.129,79.123,8.129"/>
		<path fill="#244A22" d="M416.678,655.736c-1.09-0.085-2.417-0.171-3.93-0.312c-1.516-0.135-3.228-0.262-5.083-0.461
			c-1.86-0.174-3.876-0.357-5.998-0.6c-2.127-0.215-4.37-0.449-6.683-0.719c-4.624-0.527-9.556-1.09-14.488-1.65
			c-4.924-0.58-9.849-1.16-14.465-1.705c-2.309-0.258-4.541-0.508-6.658-0.744c-2.119-0.221-4.121-0.406-5.974-0.623
			c-1.853-0.2-3.55-0.312-5.061-0.475c-1.51-0.154-2.827-0.26-3.915-0.326c-2.176-0.156-3.432-0.293-3.432-0.293
			s1.231-0.209,3.412-0.494c1.088-0.148,2.418-0.326,3.94-0.402c1.524-0.093,3.252-0.265,5.131-0.28
			c1.878-0.036,3.921-0.108,6.073-0.058c2.15,0.06,4.427,0.065,6.768,0.222c2.338,0.166,4.77,0.233,7.217,0.489
			c2.452,0.217,4.943,0.457,7.425,0.758c2.481,0.299,4.961,0.609,7.392,0.982c2.438,0.332,4.818,0.773,7.128,1.156
			c2.313,0.365,4.528,0.844,6.636,1.25c2.104,0.412,4.086,0.858,5.913,1.276c3.655,0.835,6.68,1.637,8.787,2.236
			c2.11,0.594,3.302,0.992,3.302,0.992S418.858,655.896,416.678,655.736z"/>
	</g>
</g>
<g>
	<path fill="#88BE40" d="M584.65,699.132c-48.672-43.385-111.693-14.054-111.693-14.054s-36.741,35.441-36.741,40.723
		c0,5.279-4.4,8.799-6.161,14.961c-1.761,6.158-13.199,16.715-16.719,39.597c-1.565,10.178,6.914,14.508,16.135,18.916
		c16.877,8.065,42.201,3.332,69.428,4.858c31.909,1.791,54.686-5.635,56.988-7.936c5.724-5.717-5.721-22.883,0-44.877
		c2.693-10.361,15.562-5.377,14.078-15.877C566.018,707.515,584.65,699.132,584.65,699.132"/>
	<path fill="#5F7E37" d="M566.463,684.18c-26.329-6.997-53.896-11.167-80.844-7.847c-7.317,6.949-14.831,13.688-22.584,20.146
		c33.155-2.812,65.25-2.872,95.98,12.062c-2.007,8.209-0.088,18.034-5.383,24.949c-4.495,5.868-12.063,10.384-13.066,18.383
		c-2.912,10.171-0.893,20.949,1.303,31.043c-0.205,1.867-0.592,4.854-2.539,5.906c-3.291,1.777-9.265,2.249-6.774,8.146
		c1.485,3.518,4.702,3.746,7.981,2.999c1.882-0.411,3.641-1.124,5.277-2.139c0.924,0.874,2.021,1.348,3.292,1.421
		c13.269,0.916,5.83-39.822,3.328-47.104c1.892-4.082,5.655-6.57,8.615-9.799c2.532,0.34,5.374-0.954,6.414-3.375
		c1.428-3.322,0.229-7.791,0.923-11.352c1.23-3.988,3.311-7.7,5.247-11.376c1.877-3.567,11.157-17.636,5.495-20.671
		C573.576,692.599,571.269,688.135,566.463,684.18C540.134,677.183,566.988,684.611,566.463,684.18z"/>
	<path fill="#244A22" d="M498.683,807.963c-3.89-0.218-8.085-0.324-12.825-0.324c-4.484,0-8.917,0.094-13.204,0.184
		c-4.174,0.088-8.115,0.171-12.006,0.171c-0.002,0-0.001,0-0.003,0c-11.338,0-23.163-0.638-32.83-5.258
		c-9.048-4.326-20.31-9.71-18.271-22.961c2.563-16.667,9.105-27.062,13.434-33.941c1.61-2.559,3-4.768,3.389-6.126
		c0.897-3.138,2.326-5.601,3.588-7.774c1.355-2.336,2.426-4.182,2.426-6.132c0-2.047,0-4.851,19.447-25.006
		c9.127-9.461,18.375-18.39,18.468-18.479c0.306-0.297,0.659-0.538,1.045-0.719c0.881-0.409,21.912-10.05,49.397-10.05
		c25.703,0,48.066,8.317,66.469,24.72c0.962,0.859,1.417,2.15,1.229,3.427s-1.016,2.38-2.185,2.927
		c-0.653,0.306-15.951,7.762-12.485,32.285c1.196,8.462-4.746,10.846-8.297,12.271c-3.33,1.336-5.103,2.17-5.867,5.108
		c-2.909,11.187-1.045,21.049,0.453,28.973c1.44,7.613,2.576,13.627-1.455,17.653c-3.26,3.258-23.267,9.334-49.885,9.334
		C505.392,808.245,502.017,808.15,498.683,807.963z M552.511,782.683c-1.556-8.22-3.684-19.478-0.34-32.329
		c1.773-6.824,6.987-8.915,10.437-10.301c3.691-1.479,3.891-1.709,3.557-4.073c-3.016-21.332,6.08-32.391,12.088-37.231
		c-16.199-12.961-35.523-19.525-57.518-19.525c-23.341,0-42.177,7.614-45.604,9.09c-15.774,15.247-33.35,33.737-35.084,37.886
		c-0.112,3.819-1.812,6.75-3.458,9.587c-1.138,1.959-2.211,3.809-2.847,6.031c-0.688,2.409-2.27,4.922-4.271,8.104
		c-3.991,6.342-10.023,15.927-12.344,31.021c-0.826,5.372,0.935,8.627,13.997,14.87c8.287,3.961,19.084,4.508,29.52,4.508
		c0.001,0,0.002,0,0.003,0c3.81,0,7.713-0.082,11.847-0.169c4.324-0.092,8.799-0.186,13.363-0.186c4.885,0,9.221,0.11,13.255,0.337
		c3.192,0.18,6.421,0.271,9.602,0.271c25.172,0,42.105-5.611,44.541-7.181C554.288,792.075,553.346,787.093,552.511,782.683z"/>
	<g>
		<path fill="#CADC48" d="M435.668,801.583c-6.173,2.826-24.313-4.644-23.323-12.871c0.99-8.225,19.469-41.246,25.738-41.246
			s8.474,22.865,8.507,23.324C447.652,786.073,438.643,800.224,435.668,801.583z"/>
		<path fill="#647E37" d="M412.013,796.701c-2.958-3.336-3.294-6.408-3.055-8.397c0.621-5.156,6.317-16.598,11.346-25.044
			c11.435-19.205,16.044-19.205,17.779-19.205c9.713,0,11.713,23.778,11.91,26.499c1.099,15.81-7.839,31.816-12.905,34.131
			c-1.331,0.609-2.955,0.919-4.827,0.919C425.449,805.604,416.365,801.609,412.013,796.701z M443.188,771.06
			c-0.655-7.758-3.104-18.117-5.161-20.046c-5.225,2.917-21.357,30.306-22.297,38.106c-0.131,1.086,0.683,2.261,1.387,3.055
			c3.354,3.782,10.761,6.607,15.144,6.607c1.067,0,1.649-0.165,1.907-0.267C436.254,797.006,444.131,784.6,443.188,771.06z"/>
	</g>
	<g>
		<path fill="#88BE40" d="M479.332,713.808c12.209,1.979,54.117,20.127,54.117,20.127"/>
		<path fill="#244A22" d="M531.011,733.32c-1.54-0.417-3.728-1.036-6.315-1.864c-1.296-0.41-2.7-0.849-4.166-1.362
			c-1.468-0.506-3.025-1.013-4.614-1.593c-1.593-0.575-3.237-1.162-4.895-1.796c-1.655-0.634-3.338-1.277-5.021-1.921
			c-1.672-0.666-3.345-1.332-4.991-1.988c-1.648-0.644-3.254-1.324-4.812-1.969c-1.564-0.623-3.055-1.301-4.481-1.892
			c-1.433-0.568-2.767-1.19-4.012-1.704c-1.25-0.495-2.38-1.035-3.396-1.438c-1.019-0.394-1.899-0.799-2.636-1.088
			c-1.477-0.538-2.338-0.896-2.338-0.896s0.906,0.014,2.521,0.129c0.801,0.084,1.764,0.218,2.868,0.396
			c1.113,0.163,2.333,0.434,3.675,0.729c2.68,0.586,5.747,1.45,9.003,2.461c3.246,1.034,6.663,2.256,10.041,3.568
			c3.371,1.329,6.708,2.743,9.795,4.16c1.548,0.7,3.022,1.426,4.421,2.114c1.404,0.671,2.711,1.356,3.913,1.996
			c2.414,1.259,4.382,2.408,5.75,3.23c1.368,0.823,2.13,1.339,2.13,1.339S532.551,733.733,531.011,733.32z"/>
	</g>
	<g>
		<path fill="#88BE40" d="M524.869,733.935c-7.92-2.638-32.668-5.606-48.178-4.946c-15.508,0.66-29.039-10.229-29.039-10.229"/>
		<path fill="#244A22" d="M450.669,720.417c0.965,0.506,2.157,1.079,3.526,1.708c1.368,0.633,2.947,1.256,4.657,1.925
			c1.736,0.609,3.617,1.236,5.634,1.746c0.504,0.126,1.014,0.254,1.531,0.383c0.522,0.097,1.05,0.193,1.584,0.292
			c1.063,0.225,2.16,0.329,3.266,0.489c1.11,0.102,2.242,0.171,3.381,0.188c1.174-0.029,2.362-0.061,3.561-0.092
			c2.465-0.062,4.934-0.173,7.499-0.057c1.272,0.045,2.543,0.09,3.812,0.134c1.266,0.04,2.502,0.179,3.741,0.266
			c2.475,0.161,4.899,0.443,7.239,0.745c1.171,0.149,2.324,0.269,3.446,0.438c1.121,0.189,2.217,0.372,3.284,0.551
			c1.065,0.184,2.102,0.362,3.104,0.535c0.999,0.19,1.96,0.424,2.884,0.621c1.847,0.405,3.533,0.77,5.013,1.224
			c1.481,0.421,2.767,0.778,3.812,1.15c2.08,0.788,3.226,1.275,3.226,1.275s-1.266-0.162-3.407-0.51
			c-1.075-0.157-2.412-0.237-3.912-0.429c-1.497-0.196-3.218-0.279-5.072-0.464c-1.854-0.185-3.873-0.303-6.002-0.471
			c-2.126-0.184-4.375-0.295-6.696-0.45c-1.16-0.075-2.34-0.15-3.533-0.227c-1.196-0.038-2.404-0.091-3.622-0.157
			c-1.216-0.056-2.45-0.139-3.671-0.177c-1.221-0.032-2.444-0.064-3.67-0.097c-2.428-0.138-4.957-0.041-7.408-0.067h-0.92
			l-0.906-0.015c-0.645-0.019-1.285-0.037-1.922-0.055c-1.267-0.089-2.513-0.236-3.724-0.417c-1.2-0.248-2.397-0.404-3.515-0.767
			c-0.564-0.16-1.12-0.317-1.67-0.473c-0.538-0.189-1.07-0.374-1.594-0.557c-2.102-0.715-3.983-1.628-5.69-2.494
			c-1.694-0.899-3.192-1.805-4.471-2.678c-1.293-0.847-2.359-1.676-3.22-2.367c-0.869-0.685-1.504-1.281-1.941-1.678
			c-0.432-0.403-0.648-0.633-0.648-0.633S448.733,719.41,450.669,720.417z"/>
	</g>
	<g>
		<path fill="#88BE40" d="M464.812,740.277c6.931,1.058,21.778-4.69,23.045-5.021"/>
		<path fill="#244A22" d="M487.014,735.948c-0.536,0.425-1.324,0.994-2.307,1.583c-0.984,0.591-2.163,1.206-3.472,1.758
			c-1.305,0.556-2.739,1.044-4.207,1.438c-0.743,0.169-1.475,0.366-2.223,0.481c-0.742,0.132-1.474,0.241-2.2,0.293
			c-0.72,0.067-1.422,0.098-2.098,0.081c-0.667,0.002-1.307-0.047-1.899-0.128c-0.585-0.063-1.126-0.169-1.602-0.302
			c-0.474-0.121-0.875-0.242-1.204-0.396c-0.654-0.279-0.991-0.481-0.991-0.481s0.402-0.14,1.042-0.305
			c0.317-0.063,0.704-0.221,1.136-0.35c0.431-0.124,0.909-0.271,1.432-0.455c1.032-0.327,2.239-0.708,3.53-1.116
			c0.646-0.182,1.312-0.408,1.998-0.587c0.687-0.187,1.385-0.378,2.082-0.567c2.803-0.729,5.688-1.306,7.946-1.531
			c1.127-0.121,2.091-0.162,2.784-0.16c0.699-0.01,1.095,0.052,1.095,0.052S487.541,735.529,487.014,735.948z"/>
	</g>
	<g>
		<path fill="#CADC48" d="M435.227,804.132c3.823-23.781,16.387-51.498,29.585-53.367c29.483-4.174,29.039,53.349,21.449,56.912
			C478.672,811.241,440.613,813.351,435.227,804.132z"/>
		<path fill="#647E37" d="M432.281,805.854l-0.616-1.057l0.192-1.206c3.526-21.928,15.933-53.859,32.476-56.203
			c1.173-0.166,2.338-0.251,3.463-0.251c12.043,0,20.737,9.245,24.482,26.032c2.919,13.083,2.591,34.234-4.567,37.596
			c-4.696,2.205-16.571,3.359-25.873,3.359C450.56,814.124,436.276,812.689,432.281,805.854z M483.395,767.276
			c-3.91-9.875-9.959-14.285-18.104-13.135c-9.748,1.382-22.163,24.541-26.444,49.033c2.496,2.108,10.234,4.128,22.992,4.128
			c10.433,0,19.854-1.359,22.819-2.645C487.069,802.081,489.46,782.604,483.395,767.276z"/>
	</g>
	<g>
		<path fill="#CADC48" d="M487.912,805.119c2.716-36.207,10.953-46.031,23.859-45.566c14.111,0.51,22.885,38.071,19.036,42.676
			C524.648,809.599,490.628,812.911,487.912,805.119z"/>
		<path fill="#647E37" d="M484.689,806.242l-0.233-0.67l0.054-0.708c2.597-34.618,10.249-48.738,26.409-48.738
			c0.321,0,0.648,0.006,0.976,0.019c6.516,0.235,12.443,5.933,17.141,16.475c4.403,9.876,8.498,26.882,4.391,31.798
			c-5.229,6.254-21.725,8.585-30.896,8.585C492.256,813.002,486.254,810.729,484.689,806.242z M519.965,769.975
			c-2.752-4.427-5.706-6.917-8.317-7.011c-0.244-0.009-0.489-0.014-0.729-0.014c-5.283,0-16.222,0.003-19.519,41.282
			c0.909,0.664,3.967,1.947,11.128,1.947c11.578,0,22.903-3.146,25.55-6.01C529.242,797.089,526.497,780.479,519.965,769.975z"/>
	</g>
</g>
<g>
	<path fill="#88BE40" d="M840.662,667.943c-68.635-14.963-98.555,36.953-98.555,36.953s7.919,6.163,8.799,8.805
		c0.879,2.64-1.76,9.679,0,13.199c1.759,3.52,7.92,12.319,7.92,17.6s-5.638,40.711-1.238,43.348
		c4.398,2.642,59.57,18.136,78.404,12.625c6.756-1.978,41.474-8.729,44.113-10.489c2.641-1.761,21.271-14.687,19.51-19.087
		c-1.761-4.397-14.959-36.077-14.959-36.077s-7.039-7.918-10.561-11.438c-3.52-3.52,13.2-5.281,0-15.838
		C860.897,696.982,840.662,667.943,840.662,667.943"/>
	<path fill="#5F7E37" d="M742.938,703.211c0.122,0.17,2.979,1.933,5.174,6.156c1.884,3.054,0.321,3.635,1.824,6.908
		c1.278,2.784-0.537,4.641,0,8.014c0.749,4.719,7.335,14.107,9.097,18.68c2.341,6.074,0.271,5.49-1.181,9.783
		c-2.416,7.14-0.608,13.994-0.188,21.195c0.272,4.658-1.94,11.096,1.706,14.535c1.619,1.529,21.698,7.922,23.721,5.893
		c1.468-1.473,2.111-3.777,0.863-6.086c-7.664-14.167-6.226-31.357-8.59-46.813c-0.597-3.896-2.171-9.001-3.42-12.799
		c-1.626-4.94-7.447-10.834-6.748-16.12c1.951-14.712,34.575-25.254,46.39-27.726c8.599-1.799,37.612-4.316,38.229-2.466
		c1.007-3.668-5.052-10.148-8.84-11.781c-8.937-3.846-18.219-6.998-27.977-5.91C784.272,667.878,754.939,683.878,742.938,703.211z"
		/>
	<path fill="#244A22" d="M755.615,791.139c-4.26-2.554-4.564-10.334-1.481-37.841c0.438-3.924,0.854-7.63,0.854-8.799
		c0-2.964-3.579-9.049-5.503-12.319c-0.821-1.395-1.53-2.6-2.012-3.563c-1.539-3.081-1.014-6.9-0.55-10.271
		c0.153-1.11,0.379-2.754,0.327-3.417c-0.732-1.196-4.144-4.39-7.5-7.006c-1.51-1.175-1.923-3.285-0.969-4.942
		c0.98-1.698,24.58-41.583,77.771-41.583c8.029,0,16.415,0.941,24.927,2.797c0.945,0.206,1.778,0.762,2.331,1.555
		c0.2,0.286,20.065,28.701,32.682,38.797c4.509,3.604,6.605,6.868,6.601,10.271c-0.005,3.769-2.652,6.161-4.517,7.666
		c3.682,3.864,8.701,9.507,8.949,9.784c0.281,0.318,0.51,0.682,0.674,1.074c0.539,1.294,13.229,31.755,14.979,36.128
		c1.527,3.815-1.138,8.131-9.2,14.898c-5.597,4.698-11.682,8.766-11.743,8.807c-1.787,1.191-7.008,2.509-27.938,7.049
		c-7.547,1.639-14.677,3.186-17.226,3.932c-3.061,0.895-6.865,1.331-11.635,1.331c-0.002,0-0.001,0-0.002,0
		C801.271,805.486,760.014,793.779,755.615,791.139z M895.77,771.623c-2.34-5.752-12.668-30.555-14.408-34.733
		c-1.566-1.755-7.067-7.887-9.979-10.797c-1.124-1.124-1.697-2.543-1.614-3.996c0.145-2.528,2.053-4.046,3.585-5.265
		c0.59-0.469,1.976-1.57,2.064-2.024c0.001-0.013-0.081-1.36-3.72-4.27c-12.045-9.639-29.201-33.368-33.306-39.153
		c-7.475-1.535-14.815-2.312-21.84-2.312c-41.445,0-63.251,26.288-69.347,35.014c3.3,2.782,6.535,5.987,7.34,8.402
		c0.658,1.976,0.343,4.259-0.021,6.903c-0.249,1.811-0.666,4.837-0.188,5.792c0.364,0.729,1.012,1.83,1.762,3.104
		c2.769,4.708,6.563,11.156,6.563,16.211c0,1.522-0.327,4.508-0.903,9.653c-0.817,7.295-2.938,26.217-1.615,30.676
		c6.136,2.597,43.263,12.981,65.29,12.981c3.975,0,7.164-0.343,9.479-1.021c2.812-0.823,9.736-2.326,17.756-4.065
		c9.228-2.002,23.117-5.015,25.449-6.028C885.578,781.704,894.328,774.481,895.77,771.623z"/>
	<g>
		<path fill="#88BE40" d="M791.271,726.459c11.882-5.279,29.04-4.289,50.488-4.127c21.449,0.168,23.428-9.732,24.749-10.062"/>
		<path fill="#244A22" d="M866.331,712.409c-0.1,0.1-0.212,0.294-0.354,0.543c-0.284,0.499-0.645,1.286-1.274,2.202
			c-0.621,0.919-1.486,1.997-2.688,3.021c-1.189,1.033-2.688,2.04-4.453,2.853c-1.752,0.841-3.748,1.528-5.902,2.005
			c-2.148,0.491-4.446,0.846-6.826,0.987c-1.186,0.089-2.408,0.115-3.61,0.146c-1.19,0.025-2.397,0.046-3.612,0.044
			c-2.432-0.008-4.901-0.018-7.371-0.028c-2.461-0.034-4.922-0.07-7.345-0.104c-2.413-0.027-4.788-0.054-7.086-0.08
			c-2.292,0.024-4.507,0.011-6.602,0.075c-2.093,0.078-4.071,0.16-5.891,0.306c-1.818,0.151-3.479,0.344-4.956,0.547
			c-0.731,0.122-1.414,0.25-2.057,0.343c-0.635,0.114-1.211,0.255-1.738,0.362c-1.059,0.207-1.865,0.461-2.43,0.606
			c-0.564,0.146-0.867,0.225-0.867,0.225s0.271-0.152,0.78-0.436c0.519-0.263,1.252-0.737,2.267-1.144
			c0.504-0.215,1.058-0.474,1.674-0.719c0.617-0.234,1.297-0.458,2.021-0.714c1.459-0.462,3.126-0.947,4.973-1.321
			c1.844-0.403,3.856-0.751,5.994-1.004c2.137-0.267,4.394-0.491,6.729-0.613c2.333-0.12,4.742-0.251,7.185-0.275
			c2.443-0.042,4.92-0.029,7.394-0.011c2.467,0.05,4.934,0.101,7.362,0.15c1.214,0.023,2.421,0.066,3.61,0.115
			c1.179,0.035,2.311,0.075,3.438,0.053c2.245-0.04,4.41-0.137,6.435-0.408c2.022-0.279,3.912-0.663,5.595-1.21
			c1.682-0.547,3.165-1.216,4.399-1.965c1.226-0.759,2.223-1.56,2.976-2.305c0.751-0.747,1.301-1.398,1.695-1.836
			c0.383-0.464,0.72-0.566,0.713-0.55C866.516,712.277,866.425,712.295,866.331,712.409z"/>
	</g>
	<g>
		<path fill="#88BE40" d="M783.354,724.807c5.278-9.235,53.457-20.457,53.457-20.457"/>
		<path fill="#244A22" d="M834.486,705.312c-1.481,0.593-3.6,1.419-6.156,2.333c-1.277,0.462-2.656,0.972-4.129,1.461
			c-1.467,0.504-3.006,1.06-4.609,1.583c-3.202,1.054-6.617,2.178-10.031,3.301c-3.414,1.104-6.818,2.216-9.99,3.291
			c-1.585,0.542-3.119,1.055-4.559,1.577c-1.434,0.534-2.788,1.038-4.027,1.532c-1.227,0.516-2.343,1-3.319,1.469
			c-0.478,0.251-0.923,0.485-1.335,0.703c-0.405,0.228-0.761,0.462-1.097,0.663c-0.612,0.452-1.146,0.799-1.413,1.118
			c-0.305,0.302-0.468,0.463-0.468,0.463s0.099-0.208,0.284-0.597c0.174-0.41,0.55-0.929,1.071-1.571
			c0.278-0.297,0.581-0.642,0.933-0.994c0.358-0.336,0.762-0.688,1.199-1.058c0.451-0.346,0.93-0.715,1.435-1.104
			c0.521-0.36,1.076-0.735,1.663-1.109c1.174-0.742,2.471-1.508,3.883-2.221c1.407-0.726,2.9-1.469,4.479-2.146
			c1.574-0.688,3.214-1.365,4.9-1.984c1.681-0.643,3.41-1.224,5.139-1.798c3.468-1.121,6.974-2.099,10.287-2.899
			c3.318-0.782,6.435-1.428,9.13-1.868c2.69-0.465,4.955-0.74,6.546-0.903c1.59-0.165,2.51-0.203,2.51-0.203
			S835.97,704.722,834.486,705.312z"/>
	</g>
	<g>
		<path fill="#CADC48" d="M882.024,792.268c-2.648-3.113-2.648-3.113-7.267-9.52c-11.878-87.252,22.379-15.727,25.02-7.232
			C902.417,784.01,888.396,792.236,882.024,792.268z"/>
		<path fill="#647E37" d="M879.428,794.477c-2.738-3.217-2.827-3.339-7.436-9.733l-0.498-0.691l-0.115-0.844
			c-4.576-33.604-2.035-41.496,0.689-44.616c1.217-1.394,2.787-2.13,4.543-2.13c11.44,0,26.306,37.661,26.422,38.041
			c1.102,3.542,0.317,7.28-2.269,10.81c-4.453,6.076-13.44,10.341-18.724,10.366l-1.588,0.009L879.428,794.477z M878.022,781.446
			c3.294,4.567,3.968,5.487,5.435,7.236c3.467-0.722,9.033-3.618,11.805-7.401c1.273-1.739,1.697-3.338,1.257-4.752
			c-0.676-2.179-4.298-10.456-8.809-18.519c-6.308-11.274-9.722-13.948-10.757-14.556
			C876.117,745.025,874.082,752.081,878.022,781.446z"/>
	</g>
	<g>
		<path fill="#CADC48" d="M852.32,749.762c-12.322,1.797-18.232,15.427-15.51,50.924c34.315,2.309,44.325-7.893,44.325-7.893
			S865.443,747.85,852.32,749.762z"/>
		<path fill="#647E37" d="M836.582,804.089l-2.946-0.198l-0.228-2.943c-2.721-35.479,2.959-52.307,18.418-54.561
			c0.433-0.063,0.875-0.096,1.315-0.096c6.864,0,14.029,7.665,21.903,23.433c5.415,10.843,9.154,21.497,9.311,21.945l0.698,2.001
			l-1.483,1.513c-0.93,0.947-9.869,9.255-37.033,9.255c-0.002,0-0.002,0-0.004,0C843.361,804.438,840.012,804.319,836.582,804.089z
			 M853.144,753.114c-0.11,0-0.222,0.007-0.331,0.022c-6.716,0.979-15.249,6.705-12.811,44.316c2.24,0.106,4.428,0.161,6.531,0.161
			c0.002,0,0.004,0,0.004,0c18.212,0,27.171-4.031,30.533-6.065C870.156,772.628,859.384,753.113,853.144,753.114z"/>
	</g>
	<g>
		<path fill="#CADC48" d="M835.992,800.473c-18.92-106.036-50.551-7.355-45.319-2.641
			C795.906,802.549,828.891,805.434,835.992,800.473z"/>
		<path fill="#647E37" d="M788.39,800.367c-4.762-4.291,2.218-23.304,3.665-27.073c3.607-9.391,11.229-25.145,21.745-25.145
			c11.135,0,19.254,16.436,25.551,51.725l0.383,2.147l-1.788,1.248c-3.043,2.125-8.978,3.203-17.641,3.203c-0.001,0,0,0-0.002,0
			C809.865,806.473,793.062,804.578,788.39,800.367z M813.799,754.971c-2.031,0-4.566,1.823-7.139,5.135
			c-8.282,10.662-13.463,30.995-13.166,35.562c3.089,1.725,14.636,3.983,26.81,3.983c5.755,0,9.634-0.543,11.854-1.187
			C824.644,758.156,816.238,754.97,813.799,754.971z"/>
	</g>
</g>
<g>
	<path fill="#4B7E3A" d="M352.515,579.025c0.881,6.404,3.959,11.604,11.879,21.611s23.759,27.616,28.599,36.023
		s13.641,36.02,13.641,36.02c8.801,7.205,21.246,19.937,32.557,16.011c83.059-28.816,153.109,4.807,161.029,16.811
		c7.922,12.001,110.432,4.007,138.152-5.604c34.317-42.424,98.554-33.618,98.554-33.618c6.603-1.2,60.715-60.836,61.596-63.64
		c0.878-2.801,3.078-23.214,2.198-22.013c0,0-23.759-29.219-26.838-38.825c-2.335-7.282-12.76-41.475-20.159-61.604
		c-2.362-6.424-4.416-11.417-5.799-13.646c-5.72-9.205-58.517-93.659-76.115-108.468c-17.598-14.81-54.997-37.224-62.036-39.225
		c-7.038-2.001-72.154-35.222-147.388-10.808c-75.236,24.416-80.078,32.42-88.875,46.029c-5.543,8.574-17.722,20.646-28.945,36.408
		c-6.592,9.258-12.857,19.787-17.254,31.635c-11.879,32.021-27.061,69.244-32.889,80.051c-5.826,10.81-19.467,44.83-27.826,54.435
		C358.238,566.216,351.638,572.618,352.515,579.025z"/>
	<g>
		<path fill="#88BE40" d="M719.101,708.924c-5.295,0.483-15.559-4.312-15.559-4.312"/>
		<path fill="#244A22" d="M704.336,704.542c0.496-0.029,1.186-0.036,1.973,0.025c0.789,0.058,1.68,0.177,2.602,0.364
			c0.923,0.183,1.877,0.442,2.812,0.726c0.932,0.305,1.844,0.632,2.688,0.982c0.423,0.186,0.824,0.347,1.211,0.53
			c0.386,0.186,0.75,0.359,1.087,0.521c0.342,0.187,0.649,0.317,0.936,0.471s0.539,0.298,0.752,0.391
			c0.431,0.208,0.705,0.373,0.705,0.373s-0.233,0.181-0.692,0.414c-0.232,0.124-0.52,0.255-0.852,0.351
			c-0.332,0.102-0.725,0.222-1.136,0.277c-0.837,0.146-1.812,0.187-2.822,0.091c-0.504-0.049-1.026-0.107-1.535-0.229
			c-0.518-0.095-1.026-0.244-1.532-0.396c-2.017-0.638-3.854-1.693-5.091-2.754c-0.623-0.521-1.103-1.029-1.42-1.421
			c-0.321-0.383-0.479-0.646-0.479-0.646S703.845,704.564,704.336,704.542z"/>
	</g>
	<g>
		<path fill="#EDE974" d="M891.059,524.852c11.161,7.259,37.379,6.485,37.379,6.485l9.898-2.424c0,0,13.859-18.918-8.945-11.072
			c-22.806,7.847-40.527-6.667-40.796-6.965C888.595,510.876,879.897,517.591,891.059,524.852z"/>
		<path fill="#D3BE2A" d="M889.979,526.511c-4.232-2.754-6.447-5.859-6.584-9.232c-0.189-4.687,3.819-7.837,3.99-7.97l1.455-1.123
			l1.148,1.28c0.76,0.62,11.045,8.72,25.681,8.72c4.403,0,8.803-0.745,13.077-2.217c3.938-1.354,7.014-2.014,9.406-2.014
			c3.572,0,5.108,1.55,5.768,2.85c2.236,4.41-2.928,11.835-3.987,13.278l-0.426,0.582l-10.599,2.595l-0.412,0.058
			c0,0-0.832,0.023-2.262,0.023C918.49,533.341,899.457,532.675,889.979,526.511z M937.148,527.165
			c2.182-3.164,3.94-7.188,3.239-8.57c-0.312-0.614-1.667-0.68-2.235-0.68c-1.918,0-4.649,0.605-8.117,1.798
			c-4.689,1.615-9.522,2.432-14.365,2.432c-13.186,0-23.107-5.982-26.883-8.668c-0.702,0.849-1.496,2.149-1.436,3.643
			c0.1,2.511,2.659,4.688,4.786,6.073c8.83,5.742,28.33,6.188,34.097,6.188c0.952,0,1.625-0.012,1.94-0.018L937.148,527.165z"/>
	</g>
	<path fill="none" d="M547.643,425.301c0,0-13.859-3.959-23.986-7.92c-10.129-3.959-17.59-18.479-20.893-31.018
		c-3.299-12.538,46.859-39.597,66.658-37.724c19.799,1.874,40.916,6.706,49.496,15.946c8.578,9.239,5.293,43.297-7.26,52.795
		C587.24,435.859,547.643,425.301,547.643,425.301z"/>
	<path fill="none" d="M497.485,493.276c0,0,15.839,18.479,17.818,15.178c1.981-3.299,21.045-15.178,21.045-15.178
		C510.538,449.719,497.485,493.276,497.485,493.276z"/>
	<path fill="#74B55B" d="M671.359,328.844c8.833,11.425,21.34,11.617,33.704,18.279c17.159,9.244,32.521,20.477,46.61,33.297
		c39.265,35.738,66.38,81.369,81.451,129.797c7.281,23.398,15.676,58.774,39.963,73.121c36.126,21.34,13.458-19.042,6.216-30.381
		c-1.739-2.723-3.421-5.498-4.944-8.327c-0.712-1.316-1.408-2.641-2.062-3.982c-0.183-0.373-0.359-0.75-0.54-1.125
		c-0.119-0.264-0.239-0.529-0.312-0.697c-5.134-11.738-8.623-23.982-12.1-36.192c-3.453-12.136-6.836-24.378-11.979-36.034
		c-5.906-13.388-13.4-26.288-21.418-38.722c-0.004-0.005-0.006-0.009-0.01-0.014c-21.932-34.009-49.322-64.104-83.814-88.079
		c-15.952-11.088-35.271-25.09-55.488-28.615c-12.189-2.127-20.926-0.199-20.536,6.768
		C666.256,320.735,667.887,324.351,671.359,328.844z"/>
	<path fill="#2F5D2D" d="M354.727,575.388c-1.084,19.609,30.592,46.668,43.103,75.617c7.553,17.479,9.467,37.812,36.891,35.027
		c23.541-2.393,62.127-12.529,107.277-7.398c22.993,2.611,51.786,17.57,59.184,28.668c17.377,7.271,42.323,4.947,60.496,4.322
		c23.859-0.822,75.373-14.205,75.373-14.205s20.481-19.465,35.211-26.182c24.787-11.304,40.096-2.14,62.288-5.838
		c5.432-3.13,38.99-35.742,29.036-45.695c-6.962-6.961-26.771,8.028-32.986,10.85c-35.896,16.293-72.374,33.646-108.806,48.166
		c-62.825,25.056-106.56,3.603-165.59-14.989c-36.602-11.528-72.295,0.995-109.4,0.528c-25.334-0.318-16.117-19.098-29.189-38.721
		c-10.75-16.133-37.371-50.613-44.78-75.31C372.833,550.229,354.874,572.76,354.727,575.388z"/>
	<path fill="#2F5D2D" d="M700.751,461.948c0,0-23.097,0-32.481-2.804c-9.384-2.801-9.756-16.409-15.693-26.616
		c-5.94-10.205-7.92-10.205-8.58-18.611c-0.66-8.405,16.498-13.207,27.718-18.012c11.219-4.803,23.098-10.807,34.317-12.007
		c11.221-1.202,36.298,45.63,36.298,45.63C744.309,455.343,700.751,461.948,700.751,461.948z"/>
	<path fill="#4A6F3A" d="M742.125,339.786c-4.756-3.305-9.81-6.867-15.099-10.334c-0.7-0.186-1.007-0.186-1.007-0.186l-11.63,15.15
		c0,0,2.308,4.758,5.764,11.635c11.243,7.262,21.692,15.429,31.521,24.371c11.553,10.515,22.045,21.893,31.496,33.939
		c15.585,2.748,31.814,5.105,37.759,5.949C799.874,389.394,774.041,361.968,742.125,339.786z"/>
	<path fill="#2F5D2D" d="M774.447,508.178c-3.189-1.5-16.28-22.814-17.599-34.222c-1.321-11.408,12.539-13.209,21.448-14.81
		s22.769,3.401,26.727,7.604c3.961,4.204,1.321,25.216,0,28.219C803.705,497.971,777.637,509.679,774.447,508.178z"/>
	<path fill="#2F5D2D" d="M618.257,439.734c-7.92,15.608-51.916,17.211-62.15,14.408c-10.233-2.802-39.043-12.406-46.082-15.209
		s17.599-54.834,29.918-58.437c12.32-3.603,67.316,4.002,67.316,4.002C624.858,391.304,626.177,424.123,618.257,439.734z"/>
	<path fill="#2F5D2D" d="M450.188,385.7c3.521,2.001,11.44,4.803,21.119,4.403s16.277-2.002,27.277-10.574
		c10.998-8.573,28.159-11.44,31.678-13.842c3.519-2.401,5.721-1.2,11.879-3.602c6.16-2.401,0-48.031,0-48.031
		C500.783,318.058,446.668,383.699,450.188,385.7z"/>
	<path fill="#2F5D2D" d="M450.023,425.083c-3.242,5.36-24.474,27.06-27.115,27.859c-2.639,0.801-5.719,1.602-7.036-1.602
		c-1.322-3.202,27.719-54.834,27.719-54.834C451.067,403.711,453.269,419.72,450.023,425.083z"/>
	<path fill="#2F5D2D" d="M420.71,482.161c-9.681,4.002-4.4,8.805,0,21.213c4.399,12.408,5.721,10.005,15.838,11.607
		c10.12,1.602,13.641-2.4,17.602-7.605c3.959-5.202-11.881-27.617-11.881-27.617C434.351,475.757,430.39,478.157,420.71,482.161z"/>
	<path fill="#2F5D2D" d="M494.184,458.567c-0.437,2.823-3.959,3.98-7.039,6.383c-3.078,2.401-5.279,5.602-10.117,8.805
		c-4.842,3.203-11-2.801-17.162-8.005c-6.155-5.204-5.276-14.009,0-19.013c5.282-5.004,12.321-5.402,18.479-2.201
		c6.162,3.201,10.121,3.201,11.44,4.403C489.785,448.939,494.624,455.744,494.184,458.567z"/>
	<path fill="#2F5D2D" d="M437.427,620.428c-3.519,2.199-2.199,1.76-2.406,12.318s14.287,12.321,16.459,9.678
		c2.172-2.636,4.759-11.548,4.093-15.396C454.906,623.179,440.949,618.229,437.427,620.428z"/>
	<path fill="#2F5D2D" d="M559.742,310.053c0,0,3.959,30.82,6.6,36.582c2.638,5.764,14.519,7.845,19.359,10.648
		c4.838,2.8,23.758,9.606,29.918,11.606c6.159,2.001,18.039,6.004,33.437,8.005c15.397,2.002,11.44-5.202,41.796-27.217
		c30.358-22.014,5.281-33.621,5.281-33.621C624.812,281.622,559.742,310.053,559.742,310.053z"/>
	<path fill="#2F5D2D" d="M673.363,603.819c-13.198,15.84-5.632,15.885,8.25,27.057c6.537,5.262,16.504-8.799,24.424-15.84
		c7.92-7.036-4.625-24.087-8.583-25.736C693.492,587.649,686.562,587.98,673.363,603.819z"/>
	<path fill="#2F5D2D" d="M513.546,528.991c-5.39,0.1-14.078-15.209-14.078-15.209s-1.76-5.604,0-11.207
		c1.758-5.604,13.199-4.002,21.998-4.002s16.274,11.104,14.957,15.209C535.104,517.888,518.935,528.89,513.546,528.991z"/>
	<path fill="#2F5D2D" d="M675.954,494.413c-0.052,4.246-12.985,15.994-12.985,15.994s-12.592,3.521-18.992,3.269
		c-6.398-0.255-11.708-13.622-13.755-21.409c-2.048-7.784,11.134-21.612,16.414-21.913
		C651.915,470.053,676.003,490.165,675.954,494.413z"/>
	<g>
		<path fill="#EDE974" d="M874.474,526.644c0,0,6.006,5.352,14.366,0c8.359-5.351,3.079-13.129-3.079-18.518
			c-6.16-5.391-11.88,5.83-11.88,5.83L874.474,526.644z"/>
		<path fill="#D3BE2A" d="M873.156,528.123l-0.621-0.555l-0.656-14.043l0.238-0.469c0.436-0.856,4.434-8.376,10.151-8.376
			c1.699,0,3.313,0.658,4.795,1.955c3.897,3.409,8.456,8.601,8.054,13.966c-0.228,3.049-1.981,5.644-5.211,7.711
			c-2.789,1.784-5.651,2.688-8.508,2.689l0,0C876.445,531.002,873.287,528.239,873.156,528.123z M875.885,514.414l0.523,11.189
			c0.877,0.556,2.642,1.438,4.991,1.438c2.087,0,4.231-0.695,6.373-2.066c2.154-1.378,3.265-2.905,3.397-4.67
			c0.215-2.872-2.232-6.768-6.713-10.688c-0.75-0.657-1.467-0.977-2.188-0.977C879.689,508.641,876.949,512.536,875.885,514.414z"/>
	</g>
	<path fill="#2F5D2D" d="M380.299,537.407c0.063,0.037,0.123,0.082,0.188,0.117c12.403,6.774,24.632,13.717,37.675,19.209
		c16.873,7.105,35.119,10.879,53.11,13.927c19.916,3.374,40.035,5.535,60.201,6.642c39.121,2.148,78.305,0.796,117.432-0.395
		c19.728-0.602,39.488-0.537,59.201-1.607c20.237-1.1,40.409-3.25,60.453-6.256c18.357-2.752,36.521-5.971,54.292-11.388
		c8.635-2.632,17.262-5.419,26.046-7.518c2.397-0.571,4.806-1.116,7.234-1.548c1.026-0.183,2.053-0.364,3.087-0.516
		c0.1-0.015,0.193-0.028,0.279-0.042c0.17-0.013,0.392-0.034,0.69-0.064c2.05-0.201,4.084-0.478,6.136-0.646
		c2.756-0.227,5.045-1.134,7.645-1.915c4.143-1.245,7.115-4.959,7.115-9.349c0-3.111-1.78-7.034-4.801-8.368
		c-4.401-1.941-8.136-3.271-13.021-3.324c-3.813-0.041-7.599,0.515-11.371,1.026c-6.694,0.904-13.337,2.328-19.839,4.156
		c-8.715,2.449-17.32,5.277-26.062,7.623c-8.773,2.354-17.688,3.865-26.631,5.405c-5,0.859-10.006,1.675-15.024,2.413
		c-2.14,0.313-4.28,0.623-6.423,0.916c-0.641,0.084-1.757,0.233-1.886,0.251c-1.159,0.148-2.317,0.297-3.477,0.439
		c-6.759,0.826-13.53,1.55-20.312,2.16c-0.029-1.453-0.408-2.911-1.179-4.223c-2.168-3.701-6.024-4.726-10.009-4.074
		c-5.333,0.875-10.591,2.047-15.899,3.055c-2.514,0.478-5.038,0.901-7.569,1.261c-0.526,0.06-2.269,0.279-2.547,0.31
		c-1.258,0.136-2.516,0.27-3.776,0.38c-11.116,0.988-22.297,1.115-33.444,0.662c-22.808-0.925-45.39-3.123-68.024-6.06
		c-7.655-0.993-15.306-1.992-22.972-2.899c-1.16-0.137-2.319-0.272-3.479-0.408c-0.217-0.024-0.383-0.043-0.515-0.059
		c-1.951-0.274-3.902-0.553-5.85-0.85c-3.978-0.607-7.949-1.248-11.91-1.947c-17.146-3.025-34.162-6.834-50.938-11.49
		c-17.004-4.717-33.813-10.204-50.209-16.729c-2.26-0.896-4.514-1.807-6.756-2.743c-0.164-0.07-0.299-0.126-0.42-0.178
		c-0.127-0.054-0.275-0.118-0.455-0.194c-0.947-0.408-1.896-0.815-2.838-1.229c-3.74-1.644-7.463-3.33-11.146-5.095
		c-6.232-2.986-12.371-6.154-18.408-9.516c-2.799,7.75-6.056,15.348-9.695,22.759c33.664,18.446,70.571,31.537,108.019,40.627
		c-2.286-0.252-4.569-0.509-6.85-0.791c-1.159-0.144-2.317-0.287-3.476-0.439c-0.213-0.026-0.391-0.05-0.543-0.069
		c-0.193-0.027-0.447-0.064-0.789-0.113c-18.66-2.646-37.852-5.895-55.721-12.041c-2.188-0.754-4.364-1.538-6.512-2.395
		c-0.596-0.238-1.189-0.481-1.781-0.725c-0.461-0.2-1.227-0.53-1.455-0.634c-3.452-1.551-6.864-3.196-10.225-4.935
		c-7.369-3.808-14.58-7.903-21.857-11.879c-0.575-0.313-1.168-0.565-1.766-0.789c-0.742,1.412-1.492,2.821-2.261,4.218
		c-2.416,5.167-4.995,10.259-7.59,15.344C381.029,535.714,380.66,536.56,380.299,537.407z"/>
	<path fill="#1C2E17" d="M596.843,707.554c-1.899-2.878-11.229-9.796-28.185-16.108c-13.396-4.989-35.145-10.936-62.67-10.936
		c-22.293,0-44.381,3.945-65.653,11.725c-1.068,0.392-2.279,0.582-3.701,0.582c-9.176,0-32.447-10.241-33.961-19.578
		c-1.019-6.265-8.543-26.673-13.181-34.721c-3.127-5.43-11.467-15.356-18.825-24.115c-3.546-4.22-6.894-8.204-9.455-11.44
		c-7.746-9.786-11.617-15.795-12.672-23.474c-1.009-7.351,4.432-13.501,11.963-22.017c0.972-1.1,1.983-2.245,3.022-3.438
		c5.305-6.096,13.576-24.221,19.615-37.453c3.108-6.811,5.793-12.693,7.727-16.282c5.474-10.147,20.435-46.583,32.67-79.563
		c8.576-23.115,24.055-41.352,35.357-54.666c4.684-5.518,8.729-10.283,11.215-14.128l0.146-0.227
		c9.139-14.137,14.656-22.669,90.766-47.368c18.625-6.044,38.236-9.108,58.289-9.108c42.11,0,74.952,13.306,87.316,18.315
		c1.846,0.748,3.439,1.394,4.021,1.559c7.96,2.264,45.738,25.071,63.456,39.979c18.085,15.218,64.913,80.191,77.191,109.941
		c11.863,28.736,23.646,66.306,26.125,75.736c1.029,3.921,9.152,14.282,15.086,21.848c6.773,8.634,10.654,13.67,11.678,16.733
		c2.398,7.169,0.193,19.532-2.379,24.893c-1.784,3.718-19.275,22.947-29.879,34.194c-28.775,30.519-32.777,31.247-34.486,31.56
		l-0.603,0.107l-0.604-0.082c-0.054-0.007-5.417-0.722-13.687-0.722c-20.433,0-58.173,4.281-81.366,32.952l-0.689,0.854
		l-1.036,0.359c-17.905,6.207-66.55,11.859-102.06,11.859C605.997,715.324,599.229,711.172,596.843,707.554z M822.544,661.626
		c6.75,0,11.642,0.443,13.681,0.668c8.557-4.807,55.877-56.395,58.658-61.372c2.167-4.516,3.537-14.606,2.021-19.137
		c-0.654-1.957-6.08-8.874-10.438-14.434c-9.084-11.584-15.138-19.556-16.472-24.634c-1.804-6.867-13.281-44.446-25.795-74.759
		c-11.698-28.346-57.909-92.582-75.039-106.996c-17.354-14.604-54.258-36.662-60.612-38.47c-0.98-0.278-2.419-0.861-4.804-1.828
		c-11.985-4.856-43.819-17.754-84.435-17.754c-19.246,0-38.061,2.938-55.92,8.734c-73.515,23.856-78.474,31.526-86.688,44.233
		l-0.146,0.228c-2.758,4.265-6.952,9.206-11.809,14.928c-10.935,12.88-25.907,30.519-34.015,52.368
		c-12.548,33.826-27.401,69.955-33.108,80.537c-1.814,3.363-4.449,9.139-7.5,15.825c-6.582,14.423-14.774,32.37-20.81,39.307
		c-1.052,1.21-2.078,2.369-3.063,3.483c-5.941,6.721-10.637,12.029-10.107,15.89c0.732,5.327,3.322,9.942,11.086,19.753
		c2.492,3.148,5.805,7.092,9.312,11.267c7.564,9.002,16.137,19.206,19.602,25.224c5.196,9.018,12.959,30.265,14.098,37.281
		c0.976,3.456,18.032,13.172,26.394,13.172c0.729,0,1.031-0.102,1.063-0.114c22.121-8.089,45.099-12.19,68.291-12.19
		c50.646,0,90.238,19.85,97.25,30.479c0.138,0.177,3.694,4.335,34.156,4.335c34.178,0,80.493-5.247,98.535-11.099
		C761.17,666.188,800.951,661.625,822.544,661.626z"/>
	<g>
		<path fill="#333333" d="M724.962,358.909l-17.732-11.834c0,0-27.665,59.396-27.549,61.168c0.117,1.772,19.312,16.356,22.96,10.487
			C706.288,412.864,724.963,358.909,724.962,358.909z"/>
		<path fill="#171717" d="M685.808,416.93c-5.69-3.794-8.638-6.658-8.76-8.515c-0.058-0.854-0.161-2.447,27.79-62.455l1.299-2.789
			l21.988,14.674l-0.667,1.927c-1.922,5.551-18.879,54.407-22.574,60.353c-0.612,0.983-2.096,2.63-5.183,2.631l0,0
			C695.437,422.756,689.792,419.588,685.808,416.93z M708.326,350.98c-9.547,20.533-23.386,50.683-25.736,56.804
			c2.693,2.742,12.584,9.691,17.111,9.691c0.355,0,0.648-0.058,0.698-0.138c2.486-4,13.903-35.772,21.401-57.365L708.326,350.98z"/>
	</g>
	<g>
		<path fill="#333333" d="M514.863,355.659c3.301,0,5.28,57.418,5.28,57.418s16.939,3.733,20.568-1.871
			c6.099-9.416-10.011-55.547-10.011-55.547S511.563,355.659,514.863,355.659z"/>
		<path fill="#171717" d="M519.574,415.654l-1.997-0.44l-0.072-2.047c-0.859-24.943-2.757-52.626-4.445-55.773
			c0.14,0.255,0.644,0.746,1.42,0.874v-5.249h18.097l0.619,1.77c2.761,7.908,16.209,47.857,9.731,57.852
			c-1.871,2.891-5.744,4.295-11.84,4.295C525.449,416.936,519.813,415.707,519.574,415.654z M518.791,358.299
			c0.33,1.582,0.615,3.567,0.91,6.016c0.582,4.812,1.145,11.503,1.676,19.887c0.697,11.016,1.154,22.143,1.328,26.672
			c2.004,0.338,5.236,0.782,8.383,0.782c5.742,0,7.123-1.443,7.408-1.885c3.604-5.565-3.319-32.819-9.677-51.473H518.791z"/>
	</g>
	<g>
		<path fill="#464646" d="M565.68,305.502c-8.797,7.478-15.838,27.718-21.117,46.857c-5.281,19.139-51.367,10.998-61.926,5.72
			c-10.561-5.28-12.811-17.997-12.811-26.577s27.219-20.06,39.758-21.858c12.539-1.798,25.738-2.821,42.236-10.741
			c16.5-7.919,5.721-22.02,15.62-30.047c15.518-12.588,15.396,30.047,15.396,30.047S572.599,299.622,565.68,305.502z"/>
		<path fill="#333333" d="M481.456,360.439c-4.291-2.145-14.271-9.259-14.271-28.938c0-11.095,29.904-22.734,42.023-24.472
			c1.487-0.213,2.983-0.416,4.496-0.62c11.207-1.516,22.799-3.083,36.973-9.888c8.01-3.843,8.475-9.044,9.014-15.065
			c0.44-4.91,0.938-10.475,6.086-14.651c2.386-1.935,4.71-2.915,6.908-2.915c2.028,0,3.937,0.838,5.517,2.423
			c7.14,7.161,7.284,30.014,7.276,32.597l-0.008,2.454l-2.447,0.172c-0.094,0.006-9.446,0.719-15.633,5.978
			c-6.69,5.688-13.515,21.012-20.283,45.548c-2.522,9.144-12.754,13.976-29.584,13.976
			C503.843,367.038,487.829,363.627,481.456,360.439z M574.461,270.045c-0.779-0.781-1.387-0.871-1.777-0.871
			c-0.943,0-2.182,0.599-3.582,1.735c-3.416,2.769-3.742,6.411-4.154,11.021c-0.565,6.332-1.271,14.211-11.985,19.354
			c-14.927,7.165-27.478,8.862-38.552,10.36c-1.495,0.202-2.978,0.402-4.452,0.614c-15.818,2.267-37.494,14.224-37.494,19.245
			c0,5.574,1.108,19.094,11.354,24.216c4.938,2.469,19.781,6.04,33.705,6.04c8.105,0,22.068-1.312,24.494-10.101
			c7.254-26.296,14.229-41.602,21.953-48.167c5.406-4.595,12.5-6.302,16.201-6.908C579.951,287.495,578.341,273.934,574.461,270.045
			z"/>
	</g>
	<g>
		<path fill="#464646" d="M787.139,358.573c-3.545-0.85-10.623-12.137-21.012-10.432c-5.696,0.934-22.499,21.128-33.173,15.221
			c-2.69-1.488-6.558-3.56-10.944-6.187c-13.02-7.796-30.609-20.494-35.487-37.399c-6.519-22.6,4.518-41.562,46.696-8.04
			c42.177,33.522,59.335,1.136,73.188,5.451C826.046,323.309,795.187,360.501,787.139,358.573z"/>
		<path fill="#171717" d="M731.678,365.673l-1.604-0.883c-2.586-1.418-5.803-3.183-9.42-5.349
			c-20.688-12.389-32.683-25.124-36.667-38.933c-2.923-10.132-2.329-18.96,1.63-24.221c2.638-3.506,6.666-5.36,11.646-5.36
			c9.301,0,21.952,6.305,37.6,18.743c12.532,9.961,23.759,14.804,34.319,14.804c8.696,0,15.528-3.259,21.556-6.134
			c4.723-2.252,8.801-4.196,12.938-4.196c1.218,0,2.401,0.175,3.519,0.523c6.254,1.95,9.122,6.809,8.075,13.684
			c-1.334,8.767-8.383,17.853-11.352,21.353c-2.306,2.717-10.278,11.581-16.125,11.581c-0.439,0-0.866-0.049-1.268-0.145
			c-1.757-0.421-3.418-1.895-5.521-3.76c-3.401-3.018-7.635-6.774-12.742-6.774c-0.564,0-1.139,0.047-1.707,0.141
			c-1.225,0.2-4.712,2.923-7.514,5.111c-6.404,5.001-14.375,11.225-21.75,11.225C735.257,367.083,733.367,366.608,731.678,365.673z
			 M784.507,353.432c1.138,1.01,2.699,2.394,3.282,2.574c4.553,0,20.481-16.785,22.257-28.449c0.833-5.474-1.929-7.07-4.427-7.848
			c-3.222-1.006-7.489,0.956-12.611,3.397c-6.21,2.961-13.938,6.647-23.828,6.647c-11.8,0-24.101-5.217-37.604-15.95
			c-18.299-14.544-28.761-17.597-34.314-17.597c-3.35,0-5.78,1.066-7.428,3.256c-2.907,3.864-3.197,11.186-0.775,19.583
			c3.547,12.291,15.09,24.358,34.309,35.866c3.53,2.114,6.698,3.853,9.244,5.249l1.621,0.892c0.912,0.505,1.912,0.75,3.059,0.75
			c5.558,0.001,13.039-5.84,18.501-10.104c4.695-3.667,7.471-5.761,9.907-6.16c0.85-0.14,1.711-0.21,2.562-0.21
			C775.374,345.327,780.871,350.204,784.507,353.432z"/>
	</g>
	<g>
		<g>
			<path fill="#C6BFB6" d="M529.824,405.836c4.565,0,4.565-7.08,0-7.08C525.258,398.756,525.258,405.836,529.824,405.836
				L529.824,405.836z"/>
		</g>
	</g>
	<path fill="#C6BFB6" d="M530.074,383.567c-0.692-0.541-1.312-0.924-2.231-0.924c-0.834,0-1.642,0.335-2.229,0.925
		c-0.96,0.957-1.275,2.652-0.494,3.822c0.102,0.154,0.188,0.302,0.264,0.469c-0.107-0.257-0.217-0.516-0.326-0.774
		c0.106,0.287,0.211,0.553,0.258,0.857c-0.039-0.29-0.078-0.58-0.117-0.87c0.039,0.383,0.037,0.775,0.142,1.152
		c0.183,0.666,0.485,1.001,0.905,1.527c0.688,0.86,2.103,1.095,3.104,0.82c0.851-0.235,1.414-0.764,1.908-1.467
		C532.415,387.451,531.555,384.723,530.074,383.567L530.074,383.567z"/>
	<path fill="#C6BFB6" d="M691.841,407.134c0.54,0.715,1.288,0.869,2.145,0.634c0.281-0.076,0.889-0.344,1.154-0.541
		c0.375-0.28,0.829-0.526,1.134-0.878c0.48-0.553,0.776-1.137,0.997-1.825c0.454-1.412-0.516-2.968-1.9-3.349
		c-1.207-0.332-2.421,0.214-3.073,1.251C691.444,403.776,690.771,405.72,691.841,407.134L691.841,407.134z"/>
	<g>
		<g>
			<path fill="#C6BFB6" d="M700.941,391.878c3.977,0,3.977-6.165,0-6.165C696.966,385.713,696.966,391.878,700.941,391.878
				L700.941,391.878z"/>
		</g>
	</g>
	<g>
		<path fill="#EDE974" d="M439.183,500.158c17.25,6.82,96.422,21.932,122.82,27.213c26.398,5.279,115.644,10.179,145.123,9.74
			c29.478-0.441,121.854-6.222,121.854-6.222s0.458,4.459-5.702,7.1c-6.158,2.64-42.552,3.339-53.461,5.934
			c-13.058,3.106-76.568,4.337-93.862,2.81c-25.354-2.242-110.796-6.312-133.679-10.854c-18.062-3.584-91.209-18.07-115.078-27.031
			c-19.577-7.349-29.418-13.101-37.899-20.522c-5.654-4.949,4.127-11.05,5.889-11.05
			C395.187,477.275,405.091,486.677,439.183,500.158z"/>
		<path fill="#D3BE2A" d="M675.783,548.705c-7.84-0.693-21.455-1.562-37.223-2.569c-35.978-2.296-80.753-5.154-96.667-8.312
			l-0.336-0.067c-75.36-14.951-104.16-22.964-115.053-27.053c-18.449-6.925-29.246-12.782-38.51-20.887
			c-2.259-1.979-2.968-4.493-1.992-7.086c1.5-3.993,7.081-7.435,9.186-7.435l0.787,0.004l0.57,0.535
			c0.099,0.092,10.217,9.373,43.369,22.483c14.866,5.877,76.705,18.073,109.928,24.627c4.894,0.964,9.158,1.806,12.553,2.484
			c24.611,4.921,106.904,9.729,140.716,9.729c1.427,0,2.761-0.008,3.988-0.027c29.094-0.435,120.836-6.159,121.76-6.217l1.898-0.119
			l0.193,1.894c0.024,0.24,0.521,5.943-6.892,9.119c-3.299,1.414-12.5,2.177-27.263,3.264c-10.566,0.776-21.492,1.582-26.521,2.776
			c-10.201,2.428-47.031,3.519-69.927,3.519C689.341,549.367,680.615,549.132,675.783,548.705z M707.156,539.092
			c-1.244,0.019-2.6,0.028-4.047,0.028c-0.002,0-0.001,0-0.003,0c-33.96,0-116.684-4.846-141.491-9.807
			c-3.391-0.679-7.651-1.519-12.543-2.483c-33.346-6.577-95.416-18.819-110.616-24.83c-28.986-11.463-40.662-19.997-43.752-22.528
			c-1.526,0.704-4.526,2.841-5.089,4.933c-0.158,0.592-0.189,1.404,0.984,2.432c8.99,7.865,19.098,13.329,37.295,20.16
			c10.752,4.037,39.334,11.977,114.432,26.876l0.337,0.066c15.655,3.106,62.178,6.077,96.146,8.245
			c15.793,1.01,29.431,1.881,37.318,2.577c4.724,0.417,13.325,0.646,24.221,0.646c26.293,0,60.155-1.304,69.011-3.409
			c5.338-1.27,16.424-2.086,27.146-2.875c10.81-0.796,23.064-1.697,25.992-2.952c2.23-0.956,3.36-2.148,3.932-3.138
			C811.02,533.983,733.523,538.698,707.156,539.092z"/>
	</g>
	<g>
		<path fill="#EDE974" d="M722.967,552.951c-18.717,2.918-74.355,2.2-186.991-4.399c-112.629-6.601-150.028-43.118-154.43-47.517
			c-4.396-4.401-6.482,3.084-2.523,11.885c3.959,8.8,23.748,30.608,88.437,39.754c62.365,8.817,96.353,7.92,195.346,11.879
			c98.994,3.959,210.631-31.842,218.111-37.56c7.479-5.72-3.521-13.64-3.521-13.64C874.759,523.912,741.682,550.032,722.967,552.951
			z"/>
		<path fill="#D3BE2A" d="M662.727,566.53c-23.085-0.925-42.607-1.582-59.835-2.162c-56.604-1.909-87.785-2.96-135.709-9.735
			c-72.735-10.283-87.703-35.875-89.965-40.9c-2.535-5.64-3.006-11.334-1.172-14.173c0.754-1.163,1.867-1.805,3.135-1.805
			c1.254,0,2.522,0.633,3.767,1.879c3.61,3.608,14.347,13.024,36.024,22.521c30.701,13.448,70.107,21.666,117.123,24.421
			c68.285,4.001,119.163,6.028,151.225,6.028c16.604,0,28.494-0.542,35.345-1.608c9.566-1.492,47.207-8.729,82.065-16.67
			c64.636-14.726,70.289-20.5,70.747-21.451l0.708-2.834l2.37,1.707c0.702,0.506,6.869,5.101,6.947,10.528
			c0.023,1.672-0.543,4.118-3.383,6.291c-4.147,3.169-32.454,12.812-69.138,21.319c-33.347,7.732-83.767,16.951-134.595,16.951
			C673.08,566.837,667.81,566.733,662.727,566.53z M806.652,537.947c-35.257,8.059-73.574,15.431-83.382,16.959
			c-7.05,1.099-19.146,1.655-35.953,1.655c-32.138,0-83.097-2.029-151.458-6.034c-106.051-6.216-145.998-38.383-155.715-48.095
			c-0.379-0.379-0.668-0.571-0.828-0.659c-0.586,0.953-0.922,4.924,1.51,10.332c1.296,2.877,14.732,28.402,86.908,38.606
			c47.713,6.745,78.818,7.794,135.289,9.697c17.231,0.581,36.762,1.239,59.859,2.163c5.032,0.201,10.249,0.304,15.503,0.304
			c94.638,0,194.754-32.434,201.326-37.458c1.245-0.951,1.844-1.96,1.829-3.083c-0.028-2.156-2.098-4.563-3.771-6.104
			C873.98,519.537,860.208,525.705,806.652,537.947z"/>
	</g>
</g>
</svg>
