<?xml version="1.0" encoding="utf-8"?>
<!-- Generator: Adobe Illustrator 16.0.0, SVG Export Plug-In . SVG Version: 6.00 Build 0)  -->
<!DOCTYPE svg PUBLIC "-//W3C//DTD SVG 1.1//EN" "http://www.w3.org/Graphics/SVG/1.1/DTD/svg11.dtd">
<svg version="1.1" id="Layer_1" xmlns="http://www.w3.org/2000/svg" xmlns:xlink="http://www.w3.org/1999/xlink" x="0px" y="0px"
	 width="2272px" height="2272px" viewBox="0 0 2272 2272" enable-background="new 0 0 2272 2272" xml:space="preserve">
<g>
	<path fill="#EEB239" d="M1513.033,1023.48c0,0,47.352-218.551,45.18-270.723c-3.887-93.193,15.533-384.422-310.646-450.43
		c-336.664-68.133-496.611,269.766-496.611,269.766c-39.246,161.25-25.969,162.061-5.594,246.676
		c36.98,153.607,153.529,223.906,179.121,300.668c25.586,76.768-159.934,300.682-121.547,390.232
		c38.381,89.564,92.758,108.756,137.535,255.891c16.361,53.766,13.072,196.207,13.072,196.207s6.377,41.967,47.795,39.379
		c44.002-2.748,39.082-40.312,39.082-40.312s34.393-298.006,34.393-393.588C1074.82,1388.121,1313.297,1458.465,1513.033,1023.48z"
		/>
	<path fill="#B05A29" d="M948.01,1726.277c-17.859-66.945-53.842-114.82-85.586-157.057c-23.566-31.348-43.906-58.418-52.949-87.553
		c-17.344-55.877,50.398-159.303,86.791-214.867c6.748-10.297,12.572-19.195,17.287-26.811c3.219-5.193,6.336-10.096,9.307-14.762
		c27.521-43.254,47.41-74.504,8.113-134.766c-8.895-13.635-18.156-28.539-27.969-44.322
		c-31.303-50.371-70.268-113.066-126.514-180.963c-76.15-91.906-0.947-273.68,2.289-281.375c3.236-7.68-0.373-16.529-8.055-19.766
		c-7.688-3.234-16.535,0.369-19.766,8.055c-13.41,31.842-29.898,84.674-35.994,137.469c-8.646,74.953,4.23,133.791,38.281,174.881
		c54.932,66.309,93.299,128.035,124.115,177.633c9.906,15.926,19.248,30.969,28.32,44.879
		c28.676,43.969,18.609,59.789-8.293,102.066c-3.031,4.766-6.223,9.771-9.51,15.082c-4.504,7.281-10.234,16.031-16.873,26.16
		c-41.859,63.914-111.928,170.893-90.373,240.352c10.6,34.141,33.453,64.551,57.654,96.746
		c30.096,40.039,64.209,85.426,80.551,146.699c22.516,84.441,33.377,160.555,32.609,227.721
		c8.473,31.607,20.102,31.688,30.152,31.607C982.334,1923.496,971.146,1813.055,948.01,1726.277z"/>
	<path fill="#B05A29" d="M1171.119,1437c49.248-22.398,298.596-152.535,370.824-516.484c1.625-8.178-3.691-16.119-11.863-17.742
		c-8.178-1.625-16.121,3.693-17.746,11.867c-69.361,349.49-306.816,473.551-353.711,494.875
		c-103.91,47.227-111.986,153.396-111.986,184.811c0,46.627-6.17,258.318-16.814,391.293c10.107-0.158,20.711-7.766,29.461-25.156
		c10.574-133.834,17.539-319.553,17.539-366.135C1076.822,1567.473,1083.629,1476.766,1171.119,1437z"/>
	<path fill="#B05A29" d="M1134.014,1006.246c-15.43-18.83-45.105-27.611-66.762-36.352c-24.773-9.977-54.188-18.631-74.34-36.926
		c-20.053-18.188-12.906-51.758-35.637-68.719c-20.725-15.48-54.867-12.707-77.969-5.041c-26.76,8.869-45.689,31.498-63.385,52.336
		c-9.727-0.293-19.35,9.166-12.148,18.984c20.043,27.363,35.658,58.061,53.807,86.682c12.578,19.859,33.871,60.992,59.742,66.566
		c29.938,6.441,60.682-15.309,90.768-14.518c40.207,1.055,82.219,19.375,117.305-9.877
		C1142.998,1044.727,1149.357,1024.99,1134.014,1006.246z"/>
	<path fill="#B05A29" d="M1274.332,1280.094c-18.842-24.199-44.67-34.947-72.686-18.979c-26.691,15.223-44.496,44.271-65.33,66.025
		c-10.193,10.646-20.336,18.027-34.74,21.664c-15.182,3.812-31.152,2.262-46.201,7.031c-35.152,11.16-44.221,56.625-39.479,88.387
		c4.322,28.916,23.672,58.023,49.225,72.188c12.924,7.158,24.613-9.012,17.816-18.836c2.371-2.131,4.586-4.318,6.584-6.168
		c12.807-11.836,24.732-24.674,36.947-37.117c22.127-22.52,44.291-47.086,74.221-58.928c26.617-10.555,56.357-17.383,77.859-37.42
		C1302.506,1335.621,1291.844,1302.594,1274.332,1280.094z"/>
	<path fill="#B05A29" d="M954.885,1573.816c-26.373-35.434-62.818-32-101.707-24.941c-8.32,1.508-10.732,8.555-9.039,14.891
		c-5.156,4.598-7.143,12.504-0.566,18.504c26.551,24.217,39.967,60.91,63.357,88.096c19.338,22.477,53.412,23.795,64.451-8.068
		C980.867,1634.965,971.938,1596.715,954.885,1573.816z"/>
</g>
</svg>
