<?xml version="1.0" encoding="utf-8"?>
<!-- Generator: Adobe Illustrator 16.0.0, SVG Export Plug-In . SVG Version: 6.00 Build 0)  -->
<!DOCTYPE svg PUBLIC "-//W3C//DTD SVG 1.1//EN" "http://www.w3.org/Graphics/SVG/1.1/DTD/svg11.dtd">
<svg version="1.1" xmlns="http://www.w3.org/2000/svg" xmlns:xlink="http://www.w3.org/1999/xlink" x="0px" y="0px" width="140px"
	 height="140px" viewBox="0 0 140 140" enable-background="new 0 0 140 140" xml:space="preserve">
<g id="temp_x5F_gray">
	<rect x="-5961" y="-5233" fill="#B3B3B3" width="9615" height="7719"/>
</g>
<g id="art">
	<g id="Outfit-M-White-Arm-L">
		<path fill="#FDF1D3" d="M57.66,16.483c-2.971,4.708-4.481,10.263-5.479,15.689c-1.256,6.832-1.677,13.808-1.756,20.745
			c-0.174,15.106,1.284,30.229,3.325,45.182c1.417,10.376,3.146,20.717,5.229,30.981c0.223,1.094,0.447,2.188,0.686,3.279
			c4.352-1.319,8.703-2.639,13.054-3.958c2.793-0.847,5.587-1.693,8.38-2.541c0.433-0.131,2.732-0.503,2.783-1.013
			c0.971-9.622,1.941-19.244,2.911-28.866c0.214-2.118,0.214-4.276,0.313-6.401c0.266-5.621,0.531-11.242,0.796-16.863
			c0.525-11.134,1.051-22.267,1.576-33.401c0.037-0.775,0.073-1.55,0.11-2.325c0.016-0.327-0.141-0.733-0.207-1.05
			c-0.227-1.092-0.476-2.179-0.743-3.261c-0.853-3.452-1.877-6.87-3.164-10.186c-1.364-3.515-3.019-7.08-5.488-9.968
			c-1.638-1.915-3.648-3.323-6.216-3.554c-2.598-0.234-5.2,0.59-7.524,1.682C63.133,12.117,60.188,14.149,57.66,16.483"/>
		<path fill="#CABE9B" d="M76.834,30.191c-0.517,1.324-0.692,2.814-0.904,4.209c-0.372,2.446-0.644,4.907-0.896,7.368
			c-0.693,6.785-1.195,13.589-1.663,20.392c-0.84,12.213-1.51,24.437-2.139,36.663c-0.164,3.172-0.334,6.343-0.307,9.52
			c0.025,2.995,0.206,5.996,0.671,8.957c0.22,1.403,0.504,2.797,0.869,4.169c0.312,1.176,0.603,2.469,1.269,3.506
			c1.746,2.717,5.812,2.819,7.998,0.586c1.474-1.504,1.355-3.351,1.223-5.306c-0.217-3.223-0.436-6.446-0.56-9.675
			c-0.222-5.77,0.075-11.463,0.448-17.213c0.428-6.595,0.895-13.188,1.369-19.78c0.905-12.533,1.758-25.08,2.932-37.59
			c0.238-2.528,0.624-4.943-1.305-7C83.156,26.136,78.369,26.244,76.834,30.191C74.256,36.801,79.258,23.96,76.834,30.191z"/>
		<path fill="#645245" d="M61.512,125.266c-2.035-12.969-3.389-26.04-4.225-39.139c-0.799-12.528-1.507-25.163-1.338-37.72
			c0.057-4.221,0.25-8.442,0.669-12.644c0.431-4.32,1.231-8.566,1.968-12.84c0.567-3.292,1.152-6.856,3.774-9.199
			c2.094-1.871,4.96-2.304,7.64-1.7c0-2.472,0-4.944,0-7.416c0-0.088,0.07-0.677-0.028-0.723c-0.757-0.349-2.056-0.18-2.871-0.183
			c-2.023-0.008-4.053,0.332-5.917,1.134c-7.213,3.103-9.771,11.741-11.079,18.795c-2.146,11.579-2.415,23.559-2.243,35.302
			c0.188,12.958,0.906,25.952,2.057,38.86c0.893,10.029,2.229,19.982,3.666,29.944c0.311,2.15,0.949,5.949,3.887,5.678
			c0.936-0.086,1.84-0.518,2.732-0.785c1.264-0.378,2.545-0.697,3.837-0.963c2.475-0.509,4.993-0.83,7.52-0.924
			c-0.12-1.421-0.215-2.844-0.316-4.267c-0.056-0.776-0.112-1.552-0.177-2.327c-0.617,0.024-1.234,0.054-1.851,0.09
			C66.643,124.391,64.011,124.598,61.512,125.266C58.906,108.662,64.224,124.541,61.512,125.266z"/>
		<path fill="#645245" d="M92.656,32.601c0.031,0.275,0.066,0.551,0.094,0.827c-0.024-0.241-0.342-1.889-0.338-1.893
			c-0.143,0.136-0.058,0.61-0.039,0.773c-0.756-6.478-2.448-13.118-6.151-18.576C82.449,8.172,76.666,4.711,70,3.911
			c0,2.472,0,4.944,0,7.416c0,0.501-0.159,0.664,0.363,0.756c1.225,0.216,2.41,0.623,3.537,1.142
			c1.768,0.812,3.376,1.945,4.736,3.335c5.646,5.773,6.711,14.746,6.964,22.434c0.084,2.554,0.058,5.11-0.009,7.665
			c0.004-0.167,0.11,0.57,0.08,0.756c0.02-0.116,0.015-0.243,0.018-0.359c-0.385,13.116-2.448,26.17-3.649,39.226
			c-0.603,6.552-1.141,13.11-1.558,19.677c-0.209,3.284-0.388,6.57-0.529,9.857c-0.067,1.579-0.127,3.159-0.177,4.739
			c-0.025,0.791-0.048,1.581-0.068,2.372c-0.01,0.396-0.02,0.791-0.028,1.187c-0.513,0-1.025-0.003-1.538-0.007
			c-0.656-0.005-7.079,0.001-7.074,0.044c0.291-0.01,0.32,3.403,0.341,3.877c0.033,0.777,0.069,1.554,0.125,2.329
			c0.037,0.508,0.058,0.383,0.476,0.394c-0.148-0.004-0.298-0.004-0.445-0.006c3.486,0.145,7.057,0.633,10.521-0.01
			c1.309-0.243,2.891-0.706,3.588-1.953c0.43-0.77,0.327-1.663,0.334-2.511c0.014-1.706,0.049-3.411,0.104-5.116
			c0.424-13.151,1.996-26.226,3.473-39.29c0.926-8.195,1.982-16.383,2.781-24.591C93.162,49.08,93.562,40.802,92.656,32.601
			C92.744,33.378,94.254,47.067,92.656,32.601z"/>
	</g>
</g>
<g id="staging">
</g>
</svg>
