<?xml version="1.0" encoding="utf-8"?>
<!-- Generator: Adobe Illustrator 16.0.0, SVG Export Plug-In . SVG Version: 6.00 Build 0)  -->
<!DOCTYPE svg PUBLIC "-//W3C//DTD SVG 1.1//EN" "http://www.w3.org/Graphics/SVG/1.1/DTD/svg11.dtd">
<svg version="1.1" xmlns="http://www.w3.org/2000/svg" xmlns:xlink="http://www.w3.org/1999/xlink" x="0px" y="0px" width="140px"
	 height="140px" viewBox="0 0 140 140" enable-background="new 0 0 140 140" xml:space="preserve">
<g id="temp_x5F_gray">
	<rect x="-7578" y="-5233" fill="#B3B3B3" width="9615" height="7719"/>
</g>
<g id="art">
	<g id="Outfit-M-RobinHd-Arm-R">
		<path fill="#B89A58" d="M83.732,127.628c-3.813-0.973-7.684-1.757-11.564-2.408c-3.236-0.543-6.498-0.982-9.775-1.185
			c-2.877-0.177-5.881-0.248-8.705,0.425c-0.328-12.501-0.705-25.002-1.07-37.503c-0.354-12.103-0.711-24.206-1.07-36.309
			c-0.183-6.176,0.062-12.324,1.25-18.411c1.084-5.555,2.897-11.512,6.859-15.73c4.314-4.592,11.144-5.557,16.778-2.82
			c5.563,2.702,8.786,8.546,10.528,14.242c0.576,1.883,1.25,3.947,1.156,5.943c-0.369,7.889-0.738,15.778-1.107,23.667
			c-0.604,12.914-1.209,25.828-1.812,38.743c-0.444,9.494-0.889,18.987-1.333,28.481C83.822,125.718,83.777,126.673,83.732,127.628z
			"/>
		<path fill="#8A6F5E" d="M83.158,120.28c2.162-10.126,2.828-20.285,2.637-30.615c-0.181-9.785-0.165-19.452,1.408-29.145
			c0.412-2.543,1.088-5.075,1.277-7.648c0.148-2.027,0.055-4.073-0.182-6.09c-0.381-3.246-0.984-7.079-2.84-9.86
			c-0.385-0.578-1.096-1.438-1.884-1.03c-1.141,0.59-1.464,2.542-1.78,3.619c-1.479,5.014-2.555,10.15-3.49,15.29
			c-1.922,10.561-2.926,21.252-3.506,31.964c-0.546,10.101-0.773,20.215-1.77,30.287c-0.158,1.595-0.332,3.188-0.521,4.78
			c-0.137,1.152-0.318,2.309-0.084,3.461c0.304,1.487,1.351,2.605,2.908,2.696C79.384,128.228,82.416,123.752,83.158,120.28
			C89.055,92.661,81.369,128.649,83.158,120.28z"/>
		<path fill="#645245" d="M69.101,121.173c-2.782-0.354-5.574-0.63-8.366-0.9c-0.66-0.064-1.32-0.127-1.981-0.189
			c-0.314-0.03-0.629-0.06-0.943-0.09c-0.511-0.048-0.299-0.384-0.292-0.821c0.027-1.712,0.037-3.424,0.033-5.136
			c-0.012-6.555-0.224-13.107-0.467-19.657C57.031,92.954,56.601,77,56.381,77c-2.413,0-4.826,0-7.238,0c-0.021,0-0.041,0-0.062,0
			c0.407,12.629,1.005,25.304,0.864,37.941c-0.018,1.524-0.051,3.048-0.088,4.571c-0.033,1.328-0.248,2.782-0.042,4.098
			c0.31,1.971,2.133,2.942,3.896,3.401c2.24,0.583,4.625,0.63,6.92,0.827c2.84,0.244,5.684,0.476,8.511,0.837
			C69.17,126.175,69.178,123.673,69.101,121.173C65.584,120.726,69.177,123.662,69.101,121.173z"/>
		<path fill="#645245" d="M90.155,37.645c-0.803-9.952-3.19-22.241-12.989-27.277c-4.238-2.179-10.154-1.568-14.367,0.383
			c-3.454,1.6-6.334,4.241-8.426,7.401c-4.424,6.684-5.605,15.119-6.002,22.958c-0.445,8.798,0.135,17.655,0.413,26.45
			c0.083,2.625,0.165,5.249,0.248,7.874C49.045,75.853,48.768,77,49.316,77c0.408,0,0.816,0,1.224,0c1.968,0,3.935,0,5.901,0
			c-0.46-12.391-1.613-24.877-0.615-37.265c0.74-9.194,1.968-21.732,12.752-24.455c6.982-1.763,11.547,4.017,13.809,9.861
			c1.268,3.274,2.041,6.744,2.464,10.225c0.451,3.711,0.222,7.289,0.003,11.01c-0.754,12.8-0.875,25.626-1.685,38.424
			c-0.819,12.962-1.825,25.912-2.763,38.865c-3.652-1.237-7.449-1.982-11.264-2.504c0.047,1.575,0.053,3.15,0.043,4.726
			c-0.004,0.788-0.013,1.576-0.021,2.364c-0.008,0.597,0.227,0.425,0.746,0.494c0.434,0.057,0.866,0.12,1.293,0.213
			c2.53,0.555,4.887,1.775,7.457,2.16c1.02,0.153,2.151,0.516,3.182,0.295c1.066-0.229,1.995-0.958,2.506-1.918
			c0.496-0.93,0.561-2.035,0.159-3.011c-0.258-0.626-0.004-1.538,0.058-2.214c0.083-0.91,0.166-1.82,0.25-2.731
			c1.197-13.15,2.3-26.311,3.311-39.477c0.564-7.364,0.994-14.732,1.455-22.103C90.045,52.536,90.764,45.082,90.155,37.645z"/>
	</g>
</g>
<g id="staging">
</g>
</svg>
