<?xml version="1.0" encoding="utf-8"?>
<!-- Generator: Adobe Illustrator 16.0.0, SVG Export Plug-In . SVG Version: 6.00 Build 0)  -->
<!DOCTYPE svg PUBLIC "-//W3C//DTD SVG 1.1 Tiny//EN" "http://www.w3.org/Graphics/SVG/1.1/DTD/svg11-tiny.dtd">
<svg version="1.1" baseProfile="tiny" xmlns="http://www.w3.org/2000/svg" xmlns:xlink="http://www.w3.org/1999/xlink" x="0px"
	 y="0px" width="440px" height="440px" viewBox="0 0 440 440" xml:space="preserve">
<g id="parts">
</g>
<g id="BGs">
</g>
<g id="Compositions">
	<g id="Gus_Up_in_Arms">
		<g>
			<path fill="#FFE9B7" d="M307.377,186.249c0,0,10.949-30.708,1.902-67.815c1.353-8.664-1.471-29.96-9.491-35.927
				c-8.022-5.966-8.367,1.455-8.367,1.455s-7.865-6.781-11.62-5.203c-2.809,1.174-3.611,6.249-3.611,6.249s-6.097-3.896-7.925,0.273
				c-1.835,4.176-0.73,9.168,4.656,17.119c1.743,0.385,2.723,4.258,2.723,4.258s-10.385-6.852-12.841-3.185
				c-2.453,3.671,2.699,9.374,2.699,9.374s1.075,10.115,5.864,12.448c4.796,2.332,8.022,5.967,8.022,5.967
				s-6.158,33.041-12.331,44.491C272.977,177.965,296.999,190.191,307.377,186.249z"/>
			<path fill="#E2A672" d="M305.018,188.65c-11.241-0.5-22.287-3.239-31.755-9.189c-2.1,0.59-4.644-0.929-4.511-3.167
				c-0.228-0.179-0.467-0.328-0.69-0.511c-3.097-2.535,0.204-7.145,3.379-5.792c4.447-10.643,6.188-22.141,8.042-33.524
				c0.882-5.418-3.894-7.875-6.62-12.322c-3.254-5.313-4.363-11.052-9.079-15.523c-3.159-2.991,1.084-8.29,4.261-5.272
				c7.759,7.362,8.952,18.6,17.97,24.799c0.969,0.665,1.407,2.071,1.216,3.187c-2.495,14.359-4.146,29.163-10.077,42.56
				c8.657,5.355,18.704,7.605,28.97,8.064C310.479,182.153,309.345,188.842,305.018,188.65z"/>
			<path fill="#8F4B22" d="M265.646,174.238c0,0,0.298-0.654,0.813-1.802c5.675-12.558,8.769-26.297,9.494-40.041
				c0.024-0.608,0.041-1.083,0.054-1.407c0.005-0.307,0.01-0.469,0.01-0.469v-0.068c0.028-1.405,1.188-2.523,2.595-2.495
				c1.404,0.032,2.52,1.192,2.489,2.596c0.003,0.035-0.001,0.078-0.002,0.114c0,0-0.014,0.195-0.036,0.563
				c-0.032,0.349-0.074,0.862-0.128,1.513c-1.227,15.004-5.825,29.48-12.575,42.794c-0.375,0.74-1.283,1.038-2.02,0.664
				C265.622,175.834,265.318,174.967,265.646,174.238z"/>
			<path fill="#8F4B22" d="M263.541,100.329c1.56-0.167,3.229,0.168,4.815,0.998l8.199,4.234c1.247,0.644,1.737,2.182,1.091,3.427
				c-0.645,1.248-2.179,1.735-3.425,1.093l-8.213-4.246c-1.049-0.548-2.027-0.616-2.688-0.199c-0.403,0.258-0.623,0.673-0.605,1.137
				c0.043,0.988,1.062,2.093,2.729,2.962c3.016,1.564,3.971,4.804,4.896,7.936c0.544,1.847,1.107,3.765,2.067,5.149
				c0.812,1.179,2.552,2.263,3.948,3.134c2.12,1.321,4.124,2.568,3.994,4.86c-0.084,1.403-1.281,2.472-2.684,2.394
				c-1.1-0.062-1.993-0.811-2.291-1.809c-0.373-0.299-1.127-0.77-1.707-1.129c-1.794-1.12-4.03-2.511-5.446-4.557
				c-1.421-2.059-2.132-4.475-2.762-6.604c-0.65-2.211-1.264-4.293-2.358-4.863c-3.35-1.739-5.339-4.383-5.467-7.256
				c-0.095-2.293,1.01-4.406,2.96-5.646C261.486,100.779,262.49,100.442,263.541,100.329z"/>
			<path fill="#8F4B22" d="M275.114,112.305c0,0-0.03-0.235-0.08-0.67c-0.037-0.476-0.16-1.015-0.279-1.691
				c-0.169-0.717-0.375-1.587-0.738-2.549c-0.357-0.961-0.829-2.02-1.45-3.15c-0.62-1.123-1.388-2.309-2.283-3.559
				c-0.896-1.256-1.929-2.543-3.01-4c-0.537-0.726-1.094-1.504-1.639-2.361c-0.54-0.864-1.074-1.82-1.455-3.004
				c-0.391-1.164-0.578-2.65-0.241-4.077c0.152-0.704,0.422-1.378,0.747-1.96c0.164-0.291,0.328-0.593,0.52-0.838l0.28-0.381
				l0.143-0.19l0.019-0.022l0.123-0.143l0.033-0.032l0.06-0.063l0.486-0.511c0.056-0.067,0.204-0.198,0.351-0.324l0.434-0.36
				c0.291-0.25,0.595-0.443,0.902-0.607c0.308-0.174,0.607-0.354,0.964-0.467c1.359-0.554,2.948-0.586,4.229-0.26
				c2.565,0.703,4.194,2.174,5.616,3.514c1.39,1.387,2.484,2.84,3.454,4.244c0.965,1.401,1.767,2.773,2.456,4.065
				c1.395,2.572,2.288,4.83,2.873,6.453c0.57,1.615,0.756,2.699,0.756,2.699c0.145,0.811-0.401,1.589-1.216,1.731
				c-0.732,0.125-1.435-0.307-1.673-0.987c0,0-0.258-0.75-0.952-2.16c-0.677-1.412-1.804-3.397-3.28-5.665
				c-1.489-2.247-3.364-4.847-5.668-6.978c-1.133-1.031-2.468-1.89-3.509-2.129c-0.507-0.096-0.867-0.057-1.241,0.104
				c-0.093,0.016-0.188,0.098-0.286,0.154c-0.107,0.057-0.198,0.114-0.256,0.179c-0.034,0.033-0.07,0.061-0.109,0.086
				c-0.037,0.022-0.072,0.036-0.169,0.147l-0.474,0.52l-0.058,0.066l-0.029,0.032c-0.104,0.12,0.122-0.138,0.096-0.109l-0.009,0.011
				l-0.065,0.095l-0.134,0.184c-0.104,0.124-0.152,0.243-0.221,0.356c-0.136,0.232-0.208,0.444-0.252,0.647
				c-0.089,0.403-0.067,0.834,0.12,1.419c0.395,1.168,1.328,2.615,2.312,3.982c0.998,1.379,2.03,2.796,2.957,4.204
				c0.94,1.402,1.754,2.833,2.405,4.214c1.332,2.764,1.865,5.364,2.083,7.152c0.1,0.951,0.124,1.694,0.11,2.101
				c-0.001,0.44-0.001,0.675-0.001,0.675c-0.005,1.038-0.85,1.878-1.892,1.875C276.014,113.959,275.223,113.232,275.114,112.305z"/>
			<path fill="#8F4B22" d="M274.845,86.863c0,0-0.051-0.147-0.139-0.428c-0.031-0.066-0.138-0.506-0.204-0.865
				c-0.091-0.428-0.084-0.726-0.109-1.155c0.002-1.606,0.452-3.773,2.125-5.776c0.838-0.978,2.033-1.977,3.701-2.43l0.636-0.133
				l0.157-0.03l0.2-0.02l0.053-0.005l0.202-0.012l0.423-0.026l0.705,0.021c0.917,0.059,1.702,0.267,2.491,0.623
				c1.566,0.7,2.684,1.832,3.575,2.885c0.904,1.078,1.591,2.104,2.33,3.078c0.742,1.006,1.486,1.981,2.213,3.074
				c0.755,1.052,1.385,2.135,2.037,3.164c0.581,1.081,1.203,2.083,1.668,3.123c0.486,1.027,0.944,1.997,1.266,2.952
				c0.172,0.471,0.342,0.92,0.496,1.35c0.122,0.447,0.231,0.87,0.339,1.272c0.212,0.798,0.396,1.491,0.45,2.103
				c0.158,1.193,0.25,1.877,0.25,1.877c0.133,1.02-0.586,1.959-1.606,2.098c-1.002,0.132-1.918-0.551-2.088-1.533l-0.047-0.265
				c0,0-0.089-0.552-0.259-1.516c-0.047-0.485-0.23-1.063-0.434-1.73c-0.101-0.333-0.201-0.688-0.312-1.062
				c-0.151-0.365-0.315-0.749-0.478-1.152c-0.297-0.813-0.738-1.664-1.204-2.564c-0.436-0.904-1.044-1.811-1.6-2.771
				c-0.632-0.929-1.253-1.915-1.963-2.836c-0.665-0.932-1.466-1.92-2.238-2.897c-0.799-0.988-1.549-2.01-2.252-2.789
				c-0.711-0.792-1.409-1.36-2.007-1.582c-0.147-0.08-0.297-0.088-0.442-0.143c-0.132-0.004-0.331-0.066-0.396-0.041
				c-0.044,0-0.087-0.006-0.133-0.018l-0.403,0.04l-0.207,0.019l-0.05,0.004l-0.028,0.004l-0.011,0.002
				c0.278-0.031,0.075-0.009,0.136-0.014l-0.04,0.014c-0.051,0.019-0.102,0.031-0.155,0.041c-0.412,0.129-0.86,0.48-1.211,0.926
				c-0.354,0.444-0.594,0.971-0.719,1.429c-0.135,0.464-0.149,0.853-0.146,1.139c0.026,0.112,0.021,0.309,0.039,0.293
				c0.025,0.056-0.046-0.021,0.04,0.179c0.101,0.277,0.153,0.423,0.153,0.423c0.484,1.318-0.199,2.784-1.518,3.265
				c-1.316,0.481-2.772-0.195-3.256-1.516C274.865,86.926,274.854,86.887,274.845,86.863z"/>
			<path fill="#8F4B22" d="M293.673,77.512c1.479-0.158,2.896,0.27,3.957,0.666c6.113,2.285,10.219,9.625,11.697,12.674
				c3.874,7.979,5.392,19.246,3.692,27.402c-0.286,1.373-1.636,2.252-3.008,1.968c-1.377-0.286-2.256-1.635-1.971-3.007
				c1.468-7.042,0.086-17.192-3.289-24.142c-1.952-4.019-5.316-8.792-8.903-10.135c-1.364-0.511-1.744-0.349-1.744-0.343
				c-0.004,0.002-0.5,0.312-0.935,2.203c-0.314,1.369-1.681,2.221-3.051,1.904c-1.367-0.315-2.221-1.681-1.902-3.051
				c0.416-1.794,1.228-4.325,3.482-5.536C292.35,77.766,293.016,77.582,293.673,77.512z"/>
			<path fill="#8F4B22" d="M282.462,166.127c0,0,0.423,0.156,1.165,0.426c0.364,0.141,0.812,0.312,1.32,0.514
				c0.509,0.209,1.084,0.438,1.698,0.622c0.613,0.202,1.272,0.425,1.979,0.659c0.676,0.268,1.455,0.442,2.233,0.662
				c0.786,0.2,1.573,0.497,2.41,0.656c0.829,0.169,1.674,0.362,2.509,0.555c0.185,0.04,0.476,0.113,0.572,0.125l0.66,0.104
				c0.438,0.07,0.876,0.143,1.314,0.211c0.429,0.074,0.861,0.149,1.287,0.221c0.4,0.042,0.802,0.086,1.192,0.128
				c0.786,0.091,1.533,0.216,2.269,0.272c0.74,0.061,1.436,0.121,2.081,0.174c0.647,0.088,1.239,0.109,1.766,0.135
				c0.529,0.032,0.991,0.061,1.375,0.085c0.76,0.055,1.2,0.11,1.2,0.11l0.104,0.016c0.746,0.096,1.272,0.775,1.176,1.521
				c-0.076,0.599-0.531,1.058-1.094,1.165c0,0-0.453,0.086-1.254,0.195c-0.402,0.051-0.89,0.111-1.453,0.182
				c-0.562,0.084-1.197,0.117-1.893,0.125c-0.694,0.004-1.449,0.012-2.25,0.014c-0.798-0.006-1.661-0.125-2.542-0.189
				c-0.438-0.047-0.891-0.098-1.342-0.145c-0.429-0.077-0.859-0.153-1.295-0.23c-0.432-0.084-0.867-0.17-1.305-0.254l-0.655-0.131
				c-0.348-0.072-0.481-0.125-0.731-0.191c-0.898-0.245-1.791-0.49-2.666-0.754c-0.875-0.25-1.704-0.617-2.517-0.916
				c-0.805-0.331-1.588-0.602-2.312-0.979c-0.713-0.362-1.394-0.704-2.018-1.022c-1.253-0.625-2.126-1.283-2.808-1.696
				c-0.657-0.437-1.029-0.688-1.029-0.688c-0.436-0.294-0.553-0.877-0.264-1.316C281.595,166.121,282.06,165.982,282.462,166.127z"
				/>
			<path fill="#8F4B22" d="M287.29,152.404c0,0,0.325,0.244,0.896,0.679c0.266,0.162,0.582,0.359,0.947,0.589
				c0.376,0.224,0.866,0.472,1.361,0.748c0.522,0.251,1.092,0.524,1.694,0.793c0.621,0.238,1.263,0.541,1.952,0.76
				c1.364,0.488,2.854,0.9,4.334,1.158l0.279,0.059l0.068,0.012l0.034,0.007c0.07,0.01-0.088-0.013-0.063-0.012l0.007,0.002
				l0.017,0.002l0.155,0.018l0.61,0.064c0.396,0.037,0.82,0.098,1.191,0.117c0.716-0.002,1.376,0.059,2.104,0.006
				c0.71-0.012,1.395-0.07,2.04-0.146c0.648-0.049,1.256-0.188,1.816-0.267c1.117-0.213,2.028-0.449,2.658-0.634
				c0.615-0.195,0.968-0.31,0.968-0.31l0.099-0.029c1.188-0.382,2.462,0.273,2.842,1.461c0.385,1.191-0.271,2.467-1.461,2.846
				c-0.043,0.015-0.088,0.028-0.131,0.041c0,0-0.434,0.108-1.191,0.303c-0.759,0.169-1.839,0.385-3.146,0.548
				c-0.655,0.057-1.356,0.166-2.115,0.182c-0.755,0.044-1.546,0.064-2.372,0.031c-0.806,0.01-1.724-0.108-2.608-0.184
				c-0.435-0.047-0.808-0.127-1.221-0.191l-0.601-0.102l-0.152-0.027l-0.111-0.016l-0.041-0.012l-0.079-0.018l-0.322-0.078
				c-1.725-0.382-3.372-0.927-4.868-1.537c-0.757-0.283-1.449-0.645-2.125-0.942c-0.659-0.33-1.278-0.662-1.847-0.971
				c-0.562-0.34-1.064-0.625-1.528-0.93c-0.461-0.326-0.865-0.609-1.199-0.844c-0.549-0.455-0.864-0.716-0.864-0.716
				c-0.669-0.556-0.765-1.551-0.207-2.222c0.54-0.651,1.491-0.757,2.165-0.253L287.29,152.404z"/>
			<path fill="#8F4B22" d="M288.479,142.234c0,0,1.373-0.307,3.444-0.681c0.56-0.045,1.158-0.091,1.796-0.143
				c0.638-0.035,1.328-0.126,2.011-0.119c0.686,0.017,1.393,0.032,2.113,0.05c0.719-0.009,1.44,0.121,2.166,0.186l1.087,0.118
				c0.476,0.052,0.723,0.126,1.09,0.189c0.677,0.134,1.343,0.265,1.984,0.39c0.64,0.126,1.297,0.313,1.89,0.477
				c0.596,0.166,1.194,0.321,1.675,0.475c0.489,0.15,0.942,0.29,1.339,0.416c0.424,0.147,0.707,0.2,0.958,0.264
				c0.508,0.124,0.801,0.225,0.801,0.225l0.339,0.114c0.654,0.217,1.008,0.927,0.793,1.579c-0.179,0.521-0.661,0.851-1.176,0.855
				c0,0-0.4,0.004-1.111-0.039c-0.349-0.024-0.81-0.045-1.218-0.118c-0.433-0.069-0.913-0.145-1.447-0.233
				c-0.51-0.088-1.058-0.186-1.635-0.289c-0.584-0.09-1.15-0.245-1.809-0.332c-0.65-0.105-1.316-0.217-1.997-0.327
				c-0.312-0.05-0.744-0.136-0.968-0.153l-0.999-0.117c-0.666-0.073-1.331-0.182-1.989-0.206c-0.659-0.042-1.309-0.082-1.934-0.122
				c-0.627-0.062-1.21-0.019-1.776-0.036c-0.563-0.006-1.1-0.011-1.592-0.014c-2.098,0.149-3.504,0.198-3.504,0.198
				c-0.73,0.029-1.342-0.544-1.367-1.272C287.422,142.922,287.867,142.365,288.479,142.234z"/>
			<path fill="#8F4B22" d="M306.106,187.643c0,0,0.215-1.088,0.587-2.981c4.324-22.085,3.983-44.321,1.316-66.593l-0.013-0.114
				c-0.167-1.394,0.828-2.658,2.222-2.825c1.396-0.169,2.661,0.83,2.826,2.223c0.002,0.011,0.003,0.035,0.007,0.049
				c0,0,0.112,1.108,0.309,3.053c0.099,0.973,0.217,2.154,0.352,3.506c2.178,21.651,0.653,43.209-3.927,64.438
				c-0.219,1.018-1.22,1.662-2.233,1.442C306.552,189.623,305.911,188.642,306.106,187.643z"/>
			<path fill="#A68772" d="M266.566,174.667c0,0,16.062,10.671,42.464,13.173c0.635,0.062-4.025,17.96-4.674,19.96
				c-3.699,11.396-12.709,21.98-24.724,24.549c-10.789,2.31-24.858-4.076-26.943-16.171c-1.189-6.897,0.479-14.118,2.892-20.565
				C256.308,193.672,266.354,174.492,266.566,174.667z"/>
			<path fill="#61442F" d="M249.879,215.787c1.761,12.578,14.307,20.456,26.455,19.828c13.889-0.721,24.934-12.226,29.652-24.573
				c1.487-3.892,2.348-8.038,3.316-12.081c0.509-2.109,1.005-4.218,1.456-6.342c0.341-1.598,0.971-3.471,0.705-5.117
				c-0.062-0.062,0.115-0.195-0.549-1.184c-1.318-0.978,0.256-0.226-1.663-0.885c-7.714-0.826-15.278-2.068-22.729-4.287
				c-3.74-1.116-7.433-2.455-11.012-4.014c-2.655-1.155-5.425-2.387-7.858-3.984l0.016,0.201c0,0-0.046-0.043-0.177-0.126
				c-0.129-0.077-0.372-0.231-0.814-0.268c-0.429-0.064-1.042,0.207-1.221,0.391c-0.903,0.813-1.483,2.115-2.097,3.145
				c-0.973,1.622-1.912,3.266-2.833,4.912c-2.064,3.668-4.154,7.321-6.086,11.061c-1.81,3.499-3.044,7.324-3.9,11.168
				C249.665,207.557,249.219,211.791,249.879,215.787z M255.074,213.37c-0.462-6.657,1.138-13.593,3.985-19.589
				c2.633-5.537,5.262-11.093,8.053-16.547l-0.731-0.468c5.639,3.498,11.896,6.129,18.175,8.224
				c7.068,2.36,14.371,4.025,21.766,4.951c-0.774,3.615-1.73,7.204-2.694,10.775c-0.887,3.305-1.709,6.621-3.111,9.754
				c-2.672,5.973-6.85,11.454-12.291,15.154c-5.786,3.953-12.736,5.403-19.508,3.38c-5.902-1.765-11.801-6.132-13.16-12.463
				c-0.055-0.268-0.116-0.542-0.177-0.81c0.001-0.006,0.001-0.004,0,0C255.261,214.947,255.175,214.16,255.074,213.37
				C254.77,208.979,255.142,213.908,255.074,213.37z"/>
		</g>
		<g>
			<polygon fill="#FFE9B7" points="205.506,337.52 207.201,355.721 197.596,355.721 196.465,336.956 			"/>
			<path fill="#966643" d="M185.166,354.592l32.205,1.128l-2.26,41.692l-48.592,1.131c0,0-3.391-9.605-1.131-15.82
				c2.26-6.217,9.604-9.606,16.387-7.911c6.781,1.694,8.477-0.565,8.477-0.565L185.166,354.592z"/>
			<path fill="#E2A672" d="M196.129,338.772c-1.635-8.434,3.143-13.472,4.586-13.487c2.877-0.028,5.188,13.754,5.609,16.639
				c0.775,5.301-8.895,6.049-10.732,1.731C195.32,343.018,196.41,340.217,196.129,338.772z"/>
			<path fill="#C48458" d="M166.967,377.984c9.811-2.626,19.584-4.287,29.004,0.425c2.389,1.195,0.664,5.389-1.836,4.348
				c-8.902-3.707-16.742-1.467-25.801,0.185C165.121,383.527,163.717,378.852,166.967,377.984z"/>
			<path fill="#8F4B22" d="M206.729,357.283c-1.234,0-2.262-0.964-2.328-2.21c-0.33-5.209-0.658-9.551-0.988-14.76
				c-0.092-1.459-0.053-2.919-0.119-4.378c-0.088-1.978-0.133-4.582-1.43-6.218c-0.432-0.54-1.033-0.876-1.725-0.923
				c-1.162-0.082-1.707,0.742-2.035,1.736c-0.717,2.182-0.625,4.764-0.277,7.008l2.559,17.239c0.369,2.984-4.258,3.564-4.633,0.576
				l-2.545-17.167c-0.574-3.599-0.582-8.124,1.492-11.261c2.742-4.152,8.932-3.446,11.33,0.609
				c1.855,3.133,1.965,7.062,1.984,10.604c0.014,2.595,0.262,5.19,0.426,7.78c0.207,3.258,0.412,5.65,0.621,8.91
				C209.129,356.146,208.047,357.283,206.729,357.283z"/>
		</g>
		<g>
			<polygon fill="#FFE9B7" points="252.402,338.462 262.574,336.767 260.314,355.978 252.402,358.802 			"/>
			<path fill="#966643" d="M245.623,355.978l29.947,2.26l-10.736,18.081c0,0,14.693-9.041,23.732-2.823
				c9.041,6.214,11.865,9.604,10.734,14.124c-1.131,4.521-6.779,10.17-6.779,10.17l-52.547-0.564L245.623,355.978z"/>
			<path fill="#E2A672" d="M253.596,340.47c0.553-2.004,0.389-14.018,5.832-13.239c4.619,0.66,3.662,9.199,4.367,11.778
				c0.512,1.848-0.615,3.587-2.367,4.168c-2.266,0.749-4.535,1.222-6.887,0.566C252.764,343.245,253.104,342.257,253.596,340.47z"/>
			<path fill="#C48458" d="M267.551,375.021c9.617-4.027,20.059-0.68,27.146,6.468c2.09,2.104-1.043,5.16-3.223,3.222
				c-6.779-6.011-14.016-7.104-22.584-4.833C265.656,380.734,264.652,376.234,267.551,375.021z"/>
			<path fill="#8F4B22" d="M251.75,358.903c-0.094,0-0.188-0.007-0.283-0.019c-1.277-0.153-2.191-1.315-2.035-2.595l2.143-17.755
				c-0.021-1.465,0.053-8.71,3.441-11.965c1.254-1.207,2.834-1.787,4.566-1.668c1.791,0.118,3.299,0.921,4.361,2.321
				c2.807,3.701,1.531,10.717,1.305,11.83l-2.533,17.473c-0.186,1.275-1.363,2.155-2.643,1.973c-1.275-0.185-2.16-1.368-1.977-2.643
				l2.547-17.54c0.006-0.048,0.014-0.096,0.025-0.145c0.508-2.462,0.709-6.615-0.443-8.129c-0.203-0.268-0.441-0.451-0.953-0.486
				c-0.436-0.025-0.715,0.079-1.023,0.376c-1.648,1.582-2.062,6.516-2.006,8.654c0.002,0.114-0.002,0.23-0.016,0.342l-2.164,17.919
				C253.92,358.033,252.914,358.903,251.75,358.903z"/>
			<g>
				<path fill="#61442F" d="M217.439,353.745l-32.77-1.13c-0.209-0.011-0.434,0.014-0.648,0.076
					c-1.037,0.303-1.631,1.388-1.328,2.424l0.02,0.062l4.152,17.023c-4.143-0.549-9.346-1.051-13.418,0.052
					c-11.109,3.012-13.512,14.114-10.348,23.712c0.424,1.263,1.455,2.407,1.455,3.716c0,0.813,1.25,1.385,2.213,1.402l0.111,0.003
					c0,0,48.223,0.91,48.229,0.91l0.268-0.01c1.74-0.068,3.146-1.482,3.184-3.246c0,0,0.787-42.905,0.787-42.907
					c0-0.01,0.002-0.033,0.002-0.043C219.387,354.699,218.531,353.781,217.439,353.745z M167.125,385.018
					c0.098-0.221,0.203-0.445,0.322-0.675c1.627-3.125,4.799-4.986,8.061-6.011c6.902-2.167,16.051-1.331,21.988,3.01
					c0.846,0.618,1.734,1.406,2.293,2.042l0.074,0.085c0.797,0.91,2.178,1.032,3.127,0.261c2.436-1.989-0.98-4.579-2.295-5.937
					c-2.576-2.663-5.766-3.099-8.984-4.56c-1.217-5.534-2.99-11.076-4.494-16.574l28.004,0.965l-3.277,37.525
					c-14.43,0.274-28.984,0.097-43.371,0.844C167.324,391.984,165.322,389.146,167.125,385.018z"/>
				<path fill="#61442F" d="M301.016,381.821c-1.141-2.585-3.232-5.012-6.023-7.443c-6.918-6.026-13.682-5.584-21.801-3.159
					c-1.24,0.371-2.441,0.83-3.621,1.33c0,0,7.553-14.506,7.555-14.506c0.139-0.266,0.227-0.576,0.232-0.897
					c0.02-1.093-0.848-1.995-1.941-2.015l-30.318-0.566c-0.99-0.019-1.859,0.703-1.996,1.707l-0.01,0.059l-5.75,41.869
					c-0.014,0.108-0.023,0.223-0.027,0.333c-0.051,1.729,1.04,3.169,2.767,3.219L240,401.757v-0.115L292.705,401h0.068
					c0.574,0,1.227-0.245,1.227-0.656v0.055c1-0.984,2.097-1.868,2.96-2.896c0.843-1.019,1.724-2.079,2.433-3.229
					C302.34,389.499,302.643,385.5,301.016,381.821z M295.227,391.648c-0.574,0.91-1.23,1.795-1.945,2.641
					c-0.49,0.578-1.039,1.17-1.574,1.699l-47.699-0.614l2.877-36.82l25.182,0.471l-9.977,18.111c-0.4,0.726-0.383,1.647,0.121,2.373
					c0.711,1.021,2.113,1.274,3.135,0.564l0.1-0.069c0.805-0.578,1.84-1.209,2.816-1.742c0.998-0.545,2.025-1.038,3.07-1.474
					c2.088-0.877,4.258-1.529,6.439-1.87c6.551-1.027,16.23,1.914,19.023,8.604c0.322,0.806,0.465,1.656,0.434,2.554
					C297.148,387.878,296.365,389.833,295.227,391.648z"/>
			</g>
		</g>
		<path fill="#A68772" d="M288.199,243.772c-4.822-9.839-5.393-20.291-7.375-31.076c-3.414-18.595-22.574-36.921-40.703-41.635
			c-8.477-2.202-17.996-2.232-26.576,0.002c-12.02,3.135-26.102,17.991-31.883,28.773c-28.771,53.657-10.885,97.204-10.885,97.204
			l3.109,17.888l6.191,18c0,0,61.463,11.549,103.059-1.858c1.695-9.604,0.344-16.789,0.344-16.789s19.211-11.301,18.08-29.945
			C300.432,265.69,297.92,263.604,288.199,243.772z"/>
		<g>
			<path fill="#7B6354" d="M213.545,171.064c-16.033,1.783-27.299,20.452-31.73,29.231C186.156,216.02,205.322,228,229.877,228
				h12.145c16.029,0,29.414-11.795,32.615-27.347C257.941,169.359,233.762,168.818,213.545,171.064z"/>
		</g>
		<path fill="#FFE9B7" d="M256.357,221.052l-1.693,23.731c0,0-10.736-9.04-17.52-24.297c5.654,1.131,7.914,1.695,7.914,1.695
			l2.824-7.346L256.357,221.052z"/>
		<path fill="#E2A672" d="M251.455,193.227c-2.867-8.122-12.322-22.793-23.523-16.998c-8.357,4.324-4.316,20.807-1.943,27.106
			c2.105,5.595,4.432,11.116,7.389,16.324c2.428,4.283,6.221,8.173,6.221,8.173c2.424,0.388,13.998-2.334,15.164-2.334
			C255.844,225.498,252.43,195.98,251.455,193.227z M254.324,221.629c-0.061-0.076-0.123-0.151-0.188-0.227
			c0.119-0.425,0.193-0.87,0.193-1.348C254.33,220.894,254.326,221.383,254.324,221.629z"/>
		<path fill="#C4AC9E" d="M233.799,249.236c13.029-3.317,26.166-4.258,38.77,1.097c4.012,1.704,0.557,7.544-3.42,5.854
			c-10.785-4.581-22.506-3.225-33.549-0.412C231.357,256.854,229.559,250.314,233.799,249.236z"/>
		<path fill="#7B6354" d="M181.791,322.656c30.709,14.974,65.621,8.214,97.963,3.612c4.273-0.609,6.115,5.924,1.801,6.536
			c-34.396,4.893-70.602,11.596-103.188-4.296C174.438,326.592,177.879,320.746,181.791,322.656z"/>
		<path fill="#7B6354" d="M170.096,283.043c43.449,20.414,106.688,13.052,120.91,6.315c0.07-0.176,0.145-0.358,0.211-0.53
			c2.244-5.434,2.234-13.947-0.391-23.138c-1.51-5.274-2.797-20.444-0.756-16.574c5.111,9.705,10.229,27.223,8.479,37.846
			c1.963,1.154,2.754,4.396,0.201,5.95c-0.707,0.432-1.436,0.82-2.16,1.214c-3.518,9.273-11.008,20.079-19.312,24.213
			c-3.896,1.944-7.336-3.906-3.422-5.853c5.188-2.583,9.58-8.279,12.9-14.185c-70.295,12.447-104.996-2.135-116.66-8.477
			C166.25,287.732,166.156,281.194,170.096,283.043z"/>
		<g>
			<path fill="#61442F" d="M301.387,266.898C302.783,270.911,299.996,262.869,301.387,266.898L301.387,266.898z"/>
			<path fill="#61442F" d="M301.387,266.898c-2.91-8.439-8.291-15.676-11.42-23.987c-3.77-10.017-3.576-20.88-6.402-31.125
				c-2.412-8.746-6.941-16.969-12.439-24.147c-8.295-10.757-20.672-17.446-33.865-20.05c-11.543-2.277-23.613-0.278-34.043,5.091
				c-8.104,4.171-14.406,10.565-19.094,18.333c-3.902,6.274-7,13.006-9.742,19.855c-2.73,6.82-5.045,13.797-6.738,20.951
				c-6.943,29.307-3.775,60.701,6.721,88.776c1.613,4.31,3.391,8.566,5.49,12.664c0.318,0.612,0.9,1.087,1.629,1.244
				c12.623,2.728,25.459,5.07,38.418,5.301c21.381,0.383,43.146-0.952,63.824-6.825c1.473-0.424,1.408-1.905,1.463-3.147
				c0.07-1.672,0.145-3.343,0.217-5.012c0.146-3.339,0.293-6.68,0.424-10.019c6.27-5.542,11.428-12.193,14.793-19.866
				C304.557,285.965,304.592,276.107,301.387,266.898z M296.52,291.332c-1.623,3.695-3.355,7.168-5.736,10.472
				c-4.201,5.825-9.713,11.217-15.963,14.821c-1.979,1.146-1.475,4.233,0.768,4.69c1.242,0.253,2.277-0.562,3.264-1.193
				c1.156-0.741,2.275-1.544,3.371-2.37c-0.32,3.901-0.637,7.806-0.957,11.709c-19.113,4.452-39.086,5.904-58.668,5.353
				c-13.055-0.37-25.889-2.254-38.629-5.019c-0.039-0.007-0.08-0.018-0.117-0.023c-6.777-13.745-10.961-29.059-13.117-44.195
				c7.008,4.371,15.051,7.004,23.01,9.031c4.543,1.158,8.775,1.689,13.393,2.361c6.387,0.931,12.5,1.869,19.021,2.18
				c6.893,0.326,13.207,0.959,20.121,0.008c8.324-1.149,16.799-1.891,25.037-3.498c4.373-0.852,8.725-1.789,13.045-2.874
				c1.643-0.412,12.4-2.233,12.84-3.634C296.971,289.879,296.742,290.604,296.52,291.332z M298.07,285.498
				c-0.324,1.611-14.57,3.713-16.459,4.191c-5.166,1.306-10.318,2.422-15.629,3.143c-11.205,1.52-22.545,1.897-33.838,1.593
				c-8.867-0.241-17.658-1.517-26.449-2.697c-6.039-0.811-12.246-1.742-17.986-3.641c-3.291-1.089-6.574-2.084-9.744-3.508
				c-1.195-0.536-7.766-3.096-7.912-4.431c-1.633-15.036-1.025-30.381,2.25-45.164c1.594-7.184,3.842-14.182,6.531-21.025
				c2.676-6.811,5.709-13.517,9.551-19.755c3.613-5.867,7.939-11.063,13.797-14.796c4.219-2.685,8.92-4.654,13.756-5.902
				c4.479-1.157,9.629-2.05,14.25-1.356c0,0,0.086,0.08,0.092,0.08c0.008,0,0.008-0.076,0.02-0.076
				c0.66-0.074,1.375,0.078,2.031,0.14c1.924,0.184,3.809,0.585,5.705,0.943c4.012,0.892,7.918,2.224,11.623,4.003
				c6.654,3.2,12.662,7.844,17.174,13.711c6.518,8.456,11.27,18.414,12.916,29.002c0.885,5.699,1.527,11.469,2.834,17.092
				c1.277,5.51,3.424,10.545,6.02,15.541C293.877,262.741,300.471,273.566,298.07,285.498z"/>
		</g>
		<path fill="#61442F" d="M254.098,247.043h-0.754l-0.604-0.453c-5.498-4.129-11.543-12.031-15.049-17.545
			c-1.088-1.707-2.146-3.317-3.174-4.884c-3.674-5.586-7.141-10.865-10.021-17.823c-5.523-13.337-5.414-23.276,0.322-28.744
			c3.039-2.898,6.318-4.368,9.744-4.368c4.914,0,9.936,3.155,14.143,8.888c3.377,4.599,5.957,10.509,6.734,15.426
			c1.117,7.083,2.236,18.009,2.049,25.265c0,0,0,0.002-0.566,11.077l-0.518,10.069C256.352,244.955,256.244,247.043,254.098,247.043
			z M234.562,177.746c-2.227,0-4.455,1.049-6.627,3.119c-5.674,5.411-1.975,17.198,0.736,23.744
			c2.717,6.562,5.918,11.433,9.623,17.071c1.041,1.583,2.111,3.214,3.209,4.939c2.742,4.308,6.742,9.577,10.576,13.384
			c0.33-6.43,0.887-17.26,0.893-17.368c0.176-6.918-0.912-17.505-2-24.389C249.67,189.991,242.205,177.746,234.562,177.746z"/>
		<path fill="#61442F" d="M275.051,244.499c0,0-0.789,0.088-2.164,0.239c-1.357,0.156-3.307,0.35-5.656,0.643
			c-0.588,0.062-1.199,0.128-1.83,0.196c-0.633,0.084-1.285,0.17-1.953,0.26c-1.346,0.159-2.76,0.326-4.225,0.501
			c-1.463,0.189-2.967,0.434-4.5,0.656c-1.525,0.25-3.098,0.405-4.633,0.747c-1.541,0.305-3.08,0.61-4.598,0.91
			c-0.762,0.145-1.516,0.286-2.26,0.428c-0.742,0.154-1.463,0.357-2.178,0.528c-1.426,0.358-2.805,0.702-4.113,1.029
			c-1.305,0.336-2.561,0.601-3.666,0.994c-4.463,1.447-7.467,2.379-7.467,2.379l-0.123,0.039c-0.744,0.23-1.537-0.186-1.77-0.932
			c-0.221-0.712,0.156-1.47,0.842-1.736c0,0,2.998-1.162,7.537-2.855c1.125-0.474,2.398-0.767,3.727-1.154
			c1.33-0.376,2.736-0.771,4.189-1.181c0.727-0.198,1.463-0.426,2.217-0.608c0.758-0.164,1.523-0.33,2.297-0.496
			c1.551-0.323,3.123-0.65,4.695-0.978c1.572-0.363,3.168-0.538,4.727-0.81c1.561-0.242,3.096-0.505,4.586-0.715
			c1.496-0.164,2.941-0.324,4.312-0.476c1.371-0.141,2.67-0.263,3.877-0.3c1.201-0.058,2.307-0.11,3.283-0.157
			c0.984-0.035,1.848-0.013,2.553-0.019c0.709-0.002,1.26,0,1.631,0.022c0.373,0.016,0.572,0.024,0.572,0.024
			c0.781,0.032,1.389,0.692,1.355,1.473c-0.029,0.708-0.574,1.274-1.258,1.348L275.051,244.499z"/>
		<path fill="#61442F" d="M225.955,241.377c0,0,0.838,0.007,2.299,0.068c1.459,0.078,3.545,0.166,6.039,0.362
			c2.496,0.188,5.402,0.476,8.51,0.841c3.107,0.381,6.416,0.84,9.713,1.409c1.65,0.262,3.295,0.584,4.91,0.91
			c1.621,0.301,3.205,0.664,4.736,1.035c1.535,0.338,3.01,0.742,4.4,1.137c1.398,0.362,2.705,0.803,3.908,1.2
			c1.209,0.368,2.299,0.808,3.256,1.201c0.965,0.38,1.801,0.716,2.477,1.063c1.352,0.653,2.105,1.051,2.105,1.051
			c0.559,0.294,0.775,0.987,0.48,1.544c-0.26,0.491-0.824,0.715-1.336,0.563l-0.104-0.03c0,0-0.781-0.233-2.115-0.681
			c-0.654-0.244-1.492-0.469-2.453-0.717c-0.959-0.252-2.027-0.562-3.229-0.826c-1.197-0.273-2.475-0.608-3.859-0.881
			c-1.381-0.286-2.826-0.612-4.342-0.896c-1.516-0.289-3.08-0.587-4.67-0.889c-1.596-0.284-3.219-0.573-4.842-0.864
			c-1.619-0.302-3.25-0.554-4.852-0.822c-1.604-0.266-3.182-0.527-4.711-0.781c-3.061-0.492-5.918-0.954-8.367-1.348
			c-4.902-0.816-8.168-1.358-8.168-1.358c-0.629-0.104-1.055-0.699-0.951-1.327c0.096-0.568,0.59-0.97,1.145-0.965H225.955z"/>
		<g>
			<g>
				<path fill="#F58342" d="M167.404,153.408c0,0,5.086,43.506,37.289,56.502c1.131-6.217,3.391-6.782,3.391-6.782
					s19.779,19.778,28.254,17.516c0-1.129,2.824-7.346,2.824-7.346l12.432,10.171c0,0,6.779-2.825,9.607-12.429
					c5.084,3.389,5.084,3.389,5.084,3.389s6.215,2.261,13.559-16.386c0,0.566,4.521,3.955,4.521,3.955s10.17-18.645,7.346-35.596
					c1.695,2.825,5.084,1.695,5.084,1.695s-3.955-3.955-3.389-10.735c0.564-6.781,0.287-30.283-8.477-47.462
					c-14.123-27.686-35.033-37.857-35.033-37.857s13.561-8.476,23.168,7.345c-2.258-8.475-10.734-20.905-24.861-22.601
					c1.129-2.825,11.299-12.997,1.693-19.211c-1.693,5.65-8.473,15.822-20.904,19.776c-12.43,3.955-51.42,9.604-58.197,31.077
					c-6.779,21.471-7.348,32.205-7.348,32.205l6.783,2.826c0,0,10.734,6.214,3.389,27.687
					C173.619,151.713,167.404,153.408,167.404,153.408z"/>
				<path fill="#FFE9B7" d="M182.094,85.603c0,0,3.957,4.52,11.865,1.132c6.217-3.957,11.865-1.132,19.213,1.695
					c7.344,2.824,9.039-2.262,13.561-7.346c4.52-5.085,12.43,1.693,12.43,1.693s-1.445-5.312-1.693-5.649
					c-2.072-2.825,3.256-5.541,3.764-4.622c36.895,17.65,36.898,51.586,35.223,59.429c-28.818-7.91-70.631,11.303-80.801,15.821
					C166.271,120.635,182.094,85.603,182.094,85.603z"/>
				<path fill="#FFE9B7" d="M261.549,138.378c0,0-26.557-4.52-44.641,10.17c2.826,4.52,11.867,8.474,19.213,7.91
					S267.199,153.633,261.549,138.378z"/>
				<path fill="#E2A672" d="M183.004,86.411c2.02,1.027,4.182,1.666,6.432,1.712c-0.021,0.209-0.053,0.421-0.117,0.643
					c-4.746,16.285-4.115,41.191,14.529,54.188c3.568,2.489-2.291,5.627-5.951,3.212c-18.287-12.077-20.785-39.752-15.117-59.202
					C182.84,86.761,182.92,86.584,183.004,86.411z"/>
				<path fill="#FCC371" d="M189.961,72.918c13.186,4.253,34.609,6.16,41.795-8.812c2.199,0.591,4.408,1.129,6.631,1.612
					c-8.193,19.086-33.17,19.238-50.229,13.737C184.016,78.119,185.791,71.571,189.961,72.918z"/>
				<path fill="#E2A672" d="M216.879,91.299c-1.387,0-2.943-0.381-4.795-1.22c-2.633-1.19-6.875-2.658-9.891-3.164
					c-2.674-0.446-4.863,0.239-7.324,1.405c-2.068,0.979-3.777,1.62-5.898,1.801c-0.68,0.057-3.109,0.148-5.918-1.081l0.908-2.072
					c2.316,1.015,4.271,0.943,4.818,0.898c1.791-0.151,3.234-0.697,5.121-1.59c2.463-1.167,5.219-2.164,8.664-1.591
					c3.357,0.561,7.771,2.123,10.451,3.333c3.852,1.746,5.812,1.352,9.121-1.818c0.691-0.664,1.322-1.521,1.992-2.427
					c1.143-1.548,2.326-3.149,4.027-4.101c2.703-1.514,7.014,0.037,9.586,0.965l0.246,0.086l-0.762,2.128l-0.248-0.09
					c-2.066-0.742-5.912-2.125-7.721-1.117c-1.275,0.713-2.264,2.051-3.311,3.471c-0.695,0.942-1.416,1.916-2.248,2.714
					C221.459,89.982,219.459,91.299,216.879,91.299z"/>
				<path fill="#CE622B" d="M233.283,212.858c-7.186-1.844-13.627-5.877-19.408-10.43c-1.547-1.216-3.383-0.885-4.609,0.086
					c-0.188-0.187-0.352-0.379-0.574-0.554c-6.912-5.447-12.223-11.64-16.352-18.437c-2.703-10.742-5.389-21.195,1.395-31.277
					c2.176-0.249,3.723-1.644,2.057-3.496c-13.088-14.556-17.287-34.137-14.385-53.205c0.232-1.518-0.449-2.718-1.445-3.454
					c4.527-10.268,11.748-18.62,22.486-23.901c1.441-0.704,1.855-1.932,1.654-3.114c-4.641,1.733-9.863,2.645-14.582,3.324
					c-4.697,3.729-8.744,8.211-11.963,13.265c-0.816-2.535-5.398-3.087-6.643,0.212c-4.893,12.968-8.691,25.739-6.215,39.659
					c0.615,3.459,5.715,36.229,5.715,36.229c4.078,22.295,11.783,37.609,30.287,52.185c3.42,2.694,7.699,0.848,9.297-2.023
					c6.467,4.998,13.49,9.42,21.484,11.466C235.719,220.479,237.516,213.942,233.283,212.858z"/>
				<path fill="#D46B37" d="M243.818,210.338c3.334,2.75,6.875,5.212,10.613,7.379c3.781,2.192,0.371,8.053-3.422,5.858
					c-4.236-2.46-8.203-5.325-11.986-8.442C235.648,212.347,240.473,207.578,243.818,210.338z"/>
				<path fill="#D46B37" d="M259.623,207.314c0.49-1.775,2.393-2.867,4.172-2.368c3.061,0.854,5.346,2.936,7.109,5.513
					c1.047,1.527,0.293,3.755-1.215,4.64c-1.68,0.983-3.596,0.304-4.639-1.219c-0.713-1.042-1.76-2.032-3.059-2.397
					C260.213,210.986,259.131,209.1,259.623,207.314z"/>
				<path fill="#BC5E2C" d="M195.842,150.489c-0.705,0-1.389-0.379-1.744-1.046c-0.516-0.963-0.152-2.162,0.809-2.677
					c53.742-28.76,81.951-16.412,83.123-15.873c0.994,0.456,1.43,1.629,0.971,2.622c-0.453,0.993-1.627,1.424-2.615,0.974
					c-0.326-0.147-27.859-11.932-79.611,15.765C196.477,150.413,196.156,150.489,195.842,150.489z"/>
				<path fill="#BC5E2C" d="M277.203,134.668c-0.268,0-0.541-0.055-0.803-0.17c-0.994-0.444-1.445-1.608-1.008-2.603
					c0.287-0.661,6.795-16.326-9.211-38.737c-0.639-0.889-0.432-2.122,0.459-2.759c0.889-0.636,2.123-0.429,2.758,0.46
					c17.406,24.37,9.939,41.9,9.613,42.635C278.684,134.229,277.961,134.668,277.203,134.668z"/>
				<path fill="#934922" d="M274.621,79.01c-0.625-2.324-1.273-4.584-2.164-6.821c-0.957-2.395-2.314-4.543-3.824-6.622
					c-3.885-5.361-10.039-8.762-16.373-10.283c1.447-2.18,2.455-4.542,2.971-7.12c0.363-1.816,0.492-3.685,0.346-5.533
					c-0.125-1.599-2.539-1.61-2.688-0.019c-0.275,3.163-1.486,6.238-3.441,8.733c-0.635,0.812-1.408,1.578-2.242,2.182
					c-0.82,0.616-1.838,0.958-2.619,1.608c-1.84,1.393-1.234,4.383,0.988,4.959c1.018,0.264,2.229,0.037,3.281,0.106
					c1.406,0.093,2.84,0.291,4.207,0.642c3.236,0.836,6.178,2.09,8.857,4.088c2.727,2.03,4.973,4.656,6.65,7.614
					c1.332,2.317,2.135,4.886,2.998,7.399C272.215,81.823,275.137,80.935,274.621,79.01z"/>
				<path fill="#BC5E2C" d="M229.67,69.619c0,0,0.062,0.016,0.178,0.046c0.121,0.036,0.309,0.084,0.518,0.162
					c0.432,0.145,1.025,0.386,1.713,0.737c0.682,0.355,1.463,0.811,2.234,1.41c0.795,0.565,1.553,1.303,2.268,2.093
					c0.354,0.399,0.668,0.845,0.996,1.261c0.275,0.468,0.566,0.908,0.803,1.373c0.213,0.482,0.438,0.932,0.576,1.398
					c0.139,0.471,0.271,0.91,0.338,1.332c0.061,0.428,0.088,0.818,0.119,1.164c0.025,0.344-0.033,0.652-0.045,0.898
					c-0.049,0.497-0.092,0.77-0.092,0.77c-0.105,0.676-0.738,1.139-1.414,1.032c-0.488-0.076-0.863-0.426-0.996-0.869l-0.078-0.264
					c0,0-0.061-0.208-0.145-0.557c-0.045-0.173-0.068-0.385-0.143-0.619c-0.082-0.235-0.184-0.495-0.262-0.778
					c-0.092-0.284-0.271-0.572-0.389-0.893c-0.123-0.319-0.359-0.625-0.52-0.967c-0.396-0.662-0.877-1.353-1.42-2.025
					c-0.297-0.319-0.539-0.681-0.848-0.993c-0.291-0.32-0.58-0.642-0.873-0.945c-0.58-0.61-1.154-1.17-1.643-1.665
					c-1.002-0.986-1.67-1.646-1.67-1.646l-0.023-0.022c-0.334-0.33-0.34-0.872-0.01-1.207
					C229.066,69.619,229.387,69.545,229.67,69.619z"/>
				<path fill="#BC5E2C" d="M222.805,74.168c0.004-0.012-0.027,0.221-0.021,0.507c-0.008,0.282-0.008,0.722-0.033,1.25
					c-0.023,0.52-0.012,1.133-0.039,1.768c0.006,0.321,0.029,0.651,0.018,0.984c-0.018,0.333-0.008,0.669,0.035,1.003
					c0.039,0.668,0.033,1.338,0.135,1.949c0.041,0.309,0.059,0.608,0.08,0.897c0.008,0.288,0.051,0.554,0.1,0.798
					c0.174,0.977,0.18,1.693,0.18,1.693l0.004,0.33c0.008,0.948-0.754,1.726-1.703,1.733c-0.654,0.006-1.225-0.357-1.521-0.89
					c0,0-0.404-0.738-0.848-1.942c-0.119-0.298-0.234-0.625-0.285-0.985c-0.07-0.358-0.148-0.733-0.203-1.128
					c-0.047-0.395-0.158-0.799-0.133-1.217c-0.002-0.414-0.002-0.836-0.002-1.257c-0.006-0.845,0.18-1.67,0.303-2.44
					c0.074-0.384,0.201-0.743,0.299-1.088c0.102-0.346,0.201-0.664,0.334-0.953c0.234-0.576,0.471-1.053,0.676-1.396
					c0.195-0.349,0.316-0.463,0.314-0.477c-0.1-0.665,0.357-1.287,1.023-1.388c0.668-0.1,1.289,0.358,1.389,1.023
					c0.018,0.11,0.02,0.217,0.006,0.32L222.805,74.168z"/>
				<path fill="#BC5E2C" d="M213.016,77.312c0.006-0.008-0.092,0.184-0.137,0.371c-0.033,0.102-0.072,0.206-0.119,0.387
					c-0.045,0.169-0.1,0.354-0.172,0.549c-0.074,0.436-0.254,0.885-0.324,1.43c-0.047,0.266-0.098,0.539-0.162,0.811
					c-0.031,0.285-0.061,0.574-0.092,0.861c-0.029,0.289-0.096,0.569-0.096,0.861c-0.012,0.29-0.021,0.574-0.031,0.85
					c-0.008,0.276-0.035,0.546-0.055,0.799c0.006,0.258,0.016,0.502,0.021,0.728c0.012,0.905-0.039,1.53-0.039,1.53l-0.014,0.213
					c-0.061,0.82-0.775,1.433-1.594,1.372c-0.645-0.049-1.16-0.505-1.322-1.094c0,0-0.186-0.688-0.385-1.752
					c-0.039-0.266-0.104-0.553-0.133-0.863c-0.006-0.312-0.023-0.643-0.02-0.986c0.002-0.342,0.004-0.697,0.006-1.058
					c0.012-0.358,0.098-0.727,0.143-1.093c0.057-0.367,0.125-0.729,0.199-1.087c0.102-0.356,0.219-0.702,0.332-1.032
					c0.191-0.671,0.557-1.258,0.807-1.754c0.322-0.494,0.592-0.857,0.859-1.162c0.256-0.307,0.375-0.367,0.375-0.379l0.211-0.125
					c0.592-0.347,1.352-0.154,1.699,0.435C213.197,76.498,213.195,76.951,213.016,77.312z"/>
				<path fill="#BC5E2C" d="M203.416,77.335c-0.02,0.014-0.117,0.134-0.35,0.401c-0.232,0.261-0.562,0.637-0.959,1.086
					c-0.785,0.906-1.795,2.125-2.664,3.392c-0.434,0.635-0.844,1.277-1.189,1.89c-0.361,0.61-0.654,1.194-0.902,1.702
					c-0.113,0.256-0.227,0.49-0.338,0.698c-0.082,0.214-0.16,0.398-0.229,0.552c-0.135,0.308-0.227,0.486-0.227,0.486l-0.107,0.197
					c-0.383,0.733-1.291,1.016-2.023,0.631c-0.506-0.267-0.799-0.782-0.803-1.317c0,0-0.002-0.241,0.023-0.667
					c0.008-0.434,0.076-1.04,0.254-1.75c0.064-0.367,0.197-0.734,0.332-1.13c0.121-0.405,0.293-0.807,0.49-1.213
					c0.178-0.42,0.402-0.828,0.652-1.229c0.232-0.413,0.5-0.804,0.783-1.188c0.555-0.771,1.184-1.475,1.811-2.091
					c0.633-0.606,1.256-1.132,1.824-1.535c0.566-0.413,1.066-0.711,1.43-0.911c0.361-0.198,0.621-0.313,0.604-0.301
					c0.633-0.441,1.502-0.283,1.941,0.352C204.211,76.026,204.049,76.896,203.416,77.335z"/>
				<path fill="#934922" d="M171.643,76.844c0,0-0.096,0.184-0.26,0.508c-0.084,0.162-0.182,0.359-0.299,0.584
					c-0.141,0.242-0.18,0.441-0.273,0.682c-0.076,0.246-0.199,0.464-0.266,0.774c-0.07,0.296-0.166,0.603-0.229,0.923
					c-0.043,0.325-0.113,0.654-0.143,0.991c-0.004,0.339-0.061,0.677-0.033,1.019c0.012,0.68,0.1,1.351,0.248,1.962
					c0.146,0.612,0.338,1.166,0.545,1.616c0.191,0.456,0.4,0.803,0.537,1.024c0.07,0.108,0.123,0.188,0.154,0.226
					c0.045,0.062,0.014,0.005,0.023,0.02c0.771,1.171,0.445,2.75-0.727,3.521c-1.172,0.772-2.75,0.447-3.521-0.725
					c0.008,0.013-0.08-0.128-0.135-0.236c-0.066-0.129-0.152-0.303-0.246-0.514c-0.189-0.428-0.43-1.021-0.629-1.748
					c-0.213-0.723-0.379-1.583-0.469-2.51c-0.088-0.926-0.08-1.924,0.039-2.901c0.039-0.489,0.17-0.967,0.252-1.44
					c0.105-0.469,0.26-0.915,0.389-1.348c0.146-0.429,0.33-0.824,0.484-1.204c0.139-0.377,0.373-0.74,0.539-1.067
					c0.18-0.318,0.348-0.654,0.49-0.835c0.145-0.208,0.271-0.391,0.375-0.54c0.207-0.3,0.326-0.471,0.326-0.471
					c0.52-0.748,1.545-0.936,2.295-0.42C171.797,75.211,172.012,76.119,171.643,76.844z"/>
				<path fill="#934922" d="M168.617,90.078c0,0-0.035-0.012-0.102-0.033c-0.025-0.014-0.096-0.04-0.229-0.074
					c-0.242-0.067-0.619-0.15-1.084-0.213c-0.932-0.132-2.223-0.162-3.449,0.131c-0.623,0.126-1.219,0.351-1.76,0.608
					c-0.285,0.11-0.52,0.281-0.764,0.42c-0.25,0.132-0.459,0.295-0.652,0.449c-0.406,0.287-0.701,0.589-0.91,0.801
					c-0.215,0.208-0.338,0.328-0.338,0.328l-0.117,0.117c-0.465,0.453-1.209,0.444-1.664-0.021c-0.387-0.397-0.438-1-0.152-1.449
					c0,0,0.113-0.181,0.312-0.495c0.197-0.317,0.48-0.773,0.912-1.264c0.205-0.258,0.434-0.531,0.715-0.783
					c0.275-0.26,0.553-0.559,0.893-0.801c0.652-0.52,1.41-1.022,2.225-1.4c1.621-0.807,3.404-1.182,4.752-1.303
					c0.678-0.064,1.25-0.071,1.668-0.061c0.199,0.005,0.389,0.016,0.537,0.032c0.111,0.011,0.17,0.015,0.17,0.015l0.051,0.005
					c1.408,0.12,2.455,1.362,2.334,2.772c-0.119,1.409-1.361,2.455-2.771,2.334C168.998,90.179,168.799,90.135,168.617,90.078z"/>
				<path fill="#BC5E2C" d="M213.857,180.096c0,0-0.291-0.076-0.691-0.242c-0.191-0.084-0.43-0.184-0.691-0.376
					c-0.254-0.173-0.531-0.374-0.775-0.586c-0.217-0.221-0.436-0.442-0.623-0.663c-0.203-0.211-0.324-0.457-0.455-0.646
					c-0.24-0.393-0.355-0.684-0.355-0.684c-0.176-0.44,0.039-0.943,0.48-1.117c0.248-0.099,0.518-0.074,0.732,0.046l0.076,0.042
					c0,0,0.256,0.143,0.572,0.398c0.307,0.272,0.73,0.578,1.094,0.954c0.182,0.167,0.361,0.31,0.52,0.477
					c0.141,0.161,0.318,0.339,0.494,0.477c0.32,0.292,0.51,0.526,0.51,0.526c0.303,0.372,0.246,0.919-0.125,1.223
					C214.398,180.104,214.113,180.156,213.857,180.096z"/>
				<path fill="#BC5E2C" d="M236.982,185.031c0,0-0.385-0.464-0.893-1.197c-0.49-0.757-1.164-1.682-1.754-2.67
					c-0.297-0.528-0.594-1.061-0.852-1.566c-0.271-0.49-0.461-1.011-0.613-1.457c-0.299-0.891-0.447-1.489-0.447-1.489
					c-0.102-0.408,0.146-0.821,0.553-0.92c0.311-0.078,0.623,0.047,0.799,0.291l0.07,0.096c0,0,0.344,0.474,0.781,1.193
					c0.104,0.183,0.217,0.379,0.336,0.588c0.109,0.211,0.283,0.42,0.42,0.65c0.295,0.453,0.59,0.945,0.885,1.44
					c0.619,1.038,1.229,2.102,1.539,2.925c0.336,0.824,0.514,1.398,0.514,1.398c0.129,0.409-0.1,0.84-0.508,0.968
					c-0.307,0.095-0.629-0.011-0.824-0.243L236.982,185.031z"/>
				<path fill="#BC5E2C" d="M262.984,180.917c0,0,0.094,0.308,0.164,0.767c0.072,0.461,0.129,1.073,0.121,1.685
					c-0.018,0.623-0.053,1.244-0.129,1.71c-0.07,0.462-0.156,0.767-0.156,0.767c-0.133,0.46-0.613,0.726-1.07,0.594
					c-0.299-0.085-0.516-0.317-0.596-0.594l-0.023-0.083c0,0-0.088-0.309-0.156-0.762c-0.072-0.455-0.107-1.057-0.123-1.659
					c-0.012-0.611,0.045-1.224,0.117-1.681c0.066-0.459,0.162-0.764,0.16-0.764c0.146-0.465,0.643-0.724,1.107-0.578
					c0.285,0.088,0.492,0.31,0.578,0.572L262.984,180.917z"/>
				<path fill="#BC5E2C" d="M276.775,157.424c0,0,0.229,0.538,0.488,1.357c0.064,0.205,0.131,0.429,0.191,0.666
					c0.061,0.239,0.143,0.479,0.182,0.754c0.096,0.549,0.164,1.142,0.234,1.732c0.068,0.596,0.088,1.187,0.066,1.739
					c-0.018,0.555-0.018,1.062-0.094,1.513c-0.15,0.904-0.311,1.483-0.311,1.483c-0.102,0.381-0.496,0.606-0.877,0.501
					c-0.271-0.074-0.465-0.296-0.514-0.555l-0.02-0.1c0,0-0.105-0.559-0.178-1.358c-0.035-0.4-0.123-0.89-0.164-1.398
					c-0.049-0.515-0.076-1.061-0.158-1.595c-0.084-1.108-0.168-2.214-0.232-3.044c-0.041-0.858-0.014-1.441-0.014-1.441
					c0.018-0.404,0.359-0.715,0.762-0.695C276.426,156.996,276.67,157.177,276.775,157.424z"/>
				
					<path fill="none" stroke="#8F4B22" stroke-width="5.0852" stroke-linecap="round" stroke-linejoin="round" stroke-miterlimit="10" d="
					M193.398,78.823"/>
				<path fill="#BC5E2C" d="M191.326,81.076c0,0-0.178,0.036-0.369,0.105c-0.193,0.051-0.545,0.198-0.936,0.345
					c-0.391,0.201-0.861,0.369-1.33,0.665c-0.48,0.263-0.979,0.565-1.449,0.919c-0.492,0.317-0.943,0.694-1.359,1.06
					c-0.428,0.346-0.812,0.684-1.111,1.016c-0.617,0.631-1.029,1.052-1.029,1.052l-0.104,0.105c-0.656,0.672-1.73,0.684-2.402,0.025
					c-0.67-0.656-0.684-1.732-0.025-2.403c0.043-0.042,0.09-0.087,0.135-0.125c0,0,0.523-0.431,1.311-1.077
					c0.381-0.335,0.867-0.677,1.402-1.025c0.521-0.362,1.088-0.733,1.697-1.043c0.586-0.342,1.205-0.629,1.799-0.875
					c0.574-0.274,1.17-0.43,1.648-0.605c0.516-0.133,0.908-0.25,1.262-0.306c0.344-0.069,0.48-0.078,0.48-0.078l0.088-0.007
					c0.627-0.037,1.168,0.438,1.205,1.065C192.277,80.465,191.877,80.969,191.326,81.076z"/>
				<path fill="#BC5E2C" d="M183.473,85.428c-0.625,2.355-1.25,4.713-1.875,7.07c-0.586,3.382-1.143,6.713-1.434,10.137
					c-0.586,6.867,0.082,13.804,2.02,20.42c1.873,6.393,5.096,12.689,9.598,17.644c1.055,1.161,2.121,2.304,3.299,3.341
					c0.834,0.721,1.969,1.341,2.664,2.204c1.875,2.327-1.227,5.316-3.564,3.584c-2.084-1.415-3.887-3.431-5.506-5.333
					c-2.066-2.428-3.943-5.062-5.461-7.869c-3.146-5.807-5.152-11.851-6.221-18.363c-1.01-6.151-0.627-12.247,0.025-18.406
					c0.547-5.188,2.209-10.235,3.703-15.206C181.236,82.914,183.934,83.664,183.473,85.428z"/>
				<path fill="#BC5E2C" d="M192.832,168.662c-0.396,0-0.781-0.209-0.988-0.581c-1.588-2.845-3.449-5.679-5.248-8.422l-0.359-0.548
					c-0.344-0.521-0.197-1.222,0.324-1.564c0.523-0.342,1.223-0.195,1.566,0.326l0.357,0.547c1.822,2.775,3.705,5.645,5.332,8.562
					c0.307,0.545,0.109,1.234-0.436,1.537C193.207,168.617,193.018,168.662,192.832,168.662z"/>
				<path fill="#BC5E2C" d="M230.123,202.564c-0.365,0-0.721-0.175-0.939-0.5c-1.211-1.803-2.287-3.699-3.326-5.535l-0.107-0.188
					c-0.307-0.542-0.117-1.232,0.426-1.54c0.541-0.307,1.23-0.119,1.539,0.426l0.107,0.188c1.02,1.796,2.074,3.656,3.238,5.389
					c0.346,0.519,0.209,1.222-0.309,1.567C230.557,202.502,230.338,202.564,230.123,202.564z"/>
				<path fill="#BC5E2C" d="M283.801,190.699c-0.014,0-0.029,0-0.045,0c-0.623-0.026-1.109-0.55-1.084-1.173
					c0.051-1.292-0.039-2.645-0.125-3.951c-0.139-2.122-0.285-4.313,0.146-6.405c0.127-0.611,0.727-1.008,1.334-0.879
					c0.613,0.127,1.006,0.725,0.881,1.334c-0.369,1.793-0.242,3.738-0.105,5.801c0.09,1.365,0.184,2.777,0.127,4.188
					C284.904,190.221,284.404,190.699,283.801,190.699z"/>
				<path fill="#BC5E2C" d="M285.494,146.627c-0.555,0-1.039-0.407-1.117-0.973c-0.227-1.614-0.008-3.157,0.658-4.588
					c0.264-0.568,0.936-0.812,1.5-0.551c0.566,0.264,0.812,0.936,0.551,1.5c-0.48,1.031-0.639,2.148-0.471,3.322
					c0.088,0.619-0.344,1.191-0.961,1.277C285.6,146.623,285.549,146.627,285.494,146.627z"/>
				<path fill="#BC5E2C" d="M213.172,164.143c-0.381,0-0.75-0.192-0.965-0.541c-0.812-1.333-1.52-2.768-2.205-4.154
					c-0.717-1.451-1.459-2.953-2.309-4.311c-0.332-0.529-0.17-1.225,0.357-1.557c0.529-0.333,1.225-0.172,1.557,0.355
					c0.912,1.455,1.678,3.009,2.422,4.511c0.691,1.405,1.348,2.732,2.105,3.979c0.328,0.532,0.158,1.228-0.375,1.553
					C213.576,164.09,213.373,164.143,213.172,164.143z"/>
				<g>
					<path fill="#934922" d="M298.842,167.512c-0.975-1.498-1.529-3.604-1.918-5.377c-0.701-3.206-0.814-6.52-0.711-9.791
						c0.236-7.316,0.051-14.542-1.205-21.773c-2.48-14.259-8.736-27.717-17.969-38.854c-5.645-6.805-12.359-12.69-19.688-17.621
						c-3.514-2.365-7.203-4.473-11.004-6.338c-1.547-0.76-3.113-1.486-4.705-2.147c-0.857-0.358-1.727-0.696-2.6-1.018
						c-0.551-0.202-1.342-0.668-1.934-0.668c-2.139-0.65-3.289,2.554-1.225,3.407c24.785,10.25,45.051,31.647,52.154,57.668
						c1.342,4.918,2.24,9.953,2.75,15.026c0.484,4.802,0.365,9.586,0.6,14.396c0.223,4.498,1.031,9.166,3.121,13.204
						c0.434,0.836,0.984,2.048,1.809,2.6C298.041,171.373,300.113,169.146,298.842,167.512
						C298.957,167.688,299.479,168.33,298.842,167.512z"/>
					<path fill="#934922" d="M294.029,168.735c-0.133-1.53-0.037-3.729-1.83-4.3c-1.533-0.489-3.104,0.817-2.91,2.411
						c1.312,10.751-0.607,21.751-5.092,31.55l-2.801-3.031c-1.346-1.448-3.826-0.895-4.42,0.991
						c-0.672,2.128-1.418,4.222-2.297,6.276c-1.461,3.407-3.295,7.457-6.148,9.94c-1.654-1.978-3.557-3.778-5.643-5.297
						c-1.578-1.135-3.869-0.189-4.166,1.735c-0.668,4.555-2.906,8.71-6.209,11.861c-1.375-0.854-2.619-1.97-3.857-3.002
						c-3.055-2.482-5.908-5.256-8.705-8.022c-1.553-1.539-4.275-0.638-4.617,1.512l-0.99,6.203
						c-6.447-2.4-12.955-5.622-18.205-10.131c-2.66-2.283-4.852-4.828-6.811-7.736c-1.389-2.04-4.662-1.162-4.859,1.285
						c-0.16,1.984-0.322,3.969-0.482,5.953c-3.889-2.331-7.225-5.575-10.359-8.826c-2.889-2.997-5.588-6.089-8.221-9.317
						c-4.09-5.013-7.303-10.926-9.982-16.785c-6.379-13.954-9.154-29.665-10.133-44.884c-0.822-12.765,0.238-26.626,6.543-38.048
						c2.549-4.618,5.57-8.668,9.723-12.004c5.484-4.406,11.959-7.412,18.541-9.782c5.273-1.874,10.688-3.326,16.133-4.618
						c5.447-1.292,11.191-2.162,16.42-4.214c4.805-1.887,9.287-5.423,12.461-9.467c1.535-1.955,2.836-4.141,3.717-6.47
						c0.352-0.926,1.17-2.659,0.82-3.647c-0.371-1.055-1.947-0.949-2.172,0.148l-0.016,0.071
						c-1.344,6.579-6.83,11.982-12.473,15.184c-2.967,1.682-6.102,2.52-9.41,3.265c-3.627,0.818-7.277,1.526-10.91,2.329
						c-13.973,3.083-28.846,7.343-39.283,17.708c-7.586,7.53-11.697,18.475-13.504,28.793c-2.363,13.489-0.941,27.283,1.215,40.695
						c2.002,12.449,6.023,24.305,12.121,35.332c3.467,6.272,7.92,12.127,12.846,17.316c2.18,2.297,4.357,4.566,6.697,6.705
						c2.309,2.108,4.758,4.09,7.502,5.606c1.209,0.669,2.896,1.761,4.326,1.67c1.305-0.084,2.371-1.167,2.439-2.471
						c0.049-0.959,0.09-1.917,0.176-2.874c3.871,3.767,8.045,6.934,12.803,9.544c3.105,1.704,6.326,3.184,9.621,4.474
						c2.141,0.839,6.955,3.208,7.582-0.696c0.232-1.428,0.463-2.857,0.691-4.286c3.635,3.405,7.324,6.717,11.596,9.295
						c0.846,0.508,1.955,0.47,2.771-0.182c4.051-3.23,7.021-7.044,8.676-12.05c1.197,1.16,2.236,2.475,3.311,3.747
						c0.832,0.979,2.291,1.158,3.342,0.385c5.504-4.056,8.609-10.263,10.943-16.55c0.734,0.777,1.465,1.555,2.197,2.332
						c1.199,1.272,3.293,1.418,4.207-0.304c1.863-3.51,3.586-7.066,4.678-10.904C293.875,185.235,294.811,176.955,294.029,168.735
						C293.959,167.915,294.107,169.544,294.029,168.735z"/>
				</g>
				<path fill="#FFE9B7" d="M171.238,128.545c0,0-12.992-5.084-16.383,0.566c-3.393,5.649,0,19.211,5.648,23.73
					c5.65,4.521,14.125,3.391,14.125,3.391S185.363,138.715,171.238,128.545z"/>
				<path fill="#E2A672" d="M165.023,148.18c1.025,1.358,1.215,1.587,2.09,0.798c1.338-1.214,2.619-1.922,3.109-3.597
					c1.289-4.434,0.973-9.97-2.51-13.308c-3.166-3.029,1.637-7.817,4.793-4.795c6.064,5.81,6.326,15.642,3.148,22.991
					c-3.275,7.568-10.607,9.509-15.816,2.588C157.203,149.361,162.43,144.732,165.023,148.18z"/>
				<path fill="#8F4B22" d="M171.334,155.281c3.465-5.238,4.588-11.62,3.543-17.746c-0.484-2.836-1.9-5.334-3.346-7.768
					c-0.697-1.174-1.672-2.199-2.527-3.261c-0.713-0.881,0.051-2.372,1.227-1.731c0.852,0.463,1.562,1.543,2.223,2.229
					c1.105,1.147,2.188,2.513,2.988,3.897c1.416,2.442,2.496,4.951,3.139,7.705c1.482,6.352,0.197,13.532-2.861,19.238
					c-0.018,0.031-0.033,0.062-0.051,0.094C174.031,160.992,169.381,158.153,171.334,155.281z"/>
				<path fill="#8F4B22" d="M164.406,133.641c0.004,0.005,0.049,0.019,0.172,0.087c0.121,0.07,0.322,0.174,0.52,0.304
					c0.424,0.258,0.982,0.662,1.609,1.22c0.299,0.292,0.643,0.598,0.959,0.973c0.307,0.378,0.662,0.761,0.949,1.234
					c0.312,0.445,0.588,0.961,0.857,1.497c0.26,0.535,0.457,1.142,0.637,1.742c0.119,0.638,0.293,1.254,0.271,1.918
					c0,0.327,0,0.648,0,0.969c-0.031,0.316-0.096,0.631-0.148,0.938c-0.068,0.305-0.109,0.61-0.207,0.888
					c-0.113,0.275-0.223,0.541-0.332,0.8c-0.113,0.254-0.213,0.508-0.334,0.735c-0.143,0.208-0.283,0.41-0.418,0.604
					c-0.273,0.375-0.502,0.745-0.777,0.985c-0.262,0.251-0.5,0.457-0.697,0.624c-0.393,0.332-0.625,0.496-0.625,0.496
					c-0.773,0.545-1.84,0.363-2.385-0.409c-0.314-0.446-0.387-0.991-0.238-1.478l0.121-0.402c0,0,0.066-0.219,0.201-0.556
					c0.068-0.17,0.148-0.369,0.256-0.587c0.105-0.215,0.131-0.481,0.227-0.735c0.092-0.258,0.176-0.528,0.195-0.814
					c0.051-0.282,0.111-0.565,0.088-0.862c0.004-0.147,0.029-0.291,0.025-0.441c-0.023-0.152-0.037-0.305-0.047-0.457
					c0.02-0.304-0.125-0.631-0.15-0.956c-0.109-0.328-0.178-0.667-0.314-1.002c-0.131-0.341-0.246-0.686-0.428-1.012
					c-0.295-0.672-0.68-1.297-0.994-1.854c-0.338-0.539-0.627-1.015-0.838-1.331c-0.111-0.167-0.164-0.278-0.213-0.358
					c-0.049-0.082-0.1-0.144-0.1-0.144c-0.6-0.731-0.492-1.813,0.242-2.415c0.488-0.4,1.129-0.489,1.68-0.286L164.406,133.641z"/>
				<path fill="#8F4B22" d="M172.188,130.895c-3.693-1.647-8.236-3.168-12.299-2.241c-1.283,0.284-2.41,0.887-3.215,1.829
					c-0.785,0.94-1.375,2.278-1.549,3.756c-0.531,3.718,1.02,8.135,2.615,11.443c1.498,3.105,3.656,6.255,6.635,8.108
					c1.93,1.23,3.662,1.37,4.852,1.05c0.805-0.219,1.447-0.729,2.219-0.979c1.09-0.355,2.143,0.731,1.754,1.811
					c-0.293,0.817-1.381,1.485-2.082,1.9c-1.291,0.76-2.787,1.154-4.283,1.16c-1.434,0.026-2.992-0.363-4.492-1.027
					c-4.26-1.924-7.551-5.76-9.738-9.803c-2.463-4.549-3.447-9.6-2.08-14.662c0.6-2.061,1.562-4.101,3.197-5.654
					c1.623-1.555,3.729-2.332,5.566-2.54c4.852-0.595,9.875,1.412,14.014,3.788C174.59,129.568,173.506,131.552,172.188,130.895z"/>
			</g>
			<g>
				<path fill="#FFFFFF" d="M213.652,121.062c0,0-7.268-14.716-19.018-8.747c-11.742,5.966-8.043,13.709-8.043,13.709
					S201.264,130.327,213.652,121.062z"/>
				<path fill="#FFFFFF" d="M276.385,111.662c0,0-2.926-17.356-15.562-14.32c-10.807,2.598-9.051,17.038-9.051,17.038
					S264.922,119.851,276.385,111.662z"/>
				<path fill="#E2A672" d="M237.64,146.97c2.831-0.87,5.86-0.913,8.802-0.913c4.562-0.002,4.562,7.071,0,7.073
					c-2.333,0-4.672-0.03-6.925,0.66C235.147,155.132,233.291,148.303,237.64,146.97z"/>
				<path fill="#E2A672" d="M223.467,122.956c1.207-0.503,2.238-1.269,3.086-2.298c0.73-1.061,2.045-1.526,3.225-0.847
					c5.07,2.927,10.532,2.836,14.064-2.298c1.715-2.486,5.803-0.131,4.072,2.381c-4.609,6.696-11.85,8.075-18.791,4.874
					c-0.932,0.889-1.973,1.588-3.275,2.257C223.148,128.417,220.762,124.348,223.467,122.956z"/>
				<path fill="#5E803E" d="M192.063,122.129c2.13,7.301,9.017,4.582,12.868,3.934c3.85-0.652,6.404-4.562,5.698-8.735
					c-0.702-4.174-4.343-6.344-8.247-6.376C193.586,110.871,190.88,118.066,192.063,122.129z"/>
				<path fill="#5E803E" d="M256.26,110.72c1.521,6.692,7.469,6.147,11.359,5.78c3.891-0.368,7.912-4.422,7.445-9.392
					c-0.471-4.969-3.986-8.509-7.892-8.334C258.693,99.159,255.152,105.852,256.26,110.72z"/>
				<path fill="#81AE53" d="M204.232,111.988c2.298,0.924,3.814,3.093,4.354,5.056c0.342,1.239-0.051,2.627-1.137,3.136
					c-1.245,0.577-2.492-0.032-3.139-1.144c-0.592-1.027-1.77-1.554-2.822-1.98C198.679,115.919,201.402,110.845,204.232,111.988z"
					/>
				<path fill="#81AE53" d="M266.793,98.721c4.059,0.803,7.072,4.366,7.034,8.034c-0.028,3.028-3.532,4.585-4.409,1.673
					c-0.713-2.372-2.195-4.211-4.709-4.711C261.73,103.129,263.795,98.131,266.793,98.721z"/>
				<path fill="#44592C" d="M196.994,119.129c0.068-3.117,1.817-6.589,5.154-5.957c3.287,0.621,4.852,4.97,3.816,7.947
					c-0.908,2.606-2.84,4.441-5.543,3.491C198.119,123.802,196.943,121.453,196.994,119.129z"/>
				<path fill="#44592C" d="M261.225,107.427c0.307-3.163,3.216-6.526,6.592-5.378c0.08,0.028,0.141,0.075,0.215,0.107
					c0.434,0.146,0.828,0.369,1.178,0.663c2.229,1.643,2.873,4.744,1.748,7.344c-1.097,2.534-4.086,4.128-6.716,2.981
					C262.006,112.172,261.004,109.743,261.225,107.427z"/>
				<path fill="#6C482F" d="M250.41,116.25c-0.895-2.32-2.775-3.998-4.771-5.377c-1.791-1.2-3.926-1.811-6.061-1.992
					c-2.015-0.17-4.222,0.177-6.17-0.465c-0.719-0.175-1.293-0.587-1.871-0.986c-0.548-0.502-1.098-1.022-1.518-1.646
					c-2.713-3.811-1.598-9.3-0.455-13.478c0.334-1.211-1.48-1.829-1.95-0.656c-1.985,4.949-3.339,11.089-0.36,15.942
					c0.523,0.921,1.268,1.708,1.998,2.461c2,1.728,4.393,2.308,6.982,2.451c2.467,0.138,4.992,0.198,7.094,1.673
					c1.318,0.924,2.725,2.004,3.281,3.577c1.006,2.6-0.908,5.022-2.986,6.39c-4.177,2.745-9.215,2.191-13.477,0.05
					c-0.699-0.353-1.52-0.172-2.047,0.382c-0.537,0.324-1.053,0.773-1.704,0.839c-0.407,0.064-0.723,0.02-1.108-0.212
					c-1-0.646-1.438-1.922-1.039-3.048c0.119-0.289,0.244-0.589,0.465-0.846c0.682-0.963,1.73-1.566,2.746-2.117
					c1.334-0.724,0.6-2.815-0.889-2.556c-2.449,0.429-4.613,1.561-5.925,3.74c-2.366,4.432,1.679,11.304,7.06,9.034
					c0.621-0.234,1.119-0.54,1.493-0.847c0.233-0.172,0.412-0.341,0.573-0.502c4.366,2.329,9.736,2.571,14.258,0.513
					C248.672,126.464,252.523,121.503,250.41,116.25C249.932,115.01,250.902,117.475,250.41,116.25z"/>
				<g>
					<path fill="#6C482F" d="M214.858,120.921c-1.864-4.868-5.583-9.232-10.745-10.665c-3.33-0.925-7.643-0.709-10.844,0.842
						c-1.387,0.554-2.625,1.256-3.717,2.116c-2.061,1.854-3.607,3.929-4.24,6.688c-0.287,1.248-0.392,2.521-0.348,3.796
						c0.022,0.654-0.07,2.567,0.42,3.057c0.217,0.798,1.084,1.171,1.814,0.832c4.26,1.071,8.871,0.648,13.126-0.256
						c4.501-0.956,8.931-2.336,13.126-4.23c1.009,0.275,1.93-0.692,1.58-1.687C215.031,121.415,214.973,121.244,214.858,120.921
						C214.733,120.593,214.973,121.244,214.858,120.921z M209.297,122.104c-6.832,1.984-14.301,3.948-21.468,3.402
						c-0.599-3.946,0.592-7.375,3.507-10.033c0.858-0.664,1.873-1.216,2.901-1.622c0.938-0.522,2.245-0.758,3.314-0.934
						c2.113-0.347,4.212-0.402,6.277,0.254c3.853,1.222,6.657,4.54,8.302,8.112C211.421,121.496,210.459,121.776,209.297,122.104
						C208.058,122.463,210.459,121.776,209.297,122.104z"/>
					<path fill="#6C482F" d="M278.193,112.107c-1.659-7.992-8.654-18.616-18.236-15.031c-7.502,2.809-10.322,10.382-9.1,17.91
						c0.133,0.824,0.95,1.299,1.725,1.071c3.867,1.345,8.254,1.261,12.26,0.66c3.996-0.544,7.977-1.549,11.744-2.989
						C277.529,113.916,278.389,113.056,278.193,112.107z M272.754,112.248C271.627,112.518,273.759,112.018,272.754,112.248
						c-6.102,1.461-13.042,2.907-19.287,1.61c-0.401-0.084-0.051-4.057,0.016-4.485c0.227-1.447,0.713-2.85,1.326-4.176
						c2.947-6.367,10.842-7.408,15.575-2.509c1.243,1.287,2.368,2.904,3.165,4.505c0.179,0.359,1.785,4.44,1.684,4.465
						C274.598,111.814,273.759,112.018,272.754,112.248z"/>
				</g>
				<path fill="#8F4B22" d="M261.016,138.285c-0.19,0.584-0.388,1.157-0.637,1.717c-0.507,1.075-1.357,2.65-2.93,4.096
					c-1.559,1.443-3.785,2.673-6.274,3.288c-6.834,1.721-13.644-1.179-20.499-0.104c-1.506,0.237-3.004,0.675-4.424,1.231
					c-0.734,0.288-2.051,1.152-2.744,0.36c-1.602-1.826,5.113-4.019,6.148-4.305c3.277-0.838,6.562-0.889,9.922-0.591
					c3.604,0.316,7.204,0.829,10.787,0.026c1.012-0.238,1.969-0.525,2.803-0.928c0.838-0.393,1.57-0.862,2.186-1.371
					c1.232-1.016,2.037-2.135,2.516-2.977c0.249-0.466,0.491-0.928,0.715-1.406C259.26,135.881,261.514,136.768,261.016,138.285z"/>
				<path fill="#8F4B22" d="M248.035,152.39c0,0-0.217-0.02-0.572-0.091c-0.188-0.048-0.383-0.062-0.568-0.064
					c-0.195-0.009-0.416-0.021-0.656-0.035c-0.986-0.064-2.248,0.009-3.581,0.171c-1.329,0.197-2.704,0.515-3.767,0.791
					c-1.055,0.281-1.824,0.461-1.824,0.461l-0.041,0.01c-0.463,0.109-0.928-0.179-1.036-0.642c-0.065-0.271,0.011-0.547,0.173-0.747
					c0,0,0.139-0.167,0.395-0.445c0.264-0.27,0.658-0.636,1.186-1.009c0.519-0.382,1.179-0.749,1.92-1.089
					c0.746-0.322,1.594-0.573,2.469-0.731c0.882-0.141,1.799-0.172,2.656-0.052c0.43,0.075,0.843,0.142,1.221,0.289
					c0.382,0.134,0.738,0.253,1.044,0.444c0.304,0.153,0.595,0.334,0.837,0.532c0.254,0.18,0.434,0.344,0.533,0.484
					c0.234,0.274,0.356,0.454,0.356,0.454c0.252,0.374,0.153,0.881-0.22,1.132C248.398,152.361,248.214,152.403,248.035,152.39z"/>
				<path fill="#FFFFFF" d="M203.516,117.983c0.223,1.305,1.243,2.22,2.287,2.044c1.047-0.178,1.713-1.376,1.492-2.682
					c-0.222-1.305-1.24-2.22-2.287-2.041C203.962,115.48,203.296,116.678,203.516,117.983z"/>
				<path fill="#FFFFFF" d="M266.979,105.119c0.119,1.25,1.068,2.187,2.121,2.084c1.057-0.097,1.813-1.193,1.693-2.442
					c-0.117-1.252-1.063-2.186-2.119-2.088C267.619,102.775,266.861,103.869,266.979,105.119z"/>
				<path fill="#66361C" d="M214.455,105.095c-6.137,1.429-12.849-0.258-18.873-1.592c-3.371-0.746-6.797-1.679-10.275-1.573
					c-2.125,0.063-4.369,0.887-6.348-0.295c-2.463-1.467-3.017-4.911-1.129-7.074c1.644-1.884,4.871-2.061,7.184-2.174
					c3.637-0.175,7.234,0.648,10.695,1.701c3.381,1.029,6.77,2.034,10.117,3.17c1.586,0.538,3.185,1.013,4.797,1.46
					c1.211,0.291,2.432,0.399,3.641,0.663C217.299,99.907,217.461,104.363,214.455,105.095z"/>
				<path fill="#66361C" d="M242.226,98.652c6.19-1.178,11.644-5.438,16.614-9.093c2.781-2.047,5.534-4.285,8.761-5.599
					c1.968-0.801,4.353-0.955,5.685-2.836c1.658-2.338,0.771-5.712-1.828-6.926c-2.267-1.057-5.289,0.086-7.449,0.92
					c-3.398,1.309-6.355,3.518-9.093,5.883c-2.677,2.309-5.368,4.6-7.972,6.99c-1.23,1.135-2.5,2.216-3.794,3.278
					c-0.992,0.756-2.063,1.349-3.062,2.077C237.525,95.057,239.179,99.199,242.226,98.652z"/>
			</g>
		</g>
		<g>
			<path fill="#FFE9B7" d="M190.869,183.672c0,0-6.918-31.858-34.197-58.594c-3.426-8.07-17.07-24.664-27.032-25.498
				c-9.962-0.829-6.337,5.656-6.337,5.656s-10.26-1.605-12.613,1.717c-1.768,2.48,0.231,7.216,0.231,7.216s-7.235-0.092-6.585,4.416
				c0.646,4.514,4.22,8.17,12.992,12.077c1.684-0.593,4.562,2.18,4.562,2.18s-12.437-0.335-12.586,4.075
				c-0.145,4.412,7.242,6.534,7.242,6.534s6.254,8.024,11.554,7.477c5.304-0.554,9.963,0.827,9.963,0.827
				s12.22,31.312,13.024,44.294C157.282,194.803,184.14,192.499,190.869,183.672z"/>
			<path fill="#E2A672" d="M190.135,186.956c-9.812,5.513-20.635,9.019-31.82,8.966c-1.47,1.609-4.434,1.665-5.502-0.307
				c-0.287-0.032-0.57-0.034-0.857-0.07c-3.968-0.518-3.599-6.174-0.188-6.703c-1.846-11.385-6.438-22.067-10.875-32.715
				c-2.113-5.065-7.465-4.629-12.129-6.967c-5.568-2.793-9.542-7.081-15.907-8.388c-4.263-0.87-3.456-7.612,0.833-6.729
				c10.479,2.157,17.425,11.068,28.355,11.569c1.176,0.054,2.291,1.017,2.717,2.068c5.463,13.509,11.879,26.952,13.919,41.461
				c10.178-0.025,19.897-3.419,28.857-8.45C191.342,178.557,193.909,184.836,190.135,186.956z"/>
			<path fill="#8F4B22" d="M149.089,195.51c0,0-0.092-0.713-0.26-1.96c-1.812-13.659-6.441-26.962-13.082-39.017
				c-0.302-0.528-0.538-0.94-0.698-1.224c-0.157-0.261-0.239-0.402-0.239-0.402l-0.035-0.058c-0.719-1.209-0.325-2.77,0.886-3.488
				c1.209-0.716,2.769-0.321,3.485,0.892c0.019,0.026,0.039,0.065,0.058,0.097c0,0,0.092,0.173,0.268,0.497
				c0.157,0.312,0.392,0.769,0.69,1.35c6.879,13.393,10.62,28.113,11.92,42.982c0.071,0.826-0.541,1.56-1.366,1.632
				C149.911,196.879,149.196,196.301,149.089,195.51z"/>
			<path fill="#8F4B22" d="M108.272,133.859c1.235-0.964,2.829-1.562,4.615-1.697l9.198-0.733c1.4-0.113,2.626,0.934,2.737,2.332
				c0.112,1.402-0.937,2.625-2.331,2.738l-9.217,0.734c-1.181,0.087-2.047,0.546-2.388,1.25c-0.208,0.432-0.174,0.902,0.085,1.285
				c0.559,0.815,2.01,1.217,3.884,1.073c3.387-0.264,5.907,1.982,8.345,4.155c1.438,1.28,2.932,2.611,4.478,3.279
				c1.312,0.574,3.36,0.575,5.007,0.577c2.499,0.002,4.859,0.003,5.959,2.019c0.673,1.235,0.22,2.774-1.017,3.45
				c-0.964,0.526-2.119,0.361-2.898-0.326c-0.478-0.057-1.364-0.058-2.046-0.058c-2.115-0.004-4.748-0.004-7.031-0.994
				c-2.293-0.997-4.175-2.673-5.832-4.15c-1.721-1.531-3.341-2.978-4.57-2.882c-3.762,0.291-6.85-0.902-8.476-3.275
				c-1.293-1.898-1.47-4.274-0.47-6.358C106.763,135.325,107.438,134.509,108.272,133.859z"/>
			<path fill="#8F4B22" d="M124.423,137.916c0,0-0.15-0.181-0.421-0.525c-0.283-0.387-0.67-0.777-1.131-1.289
				c-0.52-0.52-1.155-1.15-1.973-1.774c-0.81-0.628-1.77-1.277-2.896-1.909c-1.118-0.628-2.397-1.228-3.816-1.816
				c-1.424-0.595-2.981-1.141-4.668-1.809c-0.84-0.331-1.725-0.698-2.639-1.14c-0.914-0.449-1.874-0.979-2.822-1.782
				c-0.947-0.782-1.891-1.946-2.357-3.334c-0.246-0.679-0.373-1.394-0.401-2.06c-0.015-0.334-0.035-0.677-0.003-0.987l0.037-0.472
				l0.021-0.236l0.004-0.028l0.03-0.187l0.011-0.045l0.017-0.086l0.144-0.69c0.01-0.087,0.068-0.276,0.127-0.462l0.179-0.532
				c0.113-0.367,0.269-0.69,0.443-0.994c0.171-0.31,0.331-0.619,0.572-0.903c0.86-1.19,2.195-2.056,3.456-2.456
				c2.549-0.758,4.708-0.369,6.624,0.018c1.913,0.442,3.61,1.1,5.173,1.781c1.561,0.679,2.967,1.422,4.233,2.153
				c2.543,1.448,4.493,2.894,5.848,3.963c1.337,1.069,2.068,1.894,2.068,1.894c0.548,0.611,0.497,1.56-0.119,2.11
				c-0.557,0.493-1.381,0.499-1.942,0.046c0,0-0.613-0.502-1.95-1.333c-1.32-0.84-3.324-1.933-5.776-3.078
				c-2.45-1.12-5.415-2.335-8.498-2.931c-1.507-0.277-3.094-0.302-4.103,0.045c-0.481,0.188-0.767,0.41-1,0.742
				c-0.071,0.063-0.108,0.184-0.161,0.283c-0.061,0.103-0.109,0.203-0.123,0.286c-0.012,0.046-0.028,0.09-0.049,0.131
				c-0.018,0.039-0.043,0.069-0.065,0.217l-0.126,0.69l-0.015,0.087l-0.009,0.042c-0.024,0.156,0.031-0.182,0.023-0.143v0.014
				l-0.007,0.115l-0.015,0.228c-0.026,0.158-0.002,0.283,0,0.418c0.006,0.27,0.057,0.485,0.127,0.681
				c0.137,0.393,0.384,0.744,0.851,1.144c0.952,0.785,2.511,1.52,4.068,2.16c1.574,0.645,3.201,1.304,4.73,2.008
				c1.539,0.696,2.985,1.479,4.267,2.31c2.59,1.643,4.417,3.568,5.548,4.974c0.586,0.752,1,1.373,1.202,1.725
				c0.231,0.375,0.355,0.576,0.355,0.576c0.545,0.883,0.269,2.042-0.615,2.591C126.062,138.846,125.006,138.646,124.423,137.916z"/>
			<path fill="#8F4B22" d="M110.758,116.454c0,0-0.12-0.098-0.343-0.29c-0.062-0.042-0.384-0.356-0.63-0.626
				c-0.303-0.316-0.454-0.572-0.701-0.923c-0.85-1.366-1.609-3.444-1.245-6.028c0.194-1.272,0.681-2.754,1.859-4.019l0.47-0.449
				l0.115-0.108l0.159-0.122l0.044-0.033l0.164-0.113l0.348-0.25l0.606-0.354c0.811-0.434,1.588-0.671,2.446-0.787
				c1.701-0.232,3.247,0.139,4.56,0.561c1.336,0.439,2.462,0.946,3.604,1.385c1.163,0.464,2.308,0.897,3.505,1.442
				c1.193,0.496,2.302,1.081,3.399,1.613c1.062,0.609,2.121,1.128,3.063,1.769c0.955,0.615,1.855,1.198,2.635,1.837
				c0.395,0.31,0.774,0.602,1.133,0.885c0.34,0.314,0.658,0.617,0.961,0.901c0.602,0.566,1.125,1.057,1.492,1.548
				c0.766,0.931,1.204,1.462,1.204,1.462c0.65,0.796,0.536,1.971-0.258,2.628c-0.78,0.642-1.916,0.545-2.583-0.198l-0.176-0.201
				c0,0-0.371-0.422-1.023-1.15c-0.295-0.387-0.756-0.783-1.281-1.241c-0.261-0.228-0.533-0.476-0.825-0.735
				c-0.32-0.23-0.663-0.47-1.015-0.729c-0.682-0.532-1.505-1.022-2.374-1.542c-0.849-0.537-1.845-0.987-2.824-1.507
				c-1.026-0.456-2.074-0.965-3.163-1.372c-1.058-0.44-2.259-0.855-3.434-1.277c-1.199-0.417-2.374-0.891-3.383-1.181
				c-1.021-0.298-1.916-0.409-2.539-0.283c-0.168,0.012-0.3,0.083-0.453,0.113c-0.112,0.067-0.313,0.119-0.355,0.175
				c-0.039,0.022-0.079,0.04-0.122,0.054l-0.324,0.247l-0.165,0.126l-0.04,0.028l-0.021,0.02l-0.009,0.006
				c0.22-0.171,0.058-0.045,0.106-0.083l-0.027,0.036c-0.031,0.04-0.068,0.079-0.109,0.117c-0.281,0.326-0.476,0.859-0.537,1.426
				c-0.067,0.562,0.008,1.136,0.143,1.591c0.132,0.465,0.322,0.803,0.477,1.044c0.083,0.08,0.183,0.249,0.188,0.229
				c0.052,0.031-0.049,0.005,0.13,0.129c0.232,0.183,0.354,0.279,0.354,0.279c1.105,0.863,1.301,2.468,0.434,3.572
				c-0.862,1.104-2.456,1.299-3.566,0.434C110.811,116.498,110.781,116.47,110.758,116.454z"/>
			<path fill="#8F4B22" d="M121.809,98.569c1.174-0.914,2.602-1.3,3.713-1.524c6.399-1.286,13.76,2.778,16.625,4.587
				c7.506,4.729,14.743,13.496,17.607,21.319c0.483,1.316-0.201,2.774-1.516,3.258c-1.32,0.485-2.779-0.193-3.262-1.51
				c-2.471-6.756-9.006-14.644-15.541-18.766c-3.779-2.381-9.157-4.659-12.913-3.905c-1.428,0.287-1.664,0.626-1.663,0.632
				c-0.001,0.004-0.258,0.53,0.371,2.366c0.457,1.325-0.253,2.77-1.584,3.226c-1.328,0.454-2.773-0.254-3.229-1.587
				c-0.593-1.743-1.24-4.322,0.035-6.54C120.82,99.486,121.289,98.976,121.809,98.569z"/>
			<path fill="#8F4B22" d="M159.086,179.741c0,0,0.443-0.093,1.215-0.252c0.381-0.075,0.852-0.164,1.393-0.262
				c0.541-0.093,1.152-0.202,1.77-0.368c0.627-0.153,1.308-0.313,2.027-0.487c0.717-0.129,1.471-0.393,2.247-0.615
				c0.774-0.245,1.599-0.41,2.394-0.716c0.794-0.295,1.611-0.578,2.422-0.855c0.178-0.062,0.465-0.153,0.553-0.195l0.616-0.261
				c0.411-0.172,0.821-0.342,1.228-0.515c0.404-0.163,0.81-0.328,1.209-0.492c0.361-0.177,0.727-0.352,1.082-0.523
				c0.715-0.337,1.415-0.627,2.07-0.966c0.66-0.338,1.281-0.656,1.859-0.95c0.593-0.267,1.108-0.562,1.569-0.819
				c0.47-0.25,0.875-0.472,1.212-0.651c0.674-0.356,1.078-0.542,1.078-0.542l0.096-0.042c0.684-0.309,1.49-0.013,1.802,0.671
				c0.252,0.549,0.104,1.18-0.312,1.568c0,0-0.341,0.31-0.964,0.827c-0.314,0.255-0.695,0.565-1.137,0.92
				c-0.434,0.369-0.956,0.732-1.541,1.107c-0.588,0.369-1.226,0.776-1.904,1.199c-0.68,0.415-1.477,0.771-2.26,1.183
				c-0.396,0.189-0.807,0.386-1.215,0.585c-0.405,0.159-0.812,0.325-1.222,0.486c-0.41,0.159-0.825,0.316-1.242,0.475l-0.625,0.235
				c-0.333,0.123-0.476,0.148-0.723,0.225c-0.893,0.267-1.78,0.528-2.663,0.767c-0.874,0.251-1.771,0.376-2.619,0.55
				c-0.857,0.146-1.666,0.329-2.48,0.389c-0.797,0.071-1.555,0.14-2.252,0.199c-1.395,0.13-2.484,0.033-3.28,0.044
				c-0.789-0.025-1.237-0.04-1.237-0.04c-0.526-0.02-0.932-0.457-0.919-0.98C158.348,180.195,158.668,179.829,159.086,179.741z"/>
			<path fill="#8F4B22" d="M155.939,165.538c0,0,0.405,0.037,1.12,0.104c0.312-0.002,0.684,0,1.114,0.002
				c0.438-0.01,0.982-0.058,1.551-0.085c0.576-0.062,1.202-0.13,1.857-0.221c0.652-0.129,1.357-0.208,2.059-0.387
				c1.418-0.306,2.899-0.74,4.292-1.304l0.269-0.1l0.063-0.023l0.033-0.014c0.065-0.027-0.081,0.036-0.062,0.025l0.009-0.003
				l0.015-0.006l0.141-0.068l0.553-0.268c0.356-0.179,0.748-0.35,1.074-0.53c0.605-0.379,1.199-0.674,1.79-1.106
				c0.598-0.384,1.147-0.797,1.656-1.203c0.525-0.382,0.967-0.82,1.401-1.182c0.837-0.773,1.486-1.454,1.922-1.941
				c0.419-0.492,0.659-0.773,0.659-0.773l0.066-0.076c0.808-0.954,2.235-1.07,3.187-0.262c0.955,0.808,1.072,2.236,0.264,3.188
				c-0.029,0.034-0.061,0.067-0.09,0.103c0,0-0.312,0.321-0.853,0.887c-0.557,0.544-1.358,1.298-2.381,2.127
				c-0.528,0.393-1.063,0.857-1.702,1.271c-0.617,0.435-1.279,0.872-1.996,1.279c-0.682,0.434-1.521,0.816-2.313,1.222
				c-0.393,0.188-0.753,0.319-1.136,0.48l-0.566,0.233l-0.142,0.058l-0.104,0.044l-0.039,0.011l-0.078,0.027l-0.314,0.102
				c-1.668,0.588-3.354,1-4.945,1.266c-0.793,0.16-1.57,0.22-2.303,0.324c-0.733,0.068-1.434,0.113-2.08,0.148
				c-0.657,0.009-1.235,0.033-1.79,0.019c-0.564-0.034-1.056-0.062-1.462-0.086c-0.709-0.094-1.116-0.149-1.116-0.149
				c-0.86-0.117-1.466-0.914-1.347-1.776c0.116-0.841,0.865-1.432,1.705-1.357L155.939,165.538z"/>
			<path fill="#8F4B22" d="M151.577,156.274c0,0,1.005-0.986,2.565-2.397c0.451-0.334,0.936-0.689,1.452-1.068
				c0.521-0.367,1.06-0.809,1.643-1.164c0.591-0.35,1.2-0.707,1.82-1.074c0.607-0.386,1.288-0.657,1.938-0.985l0.985-0.474
				c0.433-0.207,0.68-0.274,1.026-0.416c0.645-0.244,1.277-0.484,1.891-0.717c0.609-0.231,1.266-0.419,1.856-0.592
				c0.594-0.173,1.184-0.359,1.673-0.481c0.493-0.13,0.951-0.25,1.355-0.354c0.438-0.1,0.707-0.202,0.954-0.283
				c0.496-0.159,0.798-0.229,0.798-0.229l0.35-0.084c0.668-0.161,1.344,0.255,1.507,0.921c0.122,0.538-0.111,1.074-0.548,1.349
				c0,0-0.339,0.215-0.963,0.556c-0.311,0.161-0.711,0.388-1.1,0.542c-0.402,0.168-0.852,0.36-1.35,0.565
				c-0.48,0.194-0.998,0.4-1.542,0.621c-0.545,0.229-1.106,0.396-1.712,0.671c-0.604,0.253-1.232,0.512-1.867,0.778
				c-0.293,0.121-0.707,0.276-0.903,0.379l-0.91,0.429c-0.605,0.289-1.226,0.548-1.798,0.874c-0.582,0.315-1.154,0.622-1.706,0.918
				c-0.566,0.279-1.039,0.624-1.528,0.907c-0.482,0.294-0.939,0.572-1.358,0.831c-1.704,1.233-2.872,2.018-2.872,2.018
				c-0.604,0.409-1.426,0.247-1.832-0.361C151.044,157.416,151.129,156.709,151.577,156.274z"/>
			<path fill="#8F4B22" d="M190.526,185.526c0,0-0.392-1.036-1.075-2.843c-7.992-21.039-20.023-39.74-34.05-57.244l-0.07-0.091
				c-0.878-1.097-0.7-2.696,0.396-3.574c1.094-0.88,2.696-0.699,3.573,0.395c0.006,0.009,0.021,0.03,0.03,0.039
				c0,0,0.683,0.882,1.876,2.431c0.595,0.774,1.322,1.713,2.149,2.79c13.281,17.238,23.373,36.349,30.695,56.795
				c0.35,0.977-0.16,2.053-1.137,2.403C191.949,186.974,190.888,186.478,190.526,185.526z"/>
			<path fill="#A68772" d="M150.098,195.388c0,0,19.276,0.578,43.017-11.238c0.573-0.281,6.067,17.378,6.571,19.419
				c2.877,11.631,0.814,25.375-8.031,33.901c-7.942,7.659-23.261,9.666-31.42,0.495c-4.652-5.227-7.049-12.24-8.404-18.991
				C151.421,216.944,149.826,195.351,150.098,195.388z"/>
			<path fill="#61442F" d="M157.641,239.12c8.14,9.75,22.954,9.813,32.938,2.866c11.413-7.946,14.717-23.55,12.204-36.528
				c-0.792-4.088-2.252-8.062-3.563-12.01c-0.684-2.058-1.376-4.112-2.113-6.152c-0.555-1.538-1.009-3.461-2.104-4.72
				c-0.084-0.019-0.007-0.226-1.091-0.716c-1.637-0.135,0.098-0.325-1.881,0.128c-6.985,3.373-14.066,6.311-21.565,8.362
				c-3.764,1.029-7.607,1.842-11.469,2.408c-2.867,0.42-5.868,0.837-8.777,0.767l0.117,0.161c0,0-0.062-0.012-0.217-0.014
				c-0.147,0.004-0.438,0.002-0.832,0.205c-0.398,0.171-0.775,0.725-0.831,0.975c-0.337,1.166-0.142,2.581-0.12,3.777
				c0.03,1.891,0.103,3.782,0.19,5.668c0.183,4.205,0.337,8.41,0.67,12.604c0.312,3.927,1.285,7.827,2.587,11.546
				C153.114,232.243,154.972,236.075,157.641,239.12z M160.776,234.323c-3.909-5.408-6.211-12.145-6.962-18.741
				c-0.688-6.09-1.386-12.196-1.896-18.302l-0.869-0.011c6.637-0.008,13.338-1.079,19.776-2.615
				c7.248-1.727,14.33-4.171,21.097-7.292c1.253,3.481,2.334,7.034,3.401,10.575c0.993,3.274,2.046,6.525,2.511,9.926
				c0.885,6.482,0.23,13.343-2.436,19.361c-2.825,6.411-7.961,11.312-14.781,13.171c-5.942,1.619-13.259,1.024-17.756-3.636
				c-0.19-0.197-0.385-0.398-0.578-0.592c-0.004-0.008-0.003-0.006,0,0C161.77,235.566,161.279,234.94,160.776,234.323
				C158.199,230.756,161.118,234.744,160.776,234.323z"/>
		</g>
	</g>
	<g id="PC_2_">
	</g>
	<g id="PC_1_">
	</g>
	<g id="PC">
	</g>
</g>
<g id="Fire_pit">
</g>
<g id="reusables">
	<g id="PC_4_">
	</g>
	<g id="PC_3_">
	</g>
</g>
<g id="donkey">
</g>
<g id="Characters">
</g>
<g id="Text_Box">
	<g id="TextBoxDummy_7_">
	</g>
	<g id="TextBoxDummy_6_">
	</g>
	<g id="TextBoxDummy_5_">
	</g>
	<g id="TextBoxDummy_4_">
	</g>
	<g id="TextBoxDummy_3_">
	</g>
	<g id="TextBoxDummy_2_">
	</g>
	<g id="TextBoxDummy_1_">
	</g>
	<g id="TextBoxDummy">
	</g>
</g>
<g id="labels_x2F_divider">
</g>
</svg>
