<?xml version="1.0" encoding="utf-8"?>
<!-- Generator: Adobe Illustrator 16.0.0, SVG Export Plug-In . SVG Version: 6.00 Build 0)  -->
<!DOCTYPE svg PUBLIC "-//W3C//DTD SVG 1.1 Tiny//EN" "http://www.w3.org/Graphics/SVG/1.1/DTD/svg11-tiny.dtd">
<svg version="1.1" baseProfile="tiny" xmlns="http://www.w3.org/2000/svg" xmlns:xlink="http://www.w3.org/1999/xlink" x="0px"
	 y="0px" width="500px" height="500px" viewBox="0 0 500 500" xml:space="preserve">
<g id="parts">
</g>
<g id="BGs">
</g>
<g id="Compositions">
	<g id="PC_2_">
	</g>
	<g id="PC_1_">
	</g>
	<g id="PC">
	</g>
</g>
<g id="Fire_pit">
</g>
<g id="reusables">
	<g id="PC_4_">
	</g>
	<g id="PC_3_">
	</g>
	<g id="Leroy_x27_s_Pointin_x27__Finger">
		<g>
			<path fill="#CED2B5" d="M105.788,301.538c0,0,84.443,45.067,135.949,21.191c-3.826-18.966-12.639-57.875-12.639-57.875
				s-41.596,2.621-61.51-4.193c0,0-50.002-24.465-76.496-5.812C64.595,273.496,105.788,301.538,105.788,301.538z"/>
			<path fill="#8E917E" d="M149.495,319.171c27.764,4.279,55.807,7.481,83.805,9.724c11.557,0.924,14.723-16.945,3.043-17.88
				c-26.479-2.119-53.311-4.943-78.738-13.035c-12.654-4.028-25.939-11.306-39.627-10.494c-7.91,0.469-19.439,13.278-7.375,16.776
				C117.825,306.357,149.495,319.171,149.495,319.171z"/>
			<path fill="#F8C78E" d="M306.243,270.692c-7.285-7.681-14.465-15.459-21.742-23.144c-34.307,13.737-55.402,17.306-55.402,17.306
				l12.639,57.875c0,0,33.174-2.239,72.916-43.246C311.835,276.565,309.032,273.633,306.243,270.692z"/>
			<path fill="#705A34" d="M155.319,303.038c-0.066,0.113-0.074,0.152-0.143,0.232c-0.09,0.133-0.166,0.223-0.32,0.43
				c-3.98,5.258-3.736,12.641,1.508,17.025c2.232,1.88,5.164,2.77,8.084,2.731c2.396,1.822,5.438,2.845,8.475,2.575
				c6.4-0.578,10.734-5.927,10.926-12.071c0.068-0.547,0.213-1.087,0.328-1.608c0.4-1.65,0.379-3.338,0.373-5.027
				c0.008-4.807-3.494-9.086-6.848-12.085c-4.318-3.854-9.955-3.226-14.639-0.681c-2.15,1.177-3.979,2.933-5.455,4.879
				C156.831,300.639,156.073,301.828,155.319,303.038z"/>
			<path fill="#B78A56" d="M246.138,318.994c21.154,0.671,44.49-18.506,62.4-29.27c6.707-4.023-0.236-13.938-6.875-9.951
				c-16.229,9.763-36.188,21.432-56.596,27.182C237.587,309.062,238.442,318.75,246.138,318.994z"/>
			<path fill="#717261" d="M235.63,267.588c-20.227,1.648-40.34,1.144-60.307-2.818c-4.453-0.882-7.371-2.475-11.379-4.549
				c-4.795-2.479-9.725-4.707-14.775-6.625c-9.336-3.556-19.336-6.292-29.398-6.312c-5.627-0.02-11.15,0.888-15.93,3.187
				c-2.381,1.147-4.604,2.578-6.541,4.357c-3.953,3.416-7.215,8.331-8.977,13.216c-0.855,2.406-1.236,4.847-1.055,7.222
				c0.336,4.731,3.014,9.28,6.969,13.005c6.738,6.458,16.082,10.456,24.439,14.395c9.426,4.438,19.189,8.169,29.146,11.255
				c19.281,5.967,39.498,9.498,59.725,9.207c8.082-0.102,16.053-0.94,24.023-2.146c1.885-0.282,3.766-0.717,5.631-1.102
				c3.168-0.644,8.309-3.322,11.348-1.04c2.723,2.051,2.207,6.437-0.934,7.779c-3.404,1.463-7.543,1.922-11.18,2.641
				c-5.248,1.028-10.516,1.709-15.838,2.258c-20.09,2.043-40.754-0.208-60.344-4.866c-19.322-4.601-38.746-11.477-56.051-21.344
				l0.607,0.299c-6.137-2.603-11.951-6.261-16.775-10.886c-2.453-2.357-4.725-5.07-6.469-8.252
				c-1.746-3.158-2.932-6.788-3.209-10.533c-0.285-3.747,0.34-7.47,1.531-10.823c2.316-6.321,6.352-12.468,11.443-16.909
				c2.578-2.355,5.547-4.287,8.689-5.785c6.305-3.013,13.195-4.056,19.775-4.032c18.871,0.063,38.213,7.762,54.234,17.287
				l-1.209-0.513c13.137,3.157,26.895,4.479,40.389,4.643c6.85,0.086,13.67-0.282,20.484-0.893c2.482-0.231,5.014,0.306,5.811,3.055
				C240.276,264.599,238.372,267.367,235.63,267.588C232.952,267.808,238.058,267.395,235.63,267.588z"/>
			<path fill="#717261" d="M196.503,335.557c0,0-0.398-5.103-0.662-12.753c-0.082-3.833-0.289-8.302-0.322-13.086
				c-0.076-4.783-0.059-9.883-0.035-14.99c0.051-5.103,0.121-10.209,0.262-14.983c0.121-4.78,0.354-9.247,0.496-13.072
				c0.148-3.823,0.416-7.015,0.527-9.247c0.178-2.226,0.273-3.502,0.273-3.502c0.137-1.788,1.701-3.125,3.48-2.984
				c1.631,0.127,2.893,1.441,2.986,3.028c0,0,0.08,1.271,0.229,3.51c0.086,2.229,0.305,5.425,0.406,9.246
				c0.088,3.827,0.256,8.294,0.33,13.083c0.07,4.777,0.074,9.883,0.057,14.983c-0.047,5.104-0.092,10.204-0.229,14.99
				c-0.096,4.777-0.363,9.246-0.506,13.068c-0.357,7.656-0.826,12.749-0.826,12.749c-0.16,1.787-1.738,3.104-3.523,2.935
				C197.843,338.387,196.622,337.104,196.503,335.557z"/>
			<path fill="#717261" d="M215.808,261.878l1.92,36.762c0.086,1.677-1.195,3.105-2.879,3.186c-1.578,0.087-2.949-1.082-3.164-2.621
				l-4.902-36.484c-0.334-2.487,1.412-4.765,3.895-5.099c2.475-0.338,4.766,1.403,5.096,3.887
				C215.798,261.629,215.804,261.761,215.808,261.878z"/>
			<path fill="#717261" d="M224.864,324.288l-2.75-35.344c-0.105-1.407,0.945-2.635,2.348-2.738c1.314-0.11,2.473,0.799,2.711,2.069
				l6.674,34.806c0.461,2.461-1.139,4.837-3.611,5.316c-2.455,0.466-4.838-1.148-5.309-3.611
				C224.892,324.624,224.872,324.451,224.864,324.288z"/>
			<g>
				<path fill="#8A6541" d="M300.03,199.964c-0.008,0.009,0.018,0.007,0.027,0.008l0.004-0.008H300.03z"/>
			</g>
			<path fill="#8A6541" d="M234.642,257.802c10.691-1.036,21.301-2.564,31.611-5.741c5.395-1.663,10.637-3.708,15.73-6.131
				c2.723-1.291,7.771-3.639,8.951,0.98c1,3.92-5.084,6.14-7.689,7.589c-5.039,2.803-10.377,5.216-15.791,7.206
				c-10.213,3.755-20.629,6.31-31.332,8.258C227.163,271.606,225.687,258.733,234.642,257.802z"/>
			<path fill="#8A6541" d="M245.548,315.179c14.297-3.849,27.318-9.087,39.938-16.896c6.742-4.166,13.338-9.237,19.084-14.7
				c2.58-2.454,6.262-9.076,10.473-4.668c1.895,1.981,1.047,4.415-0.555,6.171c-2.436,2.678-2.047,2.99-4.551,5.588
				c-5.982,6.189-12.547,11.959-19.529,16.978c-12.658,9.098-26.188,15.454-40.857,20.525
				C240.976,331.144,236.796,317.573,245.548,315.179z"/>
			<path fill="#717261" d="M242.472,333.019c0,0-1.531-4.79-3.572-12.052c-0.994-3.628-2.191-7.887-3.303-12.497
				c-1.107-4.606-2.303-9.523-3.484-14.441c-2.229-9.704-4.467-19.412-6.129-26.689c-1.686-7.337-2.674-12.261-2.674-12.261
				c-0.367-1.857,0.828-3.667,2.689-4.044c1.691-0.342,3.352,0.636,3.91,2.225c0,0,1.684,4.756,3.891,11.988
				c1.078,3.609,2.355,7.914,3.619,12.504c0.65,2.305,1.223,4.642,1.801,7.059c0.578,2.432,1.164,4.898,1.758,7.373
				c1.076,4.866,2.146,9.739,3.16,14.309c0.955,4.593,1.85,8.885,2.619,12.566c1.516,7.385,2.355,12.352,2.355,12.352
				c0.316,1.865-0.938,3.632-2.801,3.951C244.604,335.657,242.978,334.629,242.472,333.019z"/>
		</g>
		<g>
			<path fill="#F8C78E" d="M420.476,203.39c-4.652-10.482-25.705-7.814-36.334-6.498c-14.332,1.778-27.547,5.948-41.084,10.017
				l-5.016-1.245c7.48-6.611,8.096-18.2,5.184-27.219c-2.492-7.707-8.742-22.6-19.934-14.788c-5.271,3.681-2.498,8.744-2.396,13.669
				c0.125,6.068-2.625,8.76-7.031,12.907c-7.965,7.495-19.99,14.882-26.051,24.351c-8.139,12.715-4.391,22.359-0.033,35.536
				l3.102-2.816l-6.416,11.575l20.748,19.688l19.738,11.505l10.17-0.762l38.084-59.98c12.781-0.395,19.381-2.552,32.424-6.734
				C413.7,220.007,425.583,214.899,420.476,203.39z"/>
			<path fill="#B78A56" d="M414.253,210.231c-19.799,3.646-38.41,12.082-58.82,12.41c-4.266,0.069-4.16,7.353,0.088,7.511
				c20.623,0.765,40.178-6.742,59.992-11.354C420.866,217.552,419.81,209.208,414.253,210.231z"/>
			<path fill="#B78A56" d="M326.567,276.972c-7.754-1.896-15.914-3.59-22.205-8.808c-3.74-3.104-8.076,2.773-4.525,5.932
				c7.234,6.432,16.551,8.851,25.703,11.21C330.749,286.649,331.786,278.247,326.567,276.972z"/>
			<path fill="#F8C78E" d="M332.874,254.997c2.34,0.791,5.359,1.577,8.781,2.254l-1.811,0.018
				c-11.225-0.271-17.84,11.801-11.416,20.53c6.387,8.682,18.682,9.799,28.695,9.887c20.627,0.183,31.336-7.008,26.293-30.842
				l-5.004,0.049c7.682-2.612,12.871-7.659,12.119-16.551c-0.279-3.312-3.354-8.086-6.805-9.519l-11.434-1.411
				c-13.883,2.317-29.598-2.524-43.289,4.063C316.753,239.368,321.892,251.285,332.874,254.997z"/>
			<path fill="#B78A56" d="M382.761,242.621c-17.457,6.791-36.23,2.22-53.744-1.821c-4.863-1.123-6.84,6.789-2.219,8.431
				c18.662,6.625,40.918,9.657,59.781,2.269C392.384,249.226,388.565,240.361,382.761,242.621z"/>
			<path fill="#B78A56" d="M371.157,273.226c-5.49,0.561-10.666,2.001-16.273,1.992c-6.619-0.011-13.371-1.354-19.484-3.899
				c-4.156-1.73-7.855,4.358-3.988,6.939c6.324,4.219,13.229,5.767,20.787,6.246c6.639,0.423,15.316,0.393,21.414-2.615
				C378.249,279.599,376.351,272.694,371.157,273.226z"/>
			<path fill="#B78A56" d="M336.452,190.521c-5.021,5.263-8.801,11.701-14.938,15.836c-3.633,2.448-0.053,8.033,3.805,6.429
				c7.797-3.243,13.152-10.401,18.09-16.957C346.892,191.211,340.253,186.54,336.452,190.521z"/>
		</g>
		
			<path fill="none" stroke="#8A6541" stroke-width="8.6383" stroke-linecap="round" stroke-linejoin="round" stroke-miterlimit="10" d="
			M287.78,250.119c-4.357-13.177-8.105-22.821,0.033-35.536c6.061-9.469,18.086-16.855,26.051-24.351
			c4.406-4.147,7.156-6.839,7.031-12.907c-0.102-4.925-2.875-9.988,2.396-13.669c11.191-7.812,17.441,7.081,19.934,14.788
			c3.418,10.582,1.984,24.709-9.707,30.174"/>
		
			<path fill="none" stroke="#8A6541" stroke-width="8.6383" stroke-linecap="round" stroke-linejoin="round" stroke-miterlimit="10" d="
			M332.628,209.958c17.305-4.837,33.529-10.835,51.514-13.066c10.629-1.316,31.682-3.984,36.334,6.498
			c5.107,11.51-6.775,16.617-14.846,19.205c-13.352,4.281-19.934,6.445-33.328,6.765"/>
		
			<path fill="none" stroke="#8A6541" stroke-width="8.6383" stroke-linecap="round" stroke-linejoin="round" stroke-miterlimit="10" d="
			M372.302,229.359c-13.945,2.815-29.602-2.498-43.295,4.089c-12.252,5.894-7.115,17.837,3.867,21.549
			c15.371,5.194,59.766,10.189,57.662-14.681c-0.279-3.312-3.404-7.675-6.803-9.546"/>
		
			<path fill="none" stroke="#8A6541" stroke-width="8.6383" stroke-linecap="round" stroke-linejoin="round" stroke-miterlimit="10" d="
			M383.417,256.844c5.043,23.834-5.666,31.024-26.293,30.842c-10.014-0.088-22.309-1.205-28.695-9.887
			c-6.424-8.729,0.191-20.801,11.416-20.53"/>
		
			<path fill="none" stroke="#8A6541" stroke-width="8.6383" stroke-linecap="round" stroke-linejoin="round" stroke-miterlimit="10" d="
			M297.997,273.142c0,0,17.174,19.526,44.666,14.215"/>
	</g>
</g>
<g id="donkey">
</g>
<g id="Characters">
</g>
<g id="Text_Box">
	<g id="TextBoxDummy_7_">
	</g>
	<g id="TextBoxDummy_6_">
	</g>
	<g id="TextBoxDummy_5_">
	</g>
	<g id="TextBoxDummy_4_">
	</g>
	<g id="TextBoxDummy_3_">
	</g>
	<g id="TextBoxDummy_2_">
	</g>
	<g id="TextBoxDummy_1_">
	</g>
	<g id="TextBoxDummy">
	</g>
</g>
<g id="labels_x2F_divider">
</g>
</svg>
