<?xml version="1.0" encoding="utf-8"?>
<!-- Generator: Adobe Illustrator 16.0.0, SVG Export Plug-In . SVG Version: 6.00 Build 0)  -->
<!DOCTYPE svg PUBLIC "-//W3C//DTD SVG 1.1//EN" "http://www.w3.org/Graphics/SVG/1.1/DTD/svg11.dtd">
<svg version="1.1" id="Layer_1" xmlns="http://www.w3.org/2000/svg" xmlns:xlink="http://www.w3.org/1999/xlink" x="0px" y="0px"
	 width="310px" height="310px" viewBox="0 0 310 310" enable-background="new 0 0 310 310" xml:space="preserve">
<g>
	<path fill="#59450E" d="M150,303.75c-11.671-11.238-19.229-38.67-20.605-43.28c-3.147-9.946-6.422-20.294-9.287-30.789
		c-5.742-21.032-9.883-40.32-2.354-63.41c7.266-22.28,20.861-35.194,37.3-35.428l0.45-0.01c0.902,0,2.678,0.072,3.582,0.146
		c10.231,1.131,19.691,7.129,27.402,17.348c6.784,8.99,10.898,21.577,11.586,35.439c0.245,4.95,0.059,9.975-0.556,14.934
		c-2.327,18.805-12.042,51.16-17.626,68.773c-0.166,0.523-0.275,0.871-0.322,1.02c-4.186,13.679-12.82,33.173-19.737,36.756
		C156.015,307.229,152.25,305.917,150,303.75z"/>
	<g>
		<path fill="#E1AD24" d="M183.312,152.252c-9.518-12.61-22.889-18.83-36.101-14.124c-11.624,4.14-20.567,15.761-25.252,30.124
			c-6.855,21.024-3.098,38.459,2.528,59.069c2.86,10.478,6.18,20.969,9.39,31.114c0,0,12.368,41.4,20.859,41.4
			c0.108,0,8.764,4.248,20.288-33.194c0.712-2.313,15.143-46.775,17.963-69.568c0.556-4.49,0.726-9.03,0.504-13.495
			C193.059,174.871,190.942,162.368,183.312,152.252z"/>
	</g>
	<g>
		<path fill="#E1AD24" d="M131.144,250.602l-0.224-0.715c-2.068-6.609-4.479-14.451-6.676-22.499
			c-5.637-20.65-9.402-38.123-2.524-59.214c4.979-15.268,14.24-26.306,25.406-30.283c2.946-1.05,5.977-1.583,9.009-1.583
			c4.913,0,9.784,1.368,14.479,4.066l0.183,0.105l-0.071,0.199L131.144,250.602z M156.135,136.812c-2.975,0-5.948,0.522-8.839,1.553
			c-11.019,3.924-20.166,14.846-25.098,29.964c-6.834,20.958-3.082,38.357,2.532,58.925c2.116,7.752,4.432,15.314,6.446,21.766
			l39.002-108.314C165.619,138.123,160.895,136.812,156.135,136.812z"/>
		<path fill="#FFC838" d="M185.713,155.807l-41.157,131.248c0.686,1.447,1.384,2.836,2.087,4.126l40.96-131.94
			C187.028,158.082,186.397,156.936,185.713,155.807z"/>
		<path fill="#F2D179" d="M134.246,259.642l40.558-116.139c-1.399-1.089-2.841-2.063-4.316-2.911L131.16,249.812
			c0.904,2.896,1.814,5.775,2.717,8.624C133.877,258.436,134.006,258.872,134.246,259.642z"/>
		<path fill="#FFF3D4" d="M182.34,151.007l-40.848,129.044c0.976,2.394,2.005,4.77,3.063,7.002l41.157-131.248
			c-0.733-1.21-1.53-2.397-2.401-3.555C182.992,151.83,182.668,151.416,182.34,151.007z"/>
		<path fill="#FFE194" d="M174.804,143.503l-40.558,116.139c0.97,3.127,3.766,11.869,7.246,20.41l40.848-129.044
			C180.021,148.117,177.489,145.598,174.804,143.503z"/>
	</g>
	<path fill="#B0861B" d="M266.956,100.112c-0.528,3.111-1.187,6.177-1.958,9.197c1.031-0.162,2.064-0.322,3.098-0.482
		C267.817,105.891,267.443,102.982,266.956,100.112z"/>
	<path fill="#FFC838" d="M268.096,108.828l-1.14-8.715c-9.131-53.768-55.409-94.691-111.164-94.691S53.759,46.345,44.629,100.112
		c-1.075,6.326-1.666,12.82-1.666,19.456c0,12.706,2.058,24.923,5.845,36.339l-0.475-0.407
		c15.842,43.661,58.808,78.213,107.459,78.213c62.314,0,112.83-51.106,112.83-114.145
		C268.622,115.943,268.431,112.364,268.096,108.828z"/>
	<path fill="#FFF3D4" d="M102.781,219.458L243.043,47.232c-4.35-5.367-9.17-10.328-14.402-14.812L67.805,189.785
		C77.454,201.727,89.368,211.905,102.781,219.458z"/>
	<path fill="#59450E" d="M45.463,119.568c0-6.266,0.549-12.671,1.631-19.038c4.353-25.632,17.586-49.083,37.264-66.033
		c19.897-17.139,45.267-26.577,71.435-26.577s51.537,9.438,71.435,26.577c9.211,7.934,16.987,17.305,23.124,27.644
		c1.446-0.828,2.896-1.649,4.344-2.473c-6.419-10.833-14.56-20.651-24.205-28.959c-20.804-17.92-47.332-27.789-74.697-27.789
		s-53.894,9.869-74.697,27.789C60.537,48.417,46.711,72.917,42.164,99.693c-1.129,6.643-1.701,13.33-1.701,19.875
		c0,24.654,7.608,47.542,20.565,66.4c1.346-0.983,2.689-1.969,4.037-2.95C52.714,164.988,45.463,143.121,45.463,119.568z"/>
	<path fill="#59450E" d="M254.694,59.669c-1.448,0.824-2.897,1.645-4.344,2.473c6.975,11.75,11.825,24.754,14.141,38.389
		c1.082,6.366,1.631,12.771,1.631,19.037c0,61.561-49.494,111.645-110.33,111.645c-37.562,0-70.792-19.097-90.727-48.194
		c-1.348,0.981-2.691,1.966-4.037,2.95c20.847,30.34,55.547,50.245,94.764,50.245c63.593,0,115.33-52.327,115.33-116.645
		c0-6.546-0.572-13.232-1.701-19.875C267.007,85.48,261.956,71.923,254.694,59.669z"/>
	<path fill="#B5C24D" d="M254.948,119.568c0,55.4-44.395,100.311-99.156,100.311c-54.761,0-99.155-44.911-99.155-100.311
		c0-55.403,44.395-100.313,99.155-100.313C210.554,19.255,254.948,64.166,254.948,119.568z"/>
	<g>
		<path fill="#562F21" d="M51.768,61.782c-0.029,0.018-0.143,0.096-0.098,0.066C51.703,61.826,51.735,61.805,51.768,61.782z"/>
		<path fill="#B5C24D" d="M246.896,162.523l0.57-3.683c0.905-5.841,2.688-11.839,5.3-17.829c0.38-0.872,0.787-1.75,1.207-2.63
			l1.713-3.588l-0.788,3.896c-1.415,6.992-3.601,13.863-6.497,20.424L246.896,162.523z M252.779,143.517
			c-1.437,3.564-2.573,7.124-3.399,10.642C250.714,150.675,251.851,147.118,252.779,143.517z"/>
		<path fill="#8E5135" d="M247.615,77.708c-0.191,1.508-0.493,3.026-0.939,4.562c-0.404,1.391-2.569,1.878-3.265,0.429
			c-2.039-4.232-3.665-9.068-7.028-12.096c0.46,5.312,0.528,11.398,0.528,15.398c0,3-3.571,3-3.571,0c0-5-0.07-12.544-0.893-19.076
			c-0.183-1.447,1.624-1.797,2.685-1.253c4.504,2.298,6.926,6.104,9.018,10.224c0.146-1.893,0.076-3.684-0.203-5.553
			c-5.335-9.615-12.207-18.222-20.292-25.553c-4.689,0.585-9.238,1.952-13.323,4.055c-13.438,6.11-18.571,22.613-17.878,36.093
			c0.492,9.548,3.999,18.192,6.261,26.948c0.194-4.73,1.252-9.178,5.541-12.838c7.142-6.089,16.67-4.748,21.458,3.436
			c5.859,10.017-1.214,27.877-6.035,36.825c-7.472,13.867-23.334,34.332-13.104,50.529c2.312,3.661,4.888,7.058,7.626,10.31
			c10.984-7.767,20.327-17.701,27.408-29.178c-0.587-6.187-0.085-12.484,1.398-18.583c2.2-11.602,8.188-22.739,13.392-33.243
			c0.001-0.149,0.006-0.298,0.006-0.448C256.404,104.086,253.261,90.21,247.615,77.708z"/>
		<path fill="#693829" d="M206.574,189.837c-10.23-16.197,5.632-36.662,13.104-50.529c4.821-8.948,11.895-26.807,6.035-36.824
			c-4.788-8.184-14.316-9.524-21.458-3.435c-4.289,3.659-5.347,8.11-5.541,12.84c1.888,7.311,2.908,14.703,0.572,22.773
			c-2.821,9.937-9.375,17.79-12.615,27.454c-2.309,6.887-2.688,13.901-2.002,21.066c1.744,9.99,7.097,18.441,13.731,26.086
			c5.562-2.564,10.848-5.622,15.8-9.123C211.462,196.895,208.886,193.498,206.574,189.837z"/>
		<path fill="#FFF7D7" d="M244.149,76.039c-2.092-4.119-4.514-7.781-9.018-10.079c-1.061-0.544-2.867-0.483-2.685,0.964
			C233.27,73.456,233.34,81,233.34,86c0,3,3.571,3,3.571,0c0-4-0.068-10.086-0.528-15.398c3.363,3.028,4.989,7.575,7.028,11.807
			c0.695,1.45,2.86,1.107,3.265-0.284c0.446-1.537,0.748-2.982,0.939-4.49c-1.124-2.489-2.353-4.884-3.669-7.258
			C244.226,72.247,244.296,74.146,244.149,76.039z"/>
		<path fill="#562F21" d="M243.007,152.386c-1.483,6.099-1.985,12.396-1.398,18.583c0.717-1.16,1.407-2.336,2.076-3.526
			c1.553-2.764,2.978-5.609,4.267-8.528c2.806-5.845,4.033-7.809,5.998-16.894c0.199-0.925,0.467-3.43,0.467-3.43
			c1.042-5.143,1.683-10.43,1.899-15.827c0.048-1.202,0.077-2.409,0.083-3.622C251.194,129.646,245.207,140.784,243.007,152.386z"/>
		<path fill="#562F21" d="M184.674,183.24c-0.002-0.019-0.003-0.038-0.005-0.058c0,0,0-0.001,0-0.001
			C184.674,183.216,184.643,182.998,184.674,183.24z"/>
		<g>
			<path fill="#562F21" d="M198.714,111.89c-4.185-11.119-5.769-17.395-6.261-26.943c-0.693-13.479,4.44-29.974,17.878-36.084
				c4.085-2.104,8.634-3.452,13.323-4.037c-1.047-0.95-2.117-1.875-3.203-2.78c-0.713-0.593-1.432-1.18-2.162-1.754
				c-9.156,2.467-17.635,7.749-23.887,16.081c-10.777,14.362-8.519,35.26-3.635,51.318c1.205,3.966,2.965,7.858,3.385,12.019
				c0.938,9.279-3.097,19.422-8.098,27.041l0.168-0.231c-10.42,13.812-12.357,34.259-4.845,49.854
				c2.785,5.778,6.493,10.852,10.686,15.555c1.027-0.39,2.048-0.793,3.058-1.215c0.179-0.074,0.356-0.146,0.534-0.222
				c0.924-0.392,1.837-0.801,2.745-1.22c-6.635-7.645-11.987-16.096-13.731-26.086c0.002,0.02,0.021,0.039,0.023,0.058
				c-0.03-0.241,0.015-0.028,0.016-0.06c-0.982-7.164-0.326-14.178,1.981-21.064c3.24-9.664,9.785-17.517,12.606-27.454
				c2.336-8.07,1.31-15.462-0.577-22.773"/>
			<polygon fill="#562F21" points="184.708,183.181 184.708,183.181 184.708,183.183 			"/>
		</g>
		<path fill="#8E5135" d="M67.904,74.756c1.06-0.544,2.869-0.382,2.687,1.067C69.768,82.354,69.697,89,69.697,95
			c0,3-3.573,3-3.573,0c0-5,0.07-10.188,0.53-15.499c-1.518,1.366-2.675,3.231-3.683,4.984c-3.844,10.603-5.942,22.161-5.942,34.091
			c0,32.508,15.564,61.438,39.644,79.635c9.772-16.139-5.898-36.371-13.315-50.135c-4.818-8.948-11.895-26.792-6.034-36.812
			c4.787-8.183,14.317-9.516,21.456-3.425c4.366,3.725,5.386,8.271,5.554,13.093c2.346-8.87,6.032-17.619,6.567-27.177
			c0.643-10.589-2.044-21.232-9.228-29.05c-5.231-5.924-12.975-9.577-20.872-10.612c-5.471,6.423-10.146,13.546-13.86,21.222
			C67.258,75.125,67.563,74.929,67.904,74.756z"/>
		<path fill="#693829" d="M98.779,107.847c-7.139-6.091-16.669-4.75-21.456,3.433c-5.86,10.02,1.216,27.878,6.034,36.827
			c7.417,13.763,23.088,34.026,13.315,50.165c4.842,3.66,10.029,6.885,15.504,9.624c2.966-4.885,5.178-10.144,6.19-15.917
			c0.688-7.162,0.306-14.18-1.999-21.065c-3.241-9.664-9.81-17.512-12.638-27.448c-2.343-7.93-1.318-15.269,0.603-22.529
			C104.165,116.113,103.146,111.57,98.779,107.847z"/>
		<path fill="#FFF7D7" d="M66.124,95c0,3,3.573,3,3.573,0c0-6,0.07-12.646,0.894-19.177c0.183-1.449-1.627-1.849-2.687-1.305
			c-0.341,0.174-0.646,0.489-0.964,0.678c-1.478,3.053-2.803,6.252-3.969,9.469c1.008-1.753,2.165-3.826,3.683-5.192
			C66.194,84.782,66.124,90,66.124,95z"/>
		<path fill="#562F21" d="M118.367,191.977C118.367,191.977,118.367,191.977,118.367,191.977c-0.002,0.021-0.003,0.041-0.005,0.06
			C118.393,191.792,118.364,192.012,118.367,191.977z"/>
		<g>
			<path fill="#562F21" d="M116.807,155.316l0.167,0.233c-7.65-11.634-9.684-23.471-5.389-36.255
				c5.644-16.994,8.346-37.431-2.186-53.181c-5.738-8.581-14.592-14.2-24.33-16.723c-0.545,0.564-1.085,1.135-1.617,1.712
				c-0.903,0.979-1.786,1.975-2.651,2.99c7.897,1.035,15.641,4.689,20.872,10.613c7.184,7.818,9.87,18.462,9.228,29.051
				c-0.535,9.558-4.222,18.309-6.567,27.179c-1.921,7.26-2.945,14.599-0.603,22.529c2.828,9.936,9.396,17.784,12.638,27.448
				c2.305,6.885,2.687,13.902,1.999,21.064c-0.002,0.03,0.025-0.181-0.005,0.06c0.002-0.019,0.003-0.039,0.005-0.059
				c-1.013,5.773-3.225,11.032-6.19,15.917c0.891,0.446,1.789,0.879,2.695,1.298c0.087,0.04,0.172,0.081,0.259,0.121
				c1.129,0.519,2.27,1.018,3.422,1.495c1.581-2.532,2.994-5.189,4.175-8.021C129.036,187.653,126.658,168.364,116.807,155.316z"/>
			<polygon fill="#562F21" points="118.367,191.977 118.367,191.978 118.367,191.976 			"/>
		</g>
		<g>
			<path fill="#B5C24D" d="M81.949,52.748l13.155,6.458l5.953-2.382c0,0,5.804-13.544,11.473-27.2
				C101.35,35.906,91.209,43.718,81.949,52.748z"/>
			<path fill="#969F44" d="M97.057,53.74c-4.232-1.877-8.622-3.713-12.887-5.784c-1.6,1.798-3.118,3.66-4.491,5.628
				c4.515,2.275,9.178,4.288,13.771,6.325C97.624,61.761,101.267,55.605,97.057,53.74z"/>
			<path fill="#969F44" d="M100.153,37.426c-2.154,1.374-4.235,2.849-6.274,4.385c0.794,3.237,1.566,6.482,2.398,9.71
				c1.151,4.46,8.047,2.567,6.888-1.899C102.119,45.566,101.169,41.486,100.153,37.426z"/>
			<path fill="#6F7936" d="M108.131,33.132L99.87,51.933l-4.265-11.111c-1.269,0.879-2.518,1.783-3.747,2.713l5.325,16.318
				c0.235,0.709,0.771,1.325,1.514,1.628c1.354,0.555,2.9-0.092,3.456-1.445l0.014-0.032l12.374-30.194
				C112.381,30.873,110.244,31.982,108.131,33.132z"/>
			<path fill="#6F7936" d="M98.707,59.547l-16.062-8c-0.875,0.84-1.793,1.721-2.715,2.64l17.184,8.559
				c0.255,0.127,0.526,0.187,0.795,0.187c0.658,0,1.288-0.363,1.601-0.99C99.948,61.059,99.59,59.987,98.707,59.547z"/>
		</g>
		<g>
			<path fill="#B5C24D" d="M187.334,26.467l7.204,23.828l11.314,2.383l12.955-12.194C208.932,34.318,198.58,29.008,187.334,26.467z"
				/>
			<path fill="#969F44" d="M213.771,36.474c-3.298,2.966-6.766,5.738-10.424,8.24c1.617-3.729,3.539-7.311,5.448-10.896
				c-2.097-1.032-4.239-1.969-6.429-2.8c-2.688,5.061-5.456,10.095-7.401,15.501c-1.291,3.582,3.146,5.408,5.617,3.553
				c0.718,1.901,2.806,3.249,4.99,1.82c5.171-3.387,9.987-7.268,14.5-11.483C218.011,39.021,215.911,37.706,213.771,36.474z"/>
			<path fill="#6F7936" d="M204.974,31.788l-7.744,14.191l-7.733-20.166c-1.523-0.399-3.062-0.739-4.615-1.025l7.294,22.979
				c0.016,0.047,0.035,0.101,0.053,0.148c0.53,1.383,2.083,2.074,3.466,1.543c0.037-0.015,0.068-0.037,0.105-0.053
				c0.036,0.98,0.599,1.905,1.552,2.342c1.349,0.616,2.939,0.025,3.555-1.322l7.665-16.742
				C207.381,33.027,206.183,32.395,204.974,31.788z"/>
			<path fill="#6F7936" d="M216.446,38.403l-12.719,11.544c-0.028,0.024-0.063,0.058-0.088,0.084
				c-1.052,1.043-1.056,2.741-0.013,3.79c1.041,1.051,2.738,1.056,3.789,0.014l12.932-12.843
				C219.06,40.112,217.759,39.249,216.446,38.403z"/>
		</g>
		<path fill="#C49470" d="M226.532,114.447c0,0,8.039,3.127,7.146,12.506c-0.893,9.381-7.592,16.526-17.867,12.953
			c-2.68,7.146-12.507,40.646-22.779,47.794c-10.272,7.146-24.12,10.272-24.12,10.272s-22.332,4.467-33.946-3.127
			c-11.611-7.594-40.646-45.559-40.646-45.559s-8.04,4.912-13.401,0.891c-5.357-4.019-7.146-21.438-7.146-21.438l9.827-4.019
			l8.042,20.545c0,0,9.827-0.446,13.398-11.167c3.574-10.719,15.632-65.658,15.632-65.658s11.616-9.38,32.161,9.38
			c4.912-6.702,18.76-26.354,34.393-15.188C202.857,73.801,226.532,114.447,226.532,114.447z"/>
		<path fill="#8E5135" d="M91.641,147.5l-8.042-22.779c0,0-5.806-0.449-7.146,2.231c-3.128-2.68-9.382-15.633-7.595-28.587
			c1.788-12.953,6.702-26.798,6.702-26.798s15.633-21.441,53.168-22.745c1.052-0.036,10.364,0.817,14.34,1.608
			c17.35,3.453,19.263-2.352,32.552-6.47c7.411-2.294,17.927,0.74,25.004,3.041c17.867,5.806,40.2,40.198,25.462,72.358
			c-8.488-19.207-23.675-47.792-32.16-52.706c-8.488-4.912-20.548-7.593-25.908-4.021c-5.36,3.574-15.186,15.188-15.186,15.188
			s-16.08-17.866-32.161-9.38C119.331,88.988,120.226,132.313,91.641,147.5z"/>
		<path fill="#916B4B" d="M75.983,133.25c1.522-0.895,4.119-0.509,4.888,1.28c0.839,1.952,1.702,3.882,2.86,5.671
			c0.266,0.407,0.579,0.724,0.879,0.981c0.287-0.25,0.538-0.542,0.777-0.825c2.991-3.515,8.022,1.567,5.051,5.053
			c-2.784,3.276-5.724,8.007-10.343,1.337c-1.94-2.801-4.083-5.563-5.395-8.611C73.933,136.348,74.151,134.321,75.983,133.25z"/>
		<path fill="#EDCAA4" d="M224.188,115.472c2.063-4.121,8.233-0.501,6.169,3.608c-3.12,6.223-5.808,11.914-5.466,19.04
			c0.217,4.607-6.93,4.586-7.146,0C217.34,129.743,220.515,122.793,224.188,115.472z"/>
		<path fill="#916B4B" d="M204.585,171.372c-7.741,10.719-41.714,26.017-66.593,16.722c-9.84-4.529-25.842-25.665-34.481-39.848
			c7.717-4.633,11.566-14.606,14.357-22.687c2.844-8.227,5.089-16.657,6.835-25.183c0.461-2.259,1.922-26.401,1.642-26.353
			c5.158-0.912,9.558-1.792,25.084,2.985c4.257,1.311-2.276-5.478-6.615-6.54c-5.977-1.463-13.476-3.615-19.663-2.418
			c-8.165,1.582-6.887,8.127-6.867,14.633c0.019,6.32-1.79,9.555-2.091,16.424c-0.637,14.611-7.167,28.368-15.647,42.233
			c-0.286,0.464-0.566,0.884-1.076,1.076c-0.05,0.018-0.082,0.053-0.132,0.072c-2.581-0.914-6.044,1.954-4.382,5.177
			c8.801,17.076,22.073,35.167,39.341,44.698c0.384,0.42,0.852,0.791,1.5,1.015c0.447,0.156,0.894,0.289,1.341,0.436
			c0.264,0.126,0.516,0.271,0.78,0.396c0.553,0.257,1.087,0.354,1.6,0.354c16.47,4.868,36.221,5.463,50.827-4.631
			C194.112,187.333,207.293,167.624,204.585,171.372z"/>
		<path fill="#693829" d="M83.64,58.596c2.675-3.617,8.55-0.463,6.171,3.609c-0.279,0.478-0.595,1.087-0.914,1.773
			c3.237-5.184,7.774-9.865,13.887-13.809c3.576-2.305,6.911,2.688,4.335,5.61c-19.554,22.218-20.587,44.578-8.591,71.073
			c1.761,3.012,3.35,6.117,4.675,9.466c0.112,0.289,0.26,0.562,0.364,0.852c0.927,2.494-1.313,4.364-3.51,4.421
			c0.182,3.792-7.251,7.784-8.416,3.675c-2.006-7.059-8.042-20.545-8.042-20.545c-2.8-2.322-6.258,4.479-8.186,0.373
			C58.858,89.849,72.943,73.098,83.64,58.596z"/>
		<path fill="#FFF7D7" d="M195.188,61.819c0.864,0.908,1.738,1.811,2.61,2.712c-0.014-0.036-0.044-0.066-0.059-0.102
			c-0.807-1.459,0.909-3.549,2.444-2.445c1.954,1.407,3.789,2.925,5.568,4.495c-1.214-2.003-2.413-4.014-3.543-6.07
			c-0.838-1.521,0.871-3.429,2.441-2.444c0.872,0.549,1.709,1.138,2.562,1.708c-0.231-0.229-0.475-0.458-0.705-0.69
			c-1.193-1.171,0.014-3.697,1.736-2.985c1.418,0.584,2.752,1.365,4.035,2.24c0.538-0.173,1.151-0.101,1.669,0.454
			c1.087,1.172,2.079,2.404,3.014,3.666c2.738,3.058,4.821,6.722,5.934,10.522c0.292,1.017-0.435,1.86-1.292,2.154
			c-0.753,0.637-2.165,0.619-2.869-0.331c-2.644-3.559-5.868-6.483-9.344-9.12c2.511,4.138,5.03,8.262,7.069,12.675
			c0.972,2.102-1.736,3.678-3.084,1.805c-1.675-2.328-3.525-4.49-5.465-6.561c3.105,4.401,6.212,8.798,8.549,13.688
			c0.984,2.053-1.954,3.843-3.084,1.806c-5.276-9.511-13.296-16.853-20.714-24.653C191.069,62.676,193.596,60.144,195.188,61.819z"
			/>
		<path fill="#FFF7D7" d="M79.823,67.538c1.276-1.901,4.37-0.115,3.087,1.805c-4.538,6.755-6.555,14.235-7.162,22.057
			c2.372-6.178,3.797-12.785,8.821-17.521c1.104-1.039,3.078-0.341,3.05,1.263c-0.134,6.637-0.811,13.233-1.151,19.847
			c2.646-6.938,4.647-14.125,8.988-20.302c0.931-1.317,3.484-1.029,3.331,0.901c-0.575,7.137-2.226,14.155-2.633,21.28
			c3.727-6.631,4.236-15.141,6.714-22.2c0.643-1.837,3.555-1.632,3.511,0.474c-0.091,4.35-0.462,8.677-0.844,13.004
			c1.277-5.312,2.205-10.71,3.141-16.159c0.293-1.717,3.146-1.71,3.446,0c0.713,4.056,0.741,8.068,0.559,12.075
			c0.44-3.106,0.769-6.229,0.845-9.367c0.021-1.071,0.699-1.599,1.453-1.685c-0.021-0.173-0.028-0.346-0.05-0.521
			c-0.307-2.252,3.133-3.225,3.449-0.948c1.031,7.634,0.403,14.873-1.16,22.113c-0.482,3.104-1.242,6.18-2.414,9.209
			c-0.734,1.872-3.434,1.427-3.518-0.282c-1.027,1.104-3.1,0.77-3.122-1.087c-0.055-4.005,0.316-7.976,0.651-11.94
			c-1.15,4.649-2.561,9.234-4.466,13.736c-0.72,1.69-3.366,0.766-3.332-0.902c0.059-2.999,0.267-5.987,0.513-8.976
			c-1.286,3.768-3.039,7.3-5.948,10.239c-1.144,1.157-2.966,0.25-3.048-1.263c-0.329-5.896,0.592-11.642,1.479-17.417
			c-2.737,6.5-4.552,13.426-7.979,19.658c-0.879,1.6-3.293,0.829-3.329-0.901c-0.167-7.706,0.656-15.342,1.089-23.017
			c-3.509,6.027-4.404,13.635-8.479,19.452c-0.998,1.424-3.288,0.96-3.329-0.901C71.708,88.038,73.472,77.004,79.823,67.538z"/>
		<path fill="#916B4B" d="M180.097,60.286c26.515,7.101,35.47,32.781,42.104,56.383c1.249,4.455-2.349,12.204-3.969,8.093
			c-4.984-12.677-8.87-30.433-14.845-40.586c-6.589-11.206-18.511-26.278-41.804-13.736
			C157.653,72.555,175.951,59.177,180.097,60.286z"/>
		<g>
			<path fill="#8DC3DD" d="M229.782,188.883c1.916-1.784,3.778-3.609,5.552-5.506l-0.368-7.546l-9.825-9.826l-9.827,10.719
				l-0.894,16.974l5.17,4.021C223.339,195.17,226.75,191.706,229.782,188.883z"/>
			<path fill="#D9F0FA" d="M221.274,173.444c2.029,1.622,4.087,3.199,6.238,4.651c1.213,3.73,1.83,8.711,0.72,12.411
				c2.509-2.658,4.888-5.456,7.29-8.225c-0.081-0.659-0.167-1.307-0.257-1.926c-0.3-2.07-0.6-4.484-1.681-6.329
				c-1.327-2.259-5.235-4.02-7.259-5.636C222.761,165.546,217.672,170.568,221.274,173.444z"/>
			<path fill="#3388AB" d="M225.366,193.147c-0.23-0.62-0.751-1.145-1.566-1.236c-1.158-0.129-2.185-0.586-3.189-1.12
				c-0.368-4.862-2.205-13.548,3.664-14.578c2.269-0.396,1.305-3.841-0.948-3.444c-5.682,0.996-6.86,6.619-6.674,11.613
				c0.092,2.455-0.139,5.636,0.511,8.003c0.498,1.814,3.559,2.623,5.609,2.957C223.618,194.588,224.483,193.856,225.366,193.147z"/>
			<g>
				<path fill="#0A4C6A" d="M224.078,140.646l-0.677,23.938c-0.015,0.492,0.374,0.903,0.868,0.917c0.011,0,0.018,0.002,0.028,0.002
					c0.479,0,0.877-0.386,0.891-0.87l0.703-24.951C225.285,140,224.678,140.318,224.078,140.646z"/>
				<path fill="#0A4C6A" d="M220.061,196.073l-4.174-3.298v-16.287l8.424-8.862l9.518,8.922v6.883
					c1.202-1.036,2.406-2.103,3.574-3.212v-5.219l-13.235-12.407l-11.854,12.466v19.447l5.213,4.119
					C218.368,197.771,219.214,196.92,220.061,196.073z"/>
				<path fill="#0A4C6A" d="M223.866,195.29l-5.305-5.304l-1.036-10.454l6.496-7.02l5.096,7.065V189.9L223.866,195.29z
					 M221.991,188.362l1.84,1.843l1.713-1.756v-7.716l-1.867-2.59l-2.438,2.635L221.991,188.362z"/>
				<path fill="#0A4C6A" d="M226.47,190.741l1.147,0.631c0.925-0.861,1.873-1.698,2.839-2.518l-2.265-1.246
					c-0.865-0.479-1.952-0.161-2.425,0.706C225.291,189.178,225.606,190.265,226.47,190.741z"/>
				<path fill="#0A4C6A" d="M222.698,196.008c0.225-0.172,0.46-0.335,0.688-0.505c0.783-0.792,1.574-1.576,2.371-2.353l-0.158-0.764
					c-0.199-0.966-1.145-1.584-2.11-1.39c-0.966,0.2-1.589,1.145-1.389,2.11L222.698,196.008z"/>
				<path fill="#0A4C6A" d="M227.332,181.941c-0.642,0-1.261-0.345-1.579-0.952c-0.462-0.872-0.13-1.954,0.744-2.415l8.285-4.38
					c0.871-0.459,1.951-0.129,2.413,0.746c0.463,0.871,0.128,1.953-0.746,2.415l-8.283,4.379
					C227.899,181.875,227.614,181.941,227.332,181.941z"/>
				<path fill="#0A4C6A" d="M223.849,177.114c-0.021,0-0.045,0-0.067-0.002c-0.985-0.037-1.755-0.866-1.718-1.854l0.39-10.216
					c0.038-0.985,0.846-1.795,1.854-1.716c0.987,0.037,1.756,0.866,1.72,1.853l-0.393,10.216
					C225.599,176.358,224.804,177.114,223.849,177.114z"/>
				<path fill="#0A4C6A" d="M219.381,181.941c-0.401,0-0.805-0.135-1.138-0.412l-5.284-4.379c-0.76-0.63-0.865-1.757-0.234-2.516
					c0.63-0.758,1.757-0.864,2.517-0.234l5.281,4.379c0.76,0.63,0.865,1.757,0.234,2.516
					C220.404,181.721,219.895,181.941,219.381,181.941z"/>
				<path fill="#0A4C6A" d="M214.103,195.428c-0.557,0-1.101-0.257-1.451-0.74c-0.577-0.799-0.399-1.916,0.401-2.493l6.178-4.468
					c0.799-0.58,1.914-0.398,2.495,0.402c0.577,0.799,0.399,1.915-0.404,2.492l-6.175,4.468
					C214.83,195.318,214.463,195.428,214.103,195.428z"/>
			</g>
		</g>
		<g>
			<path fill="#8DC3DD" d="M76.026,179.519c3.483,3.994,7.108,7.864,10.906,11.562c2.044,1.99,4.123,3.942,6.223,5.872l-0.784-16.07
				l-9.825-9.827l-7.127,7.774C75.622,179.06,75.826,179.29,76.026,179.519z"/>
			<path fill="#D9F0FA" d="M78.679,178.496c2.03,1.622,4.088,3.201,6.24,4.652c0.667,2.055,1.156,4.492,1.28,6.886
				c2.227,2.045,4.556,3.997,6.694,6.019c0.685-3.443,0.253-7.38-0.223-10.644c-0.3-2.072-0.6-4.484-1.682-6.331
				c-1.326-2.257-5.234-4.018-7.258-5.636C80.166,170.6,75.077,175.621,78.679,178.496z"/>
			<path fill="#3388AB" d="M79.588,182.188c0.557-0.442,1.233-0.772,2.091-0.923c2.269-0.397,1.305-3.84-0.947-3.445
				c-1.468,0.258-2.631,0.829-3.553,1.614C77.989,180.346,78.791,181.264,79.588,182.188z"/>
			<g>
				<path fill="#0A4C6A" d="M81.354,150.225l-0.549,19.411c-0.013,0.491,0.375,0.903,0.868,0.917c0.011,0,0.017,0.002,0.028,0.002
					c0.479,0,0.878-0.385,0.892-0.87l0.521-18.509C82.514,151.019,81.917,150.709,81.354,150.225z"/>
				<path fill="#0A4C6A" d="M75.733,178.972l5.983-6.292l9.517,8.92v12.094c1.19,0.971,2.377,1.945,3.574,2.907v-16.547
					l-13.235-12.406l-8.14,8.559C74.152,177.163,74.932,178.083,75.733,178.972z"/>
				<path fill="#0A4C6A" d="M80.132,181.08c2.085,2.49,4.227,4.928,6.392,7.347v-3.798l-5.098-7.064l-2.189,2.366
					C79.535,180.333,79.833,180.724,80.132,181.08z"/>
				<path fill="#0A4C6A" d="M84.738,186.992c-0.643,0-1.263-0.344-1.58-0.952c-0.463-0.872-0.129-1.953,0.743-2.415l8.284-4.38
					c0.873-0.458,1.953-0.127,2.415,0.746c0.462,0.871,0.127,1.952-0.746,2.414l-8.285,4.379
					C85.305,186.926,85.02,186.992,84.738,186.992z"/>
				<path fill="#0A4C6A" d="M81.254,182.166c-0.021,0-0.046,0-0.068-0.001c-0.984-0.036-1.755-0.866-1.716-1.852l0.388-10.217
					c0.038-0.985,0.829-1.785,1.855-1.716c0.986,0.036,1.754,0.865,1.717,1.852l-0.39,10.217
					C83.004,181.41,82.209,182.166,81.254,182.166z"/>
			</g>
		</g>
		<path fill="#562F21" d="M155.131,79.479c-9.288-7.252-21.755-11.62-33.108-7.172l1.621-2.248
			c-1.212,13.832-3.451,27.705-6.917,41.151c-3.262,12.511-8.069,30.85-20.946,36.974c-6.106,2.901-1.879-4.787,0.175-6.362
			c6.225-4.77,9.551-13.174,12.075-20.311c5.876-16.61,8.746-34.576,10.286-52.085c0.085-0.967,0.737-1.751,1.603-2.049
			c13.208-4.519,27.151,0.675,37.368,9.552C160.544,79.76,155.229,79.503,155.131,79.479z"/>
		<path fill="#483324" d="M228.388,113.121c2.296,0.836,4.345,2.307,5.844,4.259c4.996,6.239,3.221,17.016-2.474,22.385
			c-2.099,1.99-4.733,3.055-6.904,3.376c-2.645,0.432-4.638-0.11-7.156-0.609c-7.744-2.182,5.957-4.868,5.985-4.876
			c1.343-0.39,2.698-1.107,3.82-2.283c3.52-3.578,4.784-10.728,2.391-15.034c-0.145-0.257-2.028-3.006-3.112-3.515
			C223.712,115.43,226.653,113.243,228.388,113.121z"/>
		<path fill="#483324" d="M224.495,116.289c-2.706,16.738-6.581,33.567-12.87,49.342c-7.897,19.817-21.573,29.673-42.604,33.095
			c-38.19,6.209-59.631-18.38-78.26-48.334c-1.312-2.077,0.57-4.772,2.964-4.272c2.103,0.439,3.56,3.822,4.566,5.245
			c5.685,8.027,11.743,15.835,18.411,23.073c10.813,11.741,21.238,18.648,37.963,19.041c23.614,0.503,42.676-7.638,52.273-29.802
			c6.606-15.259,11.01-31.692,14.343-47.958C221.805,113.049,224.072,114.946,224.495,116.289z"/>
		<path fill="#562F21" d="M73.923,126.431c-13.088-15.281-9.17-46.938,3.235-61.301c19.102-22.117,46.039-16.737,71.46-17.552
			c12.195-0.317,23.315-5.687,35.541-5.487c12.16,0.197,23.74,4.727,32.757,12.888c19.482,17.63,16.687,42.52,9.281,65.334
			c-0.462,1.426-1.992,2.208-3.418,1.746c-0.894-0.288-1.539-1.014-1.778-1.854c-5.059-18.18-13.1-44.364-30.063-55.127
			c-7.45-4.728-16.607-5.102-23.684,0.541c-2.312,1.842-9.593,14.967-11.675,14.11c-4.649-1.917,7.905-15.235,9.612-16.646
			c8.121-6.697,18.957-6.538,27.724-1.156c18.93,11.626,27.655,36.667,33.314,56.826l-5.198-0.108
			c3.815-11.833,7.398-24.675,5.096-37.188c-2.988-17.243-18.274-30.625-35.263-33.178c-11.482-1.726-20.918,2.564-31.878,4.313
			c-9.96,1.664-20.356,1.527-30.332,0.077l0.3,0.035c-22.293-1.121-48.424,7.642-55.302,31.008
			c-2.25,7.691-2.556,16.27-1.787,24.172c0.515,5.295,1.684,11.556,5.039,15.872C76.857,124.782,76.572,129.509,73.923,126.431
			C71.998,124.182,74.612,127.232,73.923,126.431z"/>
		<path fill="#483324" d="M82.65,127.501c-1.194-0.047-2.355,0.137-3.487,0.553c-1.42,0.493-2.23,1.277-2.665,2.343
			c-2.058,4.581,1.908,15.324,5.854,17.76c1.016,0.626,1.954,0.71,3.274,0.272c1.312-0.416,2.712-1.468,4.036-2.663l0,0
			c-0.195,0.85-0.388,1.703-0.585,2.553C86.936,141.38,84.793,134.441,82.65,127.501z M86.614,124.451l7.361,22.304
			c0.308,0.919,0.044,1.9-0.585,2.555l0,0c-1.46,1.687-3.2,3.308-5.641,4.409c-1.212,0.543-2.643,0.87-4.134,0.836
			c-1.494-0.033-2.977-0.487-4.214-1.162c-7.146-3.921-12.075-18.14-8.227-25.584c0.646-1.267,1.63-2.434,2.785-3.279
			C76.064,122.962,85.173,120.127,86.614,124.451z"/>
		<g>
			<path fill="#8DC3DD" d="M157.305,29.591l-2.818-9.16c-3.037,0.296-6.068,0.655-9.093,1.072V32.57l-15.931-6.933l5.064,32.839
				c0,0,31.706,2.682,35.878-6.848c-3.573-25.014-3.621-30.41-3.621-30.41L157.305,29.591z"/>
			<path fill="#3388AB" d="M145.935,21.193c0.175,3.668,0.282,7.34,0.136,11.019c-3.449-1.198-6.463-3.172-9.402-5.319
				c-0.321-0.64-0.612-1.31-0.99-1.907c-1.654-2.599-6.135-1.711-6.016,1.629c0.189,5.259,1.793,10.451,2.365,15.695
				c0.511,4.692,0.941,9.401,1.55,14.083c0.655,5.109,8.731,5.256,8.15,0c-0.774-6.973-0.808-15.735-2.741-23.268
				c2.213,1.31,4.579,2.346,7.11,2.995c0.078,0.019,0.139,0,0.21,0.012c0.888,1.043,3.127,0.64,3.309-1.179
				c0.466-4.836,0.571-9.728,0.492-14.63C148.758,20.592,147.356,20.898,145.935,21.193z"/>
			<circle fill="#3388AB" cx="155.52" cy="44.629" r="7.594"/>
			<path fill="#D9D2B7" d="M150.605,44.629c0,2.717,2.199,4.914,4.913,4.914c2.716,0,4.914-2.197,4.914-4.914
				c0-2.715-2.198-4.913-4.914-4.913C152.805,39.716,150.605,41.914,150.605,44.629z"/>
			<path fill="#FFF7D7" d="M153.063,43.959c0,1.727,1.396,3.127,3.126,3.127c1.723,0,3.127-1.4,3.127-3.127
				c0-1.727-1.404-3.126-3.127-3.126C154.459,40.833,153.063,42.232,153.063,43.959z"/>
			<path fill="#15638C" d="M169.412,20.146c-1.593-0.305-3.195-0.518-4.802-0.659c-2.142,2.137-4.281,4.273-6.421,6.41
				c-0.634-2.153-1.268-4.305-1.903-6.458c-0.519,0.037-1.038,0.074-1.557,0.125c-1.047,0.104-2.107,0.223-3.171,0.35
				c0.895,4.014,1.812,8.021,2.826,11.999c0.608,1.959,3.229,2.423,4.501,0.853l6.955-8.583l1.268,29.074l-0.306,0.137
				c-9.521,3.723-20.071,3.597-30.113,3.105l-4.253-28.956c3.905,2.304,7.795,4.64,11.724,6.904c1.741,0.925,3.896-0.417,3.85-2.385
				l-0.272-11.642c-1.534,0.226-3.077,0.478-4.621,0.763l-0.274,6.38c-2.668-1.501-5.339-3.002-8.01-4.503
				c-2.643,0.725-5.235,1.568-7.729,2.553c1.537,11.295,3.079,22.591,4.609,33.888c0.165,1.203,1.162,2.162,2.421,2.232
				c12.078,0.608,26.058,1.439,37.07-4.514c0.875-0.479,1.429-1.443,1.331-2.499L169.412,20.146z"/>
		</g>
		<g>
			<path fill="#3B2A1D" d="M178.92,156.474c-1.43,2.881-5.137,3.919-8.108,4.027c-1.809,0.067-3.649-0.245-5.419-0.588
				c-1.133-0.222-4.895-0.47-4.761-2.18c0.149-1.919,3.079-0.906,4.147-0.664c2.184,0.498,4.527,0.517,6.739,0.212
				c1.617-0.221,3.562-0.612,4.697-1.892c0.552-0.516,1.132-1.144,1.969-0.822C178.924,154.853,179.282,155.763,178.92,156.474
				C177.304,159.729,179.359,155.612,178.92,156.474z"/>
			<path fill="#3B2A1D" d="M147.686,106.804c-4.512-7.785-11.224-15.459-19.963-18.458c-8.208-2.818-17.482-0.494-24.087,4.958
				c-1.549,1.281-2.954,2.747-4.133,4.378c-0.659,0.917-1.236,1.893-1.704,2.922c-0.368,0.814-0.588,1.994-1.734,1.948
				c-4.161-0.172,3.052-9.801,4.098-10.866c6.687-6.813,16.76-10.258,26.169-8.236c6.402,1.376,11.849,5.266,16.126,10.116
				c2.187,2.477,4.145,5.184,5.73,8.087c0.697,1.271,1.726,2.839,1.961,4.291C150.383,107.402,148.397,108.07,147.686,106.804
				C143.044,98.793,148.178,107.677,147.686,106.804z"/>
			<path fill="#E58C74" d="M185.384,168.401c-0.43,0.249-0.827,0.548-1.257,0.796c-0.904,0.528-0.949,0.178-1.733-0.462
				c-1.609-1.316-3.562-2.302-5.688-2.146c-2.009,0.148-3.861,1.17-5.375,2.451c-0.768,0.651-1.314,1.501-2.038,2.166
				c-0.377,0.348-2.309-1.039-2.714-1.248c-1.897-0.976-3.945-2.003-6.121-2.083c-2.54-0.095-5.138,1.102-7.495,1.922
				c-0.785,0.275-5.538,1.392-5.236,2.399c0.683,2.289,1.379,4.598,2.729,6.6c4.159,6.162,12.405,7.639,19.305,6.54
				c3.835-0.612,6.985-2.575,9.256-5.725c1.081-1.499,1.941-3.158,2.625-4.871C182.585,172.371,183.905,170.468,185.384,168.401
				C185.065,168.585,184.622,169.465,185.384,168.401z"/>
			<path fill="#483324" d="M182.628,170.812c-10.735,6.062-23.955,5.367-35.041,0.916c4.227,5.662,11.094,9.013,18.171,8.909
				c3.44-0.052,7.104-0.493,10.18-2.138C179.028,176.842,180.844,173.701,182.628,170.812
				C171.893,176.875,181.099,173.29,182.628,170.812z"/>
			<path fill="#7C4642" d="M185.988,169.152c0.477-0.546,0.168-1.393-0.476-1.634c-0.78-0.294-1.49,0.574-2.01,1.02
				c-0.488-0.829-1.896-1.322-2.728-1.691c-1.442-0.635-3.006-1.067-4.593-1.067c-3.018-0.004-5.71,2.06-7.408,4.417
				c-2.87-2.18-6.554-4.162-10.273-3.907c-4.031,0.277-6.949,3.858-10.925,4.091c-1.268-0.833-1.93-1.945-2.965-2.953
				c-0.519-0.956-2.012-0.455-1.88,0.62c0.154,1.239,1.609,2.812,2.362,3.764c0.141,2.381,2.072,5.229,3.476,7.068
				c3.182,4.17,7.939,6.973,13.15,7.638c4.412,0.562,9.351-0.051,13.354-2.02c2.499-1.229,4.471-3.087,5.992-5.406
				c1.444-2.202,3.212-5.505,3.212-8.215C186.069,170.341,185.392,169.778,185.988,169.152
				C186.448,168.624,185.392,169.778,185.988,169.152z M153.825,170.849c2.622-1.438,4.97-2.364,7.952-1.438
				c2.396,0.747,4.572,2.176,6.467,3.802c0.979,0.838,1.815-0.02,2.298-0.84c0.718-1.214,1.753-2.29,2.942-3.05
				c2.527-1.611,5.413-0.604,7.789,0.822c-8.492,5.267-20.911,5.648-30.112,2.042C152.083,171.794,152.966,171.323,153.825,170.849
				C155.732,169.802,152.966,171.323,153.825,170.849z M178.202,174.129c-7.978,7.131-19.541,6.329-27.776-0.03
				C158.837,177.35,169.817,177.48,178.202,174.129C176.707,175.467,171.826,176.677,178.202,174.129z M177.448,179.437
				c-3.262,3.713-8.929,4.705-13.632,4.555c-5.387-0.173-10.358-2.863-13.479-7.256c4.312,3.023,9.552,4.818,14.83,4.889
				c5.562,0.073,10.139-1.91,14.363-5.385C178.93,177.435,178.243,178.53,177.448,179.437
				C174.192,183.144,178.243,178.53,177.448,179.437z"/>
			<path fill="#3B2A1D" d="M213.69,90.626c-3.362-7.83-11.296-13.737-20.043-12.957c-8.725,0.776-14.934,7.664-18.18,15.321
				c-0.775,1.83-1.406,3.718-1.903,5.641c-0.479,1.867-0.355,4.073-1.045,5.845c-0.322,0.833-1.176,1.354-2.053,0.975
				c-1.01-0.436-0.878-1.487-0.833-2.385c0.14-2.793,0.517-5.58,1.213-8.292c2.208-8.605,8.01-16.674,16.426-20.078
				c6.572-2.657,14.016-1.839,19.854,2.186c3.012,2.075,5.525,4.868,7.312,8.052c0.777,1.386,2.072,3.475,2.036,5.123
				C216.44,91.559,214.303,92,213.69,90.626C209.808,81.587,214.217,91.805,213.69,90.626z"/>
			<path fill="#FFFFFF" d="M154.789,145.632c0.971-8.922-0.17-20.011-6.707-26.785c-2.914-3.018-6.802-4.707-10.825-5.667
				c-4.783-1.14-9.99-1.844-14.867-0.937c-4.86,0.902-8.832,3.71-11.819,7.581c-1.37,1.771-2.527,3.697-3.553,5.685
				c-0.951,1.849-2.734,4.208-1.562,6.22c5.223,8.944,14.449,14.095,24.488,15.6C138.193,148.566,146.815,148.169,154.789,145.632
				C155.635,137.872,147.399,147.984,154.789,145.632z"/>
			<g>
				<path fill="#8E5135" d="M115.047,128.336c0,7.17,2.827,16.051,10.479,18.271c8.633,2.504,16.386-4.663,18.532-12.572
					c2.11-7.776-0.168-17.188-7.641-21.235c-7.613-4.122-16.942-1.16-20.006,7.087c-1.367,3.687-1.364,7.63-1.364,11.452
					c0-1.984,0-4.075,0-5.999C115.047,126.337,115.047,127.337,115.047,128.336C115.047,135.667,115.047,117.894,115.047,128.336z"
					/>
				<path fill="#CCA897" d="M126.276,111.862c8.768-1.598,17.155,3.575,18.74,12.53c0.649,3.657,0.174,7.701-1.127,11.183
					c-0.5,1.336-1.231,2.829-2.527,3.56c-1.828,1.032-4.249-0.154-5.02-1.995c-0.841-2.009,0.938-4.168,1.321-6.104
					c0.409-2.061,0.105-4.218-0.879-6.074c-1.096-2.06-2.939-3.612-4.989-4.669c-2.476-1.275-5.134-1.105-7.681-2.03
					c-3.631-1.315-0.854-5.632,1.727-6.306c2.06-0.539,4.228-0.787,6.325-1.169c-2.194,0.4-4.387,0.802-6.583,1.199
					C125.814,111.946,126.045,111.904,126.276,111.862C133.419,110.562,121.739,112.688,126.276,111.862z"/>
				<path fill="#693829" d="M122.06,124.706c0.484,3.478,0.979,7.186,2.75,10.283c0.716,1.253,1.67,2.341,2.814,3.22
					c1.135,0.872,2.715,1.344,3.661,2.423c1.585,1.817,1.178,5.811-1.683,6.08c-2.64,0.252-5.712-2.176-7.476-3.881
					c-4.125-3.986-6.774-10.668-6.895-16.397c-0.054-2.526,2.036-4.925,4.753-4.187c1.941,0.532,2.105,2.478,2.312,4.163
					c-0.118-0.975-0.278-1.944-0.403-2.919C121.945,123.895,122.004,124.302,122.06,124.706
					C122.479,127.708,121.434,120.158,122.06,124.706z"/>
				<g>
					<path fill="#3B2A1D" d="M131.081,148.155c-7.729,0-13.92-5.825-15.895-13.035c-1.14-4.166-1.188-8.713-0.478-12.958
						c0.551-3.29,1.81-7.046,4.664-9.075l-0.01-0.013c0.233-0.142,0.467-0.284,0.699-0.427v0.001v-0.001l0,0
						c1.597-0.98,3.21-1.939,4.799-2.933l0.033,0.056c0.923-0.476,1.547-0.217,2.495,0.024l0.03,0.203
						c10.727-1.369,18.593,8.479,19.278,18.382C147.349,137.79,141.462,148.155,131.081,148.155z M121.854,115.741L121.854,115.741
						c-2.911,1.848-3.607,5.944-3.88,9.091c-0.354,4.099-0.081,8.424,1.704,12.191c3.439,7.253,13.377,10.372,19.326,4.152
						c4.942-5.167,5.146-13.326,2.227-19.52C137.664,114.09,129.065,111.262,121.854,115.741z"/>
				</g>
				<path fill="#231F20" d="M121.673,131.331c0.541,5.916,5.549,12.836,12.232,10.639c5.848-1.925,7.57-9.694,6.03-14.992
					c-1.698-5.833-8.088-11.25-13.972-6.834c-4.017,3.016-4.685,8.443-4.117,13.077c-0.154-1.25-0.271-2.523-0.351-3.78
					C121.537,130.071,121.616,130.701,121.673,131.331C122.161,136.654,121.065,124.781,121.673,131.331z"/>
				<path fill="#FFFFFF" d="M133.194,125.283c0.219,2.36,1.921,5.616,4.767,4.957c2.646-0.613,3.294-4.223,2.808-6.474
					c-0.527-2.456-2.996-5.652-5.736-3.648c-1.878,1.374-1.923,3.939-1.76,6.021c-0.044-0.57-0.098-1.141-0.157-1.709
					C133.146,124.712,133.17,124.997,133.194,125.283C133.398,127.486,132.918,122.315,133.194,125.283z"/>
			</g>
			<path fill="#FFFFFF" d="M209.866,123.94c-0.942-4.894-2.962-10.085-6.455-13.736c-3.67-3.835-8.604-4.214-13.534-2.933
				c-9.963,2.59-13.447,11.895-13.893,21.324c-0.123,2.602-0.438,5.206-0.147,7.809c0.154,1.366,0.417,2.723,0.687,4.07
				c0.268,1.333,0.098,2.907,1.64,3.016c4.938,0.336,10.045-0.264,14.711-1.95c7.756-2.805,13.939-8.792,16.668-16.614
				C209.654,124.6,209.764,124.271,209.866,123.94C209.187,120.41,206.58,134.577,209.866,123.94z"/>
			<path fill="#8E5135" d="M176.22,122.828c0,5.88,1.288,13.996,6.521,17.596c6.661,4.585,13.226-1.833,15.486-7.87
				c2.316-6.186,2.326-14.016-0.872-19.914c-3.871-7.138-13.217-7.116-17.871-0.734C177.182,115.067,176.22,118.961,176.22,122.828z
				"/>
			<path fill="#CCA897" d="M181.741,108.48c9.347-7.566,14.269,6.482,15.346,13.677c0.438,2.918,1.358,13.849-4.182,11.724
				c-1.589-0.609-2.549-2.125-2.342-3.812c0.248-2.04,0.819-3.656,0.511-5.773c-0.307-2.106-0.789-4.234-1.439-6.263
				c-0.538-1.669-1.266-4.052-2.799-5.093c-0.706,0.133-1.172,0.791-1.875,0.945c-0.928,0.201-1.908-0.025-2.701-0.532
				C180.514,112.233,180.021,109.878,181.741,108.48c1.588-1.286,3.172-2.583,4.769-3.858c-1.756,1.403-3.516,2.807-5.242,4.243
				C181.424,108.734,181.584,108.608,181.741,108.48C192.801,99.529,178.428,111.167,181.741,108.48z"/>
			<path fill="#693829" d="M182.846,120.758c0.27,2.873,0.832,5.772,2.101,8.385c0.585,1.204,1.316,2.376,2.285,3.305
				c0.899,0.863,1.97,1.738,1.943,3.108c-0.053,2.511-3.041,3.977-5.146,2.861c-2.177-1.154-3.773-3.816-4.832-5.94
				c-1.279-2.572-2.071-5.424-2.644-8.232c-0.373-1.832-1.124-5.161,0.958-6.295c1.382-0.75,3.254-0.234,4.337,0.809
				c0.922,0.885,1.093,2.131,1.123,3.35c-0.021-0.841-0.165-1.689-0.238-2.527C182.768,119.971,182.809,120.366,182.846,120.758
				C183.096,123.426,182.446,116.543,182.846,120.758z"/>
			<path fill="#3B2A1D" d="M193.121,105.744l-2.617,2.433c4.768,5.126,7.247,11.552,6.723,18.548
				c-0.347,4.647-1.982,13.007-7.944,13.403c-6.634,0.438-10.133-8.43-11.281-13.567c-0.585-2.609-0.676-5.246-0.347-7.836
				c-1.564,2.439-2.749,5.111-3.312,7.897c0.274,1.31,0.617,2.595,1.013,3.834c1.915,5.995,6.453,13.252,13.564,13.252
				c8.11,0,11.215-9.41,11.816-16.003C201.487,119.456,198.766,111.813,193.121,105.744z"/>
			<path fill="#231F20" d="M181.682,125.956c0.406,4.404,3.269,12.456,9.158,10.534c4.959-1.619,5.377-9.324,4.546-13.544
				c-0.855-4.347-5.038-12.339-10.495-7.94c-3.619,2.917-3.42,8.619-3.042,12.769c-0.111-1.211-0.221-2.423-0.334-3.636
				C181.569,124.744,181.626,125.351,181.682,125.956C182.051,129.97,181.103,119.659,181.682,125.956z"/>
			<path fill="#3B2A1D" d="M114.101,113.623c0,0-2.389-3.108-3.409-4.255c-0.783-0.884-2.688-4.088-4.128-3.3
				c-1.716,0.941,0.827,3.564,1.439,4.495c0.9,1.375,3.515,4.938,3.515,4.938c-0.581,0.485-1.142,0.996-1.672,1.543
				c-0.984-0.943-6.199-6.867-7.264-5.503c-0.772,0.991,1.366,3.118,1.902,3.893c1.008,1.454,2.015,2.917,3.035,4.359
				c-0.347,0.476-0.691,0.975-1.028,1.484c-1.187-0.833-5.509-5.389-6.883-3.708c-1.077,1.314,4.164,5.76,5.078,6.745
				c-0.708,1.369-1.292,2.775-1.627,4.161c-0.458,2.411,1.915,5.078,3.237,6.893c1.973,2.714,4.659,4.96,7.341,6.949
				c-0.882,1.872-1.645,3.809-2.464,5.71c-0.493,1.14,0.963,2.44,1.806,1.26c0.688-0.573,1.174-1.641,1.688-2.367
				c0.628-0.881,1.257-1.759,1.885-2.641c1.273,0.778,2.551,1.481,3.919,2.079c-0.484,1.613-1.091,3.196-1.64,4.787
				c-0.307,0.882-1.377,2.682-0.067,3.263c1.28,0.569,1.865-1.335,2.302-2.143c0.856-1.579,1.709-3.155,2.564-4.731
				c1.419,0.452,2.864,0.826,4.329,1.12c-0.261,1.413-0.611,2.817-0.921,4.22c-0.209,0.959-1.044,2.809,0.315,3.307
				c1.204,0.444,1.56-1.074,1.892-1.872c0.707-1.697,1.418-3.395,2.123-5.09c1.147,0.149,2.292,0.268,3.434,0.348
				c-0.088,1.599-0.612,3.783-0.248,5.341c0.242,1.037,1.705,1.36,2.04,0.205c0.871-1.454,1.095-3.787,1.566-5.419
				c1.446,0.026,2.891-0.007,4.338-0.091c0.149,0.943,0.136,5.017,1.88,4.618c1.426-0.326,1.356-3.804,1.541-4.901
				c1.711-0.195,3.413-0.439,5.105-0.748c0.799-0.146,5.044-0.577,5.273-1.372c0.98-3.359,1.124-6.786,0.91-10.264
				c-0.416-6.827-2.368-13.581-7.014-18.757c-7.908-8.811-21.051-10.699-31.872-6.791
				C116.847,112.013,115.445,112.777,114.101,113.623z M106.059,129.176c0.017,0.02,0.022,0.058,0.022,0.098
				c-0.011-0.023-0.026-0.044-0.038-0.067C106.032,129.151,106.03,129.116,106.059,129.176
				C106.075,129.195,106.03,129.116,106.059,129.176z M144.696,147.086c-15.151,1.559-30.244-3.979-38.593-17.782
				c1.525-6.509,7.461-12.133,13.47-14.566c7.688-2.382,16.872-1.455,23.511,3.271c3.788,2.697,6.538,6.736,8.28,11.005
				c2.125,5.208,2.153,10.76,2.38,16.293C150.761,146.178,147.728,146.774,144.696,147.086
				C129.545,148.645,147.728,146.774,144.696,147.086z"/>
			<path fill="#3B2A1D" d="M178.174,141.863c0.021,0.16,0.039,0.32,0.062,0.48C178.613,142.323,177.98,140.155,178.174,141.863z"/>
			<path fill="#3B2A1D" d="M210.761,117.059c1.005-1.132,1.752-2.61,2.594-3.867c0.688-1.025,2.975-3.377,2.772-4.655
				c-0.361-2.271-2.809,0.595-3.28,1.098c-1.323,1.406-2.641,2.815-3.965,4.221c-0.556-1.106-1.197-2.162-1.93-3.153
				c0.784-1.388,1.544-2.789,2.335-4.173c0.526-0.918,2.359-3.025,1.736-4.124c-0.886-1.557-2.194,0.22-2.772,0.955
				c-1.231,1.561-2.46,3.124-3.69,4.684c-0.683-0.621-1.386-1.163-2.162-1.664c0.615-1.564,1.306-3.096,1.973-4.64
				c0.408-0.938,2.005-3.185,0.579-3.937c-1.297-0.687-2.046,1.312-2.552,2.119c-1.026,1.636-2.052,3.273-3.077,4.912
				c-5.033-1.901-10.844-1.284-15.483,1.39c-5.099,2.938-7.971,8.171-9.308,13.761c-1.443,6.032-1.212,12.391-0.296,18.483
				c0.215,1.438,0.472,2.87,0.766,4.292c0.116,0.554,0.176,2.441,0.852,2.657c1.323,0.427,3.065,0.288,4.443,0.313
				c1.957,0.037,3.908-0.064,5.852-0.318c0.418,1.034,1.047,4.285,2.569,4.206c1.748-0.088,0.688-3.809,0.584-4.754
				c0.943-0.207,1.877-0.456,2.798-0.74c0.516,1.062,1.223,3.886,2.635,4.03c1.873,0.191,0.438-4.248,0.296-5.078
				c1.323-0.542,2.607-1.164,3.838-1.874c0.562,1.146,1.334,4.082,2.639,4.537c1.016,0.353,2.058-0.557,1.712-1.606
				c-0.181-1.557-1.078-3.272-1.57-4.765c0.768-0.566,1.519-1.162,2.229-1.807c1.059,1.106,2.235,2.891,3.563,3.65
				c0.979,0.562,2.27-0.381,1.589-1.448c-0.591-1.574-1.979-3.117-2.881-4.533c0.591-0.679,1.16-1.381,1.688-2.127
				c1.029,0.661,4.041,3.542,5.215,2.007c1.045-1.367-2.702-4.023-3.496-4.812c0.995-1.853,1.79-3.844,2.197-5.898
				c0.211-2.275-0.674-4.788-1.377-6.922C210.51,117.365,210.643,117.233,210.761,117.059
				C211.197,116.567,210.643,117.233,210.761,117.059z M178.236,142.343c-0.905-6.52-1.172-13.233,0.136-19.72
				c1.017-5.049,3.227-10.335,8.051-12.806c4.524-2.316,10.738-2.563,15.034,0.404c4.381,3.025,6.497,8.603,7.159,13.699
				C204.259,136.734,190.644,141.706,178.236,142.343C178.209,142.154,190.644,141.706,178.236,142.343z"/>
			<path fill="#FFFFFF" d="M188.159,119.676c0.217,2.352,1.915,5.592,4.749,4.938c2.641-0.609,3.286-4.2,2.805-6.448
				c-0.526-2.445-2.989-5.636-5.717-3.638c-1.86,1.362-1.941,3.932-1.761,6c-0.047-0.569-0.101-1.137-0.155-1.706
				C188.107,119.108,188.133,119.393,188.159,119.676C188.36,121.867,187.887,116.716,188.159,119.676z"/>
		</g>
	</g>
	<path fill="#FFDA7A" d="M254.834,118.833c0,6.489-0.638,12.831-1.841,18.973c-8.868,45.266-48.835,79.527-96.659,79.527
		c-35.568,0-66.78-18.958-84.097-47.292c0.126,0.099,0.216,0.145,0.263,0.125c0,0-3.713-6.974-6.752-13.501
		c-1.67,0.602-3.333,1.218-4.985,1.853c15.601,37.43,52.556,63.816,95.571,63.816c54.77,0,99.73-42.764,103.268-96.654
		c0.148-2.264,0.232-4.545,0.232-6.846c0-3.454-0.181-6.865-0.513-10.232c-1.659,0.167-3.319,0.34-4.973,0.515
		C254.663,112.314,254.834,115.554,254.834,118.833z"/>
	<path fill="#B0861B" d="M156.334,15.333c-57.07,0-103.5,46.43-103.5,103.5c0,11.643,1.934,22.843,5.495,33.297
		c0.737,2.165,1.56,4.29,2.434,6.387c1.652-0.634,3.315-1.251,4.985-1.853c-1.084-2.327-2.082-4.598-2.796-6.476
		c-3.317-9.854-5.118-20.398-5.118-31.356c0-54.313,44.187-98.5,98.5-98.5c39.039,0,72.846,22.828,88.773,55.836
		c4.894,10.143,8.09,21.249,9.241,32.946c1.653-0.175,3.313-0.348,4.973-0.515c-1.195-12.115-4.48-23.625-9.502-34.157
		C233.172,39.524,197.526,15.333,156.334,15.333z"/>
	<path fill="#47380F" d="M156.91,218.835l-0.547-0.001c-33.848-0.185-66.158-18.032-84.324-46.577
		c-10.274-16.146-15.705-34.62-15.705-53.423c0-55.14,44.859-100,100-100c38.133,0,73.509,22.25,90.124,56.685
		c9.296,19.264,12.139,41.487,8.007,62.577C245.299,184.879,204.271,218.835,156.91,218.835z M156.334,21.833
		c-53.486,0-97,43.514-97,97c0,18.232,5.269,36.148,15.236,51.812c17.624,27.693,48.971,45.008,81.809,45.188l0.531,0.001
		c45.931,0,85.72-32.937,94.611-78.317c4.008-20.457,1.25-42.013-7.765-60.696C227.638,43.417,193.322,21.833,156.334,21.833z"/>
</g>
</svg>
