<?xml version="1.0" encoding="utf-8"?>
<!-- Generator: Adobe Illustrator 16.0.0, SVG Export Plug-In . SVG Version: 6.00 Build 0)  -->
<!DOCTYPE svg PUBLIC "-//W3C//DTD SVG 1.1//EN" "http://www.w3.org/Graphics/SVG/1.1/DTD/svg11.dtd">
<svg version="1.1" id="Layer_1" xmlns="http://www.w3.org/2000/svg" xmlns:xlink="http://www.w3.org/1999/xlink" x="0px" y="0px"
	 width="310px" height="310px" viewBox="0 0 310 310" enable-background="new 0 0 310 310" xml:space="preserve">
<g>
	<path fill="#59450E" d="M150,303.751c-11.671-11.237-19.229-38.67-20.605-43.28c-3.147-9.946-6.422-20.295-9.287-30.789
		c-5.742-21.031-9.883-40.32-2.354-63.409c7.266-22.28,20.861-35.194,37.3-35.429l0.45-0.01c0.902,0,2.678,0.072,3.582,0.146
		c10.231,1.131,19.691,7.129,27.402,17.348c6.784,8.99,10.898,21.576,11.586,35.439c0.245,4.95,0.059,9.975-0.556,14.934
		c-2.327,18.805-12.042,51.16-17.626,68.773c-0.166,0.523-0.275,0.871-0.322,1.02c-4.186,13.68-12.82,33.174-19.737,36.757
		C156.015,307.229,152.25,305.918,150,303.751z"/>
	<g>
		<path fill="#E1AD24" d="M183.312,152.253c-9.518-12.61-22.889-18.83-36.101-14.124c-11.624,4.141-20.567,15.762-25.252,30.124
			c-6.855,21.024-3.098,38.459,2.528,59.069c2.86,10.479,6.18,20.969,9.39,31.114c0,0,12.368,41.4,20.859,41.4
			c0.108,0,8.764,4.247,20.288-33.194c0.712-2.312,15.143-46.775,17.963-69.568c0.556-4.49,0.726-9.03,0.504-13.494
			C193.059,174.872,190.942,162.369,183.312,152.253z"/>
	</g>
	<g>
		<path fill="#E1AD24" d="M131.144,250.603l-0.224-0.715c-2.066-6.604-4.476-14.441-6.676-22.499
			c-5.637-20.65-9.401-38.123-2.524-59.214c4.979-15.268,14.24-26.306,25.406-30.283c2.946-1.05,5.977-1.582,9.009-1.582
			c4.914,0,9.785,1.368,14.479,4.066l0.183,0.105l-0.071,0.199L131.144,250.603z M156.135,136.813c-2.974,0-5.948,0.522-8.839,1.553
			c-11.019,3.925-20.166,14.847-25.098,29.965c-6.834,20.958-3.082,38.357,2.532,58.925c2.119,7.761,4.433,15.32,6.446,21.766
			l39.002-108.314C165.619,138.124,160.896,136.813,156.135,136.813z"/>
		<path fill="#FFC838" d="M185.713,155.808l-41.157,131.247c0.686,1.447,1.384,2.836,2.087,4.127l40.96-131.939
			C187.028,158.083,186.397,156.937,185.713,155.808z"/>
		<path fill="#F2D179" d="M134.246,259.643l40.558-116.139c-1.399-1.088-2.841-2.062-4.316-2.91L131.16,249.812
			c0.904,2.896,1.814,5.775,2.717,8.624C133.877,258.437,134.006,258.873,134.246,259.643z"/>
		<path fill="#FFF3D4" d="M182.34,151.008l-40.848,129.045c0.976,2.394,2.005,4.77,3.063,7.002l41.157-131.247
			c-0.733-1.21-1.53-2.397-2.401-3.555C182.992,151.831,182.668,151.416,182.34,151.008z"/>
		<path fill="#FFE194" d="M174.804,143.504l-40.558,116.139c0.97,3.127,3.766,11.869,7.246,20.41l40.848-129.045
			C180.021,148.118,177.489,145.6,174.804,143.504z"/>
	</g>
	<path fill="#B0861B" d="M266.956,100.113c-0.528,3.111-1.187,6.178-1.958,9.197c1.031-0.162,2.064-0.322,3.098-0.482
		C267.817,105.893,267.443,102.983,266.956,100.113z"/>
	<path fill="#FFC838" d="M268.096,108.828l-1.14-8.715c-9.131-53.768-55.409-94.691-111.164-94.691S53.759,46.346,44.629,100.113
		c-1.075,6.326-1.666,12.82-1.666,19.456c0,12.706,2.058,24.923,5.845,36.339l-0.475-0.407
		c15.842,43.661,58.808,78.213,107.459,78.213c62.314,0,112.83-51.106,112.83-114.145
		C268.622,115.943,268.431,112.365,268.096,108.828z"/>
	<path fill="#FFF3D4" d="M102.781,219.459L243.043,47.233c-4.35-5.367-9.17-10.327-14.402-14.812L67.805,189.786
		C77.454,201.729,89.368,211.906,102.781,219.459z"/>
	<path fill="#59450E" d="M45.463,119.569c0-6.266,0.549-12.671,1.631-19.038c4.353-25.632,17.586-49.082,37.264-66.032
		c19.897-17.139,45.267-26.577,71.435-26.577s51.537,9.438,71.435,26.577c9.211,7.934,16.987,17.305,23.124,27.644
		c1.446-0.828,2.896-1.648,4.344-2.473c-6.419-10.833-14.56-20.65-24.205-28.959c-20.804-17.92-47.332-27.789-74.697-27.789
		s-53.894,9.869-74.697,27.789C60.537,48.418,46.711,72.918,42.164,99.694c-1.129,6.643-1.701,13.329-1.701,19.875
		c0,24.654,7.608,47.542,20.565,66.399c1.346-0.982,2.689-1.969,4.037-2.949C52.714,164.988,45.463,143.121,45.463,119.569z"/>
	<path fill="#59450E" d="M254.694,59.67c-1.448,0.824-2.897,1.645-4.344,2.473c6.975,11.75,11.825,24.755,14.141,38.39
		c1.082,6.366,1.631,12.771,1.631,19.037c0,61.562-49.494,111.645-110.33,111.645c-37.562,0-70.792-19.097-90.727-48.194
		c-1.348,0.98-2.691,1.967-4.037,2.949c20.847,30.34,55.547,50.245,94.764,50.245c63.593,0,115.33-52.327,115.33-116.645
		c0-6.546-0.572-13.232-1.701-19.874C267.007,85.481,261.956,71.924,254.694,59.67z"/>
	<path fill="#4B911E" d="M254.948,119.569c0,55.399-44.395,100.311-99.156,100.311c-54.761,0-99.155-44.911-99.155-100.311
		c0-55.403,44.395-100.313,99.155-100.313C210.554,19.256,254.948,64.166,254.948,119.569z"/>
	<path fill="#FFDA7A" d="M254.834,118.834c0,6.489-0.638,12.832-1.841,18.973c-8.868,45.266-48.835,79.527-96.659,79.527
		c-35.568,0-66.78-18.957-84.097-47.291c0.126,0.099,0.216,0.145,0.263,0.125c0,0-3.713-6.975-6.752-13.502
		c-1.67,0.602-3.333,1.219-4.985,1.853c15.601,37.431,52.556,63.815,95.571,63.815c54.77,0,99.73-42.764,103.268-96.653
		c0.148-2.264,0.232-4.546,0.232-6.847c0-3.453-0.181-6.864-0.513-10.232c-1.659,0.168-3.319,0.34-4.973,0.516
		C254.663,112.315,254.834,115.555,254.834,118.834z"/>
	<path fill="#B0861B" d="M156.334,15.334c-57.07,0-103.5,46.43-103.5,103.5c0,11.644,1.934,22.844,5.495,33.297
		c0.737,2.165,1.56,4.29,2.434,6.388c1.652-0.634,3.315-1.251,4.985-1.853c-1.084-2.327-2.082-4.598-2.796-6.476
		c-3.317-9.854-5.118-20.398-5.118-31.356c0-54.312,44.187-98.5,98.5-98.5c39.039,0,72.846,22.828,88.773,55.837
		c4.894,10.143,8.09,21.249,9.241,32.946c1.653-0.176,3.313-0.348,4.973-0.516c-1.195-12.114-4.48-23.624-9.502-34.156
		C233.172,39.525,197.526,15.334,156.334,15.334z"/>
	<path fill="#47380F" d="M156.91,218.836l-0.547-0.002c-33.848-0.184-66.158-18.031-84.324-46.576
		c-10.274-16.146-15.705-34.62-15.705-53.424c0-55.14,44.859-100,100-100c38.133,0,73.509,22.25,90.124,56.686
		c9.296,19.264,12.139,41.486,8.007,62.576C245.299,184.88,204.271,218.836,156.91,218.836z M156.334,21.834
		c-53.486,0-97,43.515-97,97c0,18.232,5.269,36.148,15.236,51.812c17.624,27.693,48.971,45.009,81.809,45.188l0.531,0.002
		c45.931,0,85.72-32.938,94.611-78.317c4.008-20.457,1.25-42.013-7.765-60.696C227.638,43.418,193.322,21.834,156.334,21.834z"/>
	<polygon fill="#BCED9C" points="207.994,64.22 134.291,138.017 103.584,107.27 85.166,125.72 115.867,156.467 115.867,156.467 
		134.291,174.916 226.42,82.67 	"/>
</g>
</svg>
