<?xml version="1.0" encoding="utf-8"?>
<!-- Generator: Adobe Illustrator 16.0.0, SVG Export Plug-In . SVG Version: 6.00 Build 0)  -->
<!DOCTYPE svg PUBLIC "-//W3C//DTD SVG 1.1//EN" "http://www.w3.org/Graphics/SVG/1.1/DTD/svg11.dtd">
<svg version="1.1" id="Layer_1" xmlns="http://www.w3.org/2000/svg" xmlns:xlink="http://www.w3.org/1999/xlink" x="0px" y="0px"
	 width="310px" height="310px" viewBox="0 0 310 310" enable-background="new 0 0 310 310" xml:space="preserve">
<g>
	<path fill="#59450E" d="M150,303.75c-11.671-11.238-19.229-38.67-20.605-43.28c-3.147-9.946-6.422-20.294-9.287-30.789
		c-5.742-21.032-9.883-40.32-2.354-63.41c7.266-22.28,20.861-35.194,37.3-35.428l0.45-0.01c0.902,0,2.678,0.072,3.582,0.146
		c10.231,1.131,19.691,7.129,27.402,17.348c6.784,8.99,10.898,21.577,11.586,35.439c0.245,4.95,0.059,9.975-0.556,14.934
		c-2.327,18.805-12.042,51.16-17.626,68.773c-0.166,0.523-0.275,0.871-0.322,1.02c-4.186,13.679-12.82,33.173-19.737,36.756
		C156.015,307.229,152.25,305.917,150,303.75z"/>
	<g>
		<path fill="#E1AD24" d="M183.312,152.252c-9.518-12.61-22.889-18.83-36.101-14.124c-11.624,4.14-20.567,15.761-25.252,30.124
			c-6.855,21.024-3.098,38.459,2.528,59.069c2.86,10.478,6.18,20.969,9.39,31.114c0,0,12.368,41.4,20.859,41.4
			c0.108,0,8.764,4.248,20.288-33.194c0.712-2.313,15.143-46.775,17.963-69.568c0.556-4.49,0.726-9.03,0.504-13.495
			C193.059,174.871,190.942,162.368,183.312,152.252z"/>
	</g>
	<g>
		<path fill="#E1AD24" d="M131.144,250.602l-0.224-0.715c-2.068-6.609-4.479-14.451-6.676-22.499
			c-5.637-20.65-9.402-38.123-2.524-59.214c4.979-15.268,14.24-26.306,25.406-30.283c2.946-1.05,5.977-1.583,9.009-1.583
			c4.913,0,9.784,1.368,14.479,4.066l0.183,0.105l-0.071,0.199L131.144,250.602z M156.135,136.812c-2.975,0-5.948,0.522-8.839,1.553
			c-11.019,3.924-20.166,14.846-25.098,29.964c-6.834,20.958-3.082,38.357,2.532,58.925c2.116,7.752,4.432,15.314,6.446,21.766
			l39.002-108.314C165.619,138.123,160.895,136.812,156.135,136.812z"/>
		<path fill="#FFC838" d="M185.713,155.807l-41.157,131.248c0.686,1.447,1.384,2.836,2.087,4.126l40.96-131.94
			C187.028,158.082,186.397,156.936,185.713,155.807z"/>
		<path fill="#F2D179" d="M134.246,259.642l40.558-116.139c-1.399-1.089-2.841-2.063-4.316-2.911L131.16,249.812
			c0.904,2.896,1.814,5.775,2.717,8.624C133.877,258.436,134.006,258.872,134.246,259.642z"/>
		<path fill="#FFF3D4" d="M182.34,151.007l-40.848,129.044c0.976,2.394,2.005,4.77,3.063,7.002l41.157-131.248
			c-0.733-1.21-1.53-2.397-2.401-3.555C182.992,151.83,182.668,151.416,182.34,151.007z"/>
		<path fill="#FFE194" d="M174.804,143.503l-40.558,116.139c0.97,3.127,3.766,11.869,7.246,20.41l40.848-129.044
			C180.021,148.117,177.489,145.598,174.804,143.503z"/>
	</g>
	<path fill="#B0861B" d="M266.956,100.112c-0.528,3.111-1.187,6.177-1.958,9.197c1.031-0.162,2.064-0.322,3.098-0.482
		C267.817,105.891,267.443,102.982,266.956,100.112z"/>
	<path fill="#FFC838" d="M268.096,108.828l-1.14-8.715c-9.131-53.768-55.409-94.691-111.164-94.691S53.759,46.345,44.629,100.112
		c-1.075,6.326-1.666,12.82-1.666,19.456c0,12.706,2.058,24.923,5.845,36.339l-0.475-0.407
		c15.842,43.661,58.808,78.213,107.459,78.213c62.314,0,112.83-51.106,112.83-114.145
		C268.622,115.943,268.431,112.364,268.096,108.828z"/>
	<path fill="#FFF3D4" d="M102.781,219.458L243.043,47.232c-4.35-5.367-9.17-10.328-14.402-14.812L67.805,189.785
		C77.454,201.727,89.368,211.905,102.781,219.458z"/>
	<path fill="#59450E" d="M45.463,119.568c0-6.266,0.549-12.671,1.631-19.038c4.353-25.632,17.586-49.083,37.264-66.033
		c19.897-17.139,45.267-26.577,71.435-26.577s51.537,9.438,71.435,26.577c9.211,7.934,16.987,17.305,23.124,27.644
		c1.446-0.828,2.896-1.649,4.344-2.473c-6.419-10.833-14.56-20.651-24.205-28.959c-20.804-17.92-47.332-27.789-74.697-27.789
		s-53.894,9.869-74.697,27.789C60.537,48.417,46.711,72.917,42.164,99.693c-1.129,6.643-1.701,13.33-1.701,19.875
		c0,24.654,7.608,47.542,20.565,66.4c1.346-0.983,2.689-1.969,4.037-2.95C52.714,164.988,45.463,143.121,45.463,119.568z"/>
	<path fill="#59450E" d="M254.694,59.669c-1.448,0.824-2.897,1.645-4.344,2.473c6.975,11.75,11.825,24.754,14.141,38.389
		c1.082,6.366,1.631,12.771,1.631,19.037c0,61.561-49.494,111.645-110.33,111.645c-37.562,0-70.792-19.097-90.727-48.194
		c-1.348,0.981-2.691,1.966-4.037,2.95c20.847,30.34,55.547,50.245,94.764,50.245c63.593,0,115.33-52.327,115.33-116.645
		c0-6.546-0.572-13.232-1.701-19.875C267.007,85.48,261.956,71.923,254.694,59.669z"/>
	<path fill="#EB6B10" d="M254.948,119.568c0,55.4-44.395,100.311-99.156,100.311c-54.761,0-99.155-44.911-99.155-100.311
		c0-55.403,44.395-100.313,99.155-100.313C210.554,19.255,254.948,64.166,254.948,119.568z"/>
	<g>
		<path fill="none" d="M216.44,37.08c-5.542-5.9-11.509-7.46-16.483-7.341c6.485,3.269,12.565,7.235,18.146,11.802
			C217.594,40.041,217.062,38.54,216.44,37.08z"/>
		<path fill="#F58342" d="M90.569,42.539c-1.015,0.969-1.991,1.963-2.907,3.002c0.139,0.231,0.26,0.472,0.345,0.734
			C88.819,45,89.683,43.76,90.569,42.539z"/>
		<path fill="#CE622B" d="M118.73,26.504c-8.936,3.264-17.703,7.387-25.154,13.373c-1.059,0.851-2.049,1.746-3.007,2.662
			c-0.887,1.222-1.75,2.461-2.562,3.737c-0.085-0.262-0.206-0.503-0.345-0.734c-1.475,1.675-2.823,3.446-4.086,5.295
			C93.337,40.344,105.305,31.981,118.73,26.504z"/>
		<path fill="none" d="M70.807,107.312c0.07,0.017,0.146,0.031,0.215,0.048c-0.106-0.663-0.206-1.281-0.298-1.85
			C70.748,106.112,70.776,106.712,70.807,107.312z"/>
		<path fill="#F58342" d="M122.661,27.515c-4.622,2.273-8.773,4.957-12.493,7.999c3.322,0.864,6.879,1.595,10.542,2.095
			c0.085-0.048,0.173-0.1,0.25-0.141c0.5-0.272,0.864-0.436,0.834-0.42c0.883-0.611,2.095-0.391,2.707,0.492
			c0.113,0.163,0.188,0.339,0.245,0.519c3.258,0.282,6.55,0.356,9.785,0.175c0.084-0.073,0.125-0.098,0.125-0.106l0.295-0.175
			c0.62-0.367,1.372-0.302,1.914,0.104c3.518-0.342,6.935-1.019,10.129-2.112c0.121-0.237,0.239-0.458,0.35-0.643
			c0.271-0.485,0.44-0.646,0.438-0.663c-0.14-0.926,0.498-1.792,1.426-1.932c0.927-0.14,1.791,0.498,1.934,1.424
			c0.004,0.031-0.002,0.06,0.002,0.09c5.195-2.596,9.529-6.578,12.319-12.392c1.493,0.402,2.989,0.784,4.489,1.149
			c0.467-1.057,1.558-1.831,2.964-1.403c0.825,0,1.925,0.648,2.692,0.929c1.215,0.449,2.425,0.919,3.62,1.417
			c2.213,0.923,4.396,1.933,6.549,2.99c2.799,1.374,5.55,2.849,8.247,4.414c1.994-0.754,4.764-1.51,7.934-1.586
			c-13.3-6.706-28.295-10.484-44.165-10.484c-6.653,0-13.151,0.668-19.438,1.932c-3.81,0.973-7.601,2.019-11.351,3.197
			C124.873,25.615,124.176,26.773,122.661,27.515z"/>
		<path fill="#F58342" d="M225.23,92.607c0.077,0.373,0.021,0.729-0.111,1.049c0.706,3.79,1.083,7.318,1.235,10.459
			c0.146-6.612-1.058-15.662-5.979-26.453c1.407,3.399,2.518,6.74,3.377,9.957C224.398,89.311,224.896,90.999,225.23,92.607z"/>
		<path fill="#F58342" d="M102.541,54.931c0.387,0.005,0.698-0.006,0.887-0.022c2.379-0.202,4.572-0.908,6.572-2.051
			c0-0.005,0-0.008,0-0.012c0-0.601,0.312-1.447,0.56-2.436c0.088-0.509,0.376-1.023,0.562-1.574
			c0.17-0.562,0.461-1.123,0.737-1.688c0.2-0.473,0.475-0.932,0.743-1.386c-1.502-0.304-2.967-0.643-4.418-1.012
			c-0.228,0.351-0.576,0.619-1.008,0.704c0,0-0.246,0.049-0.512,0.146c-0.271,0.071-0.76,0.276-1.305,0.479
			c-0.543,0.28-1.199,0.517-1.851,0.928c-0.667,0.364-1.361,0.787-2.019,1.279c-0.685,0.441-1.313,0.967-1.894,1.474
			c-0.593,0.483-1.13,0.953-1.545,1.416c-0.858,0.878-1.432,1.463-1.432,1.463l-0.145,0.147c-0.124,0.126-0.26,0.233-0.402,0.326
			c1.462,0.706,2.975,1.262,4.53,1.632C101.359,54.868,102.018,54.917,102.541,54.931z"/>
		<path fill="#F58342" d="M245.647,127.523c-0.711-7.061-1.961-14.071-3.831-20.918c-4.391-16.09-12.402-30.904-22.97-43.657
			c-0.115,0.002-0.23,0.001-0.346,0.001c20.796,31.894,11.185,54.497,10.749,55.48c-0.004,0.008-0.01,0.016-0.013,0.024
			c-0.001,0.002-0.002,0.005-0.003,0.007c-0.005,0.011-0.013,0.019-0.018,0.03c-0.066,0.141-0.145,0.271-0.231,0.395
			c-0.028,0.04-0.057,0.078-0.086,0.115c-0.077,0.099-0.161,0.192-0.25,0.278c-0.028,0.028-0.056,0.059-0.086,0.085
			c-0.118,0.105-0.244,0.2-0.378,0.283c-0.028,0.018-0.059,0.031-0.088,0.048c-0.11,0.063-0.225,0.119-0.343,0.166
			c-0.043,0.018-0.086,0.034-0.13,0.049c-0.124,0.042-0.25,0.076-0.379,0.101c-0.028,0.005-0.056,0.014-0.084,0.018
			c-0.143,0.023-0.285,0.037-0.431,0.037c-0.014,0-0.027-0.004-0.041-0.004c-0.102-0.001-0.203-0.019-0.306-0.032
			c-0.08-0.01-0.161-0.013-0.241-0.031c-0.124-0.027-0.245-0.074-0.366-0.119c-0.054-0.021-0.109-0.029-0.162-0.053
			c-0.004-0.002-0.007-0.004-0.011-0.006c-0.005-0.002-0.009-0.003-0.014-0.005c-0.452-0.205-38.783-16.61-110.83,21.948
			c-0.13,0.069-0.267,0.107-0.401,0.154c-0.119,1.41-1.771,2.383-3.83,2.618c-2.651,3.939-4.263,7.919-5.127,11.938
			c1.82,2.811,3.623,5.676,5.242,8.579c0.424,0.759,0.151,1.717-0.606,2.139c-0.244,0.136-0.507,0.2-0.765,0.2
			c-0.553,0-1.088-0.292-1.377-0.807c-0.996-1.785-2.074-3.563-3.182-5.331c-0.691,8.776,1.584,17.728,3.874,26.827
			c4.796,7.897,10.76,15.197,18.188,21.808c1.564-1.276,4.133-1.243,5.462,0.708c0.663,0.985,1.347,1.938,2.053,2.866
			c1.374-0.341,2.905-0.141,4.275,0.936c2.171,1.709,4.411,3.363,6.719,4.922c3.452,0.368,6.957,0.561,10.506,0.561
			c38.184,0,71.32-21.838,87.888-53.838c-0.041-0.393-0.073-0.786-0.121-1.178c-0.196-1.613,0.907-3.01,2.345-3.394
			c0.641-1.407,1.248-2.832,1.825-4.273c-0.713-3.173-1.089-6.432-1.247-9.632C246.154,140.868,246.322,134.208,245.647,127.523z
			 M129.963,148.56c-0.462-0.736-0.238-1.707,0.497-2.168c0.736-0.461,1.707-0.239,2.169,0.497c1.269,2.024,2.336,4.188,3.368,6.279
			c0.965,1.956,1.877,3.803,2.936,5.538c0.453,0.741,0.218,1.71-0.523,2.162c-0.256,0.157-0.539,0.23-0.818,0.23
			c-0.53,0-1.047-0.269-1.346-0.755c-1.129-1.854-2.116-3.851-3.069-5.782C132.181,152.54,131.146,150.45,129.963,148.56z
			 M139.604,183.071c-0.307,0.247-0.704,0.32-1.06,0.234c0,0-0.405-0.103-0.964-0.336c-0.267-0.117-0.599-0.255-0.963-0.523
			c-0.354-0.241-0.738-0.521-1.077-0.814c-0.304-0.308-0.608-0.616-0.869-0.924c-0.283-0.294-0.451-0.636-0.632-0.898
			c-0.336-0.547-0.497-0.951-0.497-0.951c-0.244-0.614,0.057-1.312,0.67-1.556c0.345-0.137,0.72-0.102,1.021,0.064l0.106,0.06
			c0,0,0.357,0.199,0.795,0.555c0.428,0.379,1.019,0.806,1.521,1.326c0.255,0.235,0.505,0.434,0.724,0.666
			c0.196,0.225,0.443,0.471,0.688,0.663c0.447,0.406,0.711,0.732,0.711,0.732C140.2,181.885,140.12,182.647,139.604,183.071z
			 M162.062,214.319c-0.269,0.18-0.574,0.269-0.875,0.269c-0.505,0-1.002-0.245-1.307-0.697c-1.687-2.512-3.184-5.15-4.631-7.704
			l-0.149-0.263c-0.428-0.755-0.163-1.716,0.592-2.145c0.753-0.427,1.715-0.165,2.146,0.593l0.147,0.262
			c1.42,2.501,2.889,5.089,4.507,7.503C162.977,212.858,162.786,213.837,162.062,214.319z M171.896,190.527
			c-0.429,0.133-0.879-0.016-1.148-0.339l-0.007-0.01c0-0.002-0.537-0.646-1.245-1.666c-0.685-1.054-1.619-2.34-2.441-3.718
			c-0.413-0.735-0.826-1.476-1.185-2.18c-0.381-0.682-0.644-1.408-0.854-2.03c-0.418-1.239-0.624-2.071-0.624-2.071
			c-0.142-0.568,0.204-1.142,0.771-1.281c0.432-0.108,0.865,0.066,1.111,0.406l0.098,0.133c0,0,0.479,0.66,1.087,1.662
			c0.146,0.254,0.301,0.527,0.47,0.816c0.152,0.294,0.394,0.586,0.584,0.908c0.413,0.629,0.82,1.314,1.229,2.004
			c0.864,1.445,1.712,2.924,2.146,4.07c0.469,1.149,0.717,1.948,0.717,1.948C172.779,189.747,172.461,190.35,171.896,190.527z
			 M169.539,150.399c-10.226,0.787-22.814-4.719-26.746-11.012c25.173-20.451,62.146-14.159,62.146-14.159
			C212.805,146.466,179.765,149.612,169.539,150.399z M207.156,190.242c-0.1,0.645-0.219,1.069-0.219,1.069
			c-0.185,0.64-0.855,1.01-1.491,0.826c-0.416-0.118-0.718-0.44-0.829-0.826l-0.031-0.118c0,0-0.122-0.428-0.219-1.06
			c-0.102-0.634-0.148-1.471-0.171-2.309c-0.017-0.852,0.063-1.703,0.161-2.341c0.095-0.639,0.228-1.062,0.227-1.062
			c0.202-0.646,0.892-1.008,1.54-0.805c0.396,0.124,0.686,0.432,0.804,0.797l0.01,0.037c0,0,0.133,0.427,0.229,1.067
			c0.099,0.641,0.179,1.492,0.167,2.345C207.309,188.729,207.261,189.595,207.156,190.242z M227.754,160.442
			c-0.023,0.774-0.023,1.478-0.128,2.107c-0.209,1.259-0.432,2.065-0.432,2.065c-0.145,0.529-0.693,0.843-1.225,0.697
			c-0.378-0.104-0.645-0.412-0.715-0.774l-0.026-0.14c0,0-0.146-0.777-0.248-1.89c-0.047-0.559-0.172-1.239-0.229-1.948
			c-0.065-0.717-0.105-1.476-0.219-2.22c-0.117-1.542-0.233-3.083-0.323-4.237c-0.06-1.196-0.02-2.007-0.02-2.007
			c0.025-0.562,0.501-0.994,1.06-0.968c0.402,0.019,0.738,0.27,0.887,0.615c0,0,0.317,0.748,0.68,1.89
			c0.089,0.286,0.183,0.596,0.267,0.926c0.085,0.333,0.2,0.666,0.254,1.05c0.134,0.764,0.228,1.589,0.327,2.412
			C227.759,158.852,227.784,159.673,227.754,160.442z M240.49,130.294c-0.666,1.434-0.887,2.991-0.655,4.625
			c0.122,0.861-0.478,1.657-1.336,1.779c-0.077,0.01-0.149,0.017-0.224,0.017c-0.771,0-1.445-0.568-1.558-1.355
			c-0.315-2.246-0.007-4.396,0.917-6.388c0.367-0.79,1.306-1.129,2.09-0.766C240.513,128.572,240.854,129.507,240.49,130.294z"/>
		<path fill="#F58342" d="M78.054,152.471c-0.042,0.02-0.094,0.036-0.138,0.056c0.188,0.655,0.382,1.306,0.577,1.958
			c-0.131-0.677-0.261-1.355-0.388-2.041C78.087,152.453,78.072,152.462,78.054,152.471z"/>
		<path fill="#F58342" d="M103.012,43.273c-0.08-0.025-0.163-0.049-0.243-0.075c-0.119-0.039-0.229-0.085-0.343-0.129
			c-0.196,0.228-0.401,0.45-0.595,0.681c0.032-0.013,0.064-0.03,0.097-0.043C102.289,43.533,102.655,43.396,103.012,43.273z"/>
		<path fill="#F58342" d="M122.822,50.481c2.627,0.438,5.712,1.321,8.58,2.307c-0.092-0.406-0.203-0.93-0.32-1.555
			c-0.057-0.372-0.148-0.771-0.188-1.201c-0.009-0.436-0.031-0.896-0.026-1.373c0.001-0.363,0.005-0.741,0.008-1.119
			c-4.081,0.049-8.187-0.225-12.207-0.764c-0.062,0.088-0.128,0.174-0.189,0.264c-0.604,0.883-1.175,1.778-1.657,2.631
			c-0.206,0.347-0.387,0.683-0.562,1.014C118.252,50.23,120.416,50.08,122.822,50.481z"/>
		<path fill="#F58342" d="M158.451,43.501c3.08-1.724,7.655-0.59,11.18,0.585c-0.135-0.344-0.329-0.695-0.471-1.08
			c-0.17-0.445-0.499-0.872-0.722-1.349c-0.552-0.921-1.222-1.884-1.979-2.819c-0.413-0.444-0.749-0.948-1.179-1.381
			c-0.372-0.413-0.745-0.82-1.121-1.213c-3.801,3.509-8.293,6.08-13.189,7.882c0.029,0.721,0.051,1.436,0.159,2.098
			c0.059,0.429,0.082,0.848,0.112,1.246c0.012,0.403,0.071,0.772,0.139,1.112c0.193,1.092,0.237,1.94,0.247,2.237
			c0.402-0.513,0.804-1.052,1.215-1.609C154.436,47.055,156.083,44.825,158.451,43.501z"/>
		<path fill="#F58342" d="M170.178,35.696c0.306,0.345,0.59,0.714,0.871,1.083c1.129-2.484,5.1-4.176,5.608-3.256
			c11.171,5.345,19.911,11.763,26.728,18.646c1.373-0.456,2.765-0.853,4.17-1.181c-10.659-9.916-23.023-18.03-36.377-23.821
			c-1.148,2.121-2.452,4.06-3.909,5.807C168.285,33.734,169.258,34.68,170.178,35.696z"/>
		<path fill="#F58342" d="M148.786,53.75c-0.702-0.139-1.303-0.569-1.639-1.178c0,0-0.564-1.027-1.181-2.702
			c-0.167-0.416-0.326-0.872-0.396-1.373c-0.099-0.496-0.206-1.021-0.282-1.569c-0.042-0.342-0.113-0.691-0.156-1.045
			c-3.009,0.712-6.118,1.175-9.274,1.43c-0.006,0.079-0.021,0.157-0.021,0.237c-0.016,0.404-0.029,0.8-0.042,1.185
			c-0.011,0.384-0.05,0.756-0.076,1.11c0.011,0.36,0.021,0.7,0.029,1.014c0.016,1.261-0.051,2.132-0.051,2.132l-0.023,0.296
			c-0.027,0.361-0.152,0.688-0.338,0.97c0.727,0.295,1.423,0.587,2.036,0.865C142.216,57.316,144.916,57.071,148.786,53.75z"/>
		<path fill="#F58342" d="M173.772,47.824c0,0-0.017-0.062-0.041-0.15c-0.015,0.026-0.025,0.056-0.041,0.081
			C173.739,47.796,173.772,47.824,173.772,47.824z"/>
		<path fill="#FFE9B7" d="M171.049,36.78c0.173,0.226,0.344,0.453,0.518,0.673c0.384,0.65,0.789,1.265,1.116,1.912
			c0.298,0.67,0.608,1.294,0.803,1.946c0.192,0.655,0.376,1.265,0.471,1.853c0.083,0.595,0.121,1.142,0.164,1.619
			c0.037,0.479-0.046,0.909-0.062,1.252c-0.069,0.69-0.127,1.072-0.127,1.072c-0.032,0.206-0.104,0.394-0.2,0.566
			c0.024,0.088,0.041,0.15,0.041,0.15s-0.033-0.028-0.082-0.069c-0.355,0.567-1.024,0.899-1.729,0.79
			c-0.474-0.074-0.863-0.341-1.123-0.701l-0.107-0.039c-2.876-1.035-8.231-2.961-10.746-1.557c-1.775,0.993-3.152,2.857-4.611,4.832
			c-0.967,1.312-1.969,2.669-3.127,3.779c-3.122,2.993-5.904,4.827-9.497,4.828c-1.931,0-4.098-0.532-6.676-1.697
			c-3.665-1.658-9.57-3.703-13.77-4.405c-2.871-0.479-5.341-0.017-7.893,0.961l-0.1,0.186c-0.374,0.714-1.103,1.113-1.855,1.107
			c-0.248,0.003-0.497-0.037-0.737-0.122c-2.705,1.258-5.003,2.088-7.822,2.328c-0.012,0.001-0.028,0.002-0.04,0.003
			c-0.815,3.074-1.492,6.341-1.99,9.739c3.685-0.535,7.455-0.429,11.159-0.115c4.699,0.397,9.402,0.76,14.087,1.306
			c2.221,0.258,4.438,0.431,6.668,0.564c1.661,0.039,3.285-0.16,4.935-0.156c4.107-0.162,5.566,5.608,1.847,7.406
			c-7.605,3.577-16.837,3.252-25.068,3.199c-4.605-0.032-9.336-0.292-13.848,0.819c-0.242,0.06-0.482,0.128-0.724,0.201
			c0.02,5.898,0.648,11.919,2.061,17.787c1.029-1.747,2.38-3.282,3.971-4.712c1.453-1.149,3.104-2.086,4.958-2.824
			c4.269-2.072,10.025-2.359,14.469-1.125c6.849,1.902,11.79,7.672,14.294,14.123c-0.01-0.03-0.004-0.019,0.045,0.109
			c0.149,0.431,0.229,0.66,0.229,0.66c0.465,1.324-0.764,2.614-2.107,2.247c-5.6,2.53-11.509,4.372-17.517,5.647
			c-4.042,0.861-8.325,1.378-12.509,1.098c3.545,6.414,8.439,12.234,14.98,16.98c15.34-7.376,29.018-12.271,41.01-15.417
			c-1.446-0.417-2.854-0.976-4.189-1.689c-0.215,0.216-0.451,0.443-0.765,0.672c-0.497,0.412-1.163,0.818-1.992,1.132
			c-7.181,3.029-12.578-6.14-9.42-12.055c1.752-2.91,4.637-4.42,7.905-4.99c1.985-0.35,2.967,2.442,1.186,3.41
			c-1.355,0.732-2.754,1.538-3.664,2.822c-0.295,0.345-0.461,0.746-0.62,1.13c-0.073,0.208-0.12,0.42-0.152,0.633
			c1.23-0.652,2.313-1.521,3.228-2.632c0.978-1.415,2.729-2.036,4.303-1.129c6.767,3.904,14.055,3.782,18.769-3.067
			c0.714-1.035,1.734-1.44,2.732-1.408c-0.917-1.215-2.192-2.181-3.418-3.042c-2.805-1.966-6.176-2.05-9.468-2.232
			c-3.455-0.19-6.648-0.966-9.314-3.271c-0.979-1.006-1.97-2.054-2.667-3.281c-3.975-6.477-2.17-14.67,0.479-21.275
			c0.627-1.564,3.049-0.74,2.604,0.875c-1.525,5.575-3.016,12.899,0.607,17.986c0.559,0.83,1.292,1.524,2.024,2.195
			c0.771,0.533,1.537,1.082,2.495,1.316c2.601,0.856,5.546,0.394,8.234,0.622c2.848,0.241,5.698,1.056,8.087,2.658
			c2.661,1.838,5.173,4.079,6.365,7.174c-0.637-1.657,0.657,1.633,0,0c2.096,5.207-0.204,10.193-4.062,13.57
			c21.615-2.938,35.334,0.223,40.94,2.037c0.566-2.052,1.225-5.32,1.32-9.628c-0.152-3.141-0.529-6.67-1.235-10.459
			c-0.321,0.766-1.144,1.291-2.035,1.113c-5.027,1.923-10.337,3.264-15.668,3.992c-5.348,0.797-11.201,0.914-16.36-0.882
			c-1.034,0.303-2.124-0.33-2.303-1.43c-1.63-10.045,2.132-20.152,12.145-23.898c10.858-4.064,19.223,5.548,22.855,15.069
			c-0.859-3.217-1.97-6.558-3.377-9.957c-2.08-4.562-4.827-9.433-8.422-14.566c-3.75,0.534-7.398,1.78-11.011,2.868
			c-7.882,2.373-16.645,5.29-24.951,4.003c-4.077-0.675-4.304-6.623-0.317-7.625c1.582-0.47,3.193-0.737,4.778-1.243
			c2.101-0.757,4.18-1.548,6.236-2.423c4.341-1.845,8.752-3.52,13.147-5.225c1.169-0.454,2.353-0.886,3.548-1.282
			c-6.816-6.883-15.557-13.301-26.728-18.646C176.148,32.604,172.178,34.296,171.049,36.78z"/>
		<path fill="#FFE9B7" d="M114.514,134.844c0.318,0.239,0.529,0.397,0.645,0.484c0.021-0.011,0.043-0.023,0.064-0.035
			c-0.738-0.519-1.457-1.056-2.157-1.612C113.663,134.193,114.149,134.596,114.514,134.844z"/>
		<path fill="#FFE9B7" d="M204.938,125.228c0,0-36.973-6.292-62.146,14.159c3.932,6.293,16.521,11.799,26.746,11.012
			S212.805,146.466,204.938,125.228z M202.31,127.538c-0.254,0.778-0.519,1.542-0.851,2.292c-0.676,1.435-1.811,3.537-3.909,5.465
			c-2.079,1.924-5.051,3.565-8.371,4.385c-0.793,0.2-1.585,0.338-2.377,0.453c1.538,2.79,0.226,7.212-3.942,7.213
			c-3.11,0.001-6.232-0.042-9.238,0.88c-1.286,0.395-2.408,0.259-3.315-0.212l-0.009,0.002c-0.618,0.146-1.236-0.238-1.383-0.856
			c-0.027-0.117-0.029-0.234-0.021-0.349c-1.69-2.198-1.539-5.977,1.517-7.408c-2.857-0.239-5.719-0.311-8.585,0.138
			c-2.011,0.317-4.009,0.9-5.905,1.641c-0.978,0.386-2.734,1.54-3.66,0.482c-2.138-2.437,6.823-5.364,8.205-5.744
			c4.374-1.118,8.758-1.185,13.239-0.79c4.808,0.423,9.613,1.108,14.395,0.037c1.35-0.317,2.624-0.701,3.737-1.237
			c1.119-0.526,2.098-1.151,2.918-1.83c1.645-1.355,2.719-2.849,3.355-3.971c0.334-0.622,0.654-1.24,0.956-1.878
			C199.965,124.331,202.972,125.513,202.31,127.538z"/>
		<path fill="#E2A672" d="M108.816,114.02c-1.691-0.113-3.368-0.344-5.004-0.755c-0.975,0.454-2.132-0.044-2.421-1.11
			c-0.657-0.656-0.533-3.207-0.561-4.079c-0.062-1.703,0.079-3.4,0.46-5.065c0.356-1.554,0.941-2.938,1.692-4.212
			c-1.412-5.868-2.041-11.889-2.061-17.787c-2.505,0.756-4.982,2.09-7.64,1.19c-0.401-0.136-0.775-0.315-1.127-0.522
			c0.017,9.212,1.287,18.322,3.915,27.008c0.112,0.287,0.224,0.573,0.328,0.861c0.245,0.642,0.489,1.28,0.731,1.912
			c0.265,0.625,0.582,1.218,0.865,1.822c0.592,1.194,1.128,2.393,1.73,3.522c0.646,1.106,1.279,2.187,1.896,3.24
			c0.575,1.076,1.329,2,1.953,2.958c0.643,0.948,1.264,1.861,1.949,2.67c0.666,0.822,1.279,1.632,1.902,2.365
			c0.644,0.71,1.258,1.384,1.833,2.017c1.175,1.232,2.246,2.267,3.145,3.056c0.234,0.203,0.454,0.393,0.661,0.57
			c0.7,0.556,1.419,1.093,2.157,1.612c2.915-1.519,5.771-2.945,8.574-4.293C117.256,126.253,112.361,120.434,108.816,114.02z"/>
		<path fill="#E2A672" d="M93.367,65.598c-0.252,1.656-0.466,3.314-0.64,4.974c1.84-1.044,4.067-1.65,5.868-2.128
			c1.08-0.287,2.172-0.497,3.271-0.656c0.498-3.398,1.175-6.666,1.99-9.739c0.012-0.001,0.028-0.002,0.04-0.003
			c2.819-0.239,5.117-1.069,7.822-2.328c-0.011-0.004-0.021-0.005-0.031-0.009c-0.082-0.03-0.216-0.057-0.296-0.099
			c-0.705-0.37-1.213-1.088-1.219-1.832c0,0-0.131-0.276-0.162-0.745c-2.264,1.032-4.135,1.686-6.381,1.877
			c-0.215,0.018-0.592,0.036-1.09,0.022c-0.521-0.007-1.193-0.049-2.039-0.187c-1.556-0.371-2.967-0.927-4.429-1.632
			c-0.096,0.062-0.195,0.113-0.297,0.16c-0.158,0.596-0.352,1.325-0.582,2.191c-0.333,1.257-0.738,2.784-1.202,4.536
			c-0.116,0.438-0.235,0.891-0.358,1.356c-0.079,0.461-0.162,0.935-0.245,1.421c-0.043,0.242-0.087,0.495-0.13,0.743
			C93.43,64.151,93.482,64.845,93.367,65.598z"/>
		<path fill="#E2A672" d="M102.541,54.931c-0.523-0.014-1.182-0.063-1.938-0.187c-1.556-0.371-3.068-0.927-4.53-1.632
			c1.462,0.706,2.873,1.262,4.429,1.632C101.348,54.882,102.021,54.924,102.541,54.931z"/>
		<path fill="#FCC371" d="M124.009,40.247c-0.028,0.018-0.165,0.186-0.488,0.556c-0.323,0.366-0.784,0.888-1.335,1.514
			c-1.037,1.199-2.353,2.792-3.517,4.459c4.021,0.539,8.126,0.812,12.207,0.764c0.001-0.12,0.001-0.233,0.002-0.354
			c0.016-0.5,0.134-1.013,0.198-1.522c0.076-0.511,0.174-1.017,0.275-1.514c0.144-0.495,0.305-0.977,0.463-1.438
			c0.265-0.932,0.774-1.749,1.125-2.441c0.446-0.689,0.821-1.192,1.194-1.618c0.181-0.217,0.312-0.344,0.397-0.419
			c-3.235,0.181-6.527,0.107-9.785-0.175C124.999,38.852,124.729,39.748,124.009,40.247z"/>
		<path fill="#FCC371" d="M103.012,43.273c0.43-0.149,0.845-0.277,1.209-0.412c0.717-0.184,1.266-0.347,1.756-0.424
			c0.48-0.097,0.668-0.108,0.668-0.108l0.125-0.008c0.873-0.055,1.625,0.608,1.68,1.481c0.022,0.351-0.088,0.672-0.264,0.946
			c1.455,0.37,2.936,0.71,4.441,1.015c0.063-0.108,0.122-0.217,0.188-0.324c0.323-0.575,0.696-1.12,1.093-1.654
			c0.772-1.074,1.646-2.053,2.517-2.91c0.883-0.844,1.747-1.577,2.543-2.14c0.669-0.486,1.264-0.854,1.742-1.126
			c-3.663-0.5-7.22-1.231-10.542-2.095c-2.829,2.314-5.4,4.844-7.742,7.555c0.113,0.044,0.224,0.091,0.343,0.129
			C102.849,43.224,102.932,43.248,103.012,43.273z"/>
		<path fill="#FCC371" d="M150.998,35.836c0.008-0.015-0.036,0.309-0.026,0.706c-0.013,0.393-0.013,1.004-0.049,1.738
			c-0.029,0.724-0.017,1.579-0.052,2.463c0.006,0.447,0.039,0.908,0.025,1.37c-0.025,0.463-0.014,0.932,0.047,1.396
			c0.012,0.207,0.02,0.41,0.027,0.616c4.896-1.802,9.389-4.373,13.189-7.882c-0.032-0.034-0.063-0.071-0.096-0.104
			c-0.807-0.849-1.604-1.63-2.287-2.318c-1.393-1.373-2.322-2.289-2.322-2.289l-0.033-0.032c-0.467-0.46-0.475-1.214-0.013-1.683
			c0.31-0.315,0.752-0.419,1.151-0.315c0,0,0.084,0.022,0.248,0.065c0.167,0.049,0.425,0.117,0.715,0.224
			c0.602,0.202,1.431,0.537,2.386,1.027c0.95,0.496,2.039,1.128,3.11,1.961c0.084,0.06,0.166,0.13,0.249,0.192
			c1.457-1.748,2.761-3.687,3.909-5.807c-0.655-0.284-1.309-0.574-1.969-0.847c-1.516-0.627-1.777-2.162-1.258-3.342
			c-1.5-0.366-2.996-0.748-4.489-1.149c-2.79,5.813-7.124,9.795-12.319,12.392c0.011,0.12,0.02,0.24,0.005,0.355L150.998,35.836z"/>
		<path fill="#FCC371" d="M137.372,40.215c0.007-0.012-0.128,0.254-0.19,0.515c-0.044,0.142-0.102,0.286-0.165,0.54
			c-0.063,0.235-0.141,0.494-0.237,0.765c-0.106,0.607-0.356,1.232-0.454,1.991c-0.067,0.371-0.135,0.75-0.226,1.128
			c-0.043,0.395-0.086,0.796-0.127,1.199c-0.033,0.322-0.09,0.639-0.115,0.96c3.156-0.254,6.266-0.718,9.274-1.43
			c-0.025-0.213-0.044-0.429-0.03-0.647c0-0.577,0-1.165-0.002-1.751c-0.01-1.176,0.252-2.326,0.423-3.396
			c0.102-0.535,0.279-1.039,0.415-1.517c0.141-0.478,0.281-0.923,0.466-1.327c0.199-0.492,0.399-0.923,0.591-1.3
			c-3.194,1.093-6.611,1.77-10.129,2.112c0.177,0.132,0.331,0.3,0.451,0.501C137.625,39.08,137.622,39.708,137.372,40.215z"/>
		<path fill="#E2A672" d="M115.095,53.012c-0.112,0.296-0.224,0.555-0.319,0.77c-0.187,0.429-0.316,0.676-0.316,0.676l-0.047,0.088
			c2.552-0.979,5.021-1.441,7.893-0.961c4.199,0.702,10.104,2.747,13.77,4.405c2.578,1.166,4.745,1.697,6.676,1.697
			c3.593,0,6.375-1.835,9.497-4.828c1.158-1.11,2.16-2.467,3.127-3.779c1.459-1.975,2.836-3.838,4.611-4.832
			c2.515-1.404,7.87,0.522,10.746,1.557l0.107,0.039c-0.112-0.156-0.207-0.323-0.263-0.509l-0.107-0.366
			c0,0-0.087-0.291-0.203-0.776c-0.062-0.243-0.097-0.535-0.199-0.862c-0.116-0.327-0.255-0.688-0.366-1.083
			c-0.017-0.053-0.048-0.108-0.069-0.161c-3.524-1.175-8.1-2.309-11.18-0.585c-2.368,1.324-4.016,3.554-5.608,5.709
			c-0.411,0.557-0.812,1.096-1.215,1.609c0.002,0.073,0.003,0.122,0.003,0.122l0.006,0.458c0.011,1.321-1.049,2.402-2.372,2.414
			c-0.166,0.001-0.322-0.032-0.479-0.062c-3.87,3.32-6.57,3.565-11.414,1.372c-0.613-0.278-1.31-0.57-2.036-0.865
			c-0.398,0.609-1.102,0.995-1.879,0.937c-0.897-0.067-1.618-0.702-1.843-1.523c0,0-0.087-0.327-0.212-0.883
			c-2.868-0.986-5.953-1.869-8.58-2.307c-2.406-0.401-4.57-0.25-6.562,0.204c-0.254,0.477-0.489,0.938-0.693,1.355
			C115.406,52.396,115.248,52.723,115.095,53.012z"/>
		<path fill="#CE622B" d="M126.777,209.887c-7.429-6.611-13.393-13.911-18.188-21.808c-2.29-9.1-4.565-18.051-3.874-26.827
			c-1.352-2.158-2.749-4.297-4.126-6.396l-0.499-0.762c-0.477-0.726-0.274-1.703,0.451-2.178c0.73-0.476,1.704-0.273,2.18,0.454
			l0.5,0.761c0.724,1.103,1.453,2.22,2.182,3.343c0.864-4.019,2.476-7.999,5.127-11.938c2.06-0.235,3.711-1.208,3.83-2.618
			c-0.296,0.103-0.597,0.172-0.897,0.172c-0.521,0-1.026-0.157-1.467-0.435c-0.268-0.111-0.529-0.245-0.771-0.427
			c-0.022-0.016-0.056-0.044-0.075-0.06c0,0-0.329-0.26-0.942-0.749c-0.644-0.482-1.46-1.227-2.489-2.178
			c-1.021-0.962-2.191-2.167-3.467-3.6c-0.621-0.729-1.282-1.503-1.977-2.32c-0.665-0.837-1.32-1.752-2.023-2.688
			c-0.727-0.923-1.383-1.951-2.057-3.017c-0.654-1.075-1.441-2.121-2.041-3.32c-0.636-1.176-1.289-2.382-1.957-3.616
			c-0.619-1.257-1.166-2.583-1.768-3.907c-0.288-0.668-0.608-1.328-0.875-2.018c-0.241-0.696-0.486-1.399-0.733-2.103
			c-0.468-1.419-1.041-2.824-1.433-4.294c-0.726-2.958-1.618-5.924-1.989-8.992c-0.223-1.523-0.53-3.037-0.674-4.562
			c-0.101-1.525-0.203-3.047-0.302-4.556c-0.052-0.753-0.1-1.505-0.147-2.25c-0.043-0.747,0.02-1.491,0.022-2.229
			c0.039-1.476,0.079-2.934,0.117-4.367c0.023-0.716,0.025-1.428,0.068-2.129c0.081-0.698,0.164-1.389,0.242-2.072
			c0.164-1.366,0.319-2.702,0.474-4.002c0.213-2.606,0.839-5.04,1.287-7.291c0.238-1.124,0.464-2.201,0.68-3.225
			c0.108-0.512,0.213-1.01,0.316-1.494c0.137-0.461,0.271-0.91,0.401-1.344c0.522-1.736,0.975-3.249,1.35-4.495
			c0.748-2.493,1.178-3.917,1.178-3.917c0.143-0.481,0.457-0.861,0.851-1.109c0.007-0.006,0.014-0.013,0.021-0.019
			c0,0,0.73-0.6,1.824-1.499c0.529-0.466,1.208-0.942,1.952-1.426c0.728-0.504,1.514-1.022,2.364-1.452
			c0.785-0.458,1.609-0.844,2.409-1.175c0.193-0.231,0.398-0.453,0.595-0.681c2.342-2.711,4.913-5.241,7.742-7.555
			c3.72-3.042,7.871-5.726,12.493-7.999c1.515-0.742,2.212-1.9,2.343-3.131c-1.882,0.591-3.755,1.213-5.615,1.874
			c-0.22,0.079-0.438,0.166-0.658,0.246c-13.426,5.478-25.394,13.84-35.154,24.332c-1.142,1.673-2.213,3.41-3.227,5.213
			c-0.049,1.019-0.538,1.995-1.4,2.648c-7.179,14.26-8.861,30.979-8.226,46.813c0.092,0.569,0.191,1.187,0.298,1.85
			c1.826,0.454,3.414,1.005,4.787,1.551c0.111-0.054,0.225-0.104,0.34-0.148c-0.057-0.069-0.087-0.106-0.087-0.106l-0.113-0.141
			c-0.514-0.636-0.415-1.565,0.222-2.079c0.6-0.482,1.464-0.418,1.991,0.123c0,0,0.527,0.543,1.45,1.497
			c0.463,0.479,1.024,1.061,1.668,1.73c0.691,0.629,1.233,1.547,1.951,2.448c0.674,0.934,1.503,1.887,2.1,3.083
			c0.328,0.58,0.664,1.178,1.007,1.79c0.359,0.605,0.699,1.238,0.947,1.929c0.274,0.68,0.555,1.372,0.837,2.071
			c0.138,0.353,0.29,0.703,0.418,1.064l0.298,1.113c0.412,1.491,0.841,3.015,1,4.587c0.098,0.78,0.264,1.563,0.298,2.347
			c0.032,0.785,0.062,1.566,0.093,2.344c0.083,1.558-0.108,3.075-0.182,4.558c-0.228,1.453-0.346,2.895-0.683,4.204
			c-0.259,1.331-0.589,2.57-0.938,3.7c-0.312,1.145-0.727,2.153-1.037,3.066c-0.375,0.896-0.67,1.684-0.983,2.324
			c-0.281,0.628-0.551,1.163-0.754,1.542c-0.178,0.33-0.273,0.505-0.273,0.505c-0.924,1.726-3.073,2.373-4.798,1.447
			c-0.795-0.426-1.348-1.116-1.637-1.9c-0.255,0.147-0.535,0.293-0.837,0.437c0.127,0.686,0.257,1.364,0.388,2.041
			c1.8,6.009,3.953,11.891,6.545,17.561c3.73,8.158,8.202,16.389,13.895,23.367c3.668,4.495,7.426,8.8,11.448,12.972
			c0.243,0.252,0.49,0.503,0.735,0.754c4.526,2.315,9.252,4.287,14.144,5.887c0.072-0.88,0.144-1.761,0.215-2.641
			C125.561,211.319,126.064,210.468,126.777,209.887z"/>
		<path fill="#CE622B" d="M138.567,214.396c-1.37-1.077-2.901-1.276-4.275-0.936c1.318,1.73,2.733,3.353,4.248,4.901
			c2.224,0.395,4.474,0.714,6.746,0.956C142.979,217.76,140.738,216.106,138.567,214.396z"/>
		<path fill="#CE622B" d="M91.377,81.136c0.007,1.173,0.015,2.354,0.021,3.555c0.018,0.695-0.023,1.397,0.043,2.097
			c0.07,0.699,0.14,1.402,0.209,2.106c0.141,1.407,0.28,2.828,0.419,4.252c0.182,1.419,0.521,2.816,0.771,4.229
			c0.428,2.841,1.361,5.557,2.108,8.264c0.313,1.045,0.731,2.047,1.123,3.048c-2.628-8.687-3.898-17.796-3.915-27.008
			C91.881,81.516,91.619,81.335,91.377,81.136z"/>
		<path fill="#CE622B" d="M93.367,65.598c0.115-0.753,0.062-1.447-0.108-2.078c-0.131,0.749-0.264,1.515-0.403,2.317
			c-0.268,1.628-0.631,3.341-0.842,5.173c0.229-0.155,0.469-0.3,0.714-0.438C92.901,68.912,93.115,67.253,93.367,65.598z"/>
		<path fill="#BC5E2C" d="M214.461,62.846c-0.842,0.038-1.676,0.133-2.507,0.251c3.595,5.133,6.342,10.004,8.422,14.566
			c4.921,10.791,6.124,19.84,5.979,26.453c-0.096,4.308-0.754,7.576-1.32,9.628c-5.606-1.814-19.325-4.975-40.94-2.037
			c-1.336,1.17-2.856,2.15-4.45,2.875c-4.651,2.117-9.973,2.402-14.837,1.001c-11.992,3.146-25.67,8.041-41.01,15.417
			c-2.804,1.348-5.659,2.774-8.574,4.293c-0.021,0.011-0.043,0.023-0.064,0.035c-0.115-0.087-0.326-0.245-0.645-0.484
			c-0.364-0.248-0.851-0.651-1.448-1.163c-0.207-0.178-0.427-0.368-0.661-0.57c-0.898-0.79-1.97-1.824-3.145-3.056
			c-0.575-0.633-1.189-1.307-1.833-2.017c-0.623-0.732-1.236-1.543-1.902-2.365c-0.686-0.809-1.307-1.722-1.949-2.67
			c-0.624-0.958-1.378-1.882-1.953-2.958c-0.616-1.053-1.249-2.133-1.896-3.24c-0.603-1.129-1.139-2.328-1.73-3.522
			c-0.283-0.604-0.601-1.197-0.865-1.822c-0.242-0.632-0.486-1.27-0.731-1.912c-0.104-0.288-0.216-0.574-0.328-0.861
			c-0.392-1.001-0.81-2.003-1.123-3.048c-0.747-2.707-1.681-5.422-2.108-8.264c-0.25-1.412-0.589-2.809-0.771-4.229
			c-0.139-1.424-0.278-2.845-0.419-4.252c-0.069-0.705-0.139-1.407-0.209-2.106c-0.066-0.7-0.025-1.402-0.043-2.097
			c-0.007-1.202-0.015-2.382-0.021-3.555c-2.241-1.843-3.033-5.162-1.543-7.85c0.512-0.922,1.277-1.665,2.18-2.276
			c0.211-1.832,0.574-3.544,0.842-5.173c0.14-0.802,0.272-1.569,0.403-2.317c0.043-0.248,0.087-0.501,0.13-0.743
			c0.083-0.487,0.166-0.96,0.245-1.421c0.123-0.465,0.242-0.917,0.358-1.356c0.464-1.751,0.869-3.279,1.202-4.536
			c0.23-0.867,0.424-1.595,0.582-2.191c0.102-0.047,0.201-0.098,0.297-0.16c0.143-0.093,0.278-0.2,0.402-0.326l0.145-0.147
			c0,0,0.573-0.585,1.432-1.463c0.415-0.463,0.952-0.932,1.545-1.416c0.58-0.507,1.209-1.033,1.894-1.474
			c0.657-0.492,1.351-0.915,2.018-1.279c0.651-0.411,1.307-0.648,1.85-0.928c0.545-0.204,1.033-0.409,1.304-0.479
			c0.266-0.097,0.509-0.146,0.509-0.146c0.432-0.085,0.775-0.354,1.003-0.707c0.004,0.001,0.007,0.001,0.011,0.002
			c0-0.001,0.001-0.001,0.002-0.002c0.176-0.274,0.286-0.595,0.264-0.946c-0.055-0.874-0.807-1.537-1.68-1.481l-0.125,0.008
			c0,0-0.188,0.011-0.668,0.108c-0.49,0.077-1.039,0.241-1.756,0.424c-0.364,0.135-0.779,0.263-1.209,0.412
			c-0.356,0.124-0.723,0.26-1.084,0.434c-0.032,0.013-0.064,0.03-0.097,0.043c-0.8,0.332-1.624,0.717-2.409,1.175
			c-0.851,0.43-1.637,0.948-2.364,1.452c-0.744,0.484-1.423,0.96-1.952,1.426c-1.094,0.899-1.824,1.499-1.824,1.499
			c-0.007,0.006-0.014,0.013-0.021,0.019c-0.394,0.248-0.708,0.628-0.851,1.109c0,0-0.43,1.425-1.178,3.917
			c-0.375,1.246-0.827,2.759-1.35,4.495c-0.13,0.435-0.265,0.883-0.401,1.344c-0.104,0.484-0.208,0.982-0.316,1.494
			c-0.216,1.024-0.441,2.101-0.68,3.225c-0.448,2.25-1.074,4.685-1.287,7.291c-0.154,1.3-0.31,2.636-0.474,4.002
			c-0.078,0.684-0.161,1.375-0.242,2.072c-0.043,0.701-0.045,1.413-0.068,2.129c-0.038,1.433-0.078,2.891-0.117,4.367
			c-0.003,0.739-0.065,1.483-0.022,2.229c0.048,0.745,0.096,1.497,0.147,2.25c0.099,1.509,0.201,3.031,0.302,4.556
			c0.144,1.524,0.451,3.039,0.674,4.562c0.371,3.067,1.264,6.034,1.989,8.992c0.392,1.47,0.965,2.875,1.433,4.294
			c0.247,0.704,0.492,1.407,0.733,2.103c0.267,0.689,0.587,1.35,0.875,2.018c0.602,1.325,1.148,2.65,1.768,3.907
			c0.668,1.233,1.321,2.44,1.957,3.616c0.6,1.199,1.387,2.245,2.041,3.32c0.674,1.066,1.33,2.093,2.057,3.017
			c0.703,0.936,1.358,1.851,2.023,2.688c0.694,0.817,1.355,1.592,1.977,2.32c1.275,1.433,2.445,2.638,3.467,3.6
			c1.029,0.951,1.846,1.696,2.489,2.178c0.613,0.489,0.942,0.749,0.942,0.749c0.02,0.016,0.053,0.044,0.075,0.06
			c0.242,0.182,0.504,0.316,0.771,0.427c0.44,0.278,0.946,0.435,1.467,0.435c0.301,0,0.602-0.07,0.897-0.172
			c0.135-0.047,0.271-0.085,0.401-0.154c72.047-38.559,110.378-22.153,110.83-21.948c0.005,0.002,0.009,0.003,0.014,0.005
			c0.004,0.001,0.007,0.004,0.011,0.006c0.053,0.023,0.108,0.032,0.162,0.053c0.121,0.045,0.242,0.091,0.366,0.119
			c0.08,0.018,0.161,0.021,0.241,0.031c0.103,0.013,0.204,0.03,0.306,0.032c0.014,0,0.027,0.004,0.041,0.004
			c0.146,0,0.288-0.014,0.431-0.037c0.028-0.004,0.056-0.013,0.084-0.018c0.129-0.024,0.255-0.058,0.379-0.101
			c0.044-0.015,0.087-0.031,0.13-0.049c0.118-0.047,0.232-0.103,0.343-0.166c0.029-0.017,0.06-0.03,0.088-0.048
			c0.134-0.083,0.26-0.178,0.378-0.283c0.03-0.027,0.058-0.057,0.086-0.085c0.089-0.086,0.173-0.179,0.25-0.278
			c0.029-0.038,0.058-0.075,0.086-0.115c0.087-0.124,0.165-0.254,0.231-0.395c0.005-0.011,0.013-0.019,0.018-0.03
			c0.001-0.002,0.002-0.005,0.003-0.007c0.003-0.009,0.009-0.016,0.013-0.024c0.436-0.983,10.047-23.586-10.749-55.48
			C217.156,62.942,215.783,62.787,214.461,62.846z"/>
		<path fill="#BC5E2C" d="M105.359,46.08c0.545-0.204,1.034-0.409,1.305-0.479c0.266-0.097,0.512-0.146,0.512-0.146
			c0.432-0.085,0.78-0.353,1.008-0.704c-0.004-0.001-0.007-0.001-0.011-0.002c-0.228,0.353-0.571,0.621-1.003,0.707
			c0,0-0.243,0.049-0.509,0.146c-0.271,0.071-0.759,0.276-1.304,0.479c-0.543,0.28-1.198,0.517-1.85,0.928
			c-0.667,0.364-1.36,0.787-2.018,1.279c0.657-0.492,1.352-0.915,2.019-1.279C104.16,46.597,104.816,46.36,105.359,46.08z"/>
		<path fill="#BC5E2C" d="M166.46,38.839c0.757,0.935,1.427,1.897,1.979,2.819c0.223,0.477,0.552,0.903,0.722,1.349
			c0.142,0.385,0.336,0.735,0.471,1.08c0.021,0.053,0.053,0.108,0.069,0.161c0.111,0.395,0.25,0.756,0.366,1.083
			c0.103,0.327,0.137,0.62,0.199,0.862c0.116,0.485,0.203,0.776,0.203,0.776l0.107,0.366c0.056,0.186,0.15,0.354,0.263,0.509
			c0.26,0.36,0.649,0.627,1.123,0.701c0.704,0.109,1.373-0.223,1.729-0.79c0.016-0.025,0.026-0.055,0.041-0.081
			c0.096-0.172,0.168-0.36,0.2-0.566c0,0,0.058-0.382,0.127-1.072c0.016-0.343,0.099-0.773,0.062-1.252
			c-0.043-0.478-0.081-1.024-0.164-1.619c-0.095-0.588-0.278-1.198-0.471-1.853c-0.194-0.652-0.505-1.276-0.803-1.946
			c-0.327-0.647-0.732-1.262-1.116-1.912c-0.174-0.22-0.345-0.447-0.518-0.673c-0.281-0.37-0.565-0.738-0.871-1.083
			c-0.92-1.016-1.893-1.962-2.909-2.722c-0.083-0.062-0.165-0.133-0.249-0.192c-1.071-0.833-2.16-1.466-3.11-1.961
			c-0.955-0.49-1.784-0.825-2.386-1.027c-0.29-0.106-0.548-0.174-0.715-0.224c-0.164-0.043-0.248-0.065-0.248-0.065
			c-0.399-0.104-0.842,0-1.151,0.315c-0.462,0.468-0.454,1.222,0.013,1.683l0.033,0.032c0,0,0.93,0.916,2.322,2.289
			c0.683,0.688,1.48,1.469,2.287,2.318c0.032,0.033,0.063,0.07,0.096,0.104c0.376,0.393,0.749,0.801,1.121,1.213
			C165.711,37.891,166.047,38.395,166.46,38.839z"/>
		<path fill="#BC5E2C" d="M145.938,38.571c-0.136,0.478-0.313,0.982-0.415,1.517c-0.171,1.071-0.433,2.221-0.423,3.396
			c0.002,0.586,0.002,1.175,0.002,1.751c-0.014,0.218,0.005,0.434,0.03,0.647c0.043,0.354,0.114,0.704,0.156,1.045
			c0.076,0.548,0.184,1.073,0.282,1.569c0.07,0.501,0.229,0.958,0.396,1.373c0.616,1.675,1.182,2.702,1.182,2.702
			c0.335,0.609,0.936,1.04,1.638,1.178c0.156,0.031,0.312,0.064,0.479,0.062c1.323-0.012,2.383-1.093,2.372-2.414l-0.006-0.458
			c0,0-0.001-0.049-0.003-0.122c-0.01-0.296-0.054-1.145-0.247-2.237c-0.067-0.339-0.127-0.709-0.139-1.112
			c-0.03-0.398-0.054-0.817-0.112-1.246c-0.108-0.662-0.13-1.377-0.159-2.098c-0.008-0.206-0.016-0.41-0.027-0.616
			c-0.061-0.465-0.072-0.933-0.047-1.396c0.014-0.462-0.02-0.923-0.025-1.37c0.035-0.884,0.022-1.739,0.052-2.463
			c0.036-0.734,0.036-1.345,0.049-1.738c-0.01-0.397,0.034-0.721,0.026-0.706l0.149-1.26c0.015-0.116,0.006-0.235-0.005-0.355
			c-0.004-0.03,0.002-0.059-0.002-0.09c-0.143-0.927-1.007-1.564-1.934-1.424c-0.928,0.14-1.565,1.006-1.426,1.932
			c0.003,0.018-0.167,0.178-0.438,0.663c-0.11,0.185-0.229,0.405-0.35,0.643c-0.191,0.376-0.392,0.808-0.591,1.3
			C146.219,37.647,146.078,38.093,145.938,38.571z"/>
		<path fill="#BC5E2C" d="M134.134,38.653c-0.373,0.425-0.748,0.929-1.194,1.618c-0.351,0.692-0.86,1.509-1.125,2.441
			c-0.158,0.462-0.319,0.943-0.463,1.438c-0.102,0.497-0.199,1.003-0.275,1.514c-0.064,0.509-0.183,1.022-0.198,1.522
			c-0.001,0.12-0.001,0.234-0.002,0.354c-0.003,0.377-0.007,0.756-0.008,1.119c-0.005,0.477,0.018,0.938,0.026,1.373
			c0.039,0.431,0.131,0.83,0.188,1.201c0.117,0.625,0.229,1.149,0.32,1.555c0.125,0.556,0.212,0.883,0.212,0.883
			c0.225,0.821,0.945,1.456,1.843,1.523c0.777,0.059,1.48-0.327,1.879-0.937c0.186-0.283,0.311-0.609,0.338-0.97l0.023-0.296
			c0,0,0.066-0.871,0.051-2.132c-0.009-0.313-0.019-0.654-0.029-1.014c0.026-0.354,0.065-0.727,0.076-1.11
			c0.013-0.385,0.026-0.781,0.042-1.185c0-0.08,0.015-0.158,0.021-0.237c0.025-0.321,0.082-0.638,0.115-0.96
			c0.041-0.402,0.084-0.804,0.127-1.199c0.091-0.379,0.158-0.758,0.226-1.128c0.098-0.759,0.348-1.384,0.454-1.991
			c0.097-0.271,0.174-0.529,0.237-0.765c0.063-0.253,0.121-0.397,0.165-0.54c0.062-0.261,0.197-0.527,0.19-0.515
			c0.25-0.506,0.253-1.135-0.056-1.657c-0.12-0.202-0.274-0.37-0.451-0.501c-0.542-0.405-1.294-0.47-1.914-0.104l-0.295,0.175
			c0,0.008-0.041,0.033-0.125,0.106C134.445,38.31,134.314,38.437,134.134,38.653z"/>
		<path fill="#BC5E2C" d="M116.425,40.875c-0.87,0.857-1.744,1.836-2.517,2.91c-0.396,0.534-0.77,1.079-1.093,1.654
			c-0.066,0.107-0.125,0.216-0.188,0.324c-0.269,0.454-0.518,0.913-0.718,1.386c-0.276,0.565-0.517,1.125-0.686,1.688
			c-0.187,0.551-0.576,1.065-0.664,1.574c-0.247,0.989-0.56,1.835-0.56,2.436c0,0.004,0,0.007,0,0.012
			c0,0.065,0.008,0.115,0.012,0.174c0.135-0.062,0.258-0.11,0.396-0.174c-0.034,0.585-0.03,0.919-0.03,0.919
			c0.007,0.744,0.412,1.462,1.117,1.832c0.08,0.042,0.163,0.068,0.245,0.099c0.234,0.088,0.478,0.129,0.718,0.131
			c0.743-0.011,1.464-0.408,1.83-1.107l0.112-0.186l0.054-0.088c0,0,0.133-0.247,0.319-0.676c0.096-0.214,0.208-0.473,0.32-0.77
			c0.153-0.289,0.312-0.616,0.473-0.972c0.204-0.417,0.44-0.878,0.694-1.355c0.176-0.331,0.356-0.667,0.562-1.014
			c0.482-0.853,1.053-1.748,1.657-2.631c0.062-0.089,0.127-0.175,0.189-0.264c1.164-1.668,2.479-3.261,3.517-4.459
			c0.551-0.626,1.012-1.147,1.335-1.514c0.323-0.371,0.46-0.538,0.488-0.556c0.72-0.499,0.99-1.395,0.737-2.188
			c-0.057-0.18-0.132-0.355-0.245-0.519c-0.612-0.883-1.824-1.104-2.707-0.492c0.03-0.016-0.334,0.148-0.834,0.42
			c-0.077,0.042-0.165,0.093-0.25,0.141c-0.479,0.271-1.073,0.64-1.742,1.126C118.172,39.298,117.308,40.03,116.425,40.875z"/>
		<path fill="#BC5E2C" d="M112.457,55.839c-0.24-0.002-0.483-0.043-0.718-0.131c-0.007,0.003-0.013,0.005-0.02,0.009
			C111.96,55.802,112.209,55.842,112.457,55.839z"/>
		<path fill="#BC5E2C" d="M111.393,55.609c0.08,0.042,0.214,0.068,0.296,0.099c0.011,0.004,0.021,0.005,0.031,0.009
			c0.007-0.003,0.013-0.006,0.02-0.009c-0.082-0.03-0.165-0.057-0.245-0.099c-0.705-0.37-1.11-1.088-1.117-1.832
			c0,0-0.004-0.334,0.03-0.919c-0.138,0.064-0.261,0.112-0.396,0.174c0.031,0.469,0.162,0.745,0.162,0.745
			C110.18,54.521,110.688,55.239,111.393,55.609z"/>
		<path fill="#BC5E2C" d="M139.068,180.635c-0.245-0.192-0.492-0.438-0.688-0.663c-0.219-0.232-0.469-0.431-0.724-0.666
			c-0.503-0.52-1.094-0.946-1.521-1.326c-0.438-0.355-0.795-0.555-0.795-0.555l-0.106-0.06c-0.301-0.166-0.676-0.201-1.021-0.064
			c-0.613,0.244-0.914,0.942-0.67,1.556c0,0,0.161,0.404,0.497,0.951c0.181,0.262,0.349,0.604,0.632,0.898
			c0.261,0.309,0.565,0.616,0.869,0.924c0.339,0.293,0.724,0.574,1.077,0.814c0.364,0.269,0.696,0.406,0.963,0.523
			c0.559,0.233,0.964,0.336,0.964,0.336c0.355,0.086,0.753,0.013,1.06-0.234c0.516-0.424,0.596-1.187,0.175-1.704
			C139.779,181.368,139.516,181.041,139.068,180.635z"/>
		<path fill="#BC5E2C" d="M171.887,187.232c-0.434-1.146-1.281-2.625-2.146-4.07c-0.409-0.69-0.816-1.375-1.229-2.004
			c-0.19-0.322-0.432-0.614-0.584-0.908c-0.169-0.289-0.324-0.562-0.47-0.816c-0.608-1.002-1.087-1.662-1.087-1.662l-0.098-0.133
			c-0.246-0.34-0.68-0.514-1.111-0.406c-0.566,0.139-0.912,0.713-0.771,1.281c0,0,0.206,0.832,0.624,2.071
			c0.21,0.622,0.473,1.349,0.854,2.03c0.358,0.704,0.771,1.445,1.185,2.18c0.822,1.377,1.757,2.664,2.441,3.718
			c0.708,1.02,1.245,1.664,1.245,1.666l0.007,0.01c0.27,0.324,0.72,0.473,1.148,0.339c0.565-0.177,0.884-0.78,0.708-1.348
			C172.604,189.18,172.355,188.381,171.887,187.232z"/>
		<path fill="#BC5E2C" d="M206.938,184.451l-0.01-0.037c-0.118-0.366-0.408-0.674-0.804-0.797c-0.648-0.203-1.338,0.159-1.54,0.805
			c0.001,0-0.132,0.424-0.227,1.062c-0.098,0.638-0.178,1.489-0.161,2.341c0.022,0.837,0.069,1.674,0.171,2.309
			c0.097,0.631,0.219,1.06,0.219,1.06l0.031,0.118c0.111,0.385,0.413,0.708,0.829,0.826c0.636,0.184,1.307-0.186,1.491-0.826
			c0,0,0.119-0.425,0.219-1.069c0.104-0.647,0.152-1.513,0.178-2.379c0.012-0.853-0.068-1.704-0.167-2.345
			C207.07,184.877,206.938,184.451,206.938,184.451z"/>
		<path fill="#BC5E2C" d="M227.337,155.61c-0.054-0.384-0.169-0.717-0.254-1.05c-0.084-0.33-0.178-0.641-0.267-0.926
			c-0.362-1.142-0.68-1.89-0.68-1.89c-0.148-0.346-0.484-0.597-0.887-0.615c-0.559-0.026-1.034,0.406-1.06,0.968
			c0,0-0.04,0.812,0.02,2.007c0.09,1.155,0.206,2.696,0.323,4.237c0.113,0.744,0.153,1.503,0.219,2.22
			c0.057,0.708,0.182,1.389,0.229,1.948c0.102,1.113,0.248,1.89,0.248,1.89l0.026,0.14c0.07,0.362,0.337,0.669,0.715,0.774
			c0.531,0.146,1.08-0.168,1.225-0.697c0,0,0.223-0.806,0.432-2.065c0.104-0.629,0.104-1.333,0.128-2.107
			c0.03-0.769,0.005-1.591-0.09-2.42C227.564,157.199,227.471,156.375,227.337,155.61z"/>
		<path fill="#BC5E2C" d="M102.721,152.369c-0.476-0.727-1.449-0.929-2.18-0.454c-0.726,0.475-0.928,1.453-0.451,2.178l0.499,0.762
			c1.377,2.099,2.774,4.238,4.126,6.396c1.107,1.768,2.186,3.546,3.182,5.331c0.289,0.516,0.824,0.807,1.377,0.807
			c0.258,0,0.521-0.064,0.765-0.2c0.758-0.421,1.03-1.379,0.606-2.139c-1.619-2.902-3.422-5.768-5.242-8.579
			c-0.729-1.123-1.458-2.24-2.182-3.343L102.721,152.369z"/>
		<path fill="#BC5E2C" d="M157.986,204.634l-0.147-0.262c-0.432-0.757-1.394-1.02-2.146-0.593c-0.755,0.429-1.02,1.39-0.592,2.145
			l0.149,0.263c1.447,2.553,2.944,5.192,4.631,7.704c0.305,0.453,0.802,0.697,1.307,0.697c0.301,0,0.606-0.088,0.875-0.269
			c0.724-0.482,0.914-1.46,0.431-2.182C160.875,209.723,159.406,207.135,157.986,204.634z"/>
		<path fill="#BC5E2C" d="M239.725,128.206c-0.784-0.364-1.723-0.024-2.09,0.766c-0.924,1.992-1.232,4.142-0.917,6.388
			c0.112,0.787,0.786,1.355,1.558,1.355c0.074,0,0.146-0.007,0.224-0.017c0.858-0.122,1.458-0.918,1.336-1.779
			c-0.231-1.634-0.011-3.191,0.655-4.625C240.854,129.507,240.513,128.572,239.725,128.206z"/>
		<path fill="#BC5E2C" d="M137.591,161.098c0.279,0,0.562-0.074,0.818-0.23c0.741-0.452,0.977-1.421,0.523-2.162
			c-1.059-1.734-1.971-3.582-2.936-5.538c-1.032-2.092-2.1-4.255-3.368-6.279c-0.462-0.736-1.433-0.958-2.169-0.497
			c-0.735,0.461-0.959,1.432-0.497,2.168c1.184,1.891,2.218,3.98,3.213,6.001c0.953,1.931,1.94,3.928,3.069,5.782
			C136.544,160.829,137.061,161.098,137.591,161.098z"/>
		<path fill="#934922" d="M251.518,114.359c-3.449-19.852-12.158-38.588-25.015-54.09c-0.437-0.526-0.894-1.034-1.339-1.552
			c-0.401,1.213-1.165,2.316-2.287,3.104c-1.24,0.872-2.615,1.102-4.03,1.126c10.567,12.753,18.579,27.567,22.97,43.657
			c1.87,6.848,3.12,13.857,3.831,20.918c0.675,6.685,0.507,13.345,0.834,20.041c0.158,3.2,0.534,6.458,1.247,9.632
			c2.479-6.192,4.366-12.69,5.587-19.425C253.327,129.93,252.872,122.146,251.518,114.359z"/>
		<path fill="#934922" d="M177.228,23.921c-1.195-0.498-2.405-0.968-3.62-1.417c-0.768-0.281-1.867-0.929-2.692-0.929
			c-1.406-0.428-2.497,0.346-2.964,1.403c-0.52,1.18-0.258,2.714,1.258,3.342c0.66,0.273,1.313,0.562,1.969,0.847
			c13.354,5.792,25.718,13.906,36.377,23.821c2.082-0.485,4.196-0.812,6.343-0.868c0.958-0.025,2.033-0.051,3.132-0.004
			c-5.543-5.303-11.571-10.102-17.934-14.381c-2.305-1.551-4.668-3.016-7.072-4.411c-2.697-1.565-5.448-3.04-8.247-4.414
			C181.623,25.854,179.44,24.845,177.228,23.921z"/>
		<path fill="#934922" d="M125.004,24.384c3.75-1.178,7.541-2.224,11.351-3.197c-6.095,1.226-11.987,3.017-17.624,5.317
			c0.221-0.081,0.438-0.167,0.658-0.246C121.249,25.597,123.122,24.975,125.004,24.384z"/>
		<path fill="#934922" d="M64.574,106.536c1.798-0.028,3.454,0.191,4.957,0.488c0.439,0.089,0.86,0.188,1.275,0.288
			c-0.03-0.6-0.059-1.2-0.083-1.802c-0.636-15.834,1.047-32.553,8.226-46.813c0.862-0.653,1.352-1.629,1.4-2.648
			c1.014-1.803,2.085-3.54,3.227-5.213c-6.254,6.723-11.601,14.318-15.844,22.588c-0.607,2.421-1.131,4.844-1.551,7.243
			C64.682,89.231,64.285,97.885,64.574,106.536z"/>
		<path fill="#934922" d="M110.381,208.384c-4.022-4.172-7.78-8.477-11.448-12.972c-5.692-6.978-10.164-15.209-13.895-23.367
			c-2.592-5.67-4.745-11.552-6.545-17.561c-0.195-0.652-0.39-1.303-0.577-1.958c-1.252,0.562-2.916,1.031-4.838,1.039
			c-0.562,0.011-1.142-0.036-1.727-0.113c3.128,11.49,7.584,22.544,13.398,33.059c1.412,2.554,2.954,5.052,4.583,7.498
			c6.53,5.971,13.851,11.073,21.783,15.13C110.871,208.887,110.624,208.636,110.381,208.384z"/>
		<path fill="#934922" d="M243.559,164.862c0.048,0.393,0.08,0.786,0.121,1.178c0.778-1.502,1.52-3.026,2.224-4.572
			C244.466,161.852,243.362,163.249,243.559,164.862z"/>
		<path fill="#934922" d="M132.239,210.595c-1.329-1.951-3.897-1.984-5.462-0.708c-0.713,0.581-1.217,1.432-1.303,2.497
			c-0.071,0.88-0.143,1.761-0.215,2.641c4.307,1.409,8.739,2.531,13.28,3.337c-1.515-1.549-2.93-3.171-4.248-4.901
			C133.586,212.534,132.902,211.58,132.239,210.595z"/>
		<path fill="#FFE9B7" d="M69.562,137.89l0.045-0.149c0,0,0.092-0.305,0.279-0.775c0.094-0.236,0.208-0.516,0.355-0.817
			c0.149-0.301,0.182-0.669,0.317-1.022c0.127-0.36,0.242-0.737,0.271-1.134c0.072-0.392,0.154-0.787,0.122-1.2
			c0.006-0.205,0.04-0.404,0.035-0.613c-0.031-0.213-0.049-0.425-0.065-0.638c0.026-0.422-0.172-0.877-0.207-1.329
			c-0.153-0.456-0.247-0.929-0.44-1.396c-0.18-0.475-0.344-0.954-0.594-1.409c-0.412-0.936-0.947-1.806-1.386-2.58
			c-0.47-0.751-0.873-1.415-1.164-1.854c-0.153-0.231-0.23-0.387-0.299-0.5c-0.066-0.114-0.139-0.2-0.134-0.195
			c-0.838-1.021-0.687-2.53,0.334-3.367c0.679-0.556,1.571-0.679,2.339-0.396l0.328,0.121c0.004,0.006,0.067,0.025,0.238,0.12
			c0.17,0.098,0.451,0.243,0.725,0.424c0.589,0.36,1.367,0.921,2.24,1.699c0.416,0.405,0.895,0.831,1.333,1.353
			c0.43,0.528,0.923,1.061,1.322,1.719c0.437,0.62,0.82,1.338,1.196,2.083c0.359,0.746,0.628,1.59,0.877,2.426
			c0.165,0.888,0.369,1.746,0.369,2.67c0,0.454,0,0.902,0,1.349c0,0.44-0.125,0.877-0.197,1.306
			c-0.096,0.424-0.146,0.851-0.281,1.238c-0.159,0.38-0.312,0.751-0.461,1.113c-0.158,0.355-0.297,0.707-0.465,1.024
			c-0.006,0.008-0.01,0.015-0.016,0.022c0.527-0.613,0.952-1.308,1.214-2.201c1.795-6.172,1.356-13.883-3.492-18.527
			c-1.374-1.315-1.668-2.868-1.291-4.255c-1.27-0.309-2.662-0.577-4.161-0.73c-1.758-0.181-3.659-0.182-5.439,0.225
			c-1.786,0.395-3.356,1.237-4.478,2.546c-1.091,1.309-1.913,3.17-2.155,5.229c-0.293,2.046-0.028,4.242,0.459,6.396
			c0.485,2.157,1.117,4.323,1.879,6.44c0.763,2.119,1.754,4.14,2.869,5.988c0.34,0.572,0.696,1.121,1.062,1.657
			C64.381,137.64,67.324,136.28,69.562,137.89z"/>
		<path fill="#E2A672" d="M76.495,109.191c-0.151-0.187-0.277-0.342-0.347-0.429c-0.115,0.045-0.229,0.095-0.34,0.148
			C76.045,109.005,76.271,109.098,76.495,109.191z"/>
		<path fill="#E2A672" d="M76.411,148.147c0.825-0.225,1.486-0.514,1.926-0.749c0.44-0.25,0.675-0.384,0.675-0.384l0.125-0.071
			c0.447-0.255,0.952-0.309,1.417-0.199c0.208-0.391,0.428-0.835,0.685-1.316c0.325-0.747,0.759-1.57,1.106-2.521
			c0.385-0.938,0.759-1.97,1.082-3.085c0.395-1.102,0.584-2.306,0.901-3.538c0.162-1.247,0.456-2.54,0.494-3.865
			c0.033-0.663,0.066-1.332,0.102-2.003c0.033-0.673-0.06-1.341-0.082-2.017c-0.009-1.36-0.27-2.684-0.508-3.998l-0.167-0.985
			c-0.085-0.321-0.191-0.631-0.284-0.945c-0.193-0.629-0.381-1.251-0.567-1.862c-0.154-0.626-0.408-1.204-0.678-1.76
			c-0.257-0.566-0.508-1.119-0.751-1.657c-0.337-0.88-0.828-1.631-1.281-2.35l-0.074-0.034c0,0-0.273-0.122-0.787-0.352
			c-0.528-0.229-1.316-0.555-2.334-0.924c-1.17-0.415-2.668-0.916-4.399-1.337c-0.377,1.387-0.083,2.94,1.291,4.255
			c4.849,4.645,5.287,12.355,3.492,18.527c-0.262,0.894-0.687,1.588-1.214,2.201c-0.195,0.281-0.384,0.556-0.564,0.818
			c-0.385,0.52-0.701,1.037-1.086,1.37c-0.362,0.351-0.695,0.638-0.971,0.869c-0.545,0.462-0.872,0.691-0.872,0.691
			c-1.074,0.758-2.56,0.504-3.317-0.571c-0.438-0.622-0.537-1.38-0.332-2.057l0.125-0.411c-2.238-1.61-5.182-0.25-6.517,2.057
			c2.001,2.945,4.343,5.327,6.608,6.739C72.341,148.398,74.754,148.591,76.411,148.147z"/>
		<path fill="#8F4B22" d="M77.059,136.133c0.149-0.362,0.3-0.732,0.459-1.113c0.136-0.387,0.189-0.813,0.285-1.238
			c0.072-0.428,0.197-0.866,0.197-1.306c0-0.446,0-0.895,0-1.349c0-0.924-0.204-1.782-0.369-2.67
			c-0.249-0.836-0.521-1.681-0.881-2.426c-0.376-0.745-0.758-1.462-1.194-2.083c-0.399-0.658-0.892-1.191-1.321-1.719
			c-0.438-0.522-0.916-0.948-1.332-1.353c-0.873-0.777-1.651-1.339-2.24-1.699c-0.273-0.181-0.555-0.326-0.725-0.424
			c-0.171-0.095-0.234-0.114-0.238-0.12l-0.328-0.121c-0.768-0.283-1.66-0.16-2.339,0.396c-1.021,0.837-1.172,2.346-0.334,3.367
			c-0.005-0.005,0.067,0.081,0.134,0.195c0.068,0.113,0.146,0.269,0.299,0.5c0.291,0.439,0.694,1.103,1.164,1.854
			c0.438,0.774,0.974,1.644,1.386,2.58c0.25,0.455,0.414,0.934,0.594,1.409c0.193,0.468,0.287,0.94,0.44,1.396
			c0.035,0.452,0.233,0.907,0.207,1.329c0.017,0.213,0.034,0.425,0.065,0.638c0.005,0.209-0.029,0.409-0.035,0.613
			c0.032,0.414-0.05,0.809-0.122,1.2c-0.028,0.397-0.144,0.774-0.271,1.134c-0.136,0.354-0.168,0.721-0.317,1.022
			c-0.147,0.302-0.262,0.581-0.355,0.817c-0.188,0.47-0.279,0.775-0.279,0.775l-0.045,0.149l-0.125,0.411
			c-0.205,0.677-0.106,1.435,0.332,2.057c0.758,1.075,2.243,1.329,3.317,0.571c0,0,0.327-0.229,0.872-0.691
			c0.275-0.231,0.608-0.519,0.971-0.869c0.385-0.333,0.701-0.85,1.086-1.37c0.181-0.263,0.369-0.538,0.564-0.818
			c0.006-0.008,0.009-0.015,0.015-0.022C76.763,136.84,76.9,136.488,77.059,136.133z"/>
		<path fill="#8F4B22" d="M77.061,136.133c0.149-0.362,0.302-0.732,0.461-1.113c0.136-0.387,0.186-0.813,0.281-1.238
			c-0.096,0.424-0.149,0.851-0.285,1.238c-0.159,0.38-0.31,0.751-0.459,1.113c-0.158,0.355-0.296,0.707-0.464,1.024
			c-0.006,0.008-0.009,0.015-0.015,0.022c0.006-0.008,0.01-0.015,0.016-0.022C76.764,136.84,76.902,136.488,77.061,136.133z"/>
		<path fill="#8F4B22" d="M71.352,153.452c0.585,0.077,1.164,0.124,1.727,0.113c1.922-0.008,3.586-0.477,4.838-1.039
			c0.044-0.02,0.096-0.036,0.138-0.056c0.019-0.009,0.033-0.018,0.052-0.027c0.302-0.143,0.582-0.29,0.837-0.437
			c0.289,0.784,0.842,1.475,1.637,1.9c1.725,0.926,3.874,0.279,4.798-1.447c0,0,0.096-0.176,0.273-0.505
			c0.203-0.379,0.473-0.913,0.754-1.542c0.313-0.64,0.608-1.427,0.983-2.324c0.311-0.913,0.725-1.922,1.037-3.066
			c0.35-1.13,0.68-2.37,0.938-3.7c0.337-1.31,0.455-2.751,0.683-4.204c0.073-1.482,0.265-3,0.182-4.558
			c-0.03-0.777-0.061-1.559-0.093-2.344c-0.034-0.784-0.2-1.567-0.298-2.347c-0.159-1.572-0.588-3.096-1-4.587l-0.298-1.113
			c-0.128-0.362-0.28-0.712-0.418-1.064c-0.282-0.699-0.562-1.391-0.837-2.071c-0.248-0.691-0.588-1.324-0.947-1.929
			c-0.343-0.611-0.679-1.209-1.007-1.79c-0.597-1.196-1.426-2.149-2.1-3.083c-0.718-0.901-1.26-1.819-1.951-2.448
			c-0.644-0.669-1.205-1.251-1.668-1.73c-0.923-0.953-1.45-1.497-1.45-1.497c-0.527-0.541-1.392-0.604-1.991-0.123
			c-0.637,0.514-0.735,1.443-0.222,2.079l0.113,0.141c0,0,0.03,0.038,0.087,0.106c0.069,0.086,0.195,0.242,0.347,0.429
			c-0.224-0.093-0.45-0.186-0.687-0.28c-1.373-0.546-2.961-1.097-4.787-1.551c-0.069-0.017-0.145-0.031-0.215-0.048
			c-0.415-0.101-0.836-0.199-1.275-0.288c-1.503-0.296-3.159-0.516-4.957-0.488c-0.649,0.01-1.315,0.048-2.002,0.132
			c-1.713,0.194-3.588,0.753-5.322,1.744c-0.4,3.664-0.613,7.385-0.613,11.156c0,9.892,1.422,19.446,4.06,28.474
			c1.913,1.716,3.971,3.119,6.128,4.094C68.324,152.8,69.863,153.255,71.352,153.452z M63.046,139.947
			c-0.365-0.537-0.722-1.085-1.062-1.657c-1.115-1.849-2.106-3.869-2.869-5.988c-0.762-2.117-1.394-4.283-1.879-6.44
			c-0.487-2.154-0.752-4.35-0.459-6.396c0.242-2.059,1.064-3.92,2.155-5.229c1.121-1.31,2.691-2.152,4.478-2.546
			c1.78-0.406,3.682-0.405,5.439-0.225c1.499,0.153,2.892,0.421,4.161,0.73c1.731,0.421,3.229,0.922,4.399,1.337
			c1.018,0.369,1.806,0.696,2.334,0.924c0.514,0.23,0.787,0.352,0.787,0.352l0.074,0.034c0.453,0.719,0.944,1.47,1.281,2.35
			c0.243,0.538,0.494,1.091,0.751,1.657c0.27,0.557,0.523,1.134,0.678,1.76c0.187,0.611,0.374,1.233,0.567,1.862
			c0.093,0.314,0.199,0.625,0.284,0.945l0.167,0.985c0.238,1.314,0.499,2.638,0.508,3.998c0.022,0.676,0.115,1.343,0.082,2.017
			c-0.035,0.671-0.068,1.34-0.102,2.003c-0.038,1.325-0.332,2.619-0.494,3.865c-0.317,1.232-0.507,2.436-0.901,3.538
			c-0.323,1.115-0.697,2.147-1.082,3.085c-0.348,0.951-0.781,1.774-1.106,2.521c-0.257,0.481-0.477,0.925-0.685,1.316
			c-0.465-0.11-0.97-0.057-1.417,0.199l-0.125,0.071c0,0-0.234,0.134-0.675,0.384c-0.439,0.235-1.101,0.523-1.926,0.749
			c-1.657,0.444-4.07,0.25-6.757-1.462C67.389,145.274,65.047,142.892,63.046,139.947z"/>
		<path fill="#FFFFFF" d="M129.035,100.502c0.106,0.63,0.156,1.254,0.154,1.868c-0.005,1.843-0.478,3.592-1.311,5.096
			c1.832-0.489,3.641-1.003,5.416-1.52c1.553-0.437,2.837-0.812,3.783-1.093c-2.193-4.767-5.936-9.195-11.077-10.827
			c-0.447-0.142-0.896-0.248-1.346-0.34C126.878,95.127,128.53,97.502,129.035,100.502z"/>
		<path fill="#FFFFFF" d="M106.02,110.562c-0.604-0.785-1.122-1.766-1.537-2.965c-0.019,0.94,0.02,1.898,0.17,2.89
			C105.106,110.521,105.562,110.542,106.02,110.562z"/>
		<path fill="#FFFFFF" d="M214.81,80.038c-1.436-1.486-3.095-2.541-4.839-3.217c2.803,1.881,4.874,5.337,5.274,9.582
			c0.264,2.801-0.549,5.377-1.957,7.463c1.591-0.34,3.156-0.705,4.683-1.07c1.342-0.31,2.462-0.578,3.308-0.787
			c0.137-0.031-2.007-5.478-2.244-5.957C217.967,83.914,216.469,81.755,214.81,80.038z"/>
		<path fill="#E2A672" d="M170.41,139.404c-3.056,1.431-3.207,5.21-1.517,7.408c0.019-0.24,0.104-0.468,0.251-0.648
			c0,0,0.185-0.222,0.527-0.592c0.352-0.362,0.879-0.853,1.581-1.348c0.693-0.511,1.575-0.999,2.563-1.453
			c0.995-0.433,2.127-0.765,3.294-0.977c1.177-0.189,2.398-0.229,3.544-0.07c0.571,0.102,1.125,0.19,1.631,0.386
			c0.508,0.179,0.982,0.338,1.389,0.591c0.408,0.207,0.795,0.447,1.117,0.71c0.34,0.242,0.58,0.46,0.713,0.647
			c0.314,0.365,0.477,0.606,0.477,0.606c0.336,0.498,0.203,1.173-0.295,1.51c-0.212,0.146-0.459,0.203-0.699,0.184
			c0,0-0.286-0.025-0.761-0.12c-0.252-0.063-0.513-0.083-0.761-0.086c-0.259-0.014-0.553-0.03-0.874-0.048
			c-1.316-0.085-2.999,0.013-4.778,0.229c-1.772,0.263-3.608,0.685-5.025,1.056c-1.408,0.375-2.434,0.615-2.434,0.615l-0.048,0.011
			c0.907,0.471,2.029,0.607,3.315,0.212c3.006-0.922,6.128-0.879,9.238-0.88c4.168-0.001,5.48-4.423,3.942-7.213
			C181.336,140.92,175.879,139.862,170.41,139.404z"/>
		<path fill="#E2A672" d="M154.633,110.082c0.516,0.308,0.938,0.368,1.479,0.284c0.87-0.089,1.56-0.689,2.275-1.122
			c0.703-0.737,1.798-0.978,2.731-0.509c5.687,2.858,12.409,3.597,17.981-0.068c2.773-1.822,5.326-5.054,3.986-8.524
			c-0.226-0.636-0.562-1.205-0.961-1.732c-0.998-0.033-2.019,0.373-2.732,1.408c-4.714,6.85-12.002,6.972-18.769,3.067
			c-1.573-0.907-3.325-0.285-4.303,1.129c-0.914,1.111-1.997,1.98-3.228,2.632C152.898,107.973,153.484,109.339,154.633,110.082z"/>
		<path fill="#5E803E" d="M115.174,110.11c-2.906-1.158-4.401-4.188-4.335-7.204c0.08-3.704,1.944-7.771,5.495-8.027
			c0.286-0.373,0.62-0.815,0.988-1.138c-1.368,0.23-2.955,0.543-4.121,1.194c-1.372,0.541-2.726,1.278-3.87,2.163
			c-3.157,2.877-4.77,6.444-4.849,10.498c0.415,1.199,0.934,2.18,1.537,2.965C109.05,110.693,112.114,110.51,115.174,110.11z"/>
		<path fill="#5E803E" d="M126.308,99.936c0.114,0.415,0.167,0.848,0.158,1.275c-0.021,1.306-0.586,2.586-1.676,3.097
			c-0.586,0.272-1.171,0.338-1.723,0.255c-0.017,0.083-0.045,0.161-0.063,0.243c-0.039,0.183-0.086,0.36-0.139,0.536
			c-0.021,0.071-0.032,0.147-0.057,0.218c-0.508,1.458-1.259,2.729-2.222,3.628c2.457-0.498,4.894-1.087,7.292-1.728
			c0.833-1.503,1.306-3.249,1.311-5.09c0.002-0.614-0.048-1.239-0.154-1.868c-0.537-3.192-2.365-5.501-4.807-6.903
			c-1.062-0.19-2.131-0.254-3.204-0.232C123.788,95.282,125.629,97.472,126.308,99.936z"/>
		<path fill="#5E803E" d="M129.035,100.502c0.106,0.629,0.156,1.254,0.154,1.868C129.191,101.756,129.142,101.132,129.035,100.502z"
			/>
		<path fill="#5E803E" d="M129.035,100.502c-0.505-3-2.157-5.375-4.38-6.815c-0.143-0.029-0.284-0.062-0.427-0.088
			C126.67,95.001,128.498,97.31,129.035,100.502z"/>
		<path fill="#5E803E" d="M215.245,86.402c-0.4-4.245-2.472-7.701-5.274-9.582c-1.059-0.411-2.146-0.683-3.243-0.801
			c4.094,1.824,6.909,5.813,6.867,9.91c-0.024,2.639-2.026,4.427-3.739,4.277c-0.035,0.089-0.054,0.181-0.092,0.27
			c-1.462,3.383-5.452,5.508-8.961,3.979c-2.98-1.296-4.318-4.54-4.023-7.627c0.213-2.206,1.381-4.477,3.084-5.931
			c-0.668-1.033-0.376-2.622,0.483-3.871c-2.624,1.178-4.903,3.3-6.319,6.36c-0.819,1.77-1.469,3.643-1.769,5.574
			c-0.092,0.569-0.558,5.871-0.022,5.982c6.77,1.406,14.154,0.397,21.052-1.077C214.696,91.779,215.509,89.203,215.245,86.402z"/>
		<path fill="#81AE53" d="M117.717,94.956c1.709,0.323,3.062,1.407,4.005,2.838c1.326-0.102,2.581,1.071,2.862,2.733
			c0.252,1.483-0.361,2.856-1.411,3.378c-0.022,0.207-0.059,0.409-0.098,0.611c0.549,0.081,1.132-0.032,1.715-0.303
			c1.085-0.509,1.651-1.728,1.676-3.002c0.007-0.431-0.045-0.865-0.158-1.275c-0.679-2.464-2.52-4.654-5.283-6.569
			c-0.176,0.003-0.352,0.004-0.528,0.012c-0.948,0.045-1.899,0.152-2.854,0.308c-0.496,0.303-0.941,0.714-1.309,1.193
			C116.771,94.848,117.229,94.864,117.717,94.956z"/>
		<path fill="#81AE53" d="M116.334,94.879c0.367-0.479,0.812-0.89,1.309-1.193c-0.006,0.001-0.013,0.001-0.019,0.002
			c-0.097,0.016-0.203,0.036-0.302,0.053C116.954,94.064,116.62,94.506,116.334,94.879z"/>
		<path fill="#81AE53" d="M124.79,104.308c1.09-0.511,1.655-1.791,1.676-3.097c-0.024,1.274-0.591,2.494-1.676,3.002
			c-0.583,0.271-1.166,0.384-1.715,0.303c-0.003,0.016-0.005,0.031-0.008,0.047C123.619,104.646,124.204,104.58,124.79,104.308z"/>
		<path fill="#81AE53" d="M199.863,80.896c1.557-1.33,3.561-1.979,5.711-1.247c0.107,0.038,0.187,0.101,0.289,0.142
			c0.475,0.161,0.907,0.408,1.309,0.704c1.184,0.137,2.173,1.227,2.354,2.658c1.118,2.102,1.259,4.705,0.33,7.054
			c1.713,0.15,3.715-1.639,3.739-4.277c0.042-4.096-2.773-8.086-6.867-9.91c-2.184-0.235-4.381,0.108-6.381,1.006
			C199.487,78.274,199.195,79.863,199.863,80.896z"/>
		<path fill="#44592C" d="M120.573,109.19c0.97-0.899,1.726-2.188,2.235-3.654c0.021-0.062,0.037-0.13,0.057-0.194
			c0.053-0.175,0.099-0.112,0.139-0.294c0.021-0.097,0.045-0.048,0.063-0.048c0.003,0,0.005,0,0.008,0
			c0.039-1,0.075-0.646,0.098-0.853c-0.182,0.09-0.372,0.042-0.578,0.077c-1.396,0.234-2.756-1.045-3.055-2.787
			c-0.291-1.741,0.597-3.372,1.993-3.605c0.063-0.011,0.125-0.019,0.188-0.023c-0.942-1.431-2.296-2.522-4.005-2.845
			c-0.488-0.093-0.946-0.112-1.383-0.081c-3.551,0.255-5.415,4.321-5.495,8.025c-0.066,3.016,1.429,6.045,4.335,7.203
			c1.805-0.236,3.607-0.545,5.399-0.909c0.005-0.004,0.009-0.01,0.014-0.015C120.582,109.188,120.578,109.189,120.573,109.19z"/>
		<path fill="#44592C" d="M122.865,105.342c-0.02,0.064-0.035,0.132-0.057,0.194c-0.51,1.466-1.266,2.755-2.235,3.654
			c0.005-0.001,0.009-0.002,0.014-0.003c0.963-0.898,1.714-2.169,2.222-3.628C122.833,105.489,122.844,105.413,122.865,105.342z"/>
		<path fill="#44592C" d="M123.075,104.517c-0.003,0-0.005,0-0.008,0c-0.019,0.096-0.042,0.193-0.063,0.29
			c0.019-0.082,0.047-0.16,0.063-0.243C123.07,104.548,123.072,104.532,123.075,104.517z"/>
		<path fill="#44592C" d="M209.525,83.153c0.005,0.039,0.017,0.075,0.021,0.114c0.16,1.669-0.85,3.131-2.259,3.262
			c-1.405,0.134-2.672-1.114-2.831-2.782c-0.156-1.668,0.854-3.128,2.263-3.264c0.153-0.014,0.304-0.005,0.453,0.012
			c-0.401-0.296-0.834-0.543-1.309-0.704c-0.103-0.041-0.182-0.104-0.289-0.142c-2.15-0.732-4.154-0.083-5.711,1.247
			c-1.703,1.455-2.871,3.726-3.084,5.931c-0.295,3.087,1.043,6.331,4.023,7.627c3.509,1.529,7.499-0.596,8.961-3.979
			c0.038-0.088,0.057-0.181,0.092-0.27C210.784,87.858,210.644,85.255,209.525,83.153z"/>
		<path fill="#6B482E" d="M188.156,98.136C188.813,99.769,187.52,96.479,188.156,98.136L188.156,98.136z"/>
		<path fill="#6B482E" d="M188.156,98.136c-1.192-3.096-3.704-5.336-6.365-7.174c-2.389-1.602-5.239-2.417-8.087-2.658
			c-2.688-0.229-5.634,0.234-8.234-0.622c-0.958-0.234-1.724-0.783-2.495-1.316c-0.732-0.671-1.466-1.365-2.024-2.195
			c-3.623-5.087-2.133-12.411-0.607-17.986c0.444-1.616-1.978-2.44-2.604-0.875c-2.649,6.604-4.454,14.798-0.479,21.275
			c0.697,1.228,1.688,2.275,2.667,3.281c2.666,2.306,5.859,3.082,9.314,3.271c3.292,0.183,6.663,0.267,9.468,2.232
			c1.226,0.861,2.501,1.827,3.418,3.042c0.398,0.527,0.735,1.096,0.961,1.732c1.34,3.47-1.213,6.702-3.986,8.524
			c-5.572,3.665-12.295,2.926-17.981,0.068c-0.934-0.469-2.028-0.228-2.731,0.509c-0.716,0.432-1.405,1.033-2.275,1.122
			c-0.542,0.084-0.964,0.024-1.479-0.284c-1.148-0.743-1.734-2.109-1.538-3.434c0.032-0.213,0.079-0.425,0.152-0.633
			c0.159-0.384,0.325-0.785,0.62-1.13c0.91-1.284,2.309-2.09,3.664-2.822c1.781-0.968,0.8-3.76-1.186-3.41
			c-3.269,0.57-6.153,2.08-7.905,4.99c-3.158,5.915,2.239,15.084,9.42,12.055c0.829-0.313,1.495-0.72,1.992-1.132
			c0.313-0.229,0.55-0.456,0.765-0.672c1.336,0.713,2.743,1.272,4.189,1.689c4.864,1.401,10.186,1.116,14.837-1.001
			c1.594-0.725,3.114-1.705,4.45-2.875C187.952,108.329,190.252,103.342,188.156,98.136z"/>
		<path fill="#6B482E" d="M100.831,108.076c0.027,0.872-0.097,3.423,0.561,4.079c0.289,1.065,1.446,1.564,2.421,1.11
			c1.636,0.411,3.312,0.642,5.004,0.755c4.184,0.28,8.467-0.237,12.509-1.098c6.008-1.275,11.917-3.117,17.517-5.647
			c1.344,0.368,2.572-0.922,2.107-2.247c0,0-0.08-0.229-0.229-0.66c-0.049-0.128-0.055-0.139-0.045-0.109
			c-2.504-6.451-7.445-12.221-14.294-14.123c-4.443-1.234-10.2-0.947-14.469,1.125c-1.854,0.738-3.505,1.675-4.958,2.824
			c-1.591,1.43-2.941,2.966-3.971,4.712c-0.751,1.275-1.336,2.659-1.692,4.212C100.91,104.676,100.77,106.373,100.831,108.076z
			 M109.331,97.099c1.145-0.885,2.498-1.622,3.87-2.163c1.166-0.651,2.753-0.964,4.121-1.194c0.104-0.091,0.211-0.178,0.32-0.245
			c0.954-0.156,1.905-0.497,2.854-0.497c0.001,0,0.002,0,0.002,0l0,0c1.25,0,2.495,0.188,3.73,0.409
			c0.146,0.084,0.284,0.186,0.427,0.277c0.449,0.092,0.898,0.198,1.346,0.34c5.142,1.631,8.884,6.06,11.077,10.827
			c-0.946,0.281-2.23,0.656-3.783,1.093c-1.775,0.516-3.584,1.03-5.416,1.52c-2.402,0.642-4.844,1.238-7.306,1.736
			c-1.792,0.363-3.595,0.672-5.399,0.908c-3.06,0.4-6.124,0.583-9.154,0.451c-0.457-0.02-0.913-0.04-1.367-0.075
			c-0.15-0.992-0.188-1.95-0.17-2.89C104.562,103.542,106.174,99.976,109.331,97.099z"/>
		<path fill="#6B482E" d="M124.229,93.599c0.143,0.025,0.284,0.059,0.427,0.088c-0.143-0.092-0.28-0.193-0.427-0.277
			c-1.235-0.221-2.48-0.409-3.73-0.409c0.184,0.12,0.351,0.244,0.526,0.366C122.098,93.344,123.166,93.409,124.229,93.599z"/>
		<path fill="#6B482E" d="M117.643,93.687c0.954-0.156,1.905-0.263,2.854-0.308c0.177-0.008,0.353-0.009,0.528-0.012
			c-0.176-0.122-0.343-0.247-0.526-0.366c0,0-0.001,0-0.002,0c-0.948,0-1.899,0.341-2.854,0.497
			c-0.109,0.067-0.216,0.153-0.32,0.245c0.099-0.017,0.205-0.037,0.302-0.053C117.63,93.688,117.637,93.688,117.643,93.687z"/>
		<polygon fill="#6B482E" points="120.498,93 120.496,93 120.498,93 		"/>
		<path fill="#6B482E" d="M225.23,92.607c-0.334-1.608-0.832-3.296-1.478-4.987c-3.633-9.521-11.997-19.133-22.855-15.069
			c-10.013,3.746-13.774,13.854-12.145,23.898c0.179,1.101,1.269,1.733,2.303,1.43c5.159,1.795,11.013,1.679,16.36,0.882
			c5.331-0.728,10.641-2.068,15.668-3.992c0.892,0.178,1.714-0.347,2.035-1.113C225.252,93.336,225.308,92.979,225.23,92.607z
			 M217.971,92.795c-1.526,0.366-3.092,0.73-4.683,1.07c-6.897,1.474-14.282,2.482-21.052,1.077
			c-0.535-0.111-0.069-5.413,0.022-5.982c0.3-1.931,0.949-3.805,1.769-5.574c1.416-3.06,3.695-5.183,6.319-6.36
			c2-0.898,4.197-1.241,6.381-1.006c1.097,0.118,2.185,0.39,3.243,0.801c1.744,0.676,3.403,1.731,4.839,3.217
			c1.659,1.718,3.157,3.876,4.225,6.014c0.237,0.479,2.381,5.925,2.244,5.957C220.433,92.217,219.312,92.485,217.971,92.795z"/>
		<path fill="#8F4B22" d="M199.065,126.252c-0.302,0.638-0.622,1.256-0.956,1.878c-0.637,1.123-1.711,2.616-3.355,3.971
			c-0.82,0.679-1.799,1.304-2.918,1.83c-1.113,0.536-2.388,0.919-3.737,1.237c-4.781,1.072-9.587,0.387-14.395-0.037
			c-4.481-0.395-8.865-0.329-13.239,0.79c-1.382,0.38-10.343,3.307-8.205,5.744c0.926,1.057,2.683-0.097,3.66-0.482
			c1.896-0.741,3.895-1.324,5.905-1.641c2.866-0.449,5.728-0.377,8.585-0.138c5.469,0.458,10.926,1.516,16.392,0.729
			c0.792-0.114,1.584-0.253,2.377-0.453c3.32-0.82,6.292-2.461,8.371-4.385c2.099-1.929,3.233-4.031,3.909-5.465
			c0.332-0.75,0.597-1.514,0.851-2.292C202.972,125.513,199.965,124.331,199.065,126.252z"/>
		<path fill="#8F4B22" d="M172.787,147.389c1.417-0.371,3.253-0.793,5.025-1.056c1.779-0.216,3.462-0.314,4.778-0.229
			c0.321,0.018,0.615,0.034,0.874,0.048c0.248,0.003,0.509,0.022,0.761,0.086c0.475,0.095,0.761,0.12,0.761,0.12
			c0.24,0.019,0.487-0.038,0.699-0.184c0.498-0.337,0.631-1.012,0.295-1.51c0,0-0.162-0.241-0.477-0.606
			c-0.133-0.188-0.373-0.406-0.713-0.647c-0.322-0.263-0.709-0.503-1.117-0.71c-0.406-0.253-0.881-0.413-1.389-0.591
			c-0.506-0.196-1.06-0.284-1.631-0.386c-1.146-0.159-2.367-0.119-3.544,0.07c-1.167,0.212-2.299,0.544-3.294,0.977
			c-0.988,0.454-1.87,0.941-2.563,1.453c-0.702,0.496-1.229,0.986-1.581,1.348c-0.343,0.371-0.527,0.592-0.527,0.592
			c-0.146,0.18-0.232,0.408-0.251,0.648c-0.009,0.115-0.007,0.231,0.021,0.349c0.146,0.618,0.765,1.002,1.383,0.856l0.009-0.002
			l0.048-0.011C170.354,148.004,171.379,147.764,172.787,147.389z"/>
		<path fill="#FFFFFF" d="M124.584,100.527c-0.281-1.662-1.536-2.835-2.862-2.733c-0.063,0.004-0.125-0.003-0.188,0.008
			c-1.396,0.234-2.284,1.834-1.993,3.575c0.299,1.742,1.659,2.961,3.055,2.727c0.206-0.035,0.396-0.107,0.578-0.198
			C124.223,103.384,124.836,102.01,124.584,100.527z"/>
		<path fill="#FFFFFF" d="M204.456,83.747c0.159,1.668,1.426,2.917,2.831,2.782c1.409-0.131,2.419-1.593,2.259-3.262
			c-0.004-0.04-0.016-0.075-0.021-0.114c-0.181-1.431-1.17-2.521-2.354-2.658c-0.149-0.017-0.3-0.026-0.453-0.012
			C205.311,80.619,204.3,82.079,204.456,83.747z"/>
		<path fill="#66361C" d="M93.283,82.201c2.657,0.9,5.135-0.434,7.64-1.19c0.241-0.073,0.481-0.142,0.724-0.201
			c4.512-1.111,9.242-0.852,13.848-0.819c8.231,0.054,17.463,0.378,25.068-3.199c3.72-1.798,2.261-7.567-1.847-7.406
			c-1.649-0.004-3.273,0.194-4.935,0.156c-2.229-0.133-4.447-0.306-6.668-0.564c-4.685-0.546-9.388-0.909-14.087-1.306
			c-3.704-0.313-7.475-0.419-11.159,0.115c-1.1,0.16-2.191,0.37-3.271,0.656c-1.801,0.479-4.028,1.084-5.868,2.128
			c-0.245,0.139-0.485,0.283-0.714,0.438c-0.902,0.611-1.668,1.354-2.18,2.276c-1.49,2.688-0.698,6.007,1.543,7.85
			c0.242,0.2,0.504,0.38,0.779,0.543C92.508,81.886,92.882,82.065,93.283,82.201z"/>
		<path fill="#66361C" d="M213.897,50.12c-2.146,0.057-4.261,0.383-6.343,0.868c-1.405,0.328-2.797,0.725-4.17,1.181
			c-1.195,0.396-2.379,0.828-3.548,1.282c-4.396,1.706-8.807,3.38-13.147,5.225c-2.057,0.875-4.136,1.666-6.236,2.423
			c-1.585,0.506-3.196,0.773-4.778,1.243c-3.986,1.003-3.76,6.95,0.317,7.625c8.307,1.286,17.069-1.63,24.951-4.003
			c3.612-1.088,7.261-2.333,11.011-2.868c0.831-0.118,1.665-0.213,2.507-0.251c1.322-0.059,2.695,0.097,4.04,0.103
			c0.115,0,0.23,0.001,0.346-0.001c1.415-0.024,2.79-0.254,4.03-1.126c1.122-0.788,1.886-1.892,2.287-3.104
			c0.717-2.171,0.258-4.696-1.49-6.421c-1.639-1.617-4.199-2.076-6.645-2.179C215.931,50.069,214.855,50.095,213.897,50.12z"/>
	</g>
	<path fill="#FFDA7A" d="M254.834,118.833c0,6.489-0.638,12.831-1.841,18.973c-8.868,45.266-48.835,79.527-96.659,79.527
		c-35.568,0-66.78-18.958-84.097-47.292c0.126,0.099,0.216,0.145,0.263,0.125c0,0-3.713-6.974-6.752-13.501
		c-1.67,0.602-3.333,1.218-4.985,1.853c15.601,37.43,52.556,63.816,95.571,63.816c54.77,0,99.73-42.764,103.268-96.654
		c0.148-2.264,0.232-4.545,0.232-6.846c0-3.454-0.181-6.865-0.513-10.232c-1.659,0.167-3.319,0.34-4.973,0.515
		C254.663,112.314,254.834,115.554,254.834,118.833z"/>
	<path fill="#B0861B" d="M156.334,15.333c-57.07,0-103.5,46.43-103.5,103.5c0,11.643,1.934,22.843,5.495,33.297
		c0.737,2.165,1.56,4.29,2.434,6.387c1.652-0.634,3.315-1.251,4.985-1.853c-1.084-2.327-2.082-4.598-2.796-6.476
		c-3.317-9.854-5.118-20.398-5.118-31.356c0-54.313,44.187-98.5,98.5-98.5c39.039,0,72.846,22.828,88.773,55.836
		c4.894,10.143,8.09,21.249,9.241,32.946c1.653-0.175,3.313-0.348,4.973-0.515c-1.195-12.115-4.48-23.625-9.502-34.157
		C233.172,39.524,197.526,15.333,156.334,15.333z"/>
	<path fill="#47380F" d="M156.91,218.835l-0.547-0.001c-33.848-0.185-66.158-18.032-84.324-46.577
		c-10.274-16.146-15.705-34.62-15.705-53.423c0-55.14,44.859-100,100-100c38.133,0,73.509,22.25,90.124,56.685
		c9.296,19.264,12.139,41.487,8.007,62.577C245.299,184.879,204.271,218.835,156.91,218.835z M156.334,21.833
		c-53.486,0-97,43.514-97,97c0,18.232,5.269,36.148,15.236,51.812c17.624,27.693,48.971,45.008,81.809,45.188l0.531,0.001
		c45.931,0,85.72-32.937,94.611-78.317c4.008-20.457,1.25-42.013-7.765-60.696C227.638,43.417,193.322,21.833,156.334,21.833z"/>
</g>
</svg>
