<?xml version="1.0" encoding="utf-8"?>
<!-- Generator: Adobe Illustrator 16.0.0, SVG Export Plug-In . SVG Version: 6.00 Build 0)  -->
<!DOCTYPE svg PUBLIC "-//W3C//DTD SVG 1.1//EN" "http://www.w3.org/Graphics/SVG/1.1/DTD/svg11.dtd">
<svg version="1.1" id="Layer_1" xmlns="http://www.w3.org/2000/svg" xmlns:xlink="http://www.w3.org/1999/xlink" x="0px" y="0px"
	 width="310px" height="310px" viewBox="0 0 310 310" enable-background="new 0 0 310 310" xml:space="preserve">
<g>
	<path fill="#59450E" d="M150,303.75c-11.671-11.238-19.229-38.67-20.605-43.28c-3.147-9.946-6.422-20.294-9.287-30.789
		c-5.742-21.032-9.883-40.32-2.354-63.41c7.266-22.28,20.861-35.194,37.3-35.428l0.45-0.01c0.902,0,2.678,0.072,3.582,0.146
		c10.231,1.131,19.691,7.129,27.402,17.348c6.784,8.99,10.898,21.577,11.586,35.439c0.245,4.95,0.059,9.975-0.556,14.934
		c-2.327,18.805-12.042,51.16-17.626,68.773c-0.166,0.523-0.275,0.871-0.322,1.02c-4.186,13.679-12.82,33.173-19.737,36.756
		C156.015,307.229,152.25,305.917,150,303.75z"/>
	<g>
		<path fill="#E1AD24" d="M183.312,152.252c-9.518-12.61-22.889-18.83-36.101-14.124c-11.624,4.14-20.567,15.761-25.252,30.124
			c-6.855,21.024-3.098,38.459,2.528,59.069c2.86,10.478,6.18,20.969,9.39,31.114c0,0,12.368,41.4,20.859,41.4
			c0.108,0,8.764,4.248,20.288-33.194c0.712-2.313,15.143-46.775,17.963-69.568c0.556-4.49,0.726-9.03,0.504-13.495
			C193.059,174.872,190.942,162.369,183.312,152.252z"/>
	</g>
	<g>
		<path fill="#E1AD24" d="M131.144,250.602l-0.224-0.715c-2.068-6.609-4.479-14.451-6.676-22.499
			c-5.637-20.65-9.402-38.123-2.524-59.214c4.979-15.268,14.24-26.306,25.406-30.283c2.946-1.05,5.977-1.583,9.009-1.583
			c4.913,0,9.784,1.368,14.479,4.066l0.183,0.105l-0.071,0.199L131.144,250.602z M156.135,136.813c-2.975,0-5.948,0.522-8.839,1.553
			c-11.019,3.924-20.166,14.846-25.098,29.964c-6.834,20.958-3.082,38.357,2.532,58.925c2.116,7.752,4.432,15.314,6.446,21.766
			l39.002-108.314C165.619,138.123,160.895,136.813,156.135,136.813z"/>
		<path fill="#FFC838" d="M185.713,155.807l-41.157,131.248c0.686,1.447,1.384,2.836,2.087,4.126l40.96-131.94
			C187.028,158.083,186.397,156.936,185.713,155.807z"/>
		<path fill="#F2D179" d="M134.246,259.643l40.558-116.139c-1.399-1.089-2.841-2.063-4.316-2.911L131.16,249.812
			c0.904,2.896,1.814,5.775,2.717,8.624C133.877,258.436,134.006,258.872,134.246,259.643z"/>
		<path fill="#FFF3D4" d="M182.34,151.008l-40.848,129.044c0.976,2.394,2.005,4.77,3.063,7.002l41.157-131.248
			c-0.733-1.21-1.53-2.397-2.401-3.555C182.992,151.831,182.668,151.416,182.34,151.008z"/>
		<path fill="#FFE194" d="M174.804,143.504l-40.558,116.139c0.97,3.127,3.766,11.869,7.246,20.41l40.848-129.044
			C180.021,148.118,177.489,145.599,174.804,143.504z"/>
	</g>
	<path fill="#B0861B" d="M266.956,100.113c-0.528,3.111-1.187,6.177-1.958,9.197c1.031-0.162,2.064-0.322,3.098-0.482
		C267.817,105.892,267.443,102.983,266.956,100.113z"/>
	<path fill="#FFC838" d="M268.096,108.828l-1.14-8.715c-9.131-53.768-55.409-94.691-111.164-94.691S53.759,46.345,44.629,100.113
		c-1.075,6.326-1.666,12.82-1.666,19.456c0,12.706,2.058,24.923,5.845,36.339l-0.475-0.407
		c15.842,43.661,58.808,78.213,107.459,78.213c62.314,0,112.83-51.106,112.83-114.145
		C268.622,115.943,268.431,112.365,268.096,108.828z"/>
	<path fill="#FFF3D4" d="M102.781,219.458L243.043,47.233c-4.35-5.367-9.17-10.328-14.402-14.812L67.805,189.786
		C77.454,201.728,89.368,211.906,102.781,219.458z"/>
	<path fill="#59450E" d="M45.463,119.569c0-6.266,0.549-12.671,1.631-19.038c4.353-25.632,17.586-49.083,37.264-66.033
		c19.897-17.139,45.267-26.577,71.435-26.577s51.537,9.438,71.435,26.577c9.211,7.934,16.987,17.305,23.124,27.644
		c1.446-0.828,2.896-1.649,4.344-2.473c-6.419-10.833-14.56-20.651-24.205-28.959c-20.804-17.92-47.332-27.789-74.697-27.789
		S101.898,12.79,81.095,30.71C60.537,48.418,46.711,72.917,42.164,99.694c-1.129,6.643-1.701,13.33-1.701,19.875
		c0,24.654,7.608,47.542,20.565,66.4c1.346-0.983,2.689-1.969,4.037-2.95C52.714,164.988,45.463,143.121,45.463,119.569z"/>
	<path fill="#59450E" d="M254.694,59.669c-1.448,0.824-2.897,1.645-4.344,2.473c6.975,11.75,11.825,24.754,14.141,38.389
		c1.082,6.366,1.631,12.771,1.631,19.037c0,61.561-49.494,111.645-110.33,111.645c-37.562,0-70.792-19.097-90.727-48.194
		c-1.348,0.981-2.691,1.966-4.037,2.95c20.847,30.34,55.547,50.245,94.764,50.245c63.593,0,115.33-52.327,115.33-116.645
		c0-6.546-0.572-13.232-1.701-19.875C267.007,85.481,261.956,71.924,254.694,59.669z"/>
	<path fill="#E3243C" d="M254.948,119.569c0,55.4-44.395,100.311-99.156,100.311c-54.761,0-99.155-44.911-99.155-100.311
		c0-55.403,44.395-100.313,99.155-100.313C210.554,19.255,254.948,64.166,254.948,119.569z"/>
	<g id="LeroyFace_2_">
		<path fill="#F8C78E" d="M178.246,189.12c0.064-0.012,0.128-0.023,0.189-0.034c-0.055-0.003-0.112,0-0.168-0.003
			C178.261,189.097,178.252,189.108,178.246,189.12z"/>
		<path fill="#F8C78E" d="M61.77,147.944l-2.663-1.111c0.565,2.152,1.216,4.269,1.916,6.363c0.595-0.481,1.141-0.937,1.637-1.355
			C62.315,150.556,62.015,149.258,61.77,147.944z"/>
		<path fill="#F8C78E" d="M75.457,166.365c-0.116-0.398-0.223-0.797-0.327-1.199l-0.559,0.038
			C74.858,165.594,75.154,165.98,75.457,166.365z"/>
		<path fill="#F8C78E" d="M60.901,135.964c-1.271,0.757-2.477,1.662-3.561,2.699c0.425,2.416,0.915,4.807,1.507,7.161
			c0.657-0.271,1.528-0.667,2.426-1.171C60.927,141.801,60.799,138.897,60.901,135.964z"/>
		<path fill="#F8C78E" d="M68.78,165.752l-2.439,0.334c0.925,1.86,1.909,3.682,2.942,5.477c1.389,0.261,2.803,0.377,4.191,0.365
			C71.727,169.969,70.162,167.907,68.78,165.752z"/>
		<path fill="#F8C78E" d="M65.065,158.778c-0.621-0.072-1.333-0.164-2.101-0.273c0.742,1.864,1.529,3.706,2.376,5.515l1.155-2.218
			C65.984,160.808,65.508,159.799,65.065,158.778z"/>
		<path fill="#F8C78E" d="M240.36,151.313c2.905-0.506,5.315-1.768,7.229-3.56l-7.941,1.06L240.36,151.313z"/>
		<path fill="#F8C78E" d="M252.412,136.99l-9.574,2.237l5.764,7.498c4.22-4.804,5.522-12.393,3.902-19.176
			c-0.35-1.465,0.491-2.535,1.577-2.97c-0.666-0.798-1.407-1.509-2.18-2.091c-1.859-1.363-3.782-2.531-5.562-3.117
			c-1.792-0.625-3.36-0.673-4.644-0.363c-0.48,0.109-0.922,0.297-1.348,0.519c0.587,3.117,1.014,6.482,1.214,10.11
			C244.753,131.557,252.412,136.99,252.412,136.99z"/>
		<path fill="#EEE1B5" d="M93.05,95.583c3.918-3.551,8.529-6.052,13.377-8.064c8.702-3.581,18.446-3.525,27.493-1.546
			c0.209,0.048,0.407,0.119,0.603,0.195c2.198-0.384,4.4-0.754,6.613-1.074c13.315-1.932,26.763-2.926,40.228-3.539
			c-0.223-2.211,1.395-4.399,3.766-4.566c9.09-0.727,18.701,0.751,27.349,3.6c11.815-0.303,23.811-0.583,35.571,0.71
			c-9.319-2.696-18.819-4.786-28.361-6.454c-16.06-2.803-32.558-4.812-48.879-4.926c-0.09-0.375-0.18-0.75-0.271-1.127
			c-18.351,2.43-60.131,8.472-84.804,16.048c-0.08,0.87-0.151,1.739-0.246,2.608c-0.194,1.819-2.011,3.092-3.601,2.339
			c-6.625,4.691-13.301,9.319-19.696,14.322c-1.882,1.468-3.759,2.943-5.63,4.427c-0.183,1.486-0.331,2.984-0.446,4.489
			c11.16-5.624,22.618-10.652,34.342-14.925C91.29,97.233,92.154,96.396,93.05,95.583z"/>
		<path fill="#EEE1B5" d="M86.643,69.357c3.293-1.127,7.017-2.36,11.098-3.646l-1.485-20.566c-4.902,1.528-8.559,2.75-9.676,3.125
			C86.762,55.301,86.831,62.331,86.643,69.357z"/>
		<path fill="#EEE1B5" d="M106.999,52.469c-1.874,0.631-2.817,1.006-2.842,1.014c-0.157,0.063-0.315,0.092-0.476,0.092
			c-0.506,0-0.984-0.305-1.184-0.805c-0.263-0.656,0.055-1.399,0.709-1.659c0.11-0.045,1.285-0.509,3.554-1.26l-0.692-7.645
			c-2.563,0.734-5.031,1.47-7.31,2.166l1.484,20.555c2.447-0.755,5.013-1.523,7.678-2.296L106.999,52.469z"/>
		<path fill="#EEE1B5" d="M95.895,40.143c-1.678,1.274-3.305,2.609-4.896,3.983c1.475-0.473,3.187-1.017,5.067-1.598L95.895,40.143z
			"/>
		<path fill="#EEE1B5" d="M132.391,25.892c0.109,0.7-0.367,1.352-1.064,1.462c-7.706,1.205-16.104,3.347-23.541,5.533l0.546,6.029
			c6.682-1.854,13.707-3.588,19.406-4.502c0.689-0.114,1.351,0.361,1.461,1.057c0.113,0.702-0.361,1.356-1.059,1.467
			c-5.732,0.919-12.845,2.686-19.574,4.562l0.687,7.556c3.263-1.008,7.865-2.311,13.923-3.756c0.676-0.163,1.373,0.26,1.537,0.948
			c0.163,0.686-0.262,1.377-0.947,1.539c-6.294,1.5-11.028,2.861-14.276,3.878l0.931,10.251
			c14.838-4.213,32.564-8.436,50.999-11.035c-1.577-10.54-3.749-20.956-6.342-31.293c-13.354,0.262-26.08,3.084-37.689,8.038
			c4.536-1.123,9.15-2.111,13.546-2.797C131.634,24.712,132.282,25.196,132.391,25.892z"/>
		<path fill="#EEE1B5" d="M105.832,39.618l-0.529-5.827c-2.395,1.427-4.716,2.96-6.978,4.577l0.245,3.391
			C100.846,41.068,103.294,40.341,105.832,39.618z"/>
		<path fill="#A58849" d="M235.605,95.602c0.979,1.86,0.152,4.248-1.766,5.098c1.798,3.362,3.592,7.523,5.013,12.499
			c0.381-0.15,0.747-0.315,1.158-0.43c2.706-0.815,5.776-0.484,8.436,0.444c0.281,0.098,0.546,0.221,0.821,0.328
			c2.832-1.345,5.649-2.728,8.441-4.165c-0.518-4.542-1.321-9-2.416-13.341C248.729,95.471,242.165,95.165,235.605,95.602z"/>
		<path fill="#C1A381" d="M82.213,70.903c1.372-0.486,2.854-1.003,4.43-1.546c0.188-7.026,0.119-14.056-0.063-21.088
			c-0.069,0.024-0.114,0.038-0.164,0.055c-1.403,1.369-2.776,2.765-4.098,4.212C82.316,58.66,82.275,64.781,82.213,70.903z"/>
		<path fill="#C1A381" d="M81.926,89.761c-0.013,0.01-0.026,0.019-0.038,0.027c1.59,0.752,3.406-0.521,3.601-2.339
			c0.095-0.869,0.166-1.738,0.246-2.608c-1.295,0.398-2.547,0.8-3.742,1.206C81.969,87.286,81.953,88.523,81.926,89.761z"/>
		<path fill="#FCBF7A" d="M166.111,50.256c-0.201-0.834-0.399-1.667-0.6-2.503c-2.243-9.392-4.486-18.78-6.729-28.173
			c-0.567-0.009-1.131-0.043-1.7-0.043c-0.674,0-1.336,0.037-2.006,0.051c2.593,10.337,4.765,20.753,6.342,31.293
			C162.977,50.659,164.543,50.454,166.111,50.256z"/>
		<path fill="#705A34" d="M230.672,90.345c0.424,0.364,0.867,0.708,1.274,1.089c0.394,0.365,3.408,3.107,3.255,3.521
			c0.169,0.202,0.288,0.424,0.404,0.647c6.56-0.437,13.124-0.131,19.688,0.433c-0.352-1.39-0.742-2.764-1.151-4.13
			c-7.445-0.734-14.919-1.202-22.372-1.529C231.404,90.36,231.038,90.359,230.672,90.345z"/>
		<path fill="#C1A381" d="M212.478,80.59c0.107,0.036,0.221,0.065,0.328,0.102c2.891,0.969,5.663,2.134,8.351,3.483
			c4.189,0.092,8.376,0.219,12.56,0.41c6.114,0.277,12.285,0.703,18.449,1.318c-0.479-1.293-0.986-2.571-1.514-3.839
			c-0.865-0.262-1.734-0.513-2.603-0.765C236.288,80.007,224.293,80.287,212.478,80.59z"/>
		<path fill="#C1A381" d="M136.951,90.27c-0.021,0.168-0.068,0.322-0.106,0.478c0.155-0.027,0.31-0.057,0.466-0.085
			c15.696-2.805,31.542-4.464,47.438-5.518c-1.257-0.335-2.386-0.914-3.03-2.24c-0.213-0.441-0.309-0.894-0.354-1.349
			c-13.465,0.612-26.912,1.606-40.228,3.539c-2.213,0.32-4.415,0.69-6.613,1.074C136.125,86.819,137.167,88.508,136.951,90.27z"/>
		<path fill="#C1A381" d="M86.091,103.592c0.659-1.031,1.381-2.02,2.146-2.976c0.703-0.877,1.449-1.708,2.221-2.515
			c-11.724,4.273-23.182,9.301-34.342,14.925c-0.107,1.376-0.192,2.758-0.243,4.152c9.643-4.891,19.634-9.113,29.799-12.822
			C85.809,104.091,85.942,103.825,86.091,103.592z"/>
		<path fill="#B78A56" d="M225.529,153.701c-7.401,15.95-30.208,31.263-48.012,30.269c-0.448-0.025-0.821,0.061-1.146,0.204
			c-0.896,0.115-1.758,0.617-2.17,1.673c-2.402,6.254-10.14,10.334-16.885,10.888c-9.162,0.747-15.015-4.776-22.074-7.499
			c-3.316,0.212-6.808,1.205-10.125,0.967c-6.792-0.479-14.054-1.873-20.564-4.674c-1.036,0.664-2.125,1.372-3.257,2.123
			c1.485,0.699,3.001,1.345,4.584,1.884c10.477,3.584,22.067,4.385,33.056,3.664c6.03,5.421,14.539,9.572,22.774,7.416
			c6.339-1.656,10.729-6.33,14.778-11.187c0.278-0.042,0.556-0.085,0.836-0.13c0.309-0.052,0.614-0.12,0.922-0.178
			c0.006-0.012,0.015-0.023,0.021-0.037c0.056,0.003,0.113,0,0.168,0.003c10.786-1.979,21.376-5.485,30.585-11.219
			c4.749-2.958,9.093-6.53,12.7-10.725c1.916-2.222,3.732-4.705,5.24-7.348c0.628-1.614,1.349-3.911,1.895-6.973
			C227.745,152.114,226.24,152.17,225.529,153.701z"/>
		<path fill="#B78A56" d="M88.081,171.656c-5.568-9.706-6.222-21.615-4.554-32.455c0.96-6.239,2.465-12.695,4.553-18.658
			c6.888-2.259,13.696-4.355,20.473-6.304c2.104-0.902,4.315-1.533,6.587-1.847c32.914-8.982,65.224-13.961,101.051-12.906
			c-1.359-2.354-2.779-4.67-4.261-6.944c-0.26-0.4-0.565-0.813-0.858-1.238c-1.177-0.385-2.356-0.751-3.534-1.096
			c-4.542,0.107-9.082,0.259-13.613,0.494c-19.206,0.993-38.33,3.338-57.266,6.665c-14.944,2.626-29.602,6.426-44.003,11.196
			c-1.949,3.102-3.618,6.117-5.07,9.049c-2.974,6.796-5.373,13.891-6.877,21.156c-1.086,5.287-1.663,10.654-1.439,15.95
			c0.229,5.28,1.292,10.482,3.452,15.178c2.143,4.697,5.396,8.83,9.418,12.133c2.046,1.595,4.174,3.008,6.403,4.245
			c1.094-0.736,2.137-1.424,3.151-2.083C96.122,181.311,91.296,177.254,88.081,171.656z"/>
		<path fill="#B78A56" d="M71.124,165.433l-2.344,0.32c1.382,2.154,2.946,4.216,4.694,6.175c0.271-0.001,0.545,0.013,0.81,0.001
			c0.801-0.034,1.94-0.301,3.049-0.41c-0.742-1.682-1.367-3.402-1.876-5.154c-0.303-0.385-0.599-0.771-0.886-1.161L71.124,165.433z"
			/>
		<path fill="#B78A56" d="M65.382,149.452l-3.612-1.508c0.245,1.314,0.546,2.612,0.89,3.897
			C64.324,150.433,65.382,149.452,65.382,149.452z"/>
		<path fill="#B78A56" d="M67.937,159.042c0,0-1.101-0.061-2.871-0.263c0.442,1.021,0.919,2.029,1.431,3.024L67.937,159.042z"/>
		<path fill="#B78A56" d="M255.891,127.387c-0.479-1.015-1.103-1.963-1.81-2.809c-1.086,0.436-1.927,1.505-1.577,2.97
			c1.62,6.783,0.317,14.373-3.902,19.176l0.621,0.81l-1.634,0.218c-1.913,1.792-4.323,3.054-7.229,3.56l1.086,3.808
			c0.513-0.133,1.028-0.28,1.555-0.465c1.713-0.614,3.499-1.489,5.185-2.731c1.69-1.23,3.289-2.798,4.656-4.645
			c1.9-2.56,3.34-5.685,4.038-8.943c0.084-0.482,0.183-0.962,0.259-1.45c0.135-0.949,0.223-1.905,0.217-2.858
			C257.326,131.671,256.856,129.369,255.891,127.387z"/>
		<path fill="#8B6541" d="M248.281,114.015c0.328-0.156,0.656-0.315,0.986-0.474c-0.275-0.107-0.54-0.23-0.821-0.328
			c-2.659-0.928-5.729-1.259-8.436-0.444c-0.411,0.114-0.777,0.28-1.158,0.43c0.565,1.98,1.072,4.086,1.495,6.328
			c0.426-0.222,0.867-0.41,1.348-0.519c1.283-0.31,2.852-0.262,4.644,0.363c1.78,0.586,3.703,1.754,5.562,3.117
			c0.772,0.582,1.514,1.293,2.18,2.091c0.707,0.846,1.331,1.793,1.81,2.809c0.966,1.982,1.436,4.284,1.465,6.641
			c0.006,0.954-0.082,1.91-0.217,2.858c0.816-5.184,1.249-10.493,1.249-15.906c0-0.406-0.025-0.802-0.031-1.207
			c-0.783-0.887-1.62-1.729-2.554-2.465c-1.1-0.828-2.23-1.595-3.412-2.274c-0.124-0.073-0.251-0.136-0.377-0.208
			C250.793,114.412,249.553,114.106,248.281,114.015z"/>
		<path fill="#8B6541" d="M248.186,151.924c-1.686,1.242-3.472,2.117-5.185,2.731c-0.526,0.185-1.042,0.333-1.555,0.465l1.368,4.792
			c0.564-0.122,1.139-0.263,1.723-0.436c2.604-0.741,5.312-2.102,7.831-3.993c1.989-5.507,3.495-11.243,4.512-17.147
			c-0.698,3.258-2.138,6.383-4.038,8.943C251.475,149.126,249.876,150.694,248.186,151.924z"/>
		<path fill="#F8C78E" d="M232.988,130.67c-0.197-6.634-3.795-12.723-8.941-16.797c-2.435-6.342-5.268-11.742-7.66-15.769
			c-1.74-2.928-3.229-5.106-4.176-6.43c-0.379-0.127-0.761-0.248-1.14-0.371c0.293,0.424,0.599,0.837,0.858,1.238
			c1.481,2.274,2.901,4.591,4.261,6.944c-35.827-1.055-68.137,3.924-101.051,12.906c-2.271,0.314-4.483,0.945-6.587,1.847
			c-6.776,1.949-13.585,4.045-20.473,6.304c-2.088,5.963-3.593,12.419-4.553,18.658c-1.668,10.84-1.015,22.749,4.554,32.455
			c3.215,5.598,8.041,9.654,13.612,12.533c2.59-1.682,4.924-3.126,6.903-4.303c2.271-1.352,4.095-2.372,5.369-3.063
			c1.284-0.696,2.011-1.061,2.065-1.086c0.663-0.326,1.465-0.054,1.793,0.614c0.124,0.257,0.139,0.529,0.099,0.792
			c-0.062,0.417-0.297,0.805-0.708,1.004c-0.081,0.04-1.706,0.852-4.473,2.427c-2.114,1.204-4.897,2.855-8.189,4.955
			c6.511,2.802,13.772,4.195,20.564,4.674c3.317,0.238,6.809-0.755,10.125-0.967c7.06,2.723,12.912,8.246,22.074,7.499
			c6.745-0.553,14.482-4.633,16.885-10.888c0.412-1.057,1.273-1.559,2.17-1.673c0.325-0.143,0.698-0.229,1.146-0.204
			c17.804,0.994,40.61-14.319,48.012-30.269c0.711-1.53,2.216-1.587,3.326-0.88c0.391-2.187,0.68-4.771,0.784-7.729
			C232.08,140.839,233.324,135.829,232.988,130.67z"/>
		<path fill="#8B6541" d="M225.603,162.667c0,0,0.611-0.952,1.358-2.873c-1.508,2.644-3.324,5.126-5.24,7.348
			c-3.607,4.195-7.951,7.768-12.7,10.725c-9.209,5.734-19.799,9.24-30.585,11.219c-0.062,0.011-0.125,0.022-0.189,0.034
			c-0.308,0.058-0.613,0.125-0.922,0.178c-0.28,0.045-0.558,0.088-0.836,0.13c-4.049,4.857-8.439,9.53-14.778,11.187
			c-8.235,2.157-16.744-1.995-22.774-7.416c-10.988,0.721-22.579-0.08-33.056-3.664c-1.583-0.539-3.099-1.185-4.584-1.884
			c-1.621,1.075-3.332,2.243-5.12,3.5c2.557,1.356,5.233,2.491,8.058,3.396c10.53,3.369,22.097,4.22,33.098,3.219
			c6.609,6.31,16.438,10.319,25.502,7.952c6.964-1.822,11.927-6.42,16.211-11.92c11.354-2.095,22.619-5.803,32.475-11.899
			c5.103-3.154,9.847-7.012,13.832-11.612c2.037-2.351,3.942-4.937,5.561-7.685L225.603,162.667z"/>
		<path fill="#8B6541" d="M98.542,186.272c-2.229-1.236-4.357-2.649-6.403-4.245c-4.022-3.303-7.275-7.436-9.418-12.133
			c-2.16-4.695-3.224-9.897-3.452-15.178c-0.224-5.295,0.354-10.663,1.439-15.95c1.504-7.266,3.903-14.36,6.877-21.156
			c-0.322,0.656-0.662,1.315-0.963,1.96c-12.423,26.559-5.92,45.223-5.92,45.223l-5.572,0.371c0.104,0.402,0.211,0.801,0.327,1.199
			c0.509,1.752,1.134,3.473,1.876,5.154c-1.108,0.109-2.248,0.376-3.049,0.41c-0.265,0.011-0.539-0.003-0.81-0.001
			c-1.389,0.013-2.803-0.104-4.191-0.365c1.153,2.007,2.355,3.98,3.643,5.899c1.852-0.198,3.668-0.588,5.456-1.182
			c0.404-0.136,0.81-0.263,1.182-0.436c2.397,3.988,5.515,7.548,9.095,10.449c1.603,1.236,3.255,2.362,4.955,3.395
			C95.324,188.47,96.971,187.33,98.542,186.272z"/>
		<path fill="#8B6541" d="M232.988,130.67c-0.197-6.634-3.795-12.723-8.941-16.797c-2.435-6.342-5.268-11.742-7.66-15.769
			c-1.74-2.928-3.229-5.106-4.176-6.43c-0.379-0.127-0.761-0.248-1.14-0.371c0.293,0.424,0.599,0.837,0.858,1.238
			c1.481,2.274,2.901,4.591,4.261,6.944c1.395,2.417,2.726,4.87,3.986,7.355c1.074,2.117,2.104,4.273,3.087,6.457
			c-2.877-2.104-6.176-3.605-9.619-4.237c-11.731-2.153-22.751,5.318-26.371,16.426c-0.631,2.283-0.91,4.5-1.092,6.85
			c0.066,11.645,8.09,22.609,19.999,24.289c1.55,0.293,3.336,0.41,4.997,0.276c-0.119-1.945-0.233-3.891-0.312-5.837
			c-9.735,0.396-19.34-7.502-19.898-18.728c0.108-1.918,0.243-3.702,0.676-5.583c3.4-14.783,24.885-19.588,33.053-6.278
			c2.154,3.51,4.08,9.862,3.446,14.026c0.009-0.051,0.016-0.085-0.001,0.025c-0.015,0.073-0.015,0.073-0.012,0.054
			c-0.742,3.972-2.182,7.553-4.951,10.567c-2.925,3.184-6.356,4.977-9.87,5.636c-0.332,0.063-2.107,0.239-2.442,0.28
			c0.075,1.931,0.189,3.858,0.307,5.789c0.356-0.049,2.153-0.23,2.501-0.294c7.029-1.283,12.631-5.656,15.966-11.468
			C232.08,140.839,233.324,135.829,232.988,130.67z"/>
		<path fill="#42352F" d="M212.211,91.674c0.946,1.324,2.436,3.502,4.176,6.43c3.18-0.123,6.418-0.208,9.685-0.274
			C221.728,95.291,217.008,93.295,212.211,91.674z"/>
		<path fill="#59473C" d="M241.446,155.121l-1.086-3.808l-0.713-2.5l7.941-1.06l1.634-0.218l-0.621-0.81l-5.764-7.498l9.574-2.237
			c0,0-7.659-5.433-10.851-7.354c-0.2-3.628-0.627-6.993-1.214-10.11c-0.423-2.242-0.93-4.348-1.495-6.328
			c-1.421-4.976-3.215-9.137-5.013-12.499c-0.249,0.109-0.503,0.208-0.786,0.262c-2.233,0.42-4.414-1.599-6.17-2.664
			c-0.267-0.163-0.543-0.311-0.812-0.468c-3.267,0.066-6.505,0.151-9.685,0.274c2.393,4.027,5.226,9.427,7.66,15.769
			c5.146,4.075,8.744,10.164,8.941,16.797c-0.017-0.547,0.071,1.087,0,0c0.336,5.158-0.908,10.169-3.349,14.421
			c-0.104,2.959-0.394,5.543-0.784,7.729c-0.546,3.062-1.267,5.359-1.895,6.973c-0.747,1.921-1.358,2.873-1.358,2.873l5.309-0.064
			l3.947-0.045l8.619-0.322l-0.663-2.322L241.446,155.121z"/>
		<path fill="#4F3A2A" d="M248.182,76.577c-3.704-1.058-7.436-2.037-11.202-2.917c-17.642-4.113-35.686-6.571-53.752-7.807
			c-1.272-0.086-2.548-0.128-3.822-0.198c-0.429-3.482-1.371-10.884-2.315-16.553c-1.965,0.166-3.928,0.358-5.889,0.566
			l-6.244-29.797c-2.042-0.159-4.099-0.259-6.175-0.292c2.243,9.393,4.486,18.781,6.729,28.173c0.2,0.836,0.398,1.669,0.6,2.503
			c-1.568,0.198-3.135,0.403-4.693,0.625c-18.435,2.6-36.161,6.822-50.999,11.035l-0.931-10.251
			c3.248-1.017,7.982-2.378,14.276-3.878c0.686-0.161,1.11-0.853,0.947-1.539c-0.164-0.688-0.861-1.11-1.537-0.948
			c-6.058,1.445-10.66,2.748-13.923,3.756l-0.687-7.556c6.729-1.876,13.842-3.643,19.574-4.562c0.697-0.11,1.172-0.765,1.059-1.467
			c-0.11-0.696-0.771-1.171-1.461-1.057c-5.699,0.914-12.725,2.648-19.406,4.502l-0.546-6.029
			c7.437-2.187,15.835-4.328,23.541-5.533c0.697-0.11,1.174-0.762,1.064-1.462c-0.108-0.696-0.757-1.18-1.458-1.063
			c-4.396,0.686-9.01,1.674-13.546,2.797c-4.182,1.788-8.213,3.853-12.084,6.166l0.529,5.827c-1.337,0.38-4.082,1.193-5.358,1.573
			c0.006,0.885,0.021,1.771,0.036,2.653c1.338-0.396,4.146-1.234,5.559-1.638l0.692,7.645c-2.269,0.751-3.443,1.215-3.554,1.26
			c-0.654,0.26-0.972,1.003-0.709,1.659c0.199,0.5,0.678,0.805,1.184,0.805c0.16,0,0.318-0.028,0.476-0.092
			c0.024-0.008,0.968-0.383,2.842-1.014l0.922,10.162c-2.665,0.772-5.23,1.541-7.678,2.296l-1.484-20.555
			c0.562-0.171,1.166-0.352,1.751-0.528c-0.018-0.884-0.037-1.768-0.043-2.655c-0.634,0.191-1.285,0.385-1.896,0.569l-0.245-3.391
			c-0.817,0.583-1.632,1.167-2.431,1.775l0.171,2.385c-1.881,0.581-3.593,1.125-5.067,1.598c-1.569,1.356-3.1,2.752-4.583,4.198
			c0.05-0.017,0.095-0.031,0.164-0.055c1.117-0.375,4.773-1.597,9.676-3.125L97.74,65.71c-4.081,1.286-7.805,2.519-11.098,3.646
			c-1.575,0.543-3.058,1.06-4.43,1.546c0.062-6.122,0.104-12.243,0.104-18.367c-2.033,2.228-3.959,4.55-5.789,6.95
			c-0.014,0.637-0.021,1.277-0.035,1.912c-0.086,3.907-0.201,7.809-0.328,11.71c-3.641,1.365-5.677,2.196-5.677,2.196l2.913,12.834
			c-5.23,3.896-10.395,7.861-15.462,11.938c-0.581,2.779-1.029,5.604-1.378,8.461c1.871-1.484,3.748-2.959,5.63-4.427
			c6.396-5.003,13.071-9.631,19.696-14.322c0.012-0.008,0.025-0.017,0.038-0.027c0.027-1.238,0.043-2.475,0.066-3.714
			c1.195-0.406,2.447-0.808,3.742-1.206c24.673-7.576,66.453-13.618,84.804-16.048c0.091,0.378,0.181,0.752,0.271,1.127
			c16.321,0.115,32.819,2.123,48.879,4.926c9.542,1.667,19.042,3.758,28.361,6.454c0.868,0.252,1.737,0.503,2.603,0.765
			C249.881,80.208,249.059,78.378,248.182,76.577z"/>
		<path fill="#4F3A2A" d="M66.764,118.87c0.464-2.787,0.852-4.574,0.852-4.574s9.333-3.008,17.055-5.536
			c-0.42-0.993-0.412-2.167,0.36-3.344c0.015-0.016-1.146,1.75,0,0c0.248-0.303,0.445-0.682,0.641-1.061
			c-10.165,3.709-20.156,7.932-29.799,12.822c-0.047,1.265-0.097,2.528-0.097,3.802c0,1.089,0.048,2.169,0.082,3.25
			c2.016-1.045,4.048-2.061,6.088-3.061C63.543,120.386,65.15,119.62,66.764,118.87z"/>
		<path fill="#4F3A2A" d="M136.845,90.748c-0.467,1.879-2.154,2.885-4.048,2.967c-1.943,0.09-3.9-0.082-5.834,0.06
			c-2.669,0.205-5.281,0.436-7.93,0.827c-5.642,0.84-11.138,2.935-16.07,5.767c-2.418,1.388-4.696,3.001-6.856,4.761
			c-0.938,0.764-1.84,1.571-2.719,2.404c-0.041,0.04-0.101,0.085-0.146,0.127c-0.192,0.298-0.398,0.604-0.587,0.901
			c14.401-4.771,29.059-8.57,44.003-11.196c18.936-3.327,38.06-5.671,57.266-6.665c4.531-0.235,9.071-0.386,13.613-0.494
			c-0.1-0.028-0.198-0.061-0.296-0.089c-6.449-1.873-13.022-3.25-19.629-4.437c-0.937-0.168-1.935-0.287-2.864-0.536
			c-15.896,1.054-31.741,2.713-47.438,5.518C137.154,90.691,137,90.721,136.845,90.748z"/>
		<path fill="#4F3A2A" d="M233.716,84.585c-4.184-0.191-8.37-0.318-12.56-0.41c1.838,0.925,3.646,1.919,5.398,3.051
			c1.442,0.929,2.808,1.999,4.117,3.119c0.366,0.014,0.732,0.016,1.098,0.031c7.453,0.327,14.927,0.795,22.372,1.529
			c-0.603-2.025-1.253-4.029-1.977-6.001C246.001,85.289,239.83,84.863,233.716,84.585z"/>
		<path fill="#4F3A2A" d="M248.281,114.015c1.271,0.092,2.512,0.397,3.732,0.812c0.156,0.054,0.312,0.101,0.468,0.157
			c0.515,0.189,1.025,0.393,1.532,0.615c1.37-0.595,2.733-1.208,4.092-1.829c-0.104-1.474-0.23-2.939-0.396-4.395
			c-2.792,1.437-5.609,2.82-8.441,4.165C248.938,113.699,248.609,113.859,248.281,114.015z"/>
		<path fill="#42352F" d="M93.242,107.661c-0.604,0.536-1.587,1.232-1.894,1.915c-1.905,2.904-5.641,1.628-6.679-0.816
			c-7.722,2.527-17.055,5.536-17.055,5.536s-0.388,1.788-0.852,4.574c-0.019,0.11-0.037,0.225-0.055,0.339
			c-0.354,2.157-0.744,4.855-1.039,7.776c4.255-1.711,11.337-4.374,20.952-7.414c0.301-0.645,0.641-1.304,0.963-1.96
			c1.452-2.932,3.121-5.948,5.07-9.049C92.844,108.265,93.05,107.959,93.242,107.661z"/>
		<path fill="#59473C" d="M86.622,119.572c-9.615,3.041-16.697,5.703-20.952,7.414c0.295-2.921,0.686-5.619,1.039-7.776
			c-1.599,0.632-3.188,1.28-4.764,1.96c-2.04,1-4.072,2.016-6.088,3.061c0.082,2.588,0.242,5.154,0.512,7.686
			c0.245,2.274,9.632,33.482,9.972,34.17l2.439-0.334l2.344-0.32l3.447-0.229l0.559-0.038l5.572-0.371
			C80.702,164.795,74.199,146.131,86.622,119.572z"/>
		<path fill="#FFFFFF" d="M123.912,177.403l0.43-6.447c-8.979,0.792-18.251,0.649-25.752-4.905c0.369,1.57,1.027,3.042,1.974,4.355
			c2.815,4.36,8.121,5.826,13.402,6.417c1.284-0.696,2.011-1.061,2.065-1.086c0.663-0.326,1.465-0.054,1.793,0.614
			c0.124,0.257,0.139,0.529,0.099,0.792c1.464,0.079,2.874,0.13,4.17,0.195C122.698,177.369,123.307,177.377,123.912,177.403z"/>
		<path fill="#FFFFFF" d="M166.619,175.78l3.393-7.242c-12.54-0.164-25.215,0.204-37.686,1.574l-2.839,7.438
			C141.86,177.703,154.344,176.763,166.619,175.78z"/>
		<path fill="#FCE8D1" d="M173.343,136.63c-1.044-0.579-2.909,0.202-3.911,0.559c-1.553,0.549-2.979,1.268-4.433,2.038
			c-1.39,0.74-2.695,1.564-3.992,2.399c0.183,1.91,2.622,3.479,4.312,1.68c2.522-2.688,6.064-3.266,9.43-1.899
			c0.639,0.259,1.196,0.236,1.659,0.045c-0.637-1.877-1.592-3.287-2.926-4.71C173.426,136.712,173.39,136.673,173.343,136.63z"/>
		<path fill="#B78A56" d="M155.02,154.346c3.69,1.659,8.334,2.933,12.313,1.474c2.72-0.993,4.963-2.552,6.795-4.844
			c1.239-1.678,2.585-3.987,2.568-6.157c0.097-0.625,0.069-1.239-0.004-1.85c-0.186,0.334-0.312,0.727-0.339,1.191
			c-0.451,8.134-14.005,10.797-19.538,7.701c-1.994-1.116-3.814,0.905-3.612,2.686C153.708,154.194,154.364,154.06,155.02,154.346z"
			/>
		<path fill="#4F3A2A" d="M129.487,177.551l2.839-7.438c-0.109,0.014-0.22,0.023-0.327,0.034c-2.495,0.279-5.063,0.581-7.657,0.809
			l-0.43,6.447C125.768,177.479,127.626,177.529,129.487,177.551z"/>
		<path fill="#231F20" d="M85.03,105.417C83.884,107.166,85.045,105.401,85.03,105.417L85.03,105.417z"/>
		<path fill="#231F20" d="M91.349,109.576c0.307-0.683,1.29-1.379,1.894-1.915c0.045-0.042,0.104-0.088,0.146-0.127
			c0.879-0.833,1.781-1.641,2.719-2.404c2.16-1.76,4.438-3.373,6.856-4.761c4.933-2.832,10.429-4.926,16.07-5.767
			c2.648-0.392,5.261-0.622,7.93-0.827c1.934-0.142,3.891,0.031,5.834-0.06c1.894-0.082,3.581-1.088,4.048-2.967
			c0.038-0.156,0.085-0.31,0.106-0.478c0.216-1.762-0.826-3.451-2.429-4.102c-0.195-0.077-0.394-0.147-0.603-0.195
			c-9.047-1.979-18.791-2.035-27.493,1.546c-4.848,2.013-9.459,4.513-13.377,8.064c-0.896,0.812-1.76,1.649-2.593,2.518
			c-0.771,0.807-1.518,1.638-2.221,2.515c-0.765,0.956-1.486,1.945-2.146,2.976c-0.148,0.233-0.282,0.5-0.42,0.764
			c-0.195,0.379-0.393,0.758-0.641,1.061c-0.772,1.177-0.78,2.351-0.36,3.344C85.708,111.204,89.443,112.48,91.349,109.576z"/>
		<path fill="#FFFFFF" d="M105.143,121.501c-3.041,2.577-5.207,5.939-6.401,9.738c-0.339,1.416-0.747,2.875-0.749,4.341l-0.062,1.55
			c0.234,6.008,2.852,11.446,7.487,15.298c7.98,6.147,19.069,5.881,26.676-0.823c3.657-3.219,6.279-8.082,6.592-12.998
			C139.807,120.932,118.887,109.852,105.143,121.501z"/>
		<path fill="#231F20" d="M117.117,130.912c-1.969,0-3.375,1.189-4.243,2.917c0.149-0.022,0.303-0.045,0.458-0.045
			c1.587,0,2.871,1.29,2.871,2.878c0,1.59-1.284,2.878-2.871,2.878c-0.555,0-1.069-0.164-1.509-0.439
			c0.096,3.928,1.897,7.793,5.3,7.789c2.623-0.004,3.733-1.675,4.226-3.734C122.24,139.41,122.769,130.912,117.117,130.912z"/>
		<path fill="#231F20" d="M235.605,95.602c-0.116-0.224-0.235-0.445-0.404-0.647c0.153-0.413-2.861-3.156-3.255-3.521
			c-0.407-0.381-0.851-0.726-1.274-1.089c-1.31-1.12-2.675-2.189-4.117-3.119c-1.753-1.131-3.561-2.126-5.398-3.051
			c-2.688-1.349-5.46-2.515-8.351-3.483c-0.107-0.037-0.221-0.066-0.328-0.102c-8.647-2.849-18.259-4.327-27.349-3.6
			c-2.371,0.167-3.988,2.355-3.766,4.566c0.046,0.455,0.142,0.908,0.354,1.349c0.645,1.327,1.773,1.905,3.03,2.24
			c0.93,0.249,1.928,0.368,2.864,0.536c6.606,1.187,13.18,2.564,19.629,4.437c0.098,0.028,0.196,0.061,0.296,0.089
			c1.178,0.345,2.357,0.711,3.534,1.096c0.379,0.123,0.761,0.244,1.14,0.371c4.797,1.621,9.517,3.617,13.86,6.155
			c0.27,0.157,0.546,0.306,0.812,0.468c1.756,1.065,3.937,3.083,6.17,2.664c0.283-0.054,0.537-0.153,0.786-0.262
			C235.758,99.85,236.585,97.462,235.605,95.602z"/>
		<path fill="#FFFFFF" d="M224.696,120.476c-8.168-13.31-29.652-8.505-33.053,6.278c-0.433,1.881-0.567,3.665-0.676,5.583
			c0.808,16.229,20.528,25.518,32.211,12.812c2.77-3.014,4.209-6.595,4.951-10.567c0.003-0.02,0.008-0.048,0.013-0.079
			C228.776,130.338,226.851,123.986,224.696,120.476z"/>
		<path fill="#231F20" d="M206.543,127.209c-2.232,0-3.744,1.529-4.564,3.636c0.249-0.071,0.506-0.12,0.777-0.12
			c1.589,0,2.873,1.29,2.873,2.876s-1.284,2.877-2.873,2.877c-0.541,0-1.045-0.161-1.478-0.424c0.271,3.693,2.058,7.14,5.269,7.134
			c2.623-0.003,3.735-1.678,4.227-3.734C211.664,135.712,212.193,127.213,206.543,127.209z"/>
		<path fill="#8B6541" d="M136.112,119.307c-2.54-2.434-5.635-4.366-8.956-5.527c-3.946-1.559-8.059-1.938-12.017-1.388
			c-2.271,0.314-4.483,0.945-6.587,1.847c-6.638,2.849-12.145,8.413-14.539,15.537c-0.67,2.448-1.039,4.83-1.19,7.354
			c0.044,4.912,1.368,9.646,3.986,13.798c-0.229-0.339-0.325-0.471,0.2,0.335c0.583,0.855,0.428,0.633,0.176,0.228
			c4.956,7.966,13.812,10.662,21.594,11.052c0.025-1.904,0.052-3.805,0.073-5.708c-4.225-0.181-9.865-1.658-13.436-4.407
			c-4.636-3.852-7.253-9.29-7.487-15.298l0.062-1.55c0.002-1.465,0.41-2.925,0.749-4.341c1.194-3.799,3.36-7.161,6.401-9.738
			c13.744-11.649,34.664-0.569,33.542,17.105c-0.312,4.917-2.935,9.779-6.592,12.998c-3.814,3.363-8.507,5.103-13.24,5.23
			c-0.021,1.904-0.048,3.805-0.075,5.708c5.865-0.031,11.738-2.006,16.489-6.187C146.23,146.708,146.666,129.423,136.112,119.307z"
			/>
		<path fill="#8B6541" d="M175,131.979c-3.067-1.033-6.506,0.482-9.178,1.923c-3.045,1.646-5.837,3.763-8.491,5.965l-0.039-24.779
			c-0.001-1.635-2.522-1.655-2.553-0.02c-0.09,5.515-0.18,11.029-0.269,16.547c-0.082,4.95,0.091,9.894-0.35,14.824l2.454-2.061
			v-0.003c1.532-0.863,2.976-1.813,4.432-2.75c1.297-0.834,2.603-1.659,3.992-2.399c1.454-0.771,2.88-1.489,4.433-2.038
			c1.002-0.356,2.867-1.137,3.911-0.559c0.047,0.042,0.083,0.082,0.14,0.112c1.334,1.423,2.289,2.833,2.926,4.71
			c0.021,0.057,0.048,0.112,0.067,0.171c0.085,0.447,0.163,0.894,0.217,1.345c0.073,0.611,0.101,1.225,0.004,1.85
			c0.017,2.169-1.329,4.479-2.568,6.157c-1.832,2.292-4.075,3.852-6.795,4.844c-3.979,1.459-8.623,0.185-12.313-1.474
			c-0.655-0.286-1.312-0.151-1.816,0.201c-0.714,0.498-1.115,1.444-0.692,2.362c0.68,1.485,3.005,2.574,4.387,3.284
			c0.473,0.227,0.466,0.221,0.306,0.137c2.829,1.31,6.045,2.065,9.165,1.635c6.454-0.327,12.6-6.103,14.76-11.82
			c0.646-1.463,1.09-3.32,1.082-4.921c0.161-1.706-0.147-3.445-0.586-5.103C180.579,137.127,178.246,133.148,175,131.979z"/>
		<path fill="#8B6541" d="M144.681,180.357c4.194-0.263,8.39-0.583,12.579-0.94c3.655-0.315,7.37-0.941,11.036-1.014
			c1.968-3.276,3.934-6.556,5.902-9.833c4.753,0.03,9.567,0.249,14.316,0.04c1.784,0,1.952-2.401,0.164-2.55
			c-15.668-1.304-31.401-1.673-47.103-0.805c-4.396,0.242-8.757,0.635-13.136,1.085c-4.184,0.436-8.401,1.062-12.619,0.917
			c-7.357-0.259-15.563-2.383-19.988-8.773c-0.534-0.772-1.477-1.947-1.604-2.917c-0.542-1.802-3.32-0.976-2.811,0.823
			c0.485,1.792,1.392,3.471,2.48,4.965c-0.603,1.751-0.004,4.242,0.458,5.967c0.545,2.035,1.491,3.955,2.763,5.635
			c2.731,3.917,6.94,5.903,11.478,6.932c2.271-1.352,4.095-2.372,5.369-3.063c-5.281-0.591-10.587-2.057-13.402-6.417
			c-0.946-1.312-1.604-2.785-1.974-4.355c7.501,5.554,16.773,5.697,25.752,4.905c2.594-0.228,5.162-0.53,7.657-0.809
			c0.107-0.011,0.218-0.02,0.327-0.034c12.471-1.37,25.146-1.738,37.686-1.574l-3.393,7.242
			c-12.275,0.983-24.759,1.922-37.132,1.771c-1.861-0.022-3.72-0.072-5.575-0.148c-0.605-0.025-1.214-0.034-1.819-0.065
			c-1.296-0.065-2.706-0.116-4.17-0.195c-0.062,0.417-0.297,0.805-0.708,1.004c-0.081,0.04-1.706,0.852-4.473,2.427
			c2.278,0.266,4.555,0.374,6.688,0.43C127.853,181.227,136.273,180.885,144.681,180.357z"/>
		<path fill="#66542D" d="M101.296,187.651c1.132-0.751,2.221-1.459,3.257-2.123c3.292-2.099,6.075-3.751,8.189-4.955
			c2.767-1.576,4.392-2.388,4.473-2.427c0.411-0.199,0.646-0.587,0.708-1.004c0.04-0.263,0.025-0.535-0.099-0.792
			c-0.328-0.668-1.13-0.939-1.793-0.614c-0.055,0.025-0.781,0.39-2.065,1.086c-1.274,0.692-3.098,1.711-5.369,3.063
			c-1.979,1.177-4.313,2.621-6.903,4.303c-1.015,0.659-2.058,1.348-3.151,2.083c-1.571,1.058-3.218,2.198-4.929,3.416
			c-2.049,1.456-4.186,3.03-6.395,4.714c0.653,0.624,1.298,1.253,1.967,1.86c2.433-1.85,4.766-3.544,6.99-5.11
			C97.964,189.895,99.675,188.726,101.296,187.651z"/>
	</g>
	<path fill="#FFDA7A" d="M254.834,118.834c0,6.489-0.638,12.831-1.841,18.973c-8.868,45.266-48.835,79.527-96.659,79.527
		c-35.568,0-66.78-18.958-84.097-47.292c0.126,0.099,0.216,0.145,0.263,0.125c0,0-3.713-6.974-6.752-13.501
		c-1.67,0.602-3.333,1.218-4.985,1.853c15.601,37.43,52.556,63.816,95.571,63.816c54.77,0,99.73-42.764,103.268-96.654
		c0.148-2.264,0.232-4.545,0.232-6.846c0-3.454-0.181-6.865-0.513-10.232c-1.659,0.167-3.319,0.34-4.973,0.515
		C254.663,112.315,254.834,115.555,254.834,118.834z"/>
	<path fill="#B0861B" d="M156.334,15.334c-57.07,0-103.5,46.43-103.5,103.5c0,11.643,1.934,22.843,5.495,33.297
		c0.737,2.165,1.56,4.29,2.434,6.387c1.652-0.634,3.315-1.251,4.985-1.853c-1.084-2.327-2.082-4.598-2.796-6.476
		c-3.317-9.854-5.118-20.398-5.118-31.356c0-54.313,44.187-98.5,98.5-98.5c39.039,0,72.846,22.828,88.773,55.836
		c4.894,10.143,8.09,21.249,9.241,32.946c1.653-0.175,3.313-0.348,4.973-0.515c-1.195-12.115-4.48-23.625-9.502-34.157
		C233.172,39.525,197.526,15.334,156.334,15.334z"/>
	<path fill="#47380F" d="M156.91,218.835l-0.547-0.001c-33.848-0.185-66.158-18.032-84.324-46.577
		c-10.274-16.146-15.705-34.62-15.705-53.423c0-55.14,44.859-100,100-100c38.133,0,73.509,22.25,90.124,56.685
		c9.296,19.264,12.139,41.487,8.007,62.577C245.299,184.879,204.271,218.835,156.91,218.835z M156.334,21.834
		c-53.486,0-97,43.514-97,97c0,18.232,5.269,36.148,15.236,51.812c17.624,27.693,48.971,45.008,81.809,45.188l0.531,0.001
		c45.931,0,85.72-32.937,94.611-78.317c4.008-20.457,1.25-42.013-7.765-60.696C227.638,43.418,193.322,21.834,156.334,21.834z"/>
</g>
</svg>
