<?xml version="1.0" encoding="utf-8"?>
<!-- Generator: Adobe Illustrator 16.0.0, SVG Export Plug-In . SVG Version: 6.00 Build 0)  -->
<!DOCTYPE svg PUBLIC "-//W3C//DTD SVG 1.1//EN" "http://www.w3.org/Graphics/SVG/1.1/DTD/svg11.dtd">
<svg version="1.1" xmlns="http://www.w3.org/2000/svg" xmlns:xlink="http://www.w3.org/1999/xlink" x="0px" y="0px" width="2272px"
	 height="2272px" viewBox="0 0 2272 2272" enable-background="new 0 0 2272 2272" xml:space="preserve">
<symbol  id="PC_1_" viewBox="-153.737 -222.289 307.475 444.578">
	<polygon fill="#E6B28C" points="8.324,-154.27 -15.717,-158.924 -11.064,-178.312 11.426,-172.884 	"/>
	<polygon fill="#E6B28C" points="-40.534,-175.984 -63.801,-176.762 -66.128,-156.598 -42.861,-158.924 	"/>
	<path fill="#E6B28C" d="M-115.247,170.418c0,0-22.229-51.696-8.785-90.992c13.438-39.295,35.152-51.703,69.277-53.772
		c34.123-2.068,66.18,7.241,74.451,15.512c8.277,8.273,15.512,22.751,15.512,22.751l9.827,36.189l-10.342-3.103
		c-1.587,12.964,0.006,50.214-25.332,72.386c-9.307,3.102-20.686,5.168-20.686,5.168s-38.255,0-43.423,16.544
		C-67.157,185.933-104.389,163.179-115.247,170.418"/>
	<path fill="#E6B28C" d="M-50.616,26.69c0,0-10.337-32.058,5.174-45.499c11.372,8.273,26.883,25.85,23.781,44.462
		C-33.034,23.588-50.616,26.69-50.616,26.69z"/>
	<path fill="#BD3B21" d="M-44.413,215.918c0,0-22.751-34.125,0-37.227c22.751-3.101,53.773-5.168,65.145-20.679
		c11.379-15.511,17.577-36.195,13.96-61.01c5.688-2.068,10.342,3.103,10.342,3.103l5.69,4.135c0,0,4.137,9.307,11.372,0
		c5.168,1.036,7.241,20.682,7.241,20.682s35.154,21.716,32.051-122.017c12.409,16.544,39.298,74.452,39.298,74.452
		s17.577,39.292,4.132,70.312c-13.438,31.021-46.532,44.467-78.583,20.683C64.163,172.488,35.208,236.6-44.413,215.918z"/>
	<path fill="#BD3B21" d="M-45.963,213.334l-9.307-16.286c0,0-4.652-10.858-11.633-14.736c-6.979-3.877-50.409-19.388-50.409-19.388
		s13.959,40.07,43.43,46.531C-44.413,215.918-45.963,213.334-45.963,213.334z"/>
	<path fill="#CCA283" d="M50.725,104.24c0,0,10.336,9.825,14.214,2.845c3.877-6.979,3.102-27.144,3.102-27.144L40.896,68.309
		l1.551,14.734v15.512L50.725,104.24z"/>
	<path fill="#FFFFFF" d="M-116.798,111.48c0,0,8.664,21.322,23.787,16.544c19.644-6.204,18.092-16.025,18.092-16.025
		s-2.066-17.062-21.715-16.546C-115.265,95.943-116.798,111.48-116.798,111.48z"/>
	<path fill="#FFFFFF" d="M-36.142,111.48c0,0,8.664,21.322,23.787,16.544c19.642-6.204,18.092-16.025,18.092-16.025
		S3.671,94.937-15.978,95.453C-34.608,95.943-36.142,111.48-36.142,111.48z"/>
	<path fill="#E6B28C" d="M88.204-116.27c0,0,0.775,34.9-25.592,40.328c-10.857-2.326-24.818-6.979-24.818-6.979
		s3.878-10.857,0-22.491c2.327-1.55,6.205-2.326,6.205-2.326l6.204,10.858c0,0,12.409-10.858,14.735-25.594
		C72.693-120.922,88.204-116.27,88.204-116.27z"/>
	<path fill="#E6B28C" d="M-109.557-79.044c0,0,3.102-12.407-0.776-22.489c0-1.552-6.204-4.654-6.204-4.654l-4.654,9.308
		c0,0-6.979-13.185-5.428-24.042c-5.429,0-22.49,3.878-22.49,3.878s-3.103,41.103,17.837,44.979
		C-123.517-74.391-109.557-79.044-109.557-79.044z"/>
	<path fill="#B89A58" d="M37.794-145.738c0,0-79.104-29.473-133.392-0.777c-0.776,27.144,17.838,96.943,17.838,96.943l-29.47-29.472
		l-21.716,6.979c0,0,31.022,80.656,59.717,93.065c8.531,3.878,20.938,2.327,20.938,2.327s-10.336-27.662,4.138-42.137
		c9.046,4.91,22.751,20.712,24.303,40.876c8.531,3.878,22.745,5.914,22.745,5.914s24.818-3.103,40.329-48.085
		c15.51-44.98,24.041-52.735,24.041-52.735L38.57-80.596L15.304-36.389C15.304-36.389,23.835-124.024,37.794-145.738z"/>
	<path fill="#C3C3C4" d="M-63.025-73.614l31.021,1.55c0,0,3.877-24.815-0.776-31.021c-10.082-0.775-32.573,1.552-32.573,1.552
		L-63.025-73.614z"/>
	<path fill="#8E5135" d="M-40.534-175.984c0,0-3.103-17.839,7.755-42.655c-50.41,0-69.022-2.327-69.022-2.327
		s4.653,41.879,41.879,27.144c-2.327,11.634-4.654,20.164-4.654,20.164L-40.534-175.984z"/>
	<path fill="#8E5135" d="M-14.167-177.536c0,0,6.204-13.185,3.877-22.491c-6.979-6.98-11.632-11.633-9.307-17.837
		c13.96-2.327,57.39-2.327,57.39-2.327s-1.55,31.021-31.021,24.043c3.102,16.285,4.653,23.265,4.653,23.265L-14.167-177.536z"/>
	<path fill="#C49470" d="M62.176,88.911c-2.442-2.281-4.327-4.171-7.532-5.438c-3.363-1.33-7.034-1.966-10.645-2.036
		c-5.029-0.096-6.471-8.043-1.224-9.033c9.664-1.821,23.678,1.729,27.768,11.636C72.584,88.984,65.514,92.032,62.176,88.911z"/>
	<path fill="#C49470" d="M34.692,93.901C29.263,34.184-46.866,17.116-90.169,44.266c-3.956,2.482-9.7,0.129-6.047-2.941
		C-53.519,5.453,31.59,15.571,44.774,95.453C45.755,101.377,35.226,99.778,34.692,93.901z"/>
	<path fill="#C49470" d="M64.259-78.201c-8.276,2.893-18.697-0.307-26.483-3.375c-3.563-1.402-2.259-6.58,1.594-5.789
		c3.496,0.715,6.974,1.503,10.482,2.163c4.599,0.87,8.943,0.372,13.536,0.548C67.186-84.506,67.744-79.418,64.259-78.201z"/>
	<path fill="#C49470" d="M-114.901-78.574c-6.199,3.663-13.766,7.456-21.104,5.737c-4.132-0.965-2.284-6.806,1.715-6.209
		c6.064,0.907,11.402-3.727,16.891-5.447C-113.835-85.605-111.781-80.42-114.901-78.574z"/>
	<path fill="#C49470" d="M8.997-156.497c-7.604-1.533-14.535-3.232-22.387-3.12c-3.509,0.052-4.459-5.729-0.842-6.253
		c8.421-1.227,17.977-0.2,25.786,3.305C15.177-160.938,12.468-155.798,8.997-156.497z"/>
	<path fill="#C49470" d="M-42.007-159.705c-7.21,2.372-15.062-0.31-22.46,0.891c-4.157,0.676-6.022-5.553-1.77-6.422
		c7.501-1.527,15.754-0.691,23.375-0.776C-39.123-166.052-38.638-160.813-42.007-159.705z"/>
	<path fill="#C49470" d="M-23.721,21.628c-8.107-1.888-16.177-1.424-24.327-0.036c-4.817,0.82-6.9-6.521-2.035-7.386
		c9.469-1.678,19-2.473,28.416-0.034C-16.833,15.423-18.88,22.754-23.721,21.628z"/>
	<path fill="#C49470" d="M-81.753,177.028c-15.625-5.547-33.742-10.368-39.213-28.046c-1.145-3.708,4.501-5.181,5.757-1.587
		c5.155,14.762,22.387,17.925,35.243,23.142C-76.046,172.127-77.597,178.505-81.753,177.028z"/>
	<path fill="#856B35" d="M30.385-140.342C16.467-101.54,19.254-59.474,6.688-20.654c-1.563,4.829-10.021,4.264-9.301-1.257
		c5.217-40.109,8.241-83.188,21.97-121.468C21.83-150.269,32.875-147.3,30.385-140.342z"/>
	<path fill="#856B35" d="M59.66-68.152c-5.713,21.915-12.432,45.281-23.556,65.12c-2.975,5.303-10.397,0.655-7.992-4.667
		C37.376-28.191,41.86-50.01,50.058-70.801C52.36-76.641,61.315-74.509,59.66-68.152z"/>
	<path fill="#856B35" d="M-91.635-39.836c-8.416-8.602-16.377-18.301-23.327-28.119c-3.32-4.699,4.205-10.461,7.955-6.135
		c7.641,8.82,15.766,17.485,22.958,26.671C-79.911-42.133-86.661-34.756-91.635-39.836z"/>
	<path fill="#856B35" d="M2.12,31.328c-3.975-0.395-6.853-3.166-10.3-5.041c-3.635-1.969-7.64-3.359-11.669-4.22
		c-5.301-1.134-4.174-10.197,1.291-9.544c5.131,0.616,9.669,2.036,14.371,4.17c4.193,1.898,9.125,4.256,10.786,8.764
		C7.579,28.125,4.998,31.613,2.12,31.328z"/>
	<path fill="#856B35" d="M-57.488,25.087c-2.09,0.706-4.344,1.421-6.567,1.315c-2.66-0.125-4.89-2.127-4.89-4.885
		c0-2.895,2.241-4.579,4.89-4.886c-1.722,0.2-0.328-0.006,0.084-0.124c0.454-0.13,0.915-0.239,1.37-0.376
		c0.92-0.272,1.823-0.599,2.726-0.933c3.575-1.334,7.265,0.243,7.628,4.25C-51.961,22.661-54.93,24.227-57.488,25.087z"/>
	<path fill="#9C2B13" d="M104.66,111.583c-3.363,12.825-17.952,41.962-33.427,24.033c0.678,15.938-2.417,31.733-10.949,45.921
		c-4.01,6.673-22.254,11.418-19.388,4.652c10.137-23.914,18.068-54.857,5.429-82.206c-2.436-5.278,6.482-0.388,9.833,2.95
		c2.538-3.408,9.064-3.668,10.584,1.687c1.794,6.296,3.108,12.703,3.865,19.125c1.254-1.077,3.109-1.514,5.187-0.599
		c10.603,4.656,12.99-3.92,15.965-13.033c2.193-6.725,3.514-13.771,4.841-20.709c5.732-29.971,1.484-60.073,1.764-90.24
		c0.066-7.062,9.233,6.503,10.002,13.184C112.476,52.037,113.821,76.595,104.66,111.583z"/>
	<path fill="#4F3A2A" d="M-30.967-77.75c0,0,38.261-1.033,48.598,6.204c2.072-7.239,1.036-21.716,1.036-21.716
		s-35.154-7.236-49.634-3.101C-32.003-89.126-30.967-77.75-30.967-77.75z"/>
	<path fill="#4F3A2A" d="M-67.157-77.75c0,0-13.445,0-20.685,4.136c-2.066-13.442-2.169-19.552-2.169-19.552l22.854-3.196V-77.75z"
		/>
	<g>
		<path fill="#513C2D" d="M-64.596-155.745c0,0,0.393-2.29,0.983-5.725c0.285-1.716,0.618-3.718,0.975-5.862
			c0.354-2.136,0.763-4.391,1.171-6.652c0.22-1.122,0.44-2.245,0.656-3.351c0.205-1.112,0.453-2.183,0.688-3.223
			c0.237-1.04,0.466-2.046,0.683-2.999c0.253-0.935,0.493-1.818,0.713-2.634c0.227-0.812,0.403-1.581,0.643-2.202
			c0.22-0.638,0.411-1.193,0.568-1.65c0.314-0.918,0.495-1.443,0.495-1.443l0.066-0.191c0.365-1.066-0.203-2.227-1.269-2.592
			c-1.011-0.347-2.11,0.154-2.532,1.115c0,0-0.241,0.553-0.663,1.521c-0.211,0.485-0.467,1.075-0.76,1.752
			c-0.318,0.677-0.56,1.446-0.867,2.285c-0.3,0.841-0.624,1.751-0.967,2.714c-0.301,0.967-0.619,1.986-0.947,3.041
			c-0.327,1.056-0.671,2.147-0.967,3.259c-0.31,1.111-0.624,2.24-0.938,3.369c-0.592,2.258-1.188,4.522-1.711,6.637
			c-0.521,2.105-1.008,4.07-1.426,5.755c-0.85,3.357-1.417,5.596-1.417,5.596l-0.008,0.033c-0.474,1.87,0.659,3.77,2.529,4.243
			c1.871,0.474,3.771-0.659,4.244-2.529C-64.63-155.564-64.61-155.658-64.596-155.745z"/>
	</g>
	<g>
		<path fill="#513C2D" d="M-36.669-160.566l-0.086-3.681l-0.044-3.673c-0.016-2.45-0.003-4.902,0.037-7.354
			c0.08-4.903,0.275-9.804,0.617-14.686c0.346-4.879,0.833-9.745,1.591-14.539c0.771-4.779,1.78-9.543,3.495-13.888v-0.001
			l1.448-3.056l-3.423-0.047l-34.165-0.468c-5.698-0.091-11.39-0.137-17.081-0.174l-17.076-0.129l-3.944-0.029l0.145,4.081v0.001
			c0.067,0.929,0.159,1.609,0.27,2.391c0.11,0.756,0.239,1.502,0.382,2.245c0.29,1.484,0.647,2.952,1.07,4.406
			c0.856,2.905,1.978,5.766,3.5,8.483c1.517,2.713,3.439,5.293,5.847,7.457c2.399,2.163,5.292,3.86,8.368,4.851
			c3.076,0.993,6.275,1.351,9.35,1.218c3.087-0.105,6.06-0.681,8.924-1.45c1.424-0.408,2.83-0.852,4.202-1.36
			c1.374-0.504,2.725-1.05,4.048-1.641c1.328-0.582,2.628-1.21,3.912-1.86c1.286-0.649,2.542-1.341,3.794-2.036
			c1.213-0.673,1.65-2.201,0.977-3.414c-0.655-1.182-2.122-1.627-3.318-1.028l-0.049,0.024c-1.216,0.611-2.433,1.218-3.666,1.778
			c-1.231,0.562-2.471,1.1-3.723,1.589c-1.249,0.496-2.509,0.947-3.775,1.354c-1.266,0.411-2.541,0.755-3.816,1.066
			c-5.086,1.181-10.333,1.391-14.768-0.275c-2.212-0.819-4.191-2.098-5.877-3.744s-3.078-3.657-4.195-5.864
			c-1.121-2.206-1.961-4.614-2.582-7.094c-0.306-1.241-0.559-2.502-0.752-3.769c-0.096-0.633-0.178-1.268-0.244-1.897
			c-0.064-0.604-0.12-1.313-0.132-1.779h0l-3.799,4.052l17.045-0.72c5.683-0.245,11.365-0.483,17.042-0.675l34.085-1.229
			l-1.975-3.103l0,0c-1.215,2.348-2.184,4.759-3.032,7.188c-0.845,2.431-1.563,4.883-2.207,7.346
			c-1.282,4.926-2.275,9.891-3.123,14.868c-0.843,4.979-1.535,9.973-2.109,14.979c-0.287,2.503-0.545,5.01-0.776,7.521l-0.325,3.771
			l-0.28,3.765c-0.209,2.811,1.899,5.26,4.71,5.469s5.259-1.9,5.468-4.711c0.012-0.165,0.017-0.329,0.014-0.491L-36.669-160.566z"/>
	</g>
	<g>
		<path fill="#513C2D" d="M-12.493-156.809c0,0,0.055-0.145,0.158-0.415c0.052-0.136,0.115-0.303,0.189-0.499
			c0.072-0.172,0.164-0.457,0.266-0.794c0.098-0.327,0.207-0.69,0.325-1.085c0.121-0.404,0.18-0.734,0.282-1.146
			c0.202-0.804,0.365-1.681,0.549-2.64c0.7-3.82,1.28-8.8,1.72-13.775c0.441-4.973,0.76-9.932,0.966-13.65
			c0.188-3.719,0.314-6.197,0.314-6.197c0.072-1.418-1.019-2.625-2.438-2.697c-1.375-0.069-2.554,0.956-2.688,2.312l-0.003,0.033
			c0,0-0.238,2.448-0.597,6.121c-0.375,3.668-0.919,8.554-1.577,13.401c-0.655,4.843-1.451,9.658-2.251,13.097
			c-0.206,0.853-0.389,1.639-0.587,2.287c-0.094,0.314-0.181,0.675-0.262,0.891c-0.077,0.227-0.148,0.434-0.213,0.622
			c-0.055,0.181-0.112,0.354-0.211,0.565c-0.084,0.193-0.155,0.356-0.212,0.489c-0.115,0.266-0.177,0.407-0.177,0.407l-0.017,0.039
			c-0.769,1.769,0.042,3.825,1.81,4.594c1.769,0.769,3.825-0.042,4.594-1.811C-12.535-156.704-12.511-156.763-12.493-156.809z"/>
	</g>
	<g>
		<path fill="#513C2D" d="M13.364-157.416c0,0-0.121-2.309-0.303-5.773c-0.056-0.87-0.072-1.794-0.17-2.807
			c-0.11-1.016-0.225-2.088-0.345-3.196c-0.121-1.106-0.245-2.25-0.372-3.412c-0.132-1.158-0.244-2.344-0.397-3.511
			c-0.351-2.312-0.702-4.625-1.03-6.794c-0.165-1.082-0.325-2.129-0.477-3.121c-0.201-0.994-0.392-1.934-0.567-2.801
			C9-192.292,8.53-194.6,8.53-194.6c-0.255-1.255-1.479-2.065-2.735-1.811c-1.204,0.245-1.999,1.382-1.836,2.582l0.027,0.193
			c0,0,0.31,2.248,0.774,5.62c0.116,0.841,0.243,1.752,0.376,2.716c0.086,0.979,0.177,2.012,0.271,3.08
			c0.187,2.134,0.387,4.41,0.586,6.686c0.076,1.133,0.109,2.254,0.166,3.362c0.051,1.105,0.102,2.194,0.151,3.247
			c0.05,1.051,0.098,2.067,0.143,3.031c0.036,0.968-0.008,1.925-0.007,2.786c-0.037,3.467-0.062,5.778-0.062,5.778l0,0.059
			c-0.021,1.929,1.527,3.509,3.456,3.529c1.928,0.021,3.509-1.526,3.529-3.455C13.37-157.266,13.368-157.346,13.364-157.416z"/>
	</g>
	<g>
		<path fill="#513C2D" d="M-22.22-218.574c-0.077,1.119-0.042,2.03,0.02,3.021c0.063,0.971,0.19,1.931,0.359,2.886
			c0.346,1.908,0.886,3.794,1.657,5.607c1.519,3.635,4.068,6.919,7.241,9.323c1.573,1.229,3.319,2.165,5.089,2.984
			c0.897,0.374,1.793,0.762,2.714,1.037c0.913,0.326,1.837,0.56,2.764,0.787c1.854,0.453,3.72,0.724,5.582,0.921
			c0.93,0.093,1.856,0.124,2.786,0.187c0.928,0.048,1.847,0.023,2.771,0.037c0.927,0.026,1.834-0.062,2.753-0.089l0.687-0.032
			l0.344-0.016l0.086-0.004l0.043-0.002l0.226-0.022l0.163-0.021l1.301-0.166l2.605-0.335l2.936-0.726
			c0.482-0.135,0.992-0.232,1.45-0.402l1.361-0.527l1.359-0.535l0.679-0.27l0.647-0.343l2.581-1.399l2.406-1.688
			c1.534-1.208,3.009-2.51,4.291-3.976c0.688-0.697,1.262-1.478,1.854-2.247c0.616-0.754,1.127-1.572,1.651-2.384
			c1.051-1.622,1.915-3.345,2.705-5.099c0.359-0.895,0.737-1.779,1.038-2.705c0.165-0.454,0.308-0.927,0.446-1.401
			c0.071-0.234,0.141-0.474,0.203-0.729c0.063-0.251,0.127-0.482,0.197-0.821l0.001-0.006l0.828-4.208l-4.255,0.062l-61.399,0.895
			L-22.22-218.574z M-16.863-215.712l56.208,0.819l-3.428-4.146l0,0.002l-0.103,0.455c-0.037,0.171-0.085,0.353-0.139,0.538
			c-0.099,0.366-0.2,0.734-0.328,1.104c-0.222,0.745-0.521,1.475-0.794,2.211c-0.621,1.443-1.295,2.875-2.124,4.204
			c-0.412,0.666-0.808,1.345-1.294,1.953c-0.463,0.626-0.906,1.271-1.446,1.827c-0.994,1.194-2.14,2.233-3.323,3.215l-1.86,1.368
			l-2.012,1.138l-0.503,0.287l-0.538,0.22l-1.075,0.444l-1.074,0.451c-0.358,0.146-0.714,0.205-1.071,0.314l-2.137,0.615
			l-2.592,0.387l-1.297,0.193l-0.162,0.023c-0.171,0.02,0.21-0.022,0.164-0.018l-0.019,0.001l-0.04,0.003l-0.078,0.005l-0.311,0.021
			l-0.623,0.04c-0.829,0.04-1.665,0.143-2.488,0.133c-0.824,0.003-1.655,0.045-2.475,0.019c-0.816-0.041-1.641-0.049-2.452-0.113
			c-1.619-0.14-3.227-0.338-4.779-0.687c-0.776-0.174-1.552-0.349-2.292-0.602c-0.764-0.206-1.477-0.507-2.202-0.786
			c-1.409-0.624-2.787-1.316-3.991-2.227c-2.436-1.777-4.38-4.152-5.625-6.952c-0.627-1.394-1.089-2.882-1.399-4.408
			C-16.698-214.337-16.794-215.024-16.863-215.712z"/>
	</g>
	<g>
		<path fill="#B27B59" d="M-123.96-87.836c0,0,0.054-0.061,0.155-0.173c0.127-0.138,0.284-0.318,0.458-0.529
			c0.36-0.435,0.843-1.048,1.376-1.804c1.072-1.508,2.355-3.593,3.337-5.834c0.248-0.558,0.49-1.115,0.69-1.686
			c0.219-0.558,0.409-1.118,0.567-1.671c0.177-0.542,0.319-1.077,0.43-1.593c0.121-0.511,0.236-0.989,0.296-1.447
			c0.07-0.451,0.134-0.865,0.19-1.231c0.028-0.37,0.054-0.694,0.074-0.96c0.039-0.529,0.061-0.831,0.061-0.831
			c0.063-0.878-0.596-1.641-1.474-1.704c-0.76-0.056-1.434,0.432-1.643,1.133l-0.046,0.159c0,0-0.074,0.247-0.203,0.681
			c-0.063,0.215-0.14,0.475-0.228,0.773c-0.113,0.292-0.24,0.621-0.378,0.98c-0.125,0.36-0.31,0.737-0.5,1.134
			c-0.178,0.399-0.388,0.812-0.634,1.228c-0.224,0.422-0.478,0.847-0.76,1.267c-0.26,0.428-0.562,0.845-0.863,1.258
			c-1.197,1.658-2.626,3.145-3.746,4.163c-0.558,0.513-1.039,0.909-1.368,1.165c-0.171,0.135-0.289,0.221-0.353,0.262
			c-0.091,0.065-0.139,0.101-0.139,0.101c-1.571,1.137-1.923,3.333-0.786,4.904c1.137,1.57,3.333,1.922,4.904,0.785
			c0.203-0.146,0.385-0.311,0.546-0.488L-123.96-87.836z"/>
	</g>
	<g>
		<path fill="#B27B59" d="M-108.978-81.763c0,0,0.067-0.349,0.185-0.958c0.108-0.596,0.241-1.431,0.375-2.434
			c0.262-2.005,0.51-4.679,0.518-7.385c-0.012-0.679,0-1.352-0.036-2.021c-0.04-0.671-0.047-1.324-0.12-1.966
			c-0.066-0.64-0.1-1.253-0.198-1.842c-0.092-0.588-0.15-1.139-0.258-1.651c-0.2-1.024-0.388-1.872-0.574-2.465
			c-0.167-0.592-0.262-0.929-0.262-0.929c-0.344-1.222-1.614-1.934-2.836-1.589c-1.131,0.318-1.825,1.43-1.648,2.562l0.032,0.204
			c0,0,0.043,0.284,0.121,0.78c0.096,0.486,0.165,1.209,0.232,2.076c0.042,0.431,0.032,0.915,0.053,1.415
			c0.028,0.499-0.01,1.042-0.016,1.594c0.001,0.55-0.064,1.132-0.096,1.714c-0.036,0.583-0.12,1.182-0.176,1.774
			c-0.286,2.38-0.789,4.753-1.229,6.501c-0.222,0.873-0.425,1.594-0.575,2.082c-0.15,0.473-0.235,0.741-0.235,0.741l-0.023,0.073
			c-0.584,1.842,0.434,3.809,2.275,4.394c1.841,0.585,3.808-0.435,4.393-2.275C-109.039-81.491-109.003-81.637-108.978-81.763z"/>
	</g>
	<g>
		<path fill="#B27B59" d="M-121.044-98.665c0,0-0.164-0.292-0.452-0.803c-0.289-0.525-0.692-1.298-1.149-2.241
			c-0.458-0.943-0.966-2.061-1.47-3.275c-0.505-1.215-0.997-2.527-1.436-3.857c-0.204-0.666-0.441-1.33-0.611-1.994
			c-0.18-0.661-0.373-1.312-0.505-1.949c-0.145-0.637-0.298-1.252-0.388-1.839c-0.094-0.586-0.226-1.143-0.27-1.656
			c-0.062-0.515-0.118-0.986-0.167-1.404c-0.037-0.419-0.045-0.782-0.064-1.083c-0.033-0.602-0.051-0.945-0.051-0.945l-0.006-0.119
			c-0.046-0.85-0.773-1.502-1.624-1.456c-0.801,0.043-1.426,0.696-1.458,1.481c0,0-0.015,0.383-0.04,1.053
			c-0.009,0.336-0.035,0.745-0.036,1.212c0.013,0.466,0.028,0.99,0.044,1.563c0.001,0.577,0.086,1.186,0.132,1.84
			c0.042,0.656,0.146,1.334,0.242,2.04c0.083,0.71,0.226,1.427,0.358,2.161c0.121,0.738,0.308,1.468,0.464,2.209
			c0.344,1.471,0.745,2.926,1.168,4.275c0.422,1.349,0.857,2.595,1.26,3.655c0.401,1.062,0.763,1.938,1.033,2.555
			c0.282,0.627,0.444,0.984,0.444,0.984c0.588,1.306,2.123,1.887,3.428,1.298c1.305-0.588,1.886-2.122,1.298-3.428
			c-0.032-0.069-0.066-0.137-0.103-0.203L-121.044-98.665z"/>
	</g>
	<g>
		<path fill="#B27B59" d="M-137.719-96.199c0,0-0.043-0.071-0.124-0.206c-0.075-0.13-0.185-0.322-0.325-0.565
			c-0.285-0.514-0.686-1.27-1.121-2.207c-0.224-0.465-0.449-0.978-0.68-1.525c-0.244-0.542-0.451-1.133-0.694-1.735
			c-0.439-1.22-0.884-2.534-1.225-3.875c-0.18-0.669-0.347-1.341-0.471-2.01c-0.152-0.665-0.262-1.325-0.349-1.966
			c-0.111-0.641-0.176-1.263-0.22-1.854c-0.057-0.591-0.11-1.151-0.106-1.668c-0.012-0.518-0.022-0.992-0.032-1.412
			c0.021-0.42,0.039-0.785,0.053-1.086c0.029-0.604,0.046-0.949,0.046-0.949l0.005-0.107c0.035-0.727-0.526-1.344-1.253-1.378
			c-0.685-0.033-1.274,0.47-1.368,1.136c0,0-0.051,0.375-0.142,1.032c-0.045,0.329-0.099,0.729-0.162,1.188
			c-0.03,0.461-0.064,0.981-0.102,1.548c-0.05,0.569-0.049,1.184-0.043,1.835c-0.007,0.653,0.006,1.34,0.064,2.047
			c0.035,0.71,0.093,1.442,0.193,2.18c0.074,0.743,0.191,1.489,0.323,2.234c0.246,1.494,0.602,2.964,0.966,4.335
			c0.206,0.678,0.378,1.344,0.591,1.959c0.199,0.619,0.399,1.203,0.599,1.736c0.389,1.072,0.761,1.953,1.038,2.574
			c0.148,0.32,0.265,0.571,0.345,0.742c0.08,0.164,0.123,0.252,0.123,0.252c0.565,1.156,1.96,1.635,3.116,1.069
			c1.156-0.565,1.635-1.96,1.07-3.116c-0.029-0.06-0.061-0.117-0.094-0.173L-137.719-96.199z"/>
	</g>
	<g>
		<path fill="#B27B59" d="M-130.621-100.043c0,0-0.049-0.064-0.14-0.186c-0.11-0.135-0.174-0.256-0.298-0.438
			c-0.117-0.179-0.267-0.376-0.432-0.703c-0.168-0.306-0.358-0.65-0.565-1.026c-0.175-0.404-0.364-0.842-0.564-1.306
			c-0.099-0.233-0.212-0.468-0.307-0.718c-0.081-0.256-0.164-0.518-0.249-0.785c-0.172-0.534-0.349-1.087-0.529-1.648
			c-0.135-0.577-0.243-1.174-0.369-1.766c-0.108-0.597-0.279-1.185-0.337-1.783c-0.055-0.6-0.108-1.19-0.16-1.762
			c-0.054-0.574-0.106-1.129-0.155-1.656c-0.018-0.528,0.015-1.031,0.019-1.495c0.037-1.863,0.062-3.105,0.062-3.105l0.003-0.168
			c0.016-0.823-0.638-1.504-1.461-1.521c-0.78-0.016-1.433,0.577-1.513,1.339c0,0-0.136,1.331-0.339,3.327
			c-0.044,0.501-0.12,1.043-0.147,1.619c0.006,0.58,0.012,1.192,0.019,1.824c0.008,0.636,0.016,1.292,0.024,1.959
			c0.014,0.668,0.143,1.343,0.211,2.021c0.087,0.679,0.159,1.36,0.262,2.028c0.153,0.662,0.304,1.314,0.45,1.945
			c0.075,0.316,0.147,0.628,0.22,0.933c0.087,0.302,0.196,0.592,0.289,0.878c0.196,0.571,0.381,1.112,0.552,1.61
			c0.219,0.491,0.42,0.941,0.598,1.341c0.161,0.389,0.381,0.77,0.553,1.075c0.169,0.298,0.318,0.567,0.392,0.672
			c0.081,0.128,0.125,0.195,0.125,0.195c0.692,1.085,2.132,1.402,3.217,0.711c1.084-0.692,1.402-2.133,0.71-3.217
			c-0.033-0.052-0.068-0.102-0.104-0.15L-130.621-100.043z"/>
	</g>
	<g>
		<path fill="#B27B59" d="M-132.086-74.406c0,0-0.035-0.021-0.104-0.065c-0.045-0.026-0.13-0.079-0.268-0.173
			c-0.261-0.174-0.661-0.453-1.166-0.834c-1.014-0.754-2.446-1.926-4.028-3.494c-0.796-0.779-1.627-1.658-2.464-2.627
			c-0.847-0.961-1.673-2.029-2.501-3.156c-0.805-1.141-1.609-2.346-2.315-3.633c-0.739-1.271-1.369-2.621-1.974-3.988
			c-0.562-1.381-1.083-2.785-1.478-4.204c-0.195-0.71-0.404-1.414-0.54-2.124c-0.16-0.707-0.31-1.408-0.403-2.106
			c-0.118-0.696-0.221-1.383-0.273-2.062c-0.067-0.678-0.144-1.342-0.152-1.992c-0.082-1.301-0.04-2.534-0.012-3.678
			c0.1-1.137,0.146-2.189,0.295-3.111s0.222-1.737,0.38-2.393c0.273-1.32,0.43-2.075,0.43-2.075l0.018-0.089
			c0.167-0.805-0.35-1.592-1.155-1.758c-0.763-0.158-1.512,0.305-1.729,1.038c0,0-0.231,0.79-0.635,2.173
			c-0.222,0.688-0.375,1.553-0.613,2.533c-0.237,0.98-0.384,2.114-0.588,3.345c-0.136,1.239-0.303,2.587-0.34,4.025
			c-0.052,0.719-0.036,1.458-0.026,2.216c-0.008,0.759,0.038,1.531,0.1,2.318c0.039,0.789,0.133,1.586,0.243,2.393
			c0.084,0.812,0.244,1.62,0.395,2.439c0.305,1.637,0.749,3.272,1.249,4.894c0.543,1.604,1.128,3.201,1.834,4.714
			c0.678,1.528,1.459,2.975,2.238,4.364c0.807,1.37,1.626,2.678,2.476,3.864c0.84,1.195,1.685,2.29,2.503,3.271
			c1.634,1.967,3.135,3.498,4.24,4.552c0.553,0.526,1.009,0.931,1.339,1.212c0.354,0.293,0.543,0.449,0.543,0.449
			c1.639,1.353,4.065,1.12,5.417-0.519c1.353-1.64,1.121-4.065-0.518-5.418c-0.12-0.099-0.245-0.189-0.372-0.271L-132.086-74.406z"
			/>
	</g>
	<g>
		<path fill="#B27B59" d="M65.176-72.068c0,0,0.183-0.097,0.526-0.279c0.401-0.215,0.902-0.513,1.509-0.887
			c0.61-0.386,1.325-0.868,2.125-1.447c0.79-0.586,1.681-1.248,2.59-2.037c0.949-0.746,1.864-1.675,2.862-2.623
			c0.489-0.484,0.954-1.019,1.448-1.545c0.489-0.531,1-1.064,1.456-1.662c0.469-0.585,0.946-1.18,1.429-1.781
			c0.484-0.602,0.896-1.27,1.352-1.91c0.926-1.276,1.687-2.687,2.465-4.082c0.192-0.35,0.396-0.693,0.577-1.048l0.496-1.087
			c0.328-0.724,0.654-1.443,0.978-2.158c0.62-1.439,1.059-2.923,1.567-4.32c0.462-1.414,0.733-2.83,1.056-4.148
			c0.077-0.33,0.152-0.656,0.227-0.979c0.06-0.323,0.085-0.648,0.128-0.964c0.076-0.633,0.15-1.243,0.221-1.83
			c0.1-1.177,0.3-2.24,0.245-3.2c0.002-0.955-0.02-1.786-0.039-2.469c-0.026-1.363-0.08-2.136-0.08-2.136
			c-0.081-1.175-1.099-2.062-2.273-1.981c-0.96,0.066-1.728,0.758-1.933,1.65l-0.049,0.216c0,0-0.163,0.712-0.381,1.947
			c-0.116,0.617-0.254,1.364-0.385,2.219c-0.099,0.86-0.398,1.796-0.63,2.827c-0.263,1.022-0.421,2.16-0.827,3.295
			c-0.179,0.572-0.362,1.161-0.55,1.763c-0.199,0.597-0.315,1.235-0.59,1.829c-0.51,1.199-0.941,2.479-1.54,3.703
			c-0.31,0.607-0.623,1.219-0.936,1.832l-0.468,0.923c-0.171,0.299-0.364,0.587-0.544,0.882l-1.093,1.755
			c-0.344,0.596-0.806,1.11-1.188,1.671c-0.407,0.542-0.767,1.112-1.199,1.619c-0.428,0.508-0.851,1.011-1.267,1.505
			c-0.4,0.508-0.854,0.954-1.286,1.401c-0.436,0.441-0.843,0.895-1.272,1.3c-0.882,0.788-1.679,1.573-2.485,2.212
			c-0.778,0.678-1.534,1.233-2.201,1.729c-0.669,0.485-1.271,0.884-1.757,1.199c-0.497,0.317-0.871,0.551-1.084,0.669
			c-0.205,0.127-0.431,0.238-0.414,0.232c-1.711,0.887-2.379,2.993-1.492,4.704S63.465-71.181,65.176-72.068z"/>
	</g>
	<g>
		<path fill="#B27B59" d="M38.03-80.201c0,0,0.027-0.098,0.079-0.283c0.05-0.193,0.125-0.477,0.22-0.838
			c0.176-0.698,0.402-1.682,0.638-2.865c0.232-1.184,0.477-2.564,0.674-4.055c0.207-1.487,0.36-3.085,0.459-4.688
			c0.026-0.806,0.089-1.602,0.081-2.398c-0.005-0.795,0.021-1.57-0.029-2.33c-0.041-0.76-0.05-1.486-0.136-2.184
			c-0.08-0.695-0.112-1.347-0.222-1.953c-0.099-0.603-0.19-1.154-0.271-1.645c-0.091-0.488-0.21-0.912-0.288-1.261
			c-0.168-0.694-0.264-1.092-0.264-1.092c-0.234-0.972-1.211-1.569-2.183-1.335c-0.888,0.215-1.463,1.049-1.376,1.933l0.016,0.162
			c0,0,0.034,0.355,0.094,0.977c0.025,0.312,0.079,0.683,0.099,1.117c0.011,0.437,0.023,0.929,0.037,1.466
			c0.025,0.532-0.031,1.125-0.043,1.738c-0.006,0.614-0.091,1.271-0.146,1.944c-0.045,0.671-0.169,1.37-0.261,2.075
			c-0.088,0.705-0.249,1.422-0.37,2.135c-0.288,1.428-0.624,2.846-0.996,4.162c-0.364,1.317-0.757,2.533-1.111,3.562
			c-0.356,1.029-0.678,1.875-0.912,2.447c-0.114,0.274-0.203,0.489-0.264,0.636c-0.066,0.153-0.102,0.235-0.102,0.235l-0.008,0.018
			c-0.765,1.774,0.053,3.833,1.828,4.599c1.774,0.765,3.833-0.054,4.598-1.828C37.932-79.892,37.988-80.056,38.03-80.201z"/>
	</g>
	<g>
		<path fill="#B27B59" d="M41.58-106.873l3.452,10.712l1.056,3.276l3.672-1.657h0.001c0.289-0.157,0.407-0.234,0.582-0.344
			l0.465-0.305c0.296-0.203,0.582-0.408,0.858-0.617c0.555-0.417,1.076-0.851,1.581-1.298c1.007-0.896,1.94-1.844,2.805-2.842
			c1.732-1.995,3.183-4.184,4.397-6.467c1.196-2.295,2.158-4.686,2.862-7.128c0.368-1.217,0.65-2.451,0.903-3.686
			c0.248-1.236,0.431-2.478,0.586-3.719c0.165-1.327-0.776-2.537-2.103-2.702c-1.263-0.158-2.419,0.687-2.671,1.912l-0.012,0.062
			c-0.225,1.104-0.471,2.199-0.772,3.274c-0.307,1.073-0.634,2.137-1.035,3.168c-0.769,2.074-1.748,4.044-2.89,5.885
			c-1.159,1.828-2.486,3.53-3.991,5.018c-0.75,0.743-1.543,1.433-2.362,2.057c-0.41,0.31-0.826,0.606-1.244,0.871
			c-0.208,0.134-0.416,0.26-0.62,0.377l-0.294,0.161c-0.08,0.044-0.221,0.112-0.195,0.094h0l4.728,1.619l-6.107-9.452
			c-0.61-0.945-1.872-1.217-2.817-0.605C41.622-108.698,41.304-107.729,41.58-106.873z"/>
	</g>
	<g>
		<path fill="#B27B59" d="M64.004-95.48c0,0,0.061-0.086,0.175-0.248c0.113-0.169,0.28-0.417,0.492-0.732
			c0.396-0.617,0.941-1.492,1.525-2.572c1.191-2.146,2.549-5.12,3.531-8.234c0.262-0.772,0.478-1.561,0.678-2.339
			c0.223-0.771,0.372-1.552,0.53-2.301c0.174-0.746,0.27-1.483,0.374-2.179c0.117-0.693,0.193-1.354,0.232-1.969
			c0.048-0.612,0.109-1.172,0.131-1.671c0.008-0.5,0.016-0.936,0.022-1.294c0.011-0.717,0.017-1.127,0.017-1.127
			c0.015-0.998-0.782-1.82-1.78-1.835c-0.97-0.015-1.773,0.738-1.832,1.697l-0.008,0.138c0,0-0.022,0.368-0.06,1.012
			c-0.018,0.322-0.04,0.713-0.066,1.16c-0.039,0.447-0.117,0.95-0.182,1.498c-0.057,0.551-0.149,1.143-0.283,1.764
			c-0.121,0.623-0.231,1.282-0.419,1.951c-0.172,0.672-0.332,1.369-0.565,2.062c-0.211,0.697-0.434,1.402-0.703,2.095
			c-1.007,2.787-2.359,5.448-3.513,7.336c-0.566,0.952-1.084,1.709-1.446,2.224c-0.177,0.243-0.316,0.434-0.412,0.563
			c-0.101,0.133-0.155,0.203-0.155,0.203l-0.031,0.039c-0.783,1.02-0.591,2.48,0.428,3.264c1.02,0.783,2.48,0.592,3.264-0.428
			C63.965-95.427,63.987-95.457,64.004-95.48z"/>
	</g>
	<g>
		<path fill="#B27B59" d="M72.657-91.783c0,0,0.053-0.094,0.151-0.271c0.099-0.183,0.243-0.45,0.426-0.791
			c0.354-0.669,0.837-1.622,1.378-2.781c0.546-1.156,1.141-2.522,1.736-4.001c0.592-1.48,1.176-3.079,1.693-4.701
			c0.248-0.816,0.519-1.621,0.725-2.437c0.22-0.811,0.441-1.604,0.605-2.391c0.178-0.78,0.354-1.532,0.468-2.261
			c0.12-0.727,0.269-1.402,0.331-2.046c0.078-0.639,0.149-1.224,0.212-1.742c0.034-0.522,0.064-0.979,0.089-1.354
			c0.045-0.75,0.07-1.178,0.07-1.178c0.044-0.737-0.518-1.37-1.254-1.414c-0.701-0.041-1.308,0.465-1.403,1.148l-0.013,0.098
			c0,0-0.054,0.396-0.147,1.086c-0.049,0.345-0.107,0.763-0.174,1.242c-0.095,0.477-0.202,1.016-0.319,1.603
			c-0.099,0.588-0.29,1.216-0.451,1.882c-0.156,0.668-0.375,1.362-0.596,2.08c-0.206,0.721-0.472,1.454-0.734,2.199
			c-0.249,0.748-0.564,1.491-0.853,2.24c-0.602,1.491-1.266,2.958-1.929,4.313c-0.667,1.354-1.324,2.601-1.918,3.647
			c-0.59,1.05-1.107,1.906-1.475,2.491c-0.369,0.571-0.579,0.897-0.579,0.897l-0.028,0.043c-0.697,1.081-0.386,2.522,0.695,3.219
			c1.081,0.697,2.521,0.387,3.218-0.694C72.606-91.695,72.634-91.742,72.657-91.783z"/>
	</g>
	<g>
		<path fill="#69573A" d="M-67.611-11.127c0,0,0.763-0.205,2.085-0.598c1.315-0.41,3.209-0.958,5.457-1.683
			c2.25-0.718,4.861-1.593,7.649-2.555c1.391-0.489,2.829-0.994,4.29-1.508c1.456-0.543,2.936-1.095,4.416-1.646
			c1.476-0.545,2.933-1.138,4.377-1.695c1.445-0.556,2.855-1.13,4.221-1.688c2.734-1.104,5.268-2.185,7.429-3.136
			c4.329-1.888,7.154-3.304,7.154-3.304c0.662-0.332,0.93-1.138,0.598-1.8c-0.292-0.582-0.95-0.858-1.554-0.692
			c0,0-3.047,0.838-7.528,2.329c-2.243,0.739-4.849,1.63-7.62,2.639c-1.388,0.498-2.822,1.015-4.268,1.567
			c-1.447,0.552-2.926,1.086-4.387,1.668c-2.922,1.146-5.845,2.291-8.584,3.364c-2.737,1.1-5.283,2.149-7.453,3.08
			c-2.173,0.925-3.962,1.751-5.225,2.304c-1.256,0.569-1.967,0.914-1.967,0.914c-0.65,0.314-0.921,1.098-0.607,1.747
			C-68.85-11.245-68.206-10.967-67.611-11.127z"/>
	</g>
	<g>
		<path fill="#69573A" d="M-71.899-24.301c0,0,0.798,0.29,2.207,0.745c1.413,0.446,3.418,1.126,5.85,1.851
			c2.428,0.738,5.27,1.567,8.326,2.412c3.055,0.849,6.322,1.726,9.601,2.555c6.549,1.695,13.136,3.255,18.097,4.347
			c2.481,0.544,4.558,0.962,6.007,1.271c1.457,0.285,2.289,0.447,2.289,0.447c0.652,0.128,1.285-0.298,1.412-0.95
			c0.116-0.595-0.227-1.171-0.781-1.366c0,0-0.8-0.281-2.199-0.775c-1.406-0.468-3.408-1.162-5.822-1.951
			c-4.829-1.574-11.296-3.57-17.801-5.43c-3.248-0.948-6.508-1.848-9.572-2.665c-3.063-0.821-5.932-1.546-8.399-2.142
			c-2.464-0.607-4.537-1.038-5.981-1.369c-1.446-0.322-2.28-0.477-2.28-0.477c-0.988-0.183-1.937,0.47-2.12,1.457
			C-73.23-25.454-72.72-24.599-71.899-24.301z"/>
	</g>
	<path fill="none" stroke="#69573A" stroke-width="7.7554" stroke-linecap="round" stroke-miterlimit="10" d="M-50.616,24.618
		c0,0-13.445,4.138-26.883-6.204c-10.342-7.953-38.141-51.489-54.693-87.685"/>
	<path fill="none" stroke="#69573A" stroke-width="7.7554" stroke-linecap="round" stroke-miterlimit="10" d="M-3.048,28.756
		c0,0,21.715-3.103,32.058-23.784c10.336-20.682,33.087-77.55,33.087-77.55s0,0.003,0,0"/>
	<path fill="none" stroke="#69573A" stroke-width="7.7554" stroke-linecap="round" stroke-miterlimit="10" d="M3.156-19.845
		c0,0,31.282-58.938,31.282-61.008c0-2.068,5.943,6.204,27.144,6.204"/>
	<path fill="none" stroke="#69573A" stroke-width="7.7554" stroke-linecap="round" stroke-miterlimit="10" d="M-132.302-71.546
		c0,0,8.276,1.032,21.714-8.272c9.307,12.408,27.92,33.09,27.92,33.09"/>
	<g>
		<path fill="#69573A" d="M-65.812,5.09c-2.695-2.055-5.419-4.21-8-6.386c-2.574-2.195-5.039-4.473-7.175-6.858
			c-1.052-1.201-2.013-2.434-2.81-3.656c-0.79-1.225-1.365-2.475-1.635-3.573c-0.032-0.269-0.122-0.53-0.137-0.796
			c-0.044-0.424-0.111-0.927-0.105-1.183c-0.017-0.3-0.032-0.62-0.021-0.997c-0.006-0.358,0.015-0.721,0.04-1.085
			c0.093-1.456,0.355-2.944,0.758-4.448c0.796-3.013,2.091-6.042,3.549-9.164c0.726-1.564,1.494-3.157,2.243-4.86
			c0.737-1.716,1.501-3.501,1.979-5.801c0.109-0.593,0.195-1.215,0.228-1.896c0.015-0.341,0.001-0.715-0.009-1.07l-0.056-0.73
			l-0.213-2.625l-0.217-2.629l-0.278-2.679c-0.351-3.591-0.808-7.089-1.277-10.614c-1.931-14.065-4.571-27.948-7.399-41.755
			c-2.833-13.807-5.895-27.531-8.854-41.242l-1.861,4.468c0.774-0.475,1.946-1.014,3.141-1.469c1.207-0.465,2.476-0.896,3.773-1.293
			c2.595-0.794,5.278-1.479,7.989-2.09c5.425-1.218,10.961-2.156,16.521-2.917c11.13-1.492,22.397-2.193,33.633-2.092
			c11.235,0.109,22.458,1.014,33.464,2.963c10.998,1.949,21.794,4.936,31.954,9.303l-2.133-5.773l-1.505,3.227
			c-0.495,1.078-0.934,2.17-1.403,3.254c-0.478,1.082-0.881,2.183-1.31,3.276c-0.432,1.094-0.846,2.191-1.228,3.296
			c-0.808,2.199-1.527,4.417-2.256,6.633c-0.684,2.224-1.385,4.445-2.004,6.681c-0.655,2.229-1.231,4.473-1.83,6.712
			c-0.561,2.245-1.136,4.488-1.651,6.74c-1.06,4.499-2.025,9.013-2.909,13.538C13.4-85.456,11.923-76.37,10.64-67.264
			c-0.636,4.555-1.201,9.117-1.718,13.686L8.19-46.717c-0.227,2.299-0.442,4.566-0.629,6.912c-0.17,2.135,1.422,4.003,3.557,4.173
			c2.12,0.169,3.977-1.4,4.169-3.513l0.003-0.031c0.2-2.204,0.44-4.479,0.687-6.722l0.794-6.751
			c0.555-4.499,1.173-8.992,1.832-13.477c1.319-8.969,2.83-17.908,4.634-26.769c0.893-4.433,1.866-8.845,2.926-13.227
			c0.516-2.196,1.089-4.372,1.647-6.554c0.595-2.168,1.167-4.345,1.813-6.492c0.613-2.161,1.301-4.29,1.971-6.426
			c0.712-2.117,1.413-4.238,2.193-6.32c0.371-1.051,0.769-2.087,1.183-3.114c0.412-1.028,0.796-2.071,1.242-3.078
			c0.439-1.011,0.851-2.038,1.31-3.034l1.392-2.979l1.888-4.042l-4.021-1.732c-10.883-4.687-22.302-7.84-33.833-9.894
			c-11.542-2.053-23.217-2.997-34.87-3.12c-11.657-0.113-23.299,0.602-34.861,2.142c-5.782,0.774-11.542,1.77-17.278,3.095
			c-2.87,0.663-5.733,1.406-8.606,2.302c-1.438,0.448-2.878,0.941-4.339,1.514c-1.469,0.585-2.928,1.203-4.593,2.23l-2.507,1.547
			l0.646,2.921c3.038,13.735,6.163,27.417,9.046,41.117c2.879,13.698,5.557,27.42,7.517,41.182
			c0.475,3.434,0.943,6.899,1.293,10.298L-85.322-52l0.23,2.62l0.226,2.624l0.049,0.582c-0.008,0.083,0.005,0.148,0.001,0.246
			c-0.009,0.197-0.04,0.445-0.085,0.718c-0.223,1.147-0.785,2.64-1.438,4.143c-0.656,1.516-1.405,3.091-2.149,4.715
			c-1.49,3.246-2.981,6.7-3.966,10.49c-0.495,1.892-0.846,3.877-0.969,5.927c-0.031,0.514-0.056,1.026-0.047,1.547
			c-0.01,0.502,0.011,1.059,0.051,1.635c0.029,0.623,0.088,0.99,0.136,1.439c0.056,0.61,0.207,1.199,0.323,1.796
			c0.606,2.31,1.663,4.226,2.805,5.925c1.146,1.703,2.448,3.174,3.809,4.521c2.709,2.705,5.668,4.932,8.73,6.922
			c3.072,1.993,6.227,3.702,9.623,5.143c1.144,0.485,2.463-0.049,2.948-1.191c0.41-0.967,0.092-2.059-0.705-2.666L-65.812,5.09z"/>
	</g>
	<g>
		<path fill="#0071B5" d="M-87.321,111.48c0-9.139-3.938-16.546-8.791-16.546c-4.854,0-8.792,7.407-8.792,16.546
			c0,9.137,3.938,16.544,8.792,16.544C-91.26,128.024-87.321,120.617-87.321,111.48z"/>
		<path fill="#0071B5" d="M-7.187,111.48c0-9.139-3.932-16.546-8.784-16.546c-4.86,0-8.792,7.407-8.792,16.546
			c0,9.137,3.932,16.544,8.792,16.544C-11.119,128.024-7.187,120.617-7.187,111.48z"/>
		<g>
			<path fill="#6C482F" d="M-116.459,112.077c0,0,0.009,0.053,0.026,0.155c0.026,0.123,0.065,0.304,0.115,0.541
				c0.11,0.46,0.247,1.09,0.504,1.877c0.254,0.786,0.573,1.736,1.056,2.783c0.219,0.533,0.504,1.078,0.804,1.656
				c0.279,0.589,0.653,1.167,1.036,1.777c0.363,0.622,0.825,1.223,1.294,1.853c0.443,0.649,1.024,1.235,1.592,1.859
				c1.162,1.224,2.54,2.418,4.134,3.429c0.381,0.279,0.801,0.502,1.231,0.719c0.428,0.219,0.859,0.44,1.292,0.663
				c0.427,0.241,0.89,0.397,1.353,0.565c0.464,0.164,0.931,0.33,1.398,0.496c1.898,0.545,3.882,0.916,5.844,0.982l0.738,0.049
				l0.369,0.022l0.092,0.006l0.046,0.003l0.223-0.006l0.161-0.01l1.28-0.076l1.275-0.075c0.425-0.025,0.989-0.138,1.473-0.206
				c1-0.17,2.025-0.292,2.911-0.601c0.912-0.28,1.823-0.503,2.673-0.904c0.859-0.364,1.71-0.696,2.484-1.168
				c0.388-0.226,0.773-0.449,1.153-0.669c0.377-0.224,0.716-0.501,1.067-0.745c0.344-0.252,0.685-0.501,1.019-0.745
				c0.311-0.275,0.616-0.545,0.917-0.811c0.61-0.521,1.129-1.094,1.621-1.645c1.976-2.203,3.112-4.378,3.772-5.936
				c0.331-0.782,0.536-1.431,0.672-1.879c0.137-0.505,0.209-0.774,0.209-0.774c0.332-1.226-0.392-2.487-1.617-2.819
				c-1.001-0.271-2.026,0.162-2.549,0.999l-0.281,0.451c0,0-0.013,0.021-0.039,0.063c-0.039,0.072-0.097,0.18-0.172,0.319
				c-0.163,0.298-0.432,0.729-0.781,1.283c-0.367,0.546-0.833,1.194-1.41,1.898c-0.593,0.69-1.278,1.449-2.104,2.173
				c-0.411,0.365-0.838,0.741-1.329,1.067c-0.233,0.176-0.47,0.354-0.711,0.536c-0.259,0.155-0.521,0.312-0.788,0.472
				c-0.269,0.153-0.521,0.339-0.81,0.474c-0.288,0.135-0.579,0.27-0.873,0.407c-0.562,0.319-1.206,0.515-1.837,0.751
				c-0.617,0.27-1.314,0.383-1.991,0.561c-0.691,0.208-1.337,0.262-2.001,0.373c-0.351,0.043-0.617,0.129-1.041,0.148l-1.276,0.055
				l-1.282,0.055l-0.936-0.053c-1.468-0.019-2.878-0.277-4.224-0.631c-0.646-0.244-1.345-0.354-1.953-0.657
				c-0.309-0.142-0.617-0.282-0.921-0.421c-0.31-0.132-0.616-0.269-0.888-0.461c-1.143-0.672-2.224-1.407-3.148-2.261
				c-0.455-0.434-0.926-0.828-1.319-1.289c-0.408-0.443-0.819-0.86-1.152-1.322c-0.352-0.444-0.693-0.87-0.983-1.308
				c-0.301-0.429-0.594-0.834-0.827-1.242c-0.499-0.799-0.903-1.523-1.21-2.127c-0.306-0.603-0.542-1.092-0.679-1.396
				c-0.065-0.148-0.116-0.262-0.15-0.339c-0.037-0.098-0.057-0.147-0.057-0.147l-0.008-0.021c-0.458-1.207-1.809-1.812-3.015-1.354
				C-116.046,109.906-116.642,111-116.459,112.077z"/>
		</g>
		<g>
			<path fill="#6C482F" d="M-36.318,112.077c0,0,0.01,0.053,0.031,0.154c0.029,0.121,0.073,0.301,0.129,0.535
				c0.123,0.456,0.278,1.079,0.557,1.855c0.273,0.775,0.627,1.706,1.119,2.741c0.227,0.526,0.519,1.063,0.825,1.632
				c0.287,0.58,0.666,1.148,1.055,1.747c0.369,0.611,0.836,1.199,1.31,1.816c0.449,0.635,1.029,1.208,1.597,1.818
				c1.16,1.2,2.536,2.356,4.11,3.345c0.376,0.273,0.792,0.489,1.217,0.699c0.422,0.214,0.848,0.429,1.276,0.646
				c0.421,0.235,0.878,0.385,1.334,0.548c0.458,0.159,0.917,0.32,1.378,0.481c1.869,0.531,3.822,0.893,5.757,0.953l0.728,0.047
				l0.364,0.022l0.091,0.005l0.045,0.003l0.202-0.006l0.161-0.009l1.281-0.072l1.275-0.072c0.427-0.025,0.973-0.135,1.45-0.201
				c0.981-0.164,1.985-0.284,2.863-0.582c0.901-0.271,1.801-0.483,2.641-0.873c0.849-0.354,1.691-0.674,2.456-1.135
				c0.386-0.218,0.768-0.434,1.145-0.646c0.375-0.216,0.712-0.485,1.061-0.723c0.343-0.244,0.682-0.486,1.016-0.724
				c0.31-0.268,0.615-0.53,0.915-0.79c0.611-0.506,1.133-1.062,1.628-1.6c1.996-2.146,3.146-4.293,3.862-5.813
				c0.353-0.768,0.577-1.406,0.726-1.849c0.072-0.233,0.127-0.412,0.165-0.533c0.043-0.154,0.066-0.233,0.066-0.233
				c0.347-1.231-0.37-2.512-1.602-2.858c-1.095-0.31-2.229,0.224-2.711,1.212l-0.135,0.277c0,0-0.066,0.136-0.191,0.392
				c-0.15,0.303-0.4,0.743-0.728,1.312c-0.344,0.562-0.784,1.232-1.353,1.951c-0.58,0.709-1.253,1.49-2.073,2.242
				c-0.408,0.379-0.832,0.77-1.321,1.111c-0.234,0.183-0.472,0.368-0.714,0.557c-0.26,0.162-0.524,0.326-0.792,0.492
				c-0.271,0.16-0.525,0.354-0.816,0.496c-0.291,0.142-0.584,0.285-0.881,0.43c-0.571,0.331-1.222,0.537-1.864,0.784
				c-0.627,0.28-1.334,0.404-2.022,0.592c-0.7,0.219-1.368,0.275-2.05,0.392c-0.358,0.046-0.642,0.133-1.063,0.154l-1.276,0.059
				l-1.281,0.059l-0.161,0.007l-0.02,0.001c0.066-0.002-0.175,0.005,0.143-0.004l-0.035-0.002l-0.069-0.005l-0.278-0.018
				l-0.555-0.034c-1.495-0.024-2.936-0.291-4.311-0.658c-0.661-0.251-1.371-0.376-1.991-0.689c-0.314-0.147-0.627-0.294-0.938-0.439
				c-0.314-0.139-0.625-0.281-0.902-0.479c-1.163-0.695-2.246-1.468-3.171-2.347c-0.456-0.447-0.927-0.854-1.313-1.329
				c-0.403-0.456-0.809-0.886-1.136-1.358c-0.346-0.456-0.681-0.893-0.962-1.339c-0.294-0.438-0.58-0.851-0.806-1.267
				c-0.489-0.811-0.859-1.555-1.146-2.168c-0.284-0.614-0.502-1.11-0.626-1.419c-0.06-0.15-0.105-0.266-0.136-0.343
				c-0.034-0.099-0.051-0.149-0.051-0.149l-0.007-0.021c-0.418-1.218-1.745-1.866-2.962-1.447
				C-35.911,109.794-36.548,110.947-36.318,112.077z"/>
		</g>
		<g>
			<path fill="#6C482F" d="M-64.252,116.92c0.214-0.985,0.416-2.027,0.588-3.023c0.189-1.007,0.335-2.017,0.491-3.027
				c0.167-1.009,0.274-2.024,0.405-3.039c0.139-1.013,0.235-2.031,0.322-3.051c0.084-1.02,0.209-2.037,0.244-3.062l0.158-3.074
				c0.027-1.027,0.015-2.058,0.023-3.088l0.005-1.545l-0.057-1.541c-0.059-1.036-0.136-2.118-0.253-3.144
				c-0.114-1.038-0.246-2.075-0.428-3.106c-0.346-2.064-0.811-4.117-1.418-6.142l-0.484-1.513l-0.547-1.499
				c-0.392-0.993-0.816-1.978-1.292-2.948c-0.481-0.967-1.012-1.919-1.598-2.85c-0.295-0.464-0.624-0.914-0.936-1.371
				c-0.334-0.445-0.692-0.881-1.04-1.32l0.183,2.846h0c0.287-0.479,0.783-1.005,1.388-1.453c0.599-0.457,1.302-0.849,2.047-1.168
				c1.495-0.641,3.165-0.991,4.844-1.023c1.681-0.029,3.383,0.243,4.991,0.841c1.614,0.586,3.129,1.485,4.504,2.603l0.022,0.018
				c0.632,0.514,1.562,0.417,2.075-0.216c0.491-0.604,0.42-1.483-0.14-2.009c-0.755-0.704-1.559-1.366-2.419-1.964
				c-0.439-0.286-0.876-0.578-1.34-0.83c-0.454-0.269-0.933-0.497-1.413-0.721c-1.929-0.886-4.046-1.399-6.196-1.521
				c-2.151-0.118-4.334,0.157-6.427,0.87c-1.046,0.359-2.073,0.824-3.053,1.455c-0.979,0.627-1.928,1.407-2.735,2.509l0,0.001
				l-1.011,1.445l1.194,1.4l0.871,1.021c0.269,0.367,0.553,0.719,0.813,1.096c0.519,0.757,1.003,1.549,1.453,2.369
				c0.445,0.824,0.852,1.676,1.236,2.545l0.543,1.321l0.491,1.349c0.623,1.815,1.126,3.686,1.521,5.583
				c0.207,0.947,0.366,1.906,0.51,2.866c0.148,0.974,0.251,1.9,0.347,2.874l0.113,1.479l0.052,1.478
				c0.029,0.986,0.081,1.972,0.093,2.96l-0.037,2.971c0.007,0.991-0.077,1.981-0.12,2.973c-0.046,0.992-0.1,1.984-0.197,2.974
				c-0.089,0.99-0.154,1.983-0.279,2.97c-0.113,0.987-0.216,1.979-0.362,2.96c-0.133,0.996-0.277,1.94-0.452,2.934l-0.002,0.009
				c-0.132,0.751,0.37,1.468,1.121,1.6C-65.108,118.116-64.409,117.64-64.252,116.92z"/>
		</g>
		<g>
			<path fill="#5C1919" d="M-28.658,152.204c0,0,0.179,0.114,0.515,0.329c0.323,0.205,0.785,0.482,1.389,0.801
				c1.201,0.638,2.954,1.451,5.177,2.145c1.108,0.357,2.344,0.643,3.664,0.913c1.33,0.224,2.75,0.407,4.243,0.474
				c1.493,0.037,3.05,0,4.63-0.207c1.58-0.188,3.168-0.579,4.727-1.05c1.546-0.516,3.074-1.12,4.464-1.925
				c1.411-0.759,2.715-1.646,3.883-2.597c1.163-0.956,2.216-1.95,3.119-2.96c0.47-0.492,0.879-1.003,1.263-1.505
				c0.379-0.504,0.788-0.963,1.096-1.453c0.642-0.967,1.237-1.845,1.668-2.667c0.452-0.813,0.847-1.519,1.108-2.125
				c0.539-1.203,0.847-1.89,0.847-1.89c0.565-1.264,0-2.747-1.264-3.313c-1.116-0.5-2.404-0.117-3.08,0.851l-0.105,0.15
				c0,0-0.382,0.547-1.052,1.505c-0.309,0.494-0.758,1.033-1.24,1.669c-0.459,0.656-1.068,1.309-1.693,2.043
				c-0.297,0.383-0.674,0.709-1.025,1.085c-0.354,0.373-0.726,0.749-1.141,1.092c-0.786,0.738-1.665,1.439-2.608,2.091
				c-0.953,0.637-1.941,1.272-3.019,1.762c-0.526,0.271-1.079,0.492-1.639,0.696c-0.543,0.245-1.131,0.384-1.694,0.582
				c-1.157,0.311-2.332,0.57-3.522,0.684c-1.18,0.168-2.371,0.201-3.527,0.185c-1.16,0.005-2.292-0.089-3.367-0.21
				c-1.078-0.122-2.101-0.275-3.042-0.469c-0.948-0.165-1.806-0.387-2.572-0.569c-0.766-0.188-1.422-0.386-1.966-0.538
				c-0.53-0.162-0.947-0.29-1.23-0.378c-0.125-0.038-0.22-0.067-0.284-0.088c-0.055-0.015-0.115-0.042-0.109-0.039
				c-1.419-0.612-3.066,0.042-3.678,1.461C-30.272,150.016-29.794,151.479-28.658,152.204z"/>
		</g>
		<g>
			<path fill="#5C1919" d="M-117.215,142.298c0.011,0.009,0.04,0.079,0.251,0.342c0.207,0.269,0.461,0.576,0.802,0.955
				c0.342,0.369,0.763,0.819,1.28,1.275c0.502,0.481,1.114,0.959,1.791,1.467c0.671,0.521,1.459,0.982,2.283,1.494
				c0.849,0.458,1.749,0.949,2.726,1.345c0.961,0.441,2,0.764,3.057,1.091c0.522,0.186,1.065,0.308,1.613,0.414l1.642,0.342
				c1.102,0.172,2.211,0.298,3.301,0.393c1.091,0.019,2.164,0.052,3.198,0.043c1.024-0.091,2.015-0.179,2.955-0.262
				c0.933-0.107,1.792-0.328,2.591-0.471c0.797-0.161,1.524-0.313,2.146-0.526c0.623-0.202,1.165-0.378,1.612-0.523
				c0.882-0.309,1.386-0.486,1.386-0.486c1.376-0.482,2.101-1.989,1.618-3.365c-0.405-1.155-1.531-1.851-2.695-1.76l-0.265,0.021
				c0,0-0.473,0.036-1.301,0.102c-0.408,0.041-0.904,0.093-1.472,0.151c-0.562,0.095-1.204,0.089-1.894,0.12
				c-0.691,0.021-1.436,0.105-2.219,0.086c-0.779-0.012-1.6-0.025-2.448-0.039c-0.836-0.07-1.701-0.143-2.579-0.217
				c-0.862-0.139-1.737-0.279-2.612-0.42c-0.852-0.223-1.726-0.369-2.547-0.635c-0.415-0.121-0.826-0.241-1.232-0.359
				c-0.407-0.119-0.783-0.301-1.177-0.421c-0.792-0.236-1.5-0.593-2.207-0.862c-0.687-0.305-1.34-0.604-1.925-0.904
				c-0.597-0.287-1.12-0.584-1.588-0.842c-0.476-0.253-0.855-0.507-1.189-0.691c-0.313-0.202-0.573-0.352-0.694-0.418
				c-0.127-0.062-0.264-0.18-0.255-0.169c-1.03-1.091-2.749-1.14-3.839-0.109C-118.196,139.488-118.245,141.207-117.215,142.298z"/>
		</g>
		<g>
			<path fill="#6C482F" d="M-65.739,53.623c0,0,0.162-0.141,0.488-0.378c0.323-0.229,0.733-0.515,1.343-0.88
				c0.595-0.363,1.349-0.75,2.229-1.15c0.899-0.366,1.914-0.773,3.079-1.056c1.149-0.319,2.438-0.521,3.8-0.676
				c0.68-0.083,1.396-0.088,2.111-0.147c0.725-0.002,1.465-0.004,2.218-0.007c0.757,0.05,1.522,0.06,2.299,0.12
				c0.777,0.078,1.563,0.157,2.356,0.236c0.792,0.115,1.591,0.23,2.392,0.347c0.801,0.147,1.605,0.296,2.409,0.444l0.301,0.055
				l0.038,0.007c0.073,0.015-0.08-0.018-0.056-0.013l0.019,0.006l0.079,0.019l0.156,0.038l0.626,0.151
				c0.42,0.093,0.72,0.194,1.086,0.288c0.763,0.236,1.522,0.471,2.276,0.704c1.527,0.507,3.062,1.005,4.538,1.536
				c2.964,1.033,5.712,2.146,7.965,3.282c2.26,1.124,4.063,2.206,5.267,3.024c0.62,0.392,1.059,0.751,1.376,0.977
				c0.313,0.23,0.479,0.354,0.479,0.354l0.026,0.019c0.639,0.472,1.539,0.336,2.01-0.304c0.458-0.619,0.34-1.487-0.25-1.969
				c0,0-0.693-0.562-1.938-1.482c-0.614-0.475-1.387-1.002-2.261-1.627c-0.881-0.61-1.893-1.272-2.996-1.994
				c-2.221-1.418-4.818-3.073-7.747-4.641c-1.463-0.784-3.014-1.537-4.667-2.182c-0.824-0.34-1.662-0.629-2.569-0.902
				c-0.46-0.129-0.977-0.289-1.394-0.386l-0.629-0.137l-0.393-0.081l-0.333-0.053c-0.89-0.141-1.778-0.28-2.664-0.42
				c-0.898-0.08-1.792-0.158-2.68-0.237c-0.892-0.055-1.783-0.06-2.658-0.073c-0.879,0.012-1.752,0.061-2.604,0.102
				c-0.856,0.086-1.697,0.184-2.515,0.287c-0.819,0.153-1.619,0.275-2.389,0.463c-1.54,0.371-2.981,0.791-4.264,1.324
				c-1.294,0.494-2.432,1.076-3.416,1.618c-0.972,0.574-1.791,1.117-2.432,1.61c-0.635,0.477-1.15,0.928-1.456,1.2
				c-0.293,0.277-0.461,0.411-0.461,0.411c-0.609,0.486-0.709,1.375-0.223,1.984c0.486,0.609,1.375,0.71,1.984,0.223
				C-65.77,53.648-65.752,53.634-65.739,53.623z"/>
		</g>
	</g>
	<path fill="none" stroke="#69573A" stroke-width="4.6532" stroke-linecap="round" stroke-miterlimit="10" d="M-50.616,24.618
		c0,0-10.337-26.883,3.101-43.427c24.818,11.375,26.89,42.394,26.89,42.394"/>
	<g>
		<path fill="#695D60" d="M-56.43-79.818c0.129-1.207,0.209-2.413,0.3-3.619c0.098-1.207,0.168-2.413,0.231-3.619
			c0.127-2.413,0.216-4.826,0.275-7.239l-1.618,2.143c0.277-0.065,0.64-0.13,0.98-0.194c0.337-0.075,0.694-0.126,1.046-0.183
			c0.701-0.126,1.413-0.208,2.128-0.276c0.712-0.092,1.428-0.131,2.145-0.166l1.075-0.062c0.358-0.034,0.715-0.006,1.073-0.006
			l2.146,0.033l2.126,0.193c0.354,0.037,0.712,0.051,1.062,0.104l1.041,0.203l2.091,0.38l-1.669-2.075
			c0.124,2.067,0.278,4.133,0.44,6.198c0.2,2.064,0.347,4.13,0.593,6.191c0.114,0.951,0.977,1.631,1.928,1.518
			c0.862-0.104,1.5-0.821,1.528-1.662c0.072-2.075,0.046-4.146,0.072-6.22c-0.012-2.071-0.032-4.144-0.081-6.213l-0.041-1.709
			l-1.629-0.366l-2.384-0.534l-1.196-0.255c-0.4-0.069-0.804-0.098-1.207-0.148l-2.417-0.263l-2.421-0.036
			c-0.403,0.001-0.808-0.025-1.209,0.011l-1.206,0.071c-0.805,0.034-1.606,0.104-2.402,0.229c-0.798,0.1-1.595,0.215-2.39,0.379
			c-0.397,0.077-0.793,0.143-1.196,0.247c-0.403,0.101-0.786,0.189-1.243,0.326l-1.66,0.496l0.041,1.646
			c0.06,2.413,0.149,4.826,0.276,7.239c0.063,1.206,0.133,2.412,0.231,3.619c0.09,1.206,0.17,2.412,0.3,3.619
			c0.084,0.785,0.788,1.353,1.573,1.269C-57.017-78.623-56.5-79.164-56.43-79.818z"/>
	</g>
	<g>
		<path fill="#802929" d="M-40.1,213.23c0-0.001-0.452-0.403-1.333-1.312c-0.87-0.892-2.121-2.245-3.547-4.054
			c-1.402-1.818-3.001-4.108-4.222-6.876c-0.618-1.374-1.127-2.866-1.412-4.433c-0.297-1.562-0.393-3.192-0.128-4.838
			c0.257-1.62,0.821-3.357,1.678-4.905c0.129-0.188,0.349-0.525,0.603-0.81c0.243-0.293,0.522-0.57,0.836-0.836
			c0.62-0.534,1.372-1.023,2.226-1.475c1.715-0.896,3.843-1.567,6.128-2.094c2.291-0.526,4.747-0.923,7.294-1.263
			c10.196-1.347,21.774-1.993,33.083-5.671c5.627-1.826,11.184-4.488,15.895-8.287c4.659-3.822,8.398-8.183,11.513-12.835
			c3.082-4.653,5.384-9.56,7.023-14.356c1.649-4.801,2.608-9.498,3.151-13.845c0.54-4.351,0.684-8.356,0.616-11.893
			c-0.068-3.538-0.324-6.609-0.651-9.126c-0.325-2.518-0.693-4.482-0.975-5.828c-0.282-1.347-0.48-2.073-0.491-2.117
			c-0.344-1.379-1.741-2.217-3.12-1.872s-2.217,1.741-1.872,3.12c-0.011-0.044,0.133,0.591,0.334,1.832
			c0.201,1.239,0.46,3.085,0.657,5.451c0.4,4.719,0.641,11.576-0.617,19.567c-0.637,3.985-1.661,8.235-3.2,12.544
			c-1.557,4.302-3.692,8.639-6.498,12.716c-2.795,4.044-6.307,7.95-10.256,11.065c-3.979,3.062-8.702,5.334-13.746,6.939
			c-5.048,1.612-10.39,2.593-15.748,3.326c-5.364,0.754-10.752,1.255-16.085,1.974c-2.666,0.361-5.325,0.788-7.97,1.399
			c-2.64,0.621-5.292,1.414-7.86,2.75c-1.282,0.666-2.532,1.495-3.665,2.516c-0.568,0.505-1.106,1.062-1.591,1.663
			c-0.491,0.596-0.915,1.209-1.365,1.995c-1.293,2.445-2.047,4.969-2.299,7.524c-0.262,2.536-0.013,4.987,0.557,7.158
			c0.575,2.177,1.415,4.092,2.331,5.771c1.881,3.34,4.012,5.78,5.879,7.611c1.863,1.841,3.483,3.08,4.612,3.897
			c1.124,0.795,1.814,1.212,1.814,1.211c0.974,0.587,2.238,0.273,2.825-0.699c0.52-0.862,0.333-1.952-0.392-2.599L-40.1,213.23z"/>
	</g>
	<g>
		<path fill="#802929" d="M61.764,171.399c0,0,0.207,0.164,0.607,0.481c0.389,0.299,0.954,0.732,1.698,1.257
			c1.484,1.065,3.699,2.519,6.662,4.12c2.959,1.599,6.664,3.383,11.174,4.843c2.254,0.725,4.697,1.398,7.336,1.885
			c2.629,0.521,5.454,0.855,8.425,0.951c5.931,0.243,12.521-0.689,18.919-3.166c3.233-1.169,6.307-2.889,9.332-4.762
			c1.451-1.02,2.978-1.983,4.35-3.146c0.699-0.566,1.421-1.116,2.107-1.707c0.667-0.609,1.336-1.221,2.008-1.836l1.008-0.925
			l0.984-1.025c0.592-0.621,1.187-1.245,1.783-1.87c0.605-0.665,1.233-1.441,1.849-2.164c0.617-0.735,1.255-1.469,1.785-2.236
			c0.555-0.76,1.111-1.521,1.669-2.287c0.54-0.777,1.024-1.601,1.539-2.402l0.761-1.214c0.243-0.412,0.458-0.842,0.688-1.263
			c0.449-0.849,0.898-1.699,1.35-2.551c1.646-3.49,3.003-7.143,3.975-10.904c0.894-3.771,1.57-7.605,1.788-11.445
			c0.545-7.683-0.233-15.271-1.526-22.525c-1.322-7.262-3.344-14.179-5.517-20.75c-2.196-6.565-4.602-12.782-7.047-18.588
			c-2.458-5.801-4.847-11.245-7.223-16.182c-2.34-4.955-4.572-9.446-6.56-13.42c-2.006-3.964-3.766-7.411-5.243-10.234
			c-2.981-5.63-4.685-8.847-4.685-8.847c-0.569-1.075-1.902-1.485-2.977-0.916c-1.044,0.554-1.46,1.827-0.961,2.885l0.011,0.023
			c0,0,1.554,3.276,4.272,9.009c1.364,2.864,2.989,6.353,4.836,10.36c1.828,4.015,3.878,8.549,6.011,13.53
			c2.149,4.977,4.4,10.389,6.639,16.156c2.242,5.766,4.419,11.902,6.365,18.312c1.942,6.408,3.628,13.104,4.759,19.938
			c1.084,6.827,1.648,13.826,1.029,20.642c-0.254,3.416-0.924,6.747-1.75,9.998c-0.904,3.232-2.128,6.331-3.583,9.286l-1.198,2.156
			c-0.203,0.355-0.39,0.721-0.605,1.069l-0.675,1.026c-0.457,0.679-0.878,1.377-1.356,2.037c-0.494,0.649-0.986,1.297-1.478,1.943
			c-0.477,0.67-1.005,1.239-1.517,1.829c-0.527,0.593-0.989,1.169-1.557,1.772c-0.608,0.615-1.214,1.227-1.818,1.837l-0.809,0.816
			l-0.887,0.794c-0.589,0.529-1.175,1.056-1.759,1.581c-0.598,0.504-1.222,0.963-1.826,1.444c-1.188,0.998-2.487,1.78-3.719,2.641
			c-0.628,0.408-1.286,0.752-1.921,1.129c-0.635,0.378-1.271,0.743-1.934,1.039c-0.652,0.317-1.299,0.634-1.943,0.948
			c-0.662,0.267-1.319,0.532-1.973,0.795c-2.633,0.983-5.267,1.755-7.887,2.132c-2.61,0.4-5.171,0.633-7.648,0.545
			c-2.473-0.043-4.855-0.286-7.103-0.702c-2.252-0.378-4.369-0.931-6.335-1.532c-3.935-1.213-7.288-2.629-9.954-3.981
			c-2.676-1.337-4.683-2.569-6.016-3.415c-0.669-0.424-1.157-0.763-1.478-0.984c-0.3-0.215-0.455-0.325-0.455-0.325l-0.136-0.097
			c-1.742-1.244-4.163-0.84-5.406,0.901C59.815,167.796,60.163,170.123,61.764,171.399z"/>
	</g>
	<g>
		<path fill="#802929" d="M70.692,128.385c0.021,0.01-0.022,0.002,0.122,0.093c0.123,0.072,0.305,0.181,0.546,0.322
			c0.399,0.237,0.945,0.505,1.689,0.771c0.743,0.264,1.678,0.471,2.801,0.568c1.119,0.078,2.406-0.024,3.777-0.347
			c1.334-0.364,2.762-0.932,4.064-1.769c0.663-0.406,1.279-0.889,1.905-1.391c0.289-0.266,0.583-0.535,0.882-0.81l0.224-0.208
			l0.112-0.105l0.254-0.269l0.039-0.045l0.311-0.362c0.423-0.499,0.84-0.964,1.305-1.534c0.516-0.712,1.039-1.451,1.563-2.217
			c0.578-0.79,0.903-1.486,1.342-2.246c0.396-0.752,0.887-1.517,1.225-2.311c0.699-1.585,1.528-3.231,2.104-4.952
			c0.315-0.858,0.636-1.732,0.961-2.619c0.304-0.888,0.549-1.791,0.832-2.706c0.273-0.915,0.549-1.843,0.829-2.781
			c0.229-0.94,0.46-1.893,0.694-2.854c0.232-0.962,0.468-1.935,0.705-2.916c0.189-0.983,0.38-1.976,0.572-2.977
			c0.819-4.002,1.372-8.138,1.949-12.336c0.235-2.099,0.471-4.214,0.709-6.337c0.246-2.123,0.364-4.253,0.539-6.384
			c0.375-4.261,0.514-8.517,0.728-12.702c0.201-4.187,0.214-8.302,0.306-12.283c0.041-3.98-0.01-7.823-0.014-11.467
			c-0.009-3.645-0.181-7.083-0.253-10.258c-0.1-3.175-0.157-6.085-0.303-8.659c-0.129-2.575-0.241-4.819-0.333-6.669
			c-0.204-3.694-0.32-5.806-0.32-5.806c-0.067-1.215-1.105-2.146-2.32-2.078c-1.151,0.063-2.046,0.999-2.081,2.13l-0.001,0.046
			c0,0-0.058,2.104-0.159,5.784c-0.042,1.84-0.092,4.073-0.149,6.635c-0.029,2.562-0.168,5.448-0.283,8.597
			c-0.142,3.146-0.203,6.56-0.438,10.157c-0.204,3.599-0.361,7.396-0.622,11.313c-0.146,1.956-0.295,3.945-0.445,5.958
			c-0.152,2.012-0.261,4.054-0.479,6.096c-0.403,4.089-0.735,8.254-1.296,12.373c-0.274,2.061-0.468,4.137-0.783,6.176
			c-0.308,2.04-0.614,4.071-0.918,6.087c-0.709,3.998-1.389,7.941-2.302,11.653c-0.214,0.933-0.427,1.857-0.638,2.773
			c-0.247,0.897-0.49,1.787-0.731,2.667c-0.24,0.88-0.478,1.75-0.712,2.609c-0.277,0.834-0.551,1.658-0.821,2.472
			c-0.276,0.808-0.519,1.624-0.809,2.393c-0.304,0.756-0.604,1.501-0.899,2.233c-0.545,1.504-1.263,2.776-1.865,4.071
			c-0.295,0.656-0.683,1.18-1.003,1.758c-0.333,0.54-0.659,1.179-0.966,1.531c-0.307,0.411-0.594,0.818-0.865,1.221
			c-0.407,0.477-0.892,0.986-1.312,1.455l-0.322,0.354l-0.04,0.043l-0.02,0.022c-0.053,0.057,0.384-0.408,0.192-0.205l-0.062,0.054
			l-0.121,0.108c-0.158,0.146-0.314,0.29-0.467,0.431c-0.3,0.257-0.589,0.502-0.853,0.706c-0.536,0.421-0.989,0.688-1.389,0.941
			c-0.782,0.43-1.409,0.68-1.874,0.803c-0.223,0.07-0.403,0.11-0.478,0.16c-0.073,0.011-0.014,0.062,0.011,0.102
			c0.026,0.039-0.076-0.002-0.055,0.009c-1.913-0.964-4.244-0.195-5.208,1.717S68.78,127.42,70.692,128.385z"/>
	</g>
	<path fill="none" stroke="#802929" stroke-width="4.6532" stroke-linecap="round" stroke-miterlimit="10" d="M94.154,142.499
		c0,0,33.087-11.372,27.919-103.403"/>
	<path fill="none" stroke="#802929" stroke-width="4.6532" stroke-linecap="round" stroke-miterlimit="10" d="M109.664,156.977
		c0,0,34.9-15.639,26.624-85.954"/>
	<g>
		<path fill="#9C6C4E" d="M-113.438,164.624c0,0-0.353-1.192-1.014-3.427c-0.629-2.186-1.537-5.465-2.505-9.646
			c-0.984-4.184-2.044-9.297-2.917-15.207c-0.875-5.906-1.567-12.615-1.722-19.927c-0.142-7.305,0.177-15.229,1.556-23.409
			c1.37-8.166,3.767-16.611,7.758-24.569c3.956-7.964,9.575-15.354,16.666-21.34c7.083-5.996,15.599-10.524,24.706-13.511
			c2.284-0.764,4.551-1.401,6.988-2.035c2.292-0.569,4.656-1.124,7.028-1.562c4.735-0.897,9.502-1.52,14.252-1.781
			c4.749-0.271,9.477-0.243,14.129,0.091c2.325,0.187,4.635,0.404,6.917,0.729l1.66,0.229l1.758,0.28
			c1.112,0.198,2.153,0.386,3.26,0.632c8.731,1.85,16.715,5.34,23.468,9.902c3.377,2.281,6.471,4.802,9.247,7.483
			c2.795,2.661,5.318,5.443,7.553,8.28c2.244,2.83,4.227,5.692,5.986,8.504c0.447,0.698,0.872,1.399,1.279,2.099
			c0.207,0.348,0.412,0.693,0.615,1.036c0.191,0.342,0.381,0.682,0.57,1.019c0.422,0.737,0.695,1.325,1.039,1.98
			c0.314,0.671,0.642,1.323,0.922,1.987c2.341,5.271,3.619,10.25,4.386,14.386c0.753,4.147,1.013,7.472,1.133,9.72
			c0.055,1.124,0.069,1.982,0.071,2.551c-0.005,0.539-0.008,0.816-0.008,0.816l-0.001,0.154c-0.014,1.468,1.165,2.667,2.632,2.681
			c1.417,0.013,2.585-1.094,2.675-2.491c0,0,0.022-0.349,0.064-1.023c0.031-0.646,0.064-1.59,0.066-2.814
			c0.009-2.449-0.125-6.027-0.765-10.547c-0.666-4.506-1.787-9.999-4.227-15.993c-0.295-0.752-0.643-1.498-0.978-2.264
			c-0.363-0.753-0.76-1.62-1.127-2.301c-0.198-0.377-0.397-0.757-0.598-1.139c-0.206-0.37-0.414-0.744-0.623-1.12
			c-0.414-0.754-0.845-1.512-1.301-2.271c-1.794-3.049-3.837-6.179-6.182-9.309c-4.656-6.27-10.664-12.506-18.141-17.688
			c-7.449-5.194-16.372-9.235-26.018-11.419c-1.184-0.279-2.462-0.531-3.68-0.763l-1.754-0.305l-1.879-0.271
			c-2.444-0.357-4.922-0.604-7.419-0.813c-4.997-0.381-10.082-0.435-15.19-0.165c-5.109,0.26-10.233,0.904-15.314,1.845
			c-2.543,0.459-5.056,1.032-7.627,1.663c-2.414,0.616-4.98,1.322-7.455,2.14c-9.951,3.213-19.507,8.2-27.537,14.941
			c-8.067,6.701-14.381,15.157-18.771,24.026c-4.427,8.884-7.007,18.137-8.467,26.951c-1.453,8.832-1.81,17.267-1.583,24.99
			c0.23,7.73,1.02,14.761,1.987,20.933c0.966,6.175,2.117,11.495,3.18,15.844c1.074,4.353,2.053,7.708,2.757,10.03
			c0.704,2.263,1.08,3.47,1.08,3.47c0.637,2.045,2.811,3.187,4.855,2.55c2.026-0.631,3.166-2.771,2.566-4.8L-113.438,164.624z"/>
	</g>
	
		<path fill="none" stroke="#802929" stroke-width="6.9798" stroke-linecap="round" stroke-linejoin="round" stroke-miterlimit="10" d="
		M64.684,106.31c0,0,16.541,38.259-8.276,76.518c-29.532,45.526-83.758,36.71-97.717,32.058c0,0-62.044,0-79.62-56.872"/>
	<g>
		<path fill="#802929" d="M-122.399,155.828c0,0,0.02,0.078,0.059,0.229c0.02,0.076,0.045,0.172,0.075,0.284
			c0.049,0.147,0.105,0.317,0.17,0.509c0.254,0.718,0.665,1.686,1.351,2.789c1.355,2.221,3.755,4.836,6.948,7.365
			c1.597,1.267,3.389,2.522,5.326,3.76c1.934,1.243,4.038,2.421,6.238,3.58c2.2,1.16,4.518,2.261,6.911,3.289
			c2.392,1.028,4.848,2.018,7.355,2.891c2.507,0.869,5.051,1.658,7.613,2.331c0.645,0.159,1.288,0.319,1.927,0.478l0.967,0.221
			l0.812,0.207c0.282,0.078,0.639,0.155,0.856,0.233l0.679,0.226c0.447,0.143,0.96,0.357,1.429,0.534
			c1.884,0.815,3.647,1.759,5.21,2.868c1.555,1.113,2.984,2.266,4.195,3.474c1.225,1.19,2.296,2.358,3.181,3.454
			c0.91,1.076,1.648,2.067,2.224,2.897c1.132,1.675,1.708,2.643,1.642,2.531c0.905,1.941,3.212,2.78,5.153,1.876
			c1.941-0.906,2.78-3.213,1.875-5.153c-0.069-0.107-0.57-1.481-1.847-3.603c-0.634-1.062-1.443-2.321-2.462-3.71
			c-1.038-1.372-2.296-2.866-3.822-4.372c-1.531-1.496-3.314-3.032-5.41-4.398c-2.081-1.379-4.466-2.612-7.078-3.516
			c-0.67-0.211-1.293-0.428-2.022-0.617l-1.09-0.278c-0.374-0.096-0.625-0.13-0.944-0.197c-0.621-0.121-1.246-0.243-1.874-0.365
			c-0.581-0.123-1.164-0.247-1.75-0.371c-2.348-0.53-4.737-1.182-7.107-1.914c-2.372-0.731-4.738-1.515-7.034-2.374
			c-2.295-0.86-4.532-1.768-6.668-2.697c-4.261-1.882-8.109-3.89-11.15-5.882c-3.06-1.968-5.265-3.942-6.454-5.433
			c-0.61-0.733-0.98-1.361-1.189-1.752c-0.047-0.088-0.089-0.164-0.125-0.23c-0.043-0.105-0.08-0.193-0.109-0.264
			c-0.06-0.145-0.09-0.219-0.09-0.219c-0.439-1.07-1.664-1.583-2.735-1.144C-122.146,153.767-122.658,154.829-122.399,155.828z"/>
	</g>
	<g>
		<path fill="#9C6C4E" d="M42.868,102.062c0,0,0.217,0.279,0.625,0.802c0.398,0.504,0.995,1.213,1.817,2.065
			c0.814,0.864,1.87,1.849,3.195,2.92c1.34,1.049,2.978,2.166,5.116,3.107c1.096,0.437,2.296,0.855,3.714,1.059
			c1.409,0.202,3.022,0.201,4.663-0.238c1.652-0.422,3.204-1.325,4.465-2.398c1.313-1.076,2.197-2.355,3.011-3.638
			c0.735-1.286,1.347-2.603,1.818-3.917l0.341-0.986l0.17-0.497l0.078-0.273l0.028-0.11l0.056-0.22
			c0.148-0.587,0.298-1.177,0.448-1.77l0.112-0.444l0.1-0.539l0.193-1.094c0.125-0.73,0.264-1.469,0.299-2.179
			c0.051-0.719,0.133-1.43,0.148-2.159l-0.035-2.205c-0.17-2.963-0.962-5.985-2.317-8.668c-1.346-2.692-3.244-4.988-5.313-6.767
			c-2.069-1.789-4.259-3.147-6.395-4.178c-2.138-1.03-4.207-1.779-6.128-2.353c-3.853-1.125-7.106-1.547-9.389-1.768
			c-1.144-0.097-2.048-0.135-2.672-0.156c-0.654-0.012-1.003-0.018-1.003-0.018c-1.44-0.025-2.629,1.122-2.655,2.562
			c-0.023,1.31,0.922,2.41,2.175,2.62l0.186,0.03c0,0,0.269,0.046,0.775,0.131c0.535,0.096,1.326,0.253,2.331,0.479
			c2.002,0.463,4.883,1.178,8.085,2.468c3.186,1.263,6.762,3.115,9.527,5.816c1.365,1.357,2.507,2.899,3.282,4.616
			c0.787,1.716,1.167,3.613,1.269,5.607l-0.006,1.518c-0.02,0.51-0.1,1.031-0.141,1.545c-0.027,0.528-0.142,1-0.229,1.481
			l-0.13,0.721l-0.066,0.366l-0.121,0.442c-0.161,0.59-0.321,1.177-0.48,1.761l-0.06,0.22l-0.03,0.109l-0.015,0.055
			c-0.012,0.044,0.08-0.282,0.037-0.134l-0.007,0.022l-0.123,0.36l-0.24,0.719c-0.326,0.945-0.72,1.777-1.124,2.523
			c-0.437,0.669-0.859,1.311-1.278,1.674c-0.422,0.388-0.79,0.654-1.209,0.785c-0.42,0.127-0.913,0.204-1.497,0.187
			c-0.583-0.019-1.248-0.184-1.9-0.376c-1.332-0.423-2.646-1.071-3.783-1.755c-1.154-0.667-2.13-1.372-2.942-1.948
			c-0.803-0.589-1.423-1.079-1.841-1.406c-0.427-0.346-0.584-0.473-0.603-0.492c-1.094-1.184-2.94-1.255-4.123-0.16
			c-1.12,1.035-1.244,2.744-0.327,3.928L42.868,102.062z"/>
	</g>
	<path fill="none" stroke="#695D60" stroke-width="4.6532" stroke-linecap="round" stroke-miterlimit="10" d="M-64.055-73.614
		c0,0-4.138-15.512-1.551-27.146c9.306-3.877,24.817-4.652,34.123-0.773c3.618,10.339-0.521,28.436-0.521,28.436
		S-52.683-71.546-64.055-73.614z"/>
	<path fill="#003C61" d="M-90.169,110.6c0-5.365-1.824-9.719-4.072-9.719c-2.247,0-4.072,4.354-4.072,9.719
		c0,5.369,1.825,9.718,4.072,9.718C-91.993,120.317-90.169,115.969-90.169,110.6z"/>
	<path fill="#003C61" d="M-11.325,110.6c0-5.365-1.817-9.719-4.071-9.719c-2.249,0-4.072,4.354-4.072,9.719
		c0,5.369,1.823,9.718,4.072,9.718C-13.142,120.317-11.325,115.969-11.325,110.6z"/>
	<path fill="#FFFFFF" d="M-96.294,113.678c0-2.812-1.369-5.09-3.054-5.09c-1.691,0-3.054,2.277-3.054,5.09
		c0,2.811,1.363,5.088,3.054,5.088C-97.664,118.766-96.294,116.488-96.294,113.678z"/>
	<path fill="#FFFFFF" d="M-16.026,113.678c0-2.812-1.37-5.09-3.054-5.09c-1.69,0-3.054,2.277-3.054,5.09
		c0,2.811,1.364,5.088,3.054,5.088C-17.396,118.766-16.026,116.488-16.026,113.678z"/>
</symbol>
<g id="BGs">
	<g>
		<rect y="992" fill="#C4E0F8" width="2272" height="1190"/>
		<g>
			<path fill="#C9D9EB" d="M0,1264.933c57,0.874,110.739-28.366,173.213-33.616c14.774,101.308,297.995,9.938,356.25-5.408
				c51.154-13.476,47.614-9.34,84.23,20.791c26.869,22.111,71.199,41.705,102.834,55.249
				c75.479,32.32,174.506,52.113,257.382,48.814c64.417-2.564,135.847-10.527,195.208-27.804
				c21.438-6.238,91.23-45.138,91.23-45.138s16.478,42.03,58.402,52.538c128.197,32.131,277.357-25.537,404.09-39.646
				c180.348-20.079,371.16-42.581,549.16-25.781V992H0V1264.933z"/>
		</g>
		<g>
			<path fill="#BACBDB" d="M0,1063.691c16,18.501,41.072,30.926,65.917,38.92c49.773,16.017,89.556-4.576,135.653-7.43
				c10.647,100.704,158.117,11.113,215.548-1.591c67.973-15.033,148.255-24.684,213.538-11.914
				c118.899,23.263,214.885,119.928,334.995,152.119c57.331,15.363,140.29,26.469,198.376,12.009
				c46.423-11.557,102.311-46.042,128.667-66.673c33.535,68.667,77.096,65.419,149.96,55.539
				c76.607-10.388,140.393-36.442,211.661-61.96c125.792-45.04,251.584-66.059,388.212-91.005
				c57.569-10.512,115.71-7.018,174.185-9.243c17.574-0.668,42.288-1.178,55.288-1.639V992H0V1063.691z"/>
		</g>
		<g>
			<g>
				<path fill="#C7D083" d="M1325.97,1549.966c-85.56-5.25-251.599-44.726-330.449-77.682
					c-71.524-29.892-144.736-57.156-218.962-79.507c-264.247-79.569-481.757-30.585-753.434,51.126
					C16.474,1445.904,8,1448.34,0,1451.083V1761h1431v-214.381C1401,1550.683,1365.598,1552.398,1325.97,1549.966z"/>
			</g>
			<g>
				<path fill="#BAC161" d="M995.51,1472.284c-71.525-29.892-144.732-57.156-218.958-79.507
					c-28.035-8.442-69.914-12.187-96.996-19.318c-201.21-20.172-382.957,47.379-465.3,299.99c0,0-9.105,40.551-16.408,87.551
					h1032.304c5.886-8,11.012-17.577,15.309-27.035C1278.125,1662.084,1069.296,1503.124,995.51,1472.284z"/>
			</g>
			<g>
				<path fill="#C7D083" d="M946.389,1526.948c85.561-5.25,251.779-65.742,330.628-98.698
					c71.524-29.892,144.827-57.157,219.055-79.507c264.244-79.569,412.956-10.734,684.631,70.977
					c6.652,2.001,91.297,31.626,91.297,31.626v269.725l-1431-4.004v-193.465C871,1527.665,906.76,1529.381,946.389,1526.948z"/>
			</g>
			<g>
				<path fill="#BAC161" d="M1277.209,1428.25c71.525-29.892,144.732-57.157,218.958-79.507
					c28.035-8.443,69.913-12.188,96.994-19.319c201.21-20.173,382.957,47.396,465.302,300.007c0,0,9.104,40.568,16.407,87.568
					H1042.567c-5.887-8-11.012-17.593-15.311-27.052C994.594,1618.066,1203.424,1459.089,1277.209,1428.25z"/>
			</g>
		</g>
		<g>
			<path fill="#A6B157" d="M1818.71,1481.876c187.958-28.423,330.29-41.931,453.29-30.531V1945H0v-493.654
				C438,1515.222,1211.179,1573.748,1818.71,1481.876z"/>
			<path fill="#C2AB90" d="M0,1542.93c28,2.626,54.968,4.918,78.228,6.004c209.147,9.75,416.478,14.98,625.836,15.007
				c205.009,0.026,410.943-10.517,615.856-8.199c154.243,1.745,308.186,12.36,462.514,7.309
				c159.701-5.228,331.566-11.832,489.566-18.221V2272H0V1542.93z"/>
			<path fill="#91806C" d="M1694.385,1567.913c29.386,0,58.697-0.394,87.808-1.347c144.935-4.743,295.251-10.699,441.698-16.459
				l48.109-1.778v-7l-48.385,1.779c-146.436,5.759-297.299,11.715-442.211,16.458c-98.588,3.224-199.423,0.009-297.206-3.104
				c-55.031-1.752-111.797-3.563-167.426-4.193c-112.506-1.271-226.899,1.633-337.591,4.199
				c-90.735,2.106-184.495,4.531-276.719,4.531c-0.254,0-0.491,0-0.745,0c-204.992,0-410.074-5.164-625.152-15.191
				C51.557,1544.642,23,1542.052,0,1539.805v6.916c23,2.254,51.077,4.936,76.242,6.108c215.186,10.035,420.375,15.17,625.474,15.17
				c0.256,0,0.511,0,0.766,0c92.302,0,186.157-2.423,276.931-4.531c110.631-2.564,225.036-5.342,337.419-4.07
				c55.559,0.629,112.428,2.375,167.426,4.127C1553.311,1565.723,1624.031,1567.911,1694.385,1567.913z"/>
			<path fill="#917F6D" d="M2083.789,1670.119c10.735-2.911,45.512-4.619,46.745,12.728c1.126,15.836-40.659,5.683-47.677,0.829
				C2076.706,1681.619,2077.601,1671.797,2083.789,1670.119C2098.531,1666.123,2077.601,1671.797,2083.789,1670.119z"/>
			<path fill="#917F6D" d="M1966,1696.157c11.647-2.187,18.975-3.498,30.713-0.291c5.354,1.466,19.109,7.833,9.242,14.955
				c-7.617,5.499-25.717,3.994-34.142,1.534c-3.761-1.098-9.034-2.608-10.496-6.768
				C1959.982,1701.786,1961.73,1696.958,1966,1696.157C1969.661,1695.469,1959.826,1697.317,1966,1696.157z"/>
			<path fill="#917F6D" d="M2160.67,1773.206c3.246-11.834,43.066-12.702,43.717,1.726
				C2205.035,1789.338,2156.407,1788.734,2160.67,1773.206C2161.543,1770.021,2159.539,1777.322,2160.67,1773.206z"/>
			<path fill="#917F6D" d="M2201.484,1623.392l5.99-0.247c7.509-0.31,7.509,12.004,0,11.694l-5.99-0.247
				C2194.294,1634.295,2194.294,1623.688,2201.484,1623.392z"/>
			<path fill="#917F6D" d="M1484.17,1715.9c4.428,1.202,13.447-0.327,16.608,3.347c3.048,3.545,0.693,9.348-4.054,9.417
				c-5.379,0.079-14.908,0.763-18.305-4.654C1475.891,1719.976,1479.453,1714.62,1484.17,1715.9
				C1488.344,1717.034,1478.113,1714.257,1484.17,1715.9z"/>
			<path fill="#917F6D" d="M1620.508,1769.854c5.107-0.672,16.355-1.469,20.416,2.447c4.282,4.125,1.186,11.066-4.445,11.48
				c-6.112,0.449-17.688,3.569-21.83-2.863C1611.527,1776.073,1615.277,1770.542,1620.508,1769.854
				C1625.854,1769.148,1611.209,1771.08,1620.508,1769.854z"/>
			<path fill="#917F6D" d="M1205.844,1753.902c5.684-1.955,11.77-2.886,17.285-1.008c1.069,0.379,2.099,0.845,3.087,1.396
				c11.465-0.253,5.175,12.942-2.66,14.606c-6.036,1.281-25.274,4.918-26.167-4.803
				C1195.74,1759.341,1199.457,1752.598,1205.844,1753.902C1211.528,1751.947,1199.457,1752.598,1205.844,1753.902z"/>
			<path fill="#917F6D" d="M303.961,1737.304c9.021-3.944,49.813-13.55,46.636,7.28c-1.727,11.306-21.999,10.578-29.972,9.845
				c-5.539-0.506-11.86-1.223-16.531-4.53C299.036,1746.321,297.219,1740.255,303.961,1737.304
				C304.479,1737.077,294.015,1741.659,303.961,1737.304z"/>
			<path fill="#917F6D" d="M846.87,1812.993c5.835-0.162,15.683-2.557,20.982-0.024c9.271,4.433-2.029,12.761-6.909,13.685
				c-5.177,0.981-16.465,2.976-19.864-2.516C838.157,1819.422,841.265,1813.148,846.87,1812.993
				C850.365,1812.896,837.676,1813.248,846.87,1812.993z"/>
			<path fill="#917F6D" d="M788.463,1885.035c4.214-6.336,24.678-2.834,31.454-2.85c7.075-0.017,8.969,9.073,3.516,12.885
				c-3.728,5.386-19.153,4.504-24.716,4.099c-3.822-0.28-10.147-0.02-12.565-3.756
				C784.023,1892.131,784.975,1887.007,788.463,1885.035C789.555,1883.394,783.521,1887.828,788.463,1885.035z"/>
			<path fill="#917F6D" d="M363.118,1634.83c8.512-3.688,16.671-5.644,25.845-3.048c5.987,1.694,21.386,8.599,12.064,16.612
				c-7.29,6.266-22.05,4.233-30.334,1.714C365.981,1648.674,351.907,1639.688,363.118,1634.83
				C365.971,1633.595,358.333,1636.903,363.118,1634.83z"/>
			<path fill="#917F6D" d="M203.003,1666.598c6.85-0.398,40.074,0.975,32.184,15.462c-5.414,9.94-36.081,8.367-36.759-4.681
				C195.241,1673.828,196.762,1666.962,203.003,1666.598C214.022,1665.958,196.762,1666.962,203.003,1666.598z"/>
			<path fill="#917F6D" d="M521.792,1681.796c-5.851-28.03,68.943-17.369,64.23-3.09c-4.88,14.767-58.482,21.445-63.726,4.994
				C522.089,1683.046,521.922,1682.412,521.792,1681.796z"/>
			<path fill="#917F6D" d="M36.805,1615.698c8.387-6.435,29.386-10.767,36.063-3.534c15.86,17.184-21.082,18.602-30.627,15.692
				C31.25,1624.507,31.593,1619.697,36.805,1615.698z"/>
			<path fill="#917F6D" d="M85.21,1734.471c6.51,0.014,24.316-3.131,28.725,2.639c5.814,7.612-4.953,12.358-10.775,12.874
				c-6.441,0.57-13.325-0.4-19.438-2.494C76.831,1745.128,77.22,1734.454,85.21,1734.471
				C93.198,1734.489,79.094,1734.458,85.21,1734.471z"/>
		</g>
	</g>
</g>
<g id="Compositions">
</g>
<g id="Find_Elsewhere">
</g>
<g id="New_Parts">
</g>
<g id="Text_Box">
	<g id="PC">
	</g>
</g>
<g id="labels_x2F_divider">
</g>
</svg>
