%YAML 1.1
%TAG !u! tag:unity3d.com,2011:
--- !u!74 &7400000
AnimationClip:
  m_ObjectHideFlags: 0
  m_PrefabParentObject: {fileID: 0}
  m_PrefabInternal: {fileID: 0}
  m_Name: anim_GusExitWaterPumpUseState
  serializedVersion: 3
  m_AnimationType: 1
  m_Compressed: 0
  m_RotationCurves:
  - curve:
      serializedVersion: 2
      m_Curve:
      - time: 0
        value: {x: 0, y: 0, z: 0, w: 1}
        inSlope: {x: 0, y: 0, z: 0, w: 0}
        outSlope: {x: 0, y: 0, z: 0, w: 0}
        tangentMode: -559038737
      - time: .00100000005
        value: {x: 0, y: 0, z: 0, w: 1}
        inSlope: {x: 0, y: 0, z: 0, w: 0}
        outSlope: {x: 0, y: 0, z: 0, w: 0}
        tangentMode: 125829136
      - time: .428571433
        value: {x: 0, y: 0, z: 0, w: 1}
        inSlope: {x: 0, y: 0, z: 0, w: 0}
        outSlope: {x: 0, y: 0, z: 0, w: 0}
        tangentMode: -559038737
      - time: .857142866
        value: {x: 0, y: 0, z: 0, w: 1}
        inSlope: {x: 0, y: 0, z: 0, w: 0}
        outSlope: {x: 0, y: 0, z: 0, w: 0}
        tangentMode: -542900206
      - time: 1.28571427
        value: {x: 0, y: 0, z: 0, w: 1}
        inSlope: {x: 0, y: 0, z: 0, w: 0}
        outSlope: {x: 0, y: 0, z: 0, w: 0}
        tangentMode: -559038737
      - time: 1.71428573
        value: {x: 0, y: 0, z: 0, w: 1}
        inSlope: {x: 0, y: 0, z: 0, w: 0}
        outSlope: {x: 0, y: 0, z: 0, w: 0}
        tangentMode: -542900206
      - time: 2.14285707
        value: {x: 0, y: 0, z: 0, w: 1}
        inSlope: {x: 0, y: 0, z: 0, w: 0}
        outSlope: {x: 0, y: 0, z: 0, w: 0}
        tangentMode: -559038737
      - time: 2.57142854
        value: {x: 0, y: 0, z: 0, w: 1}
        inSlope: {x: 0, y: 0, z: 0, w: 0}
        outSlope: {x: 0, y: 0, z: 0, w: 0}
        tangentMode: -542900206
      - time: 2.99900007
        value: {x: 0, y: 0, z: 0, w: 1}
        inSlope: {x: 0, y: 0, z: 0, w: 0}
        outSlope: {x: 0, y: 0, z: 0, w: 0}
        tangentMode: -559038737
      - time: 3
        value: {x: 0, y: 0, z: 0, w: 1}
        inSlope: {x: 0, y: 0, z: 0, w: 0}
        outSlope: {x: 0, y: 0, z: 0, w: 0}
        tangentMode: -542900206
      m_PreInfinity: 2
      m_PostInfinity: 2
    path: Root
  - curve:
      serializedVersion: 2
      m_Curve:
      - time: 0
        value: {x: 0, y: 0, z: -.218143195, w: .975916803}
        inSlope: {x: 0, y: 0, z: 0, w: 0}
        outSlope: {x: 0, y: 0, z: 5.96046411e-05, w: 0}
        tangentMode: -559038737
      - time: .00100000005
        value: {x: 0, y: 0, z: -.218143135, w: .975916803}
        inSlope: {x: 0, y: 0, z: 5.96046411e-05, w: 0}
        outSlope: {x: 0, y: 0, z: .0278412793, w: .00604548026}
        tangentMode: -559038737
      - time: .428571433
        value: {x: 0, y: 0, z: -.206239, w: .978501678}
        inSlope: {x: 0, y: 0, z: .0278412793, w: .00604548026}
        outSlope: {x: 0, y: 0, z: .0719535872, w: .0139889717}
        tangentMode: -559038737
      - time: .857142866
        value: {x: 0, y: 0, z: -.175401747, w: .984496951}
        inSlope: {x: 0, y: 0, z: .0719535872, w: .0139889717}
        outSlope: {x: 0, y: 0, z: .0990250334, w: .0154563794}
        tangentMode: -542900206
      - time: 1.28571427
        value: {x: 0, y: 0, z: -.13296245, w: .991121113}
        inSlope: {x: 0, y: 0, z: .0990250334, w: .0154563794}
        outSlope: {x: 0, y: 0, z: .108538337, w: .0119826384}
        tangentMode: -559038737
      - time: 1.71428573
        value: {x: 0, y: 0, z: -.086446017, w: .99625653}
        inSlope: {x: 0, y: 0, z: .108538337, w: .0119826384}
        outSlope: {x: 0, y: 0, z: .1000119, w: .00651759049}
        tangentMode: -559038737
      - time: 2.14285707
        value: {x: 0, y: 0, z: -.0435837843, w: .999049783}
        inSlope: {x: 0, y: 0, z: .1000119, w: .00651759049}
        outSlope: {x: 0, y: 0, z: .0732722655, w: .00204402185}
        tangentMode: -559038737
      - time: 2.57142854
        value: {x: 0, y: 0, z: -.0121813808, w: .999925792}
        inSlope: {x: 0, y: 0, z: .0732722655, w: .00204402185}
        outSlope: {x: 0, y: 0, z: 0, w: 0}
        tangentMode: -559038737
      - time: 2.99900007
        value: {x: 0, y: 0, z: -6.65790267e-08, w: 1}
        inSlope: {x: 0, y: 0, z: .0284895357, w: .000173556415}
        outSlope: {x: 0, y: 0, z: 0, w: 0}
        tangentMode: -559038737
      - time: 3
        value: {x: 0, y: 0, z: 0, w: 1}
        inSlope: {x: 0, y: 0, z: 6.65838525e-05, w: 0}
        outSlope: {x: 0, y: 0, z: 0, w: 0}
        tangentMode: -559038737
      m_PreInfinity: 2
      m_PostInfinity: 2
    path: Root/Body
  - curve:
      serializedVersion: 2
      m_Curve:
      - time: 0
        value: {x: 0, y: 0, z: .231747761, w: .972775936}
        inSlope: {x: 0, y: 0, z: 0, w: 0}
        outSlope: {x: 0, y: 0, z: -2.98023206e-05, w: 0}
        tangentMode: -559038737
      - time: .00100000005
        value: {x: 0, y: 0, z: .231747732, w: .972775936}
        inSlope: {x: 0, y: 0, z: -2.98023206e-05, w: 0}
        outSlope: {x: 0, y: 0, z: -.0218002945, w: .00508346176}
        tangentMode: -559038737
      - time: .428571433
        value: {x: 0, y: 0, z: .222426549, w: .974949479}
        inSlope: {x: 0, y: 0, z: -.0218002945, w: .00508346176}
        outSlope: {x: 0, y: 0, z: -.0563054234, w: .012116571}
        tangentMode: -559038737
      - time: .857142866
        value: {x: 0, y: 0, z: .198295653, w: .980142295}
        inSlope: {x: 0, y: 0, z: -.0563054234, w: .012116571}
        outSlope: {x: 0, y: 0, z: -.077438429, w: .0143109374}
        tangentMode: -559038737
      - time: 1.28571427
        value: {x: 0, y: 0, z: .165107757, w: .986275554}
        inSlope: {x: 0, y: 0, z: -.077438429, w: .0143109374}
        outSlope: {x: 0, y: 0, z: -.0848697796, w: .0126082096}
        tangentMode: -559038737
      - time: 1.71428573
        value: {x: 0, y: 0, z: .128734991, w: .991679072}
        inSlope: {x: 0, y: 0, z: -.0848697796, w: .0126082096}
        outSlope: {x: 0, y: 0, z: -.0782544389, w: .0088184895}
        tangentMode: -559038737
      - time: 2.14285707
        value: {x: 0, y: 0, z: .0951973796, w: .995458424}
        inSlope: {x: 0, y: 0, z: -.0782544389, w: .0088184895}
        outSlope: {x: 0, y: 0, z: -.057396099, w: .00477480842}
        tangentMode: -559038737
      - time: 2.57142854
        value: {x: 0, y: 0, z: .0705990493, w: .997504771}
        inSlope: {x: 0, y: 0, z: -.057396099, w: .00477480842}
        outSlope: {x: 0, y: 0, z: 0, w: 0}
        tangentMode: -559038737
      - time: 2.99900007
        value: {x: 0, y: 0, z: .0610485561, w: .998134792}
        inSlope: {x: 0, y: 0, z: -.0223365966, w: .00147348701}
        outSlope: {x: 0, y: 0, z: 0, w: 0}
        tangentMode: -559038737
      - time: 3
        value: {x: 0, y: 0, z: .0610485412, w: .998134792}
        inSlope: {x: 0, y: 0, z: -1.49022417e-05, w: 0}
        outSlope: {x: 0, y: 0, z: 0, w: 0}
        tangentMode: -559038737
      m_PreInfinity: 2
      m_PostInfinity: 2
    path: Root/LeftArm
  - curve:
      serializedVersion: 2
      m_Curve:
      - time: 0
        value: {x: 0, y: 0, z: .49394235, w: .869494617}
        inSlope: {x: 0, y: 0, z: 0, w: 0}
        outSlope: {x: 0, y: 0, z: -.000149011612, w: .000119209282}
        tangentMode: -559038737
      - time: .00100000005
        value: {x: 0, y: 0, z: .493942201, w: .869494736}
        inSlope: {x: 0, y: 0, z: -.000149011612, w: .000119209282}
        outSlope: {x: 0, y: 0, z: -.0621565618, w: .0340745002}
        tangentMode: -559038737
      - time: .428571433
        value: {x: 0, y: 0, z: .467365831, w: .884064019}
        inSlope: {x: 0, y: 0, z: -.0621565618, w: .0340745002}
        outSlope: {x: 0, y: 0, z: -.164407477, w: .0788561106}
        tangentMode: -559038737
      - time: .857142866
        value: {x: 0, y: 0, z: .396905482, w: .917859495}
        inSlope: {x: 0, y: 0, z: -.164407477, w: .0788561106}
        outSlope: {x: 0, y: 0, z: -.233750775, w: .0865736678}
        tangentMode: -559038737
      - time: 1.28571427
        value: {x: 0, y: 0, z: .296726584, w: .954962492}
        inSlope: {x: 0, y: 0, z: -.233750775, w: .0865736678}
        outSlope: {x: 0, y: 0, z: -.263585091, w: .0653529316}
        tangentMode: 8
      - time: 1.71428573
        value: {x: 0, y: 0, z: .183761537, w: .982970893}
        inSlope: {x: 0, y: 0, z: -.263585091, w: .0653529316}
        outSlope: {x: 0, y: 0, z: -.247119844, w: .032652624}
        tangentMode: -6291971
      - time: 2.14285707
        value: {x: 0, y: 0, z: .0778530538, w: .996964872}
        inSlope: {x: 0, y: 0, z: -.247119844, w: .032652624}
        outSlope: {x: 0, y: 0, z: -.182203099, w: .00708196498}
        tangentMode: -559038737
      - time: 2.57142854
        value: {x: 0, y: 0, z: -.000233991988, w: 1}
        inSlope: {x: 0, y: 0, z: -.182203099, w: .00708196498}
        outSlope: {x: 0, y: 0, z: 0, w: 0}
        tangentMode: -559038737
      - time: 2.99900007
        value: {x: 0, y: 0, z: -.0305382479, w: .999533594}
        inSlope: {x: 0, y: 0, z: -.0708752871, w: -.00109082647}
        outSlope: {x: 0, y: 0, z: 0, w: 0}
        tangentMode: -559038737
      - time: 3
        value: {x: 0, y: 0, z: -.0305385143, w: .999533594}
        inSlope: {x: 0, y: 0, z: -.000266377552, w: 0}
        outSlope: {x: 0, y: 0, z: 0, w: 0}
        tangentMode: -559038737
      m_PreInfinity: 2
      m_PostInfinity: 2
    path: Root/RightArm
  - curve:
      serializedVersion: 2
      m_Curve:
      - time: 0
        value: {x: 0, y: 0, z: -.296541482, w: .955019951}
        inSlope: {x: 0, y: 0, z: 0, w: 0}
        outSlope: {x: 0, y: 0, z: 5.96046411e-05, w: 5.96046411e-05}
        tangentMode: -559038737
      - time: .00100000005
        value: {x: 0, y: 0, z: -.296541423, w: .95502001}
        inSlope: {x: 0, y: 0, z: 5.96046411e-05, w: 5.96046411e-05}
        outSlope: {x: 0, y: 0, z: .0308366604, w: .00934263505}
        tangentMode: -559038737
      - time: .428571433
        value: {x: 0, y: 0, z: -.283356547, w: .959014654}
        inSlope: {x: 0, y: 0, z: .0308366604, w: .00934263505}
        outSlope: {x: 0, y: 0, z: .0799058676, w: .0220739637}
        tangentMode: -559038737
      - time: .857142866
        value: {x: 0, y: 0, z: -.249111176, w: .968474925}
        inSlope: {x: 0, y: 0, z: .0799058676, w: .0220739637}
        outSlope: {x: 0, y: 0, z: .110426329, w: .0255611949}
        tangentMode: -559038737
      - time: 1.28571427
        value: {x: 0, y: 0, z: -.201785609, w: .979429722}
        inSlope: {x: 0, y: 0, z: .110426329, w: .0255611949}
        outSlope: {x: 0, y: 0, z: .121571116, w: .0217098575}
        tangentMode: -559038737
      - time: 1.71428573
        value: {x: 0, y: 0, z: -.149683699, w: .988733947}
        inSlope: {x: 0, y: 0, z: .121571116, w: .0217098575}
        outSlope: {x: 0, y: 0, z: .11244829, w: .0142390355}
        tangentMode: -559038737
      - time: 2.14285707
        value: {x: 0, y: 0, z: -.101491585, w: .99483639}
        inSlope: {x: 0, y: 0, z: .11244829, w: .0142390355}
        outSlope: {x: 0, y: 0, z: .0826071799, w: .00694719888}
        tangentMode: -559038737
      - time: 2.57142854
        value: {x: 0, y: 0, z: -.0660885051, w: .997813761}
        inSlope: {x: 0, y: 0, z: .0826071799, w: .00694719888}
        outSlope: {x: 0, y: 0, z: 0, w: 0}
        tangentMode: -559038737
      - time: 2.99900007
        value: {x: 0, y: 0, z: -.0523359403, w: .99862957}
        inSlope: {x: 0, y: 0, z: .0321643613, w: .00190800533}
        outSlope: {x: 0, y: 0, z: 0, w: 0}
        tangentMode: -559038737
      - time: 3
        value: {x: 0, y: 0, z: -.0523359589, w: .99862957}
        inSlope: {x: 0, y: 0, z: -1.86278012e-05, w: 0}
        outSlope: {x: 0, y: 0, z: 0, w: 0}
        tangentMode: -559038737
      m_PreInfinity: 2
      m_PostInfinity: 2
    path: Root/Head
  - curve:
      serializedVersion: 2
      m_Curve:
      - time: 0
        value: {x: 0, y: 0, z: 0, w: 1}
        inSlope: {x: 0, y: 0, z: 0, w: 0}
        outSlope: {x: 0, y: 0, z: 0, w: 0}
        tangentMode: 125829136
      - time: .00100000005
        value: {x: 0, y: 0, z: 0, w: 1}
        inSlope: {x: 0, y: 0, z: 0, w: 0}
        outSlope: {x: 0, y: 0, z: 0, w: 0}
        tangentMode: -559038737
      - time: .428571433
        value: {x: 0, y: 0, z: 0, w: 1}
        inSlope: {x: 0, y: 0, z: 0, w: 0}
        outSlope: {x: 0, y: 0, z: 0, w: 0}
        tangentMode: -559038737
      - time: .857142866
        value: {x: 0, y: 0, z: 0, w: 1}
        inSlope: {x: 0, y: 0, z: 0, w: 0}
        outSlope: {x: 0, y: 0, z: 0, w: 0}
        tangentMode: -542900206
      - time: 1.28571427
        value: {x: 0, y: 0, z: 0, w: 1}
        inSlope: {x: 0, y: 0, z: 0, w: 0}
        outSlope: {x: 0, y: 0, z: 0, w: 0}
        tangentMode: 4
      - time: 1.71428573
        value: {x: 0, y: 0, z: 0, w: 1}
        inSlope: {x: 0, y: 0, z: 0, w: 0}
        outSlope: {x: 0, y: 0, z: 0, w: 0}
        tangentMode: -559038737
      - time: 2.14285707
        value: {x: 0, y: 0, z: 0, w: 1}
        inSlope: {x: 0, y: 0, z: 0, w: 0}
        outSlope: {x: 0, y: 0, z: 0, w: 0}
        tangentMode: -559038737
      - time: 2.57142854
        value: {x: 0, y: 0, z: 0, w: 1}
        inSlope: {x: 0, y: 0, z: 0, w: 0}
        outSlope: {x: 0, y: 0, z: 0, w: 0}
        tangentMode: 130132928
      - time: 2.99900007
        value: {x: 0, y: 0, z: 0, w: 1}
        inSlope: {x: 0, y: 0, z: 0, w: 0}
        outSlope: {x: 0, y: 0, z: 0, w: 0}
        tangentMode: 0
      - time: 3
        value: {x: 0, y: 0, z: 0, w: 1}
        inSlope: {x: 0, y: 0, z: 0, w: 0}
        outSlope: {x: 0, y: 0, z: 0, w: 0}
        tangentMode: -559038737
      m_PreInfinity: 2
      m_PostInfinity: 2
    path: Root/Head/Face
  - curve:
      serializedVersion: 2
      m_Curve:
      - time: 0
        value: {x: 0, y: 0, z: -.138308913, w: .990389168}
        inSlope: {x: 0, y: 0, z: 0, w: 0}
        outSlope: {x: 0, y: 0, z: 4.47034799e-05, w: 0}
        tangentMode: -559038737
      - time: .00100000005
        value: {x: 0, y: 0, z: -.138308868, w: .990389168}
        inSlope: {x: 0, y: 0, z: 4.47034799e-05, w: 0}
        outSlope: {x: 0, y: 0, z: .0178126078, w: .00241780165}
        tangentMode: -559038737
      - time: .428571433
        value: {x: 0, y: 0, z: -.130692706, w: .991422951}
        inSlope: {x: 0, y: 0, z: .0178126078, w: .00241780165}
        outSlope: {x: 0, y: 0, z: .0459114499, w: .00558980322}
        tangentMode: 0
      - time: .857142866
        value: {x: 0, y: 0, z: -.11101637, w: .993818581}
        inSlope: {x: 0, y: 0, z: .0459114499, w: .00558980322}
        outSlope: {x: 0, y: 0, z: .0629379973, w: .00616836594}
        tangentMode: -559038737
      - time: 1.28571427
        value: {x: 0, y: 0, z: -.084042944, w: .996462166}
        inSlope: {x: 0, y: 0, z: .0629379973, w: .00616836594}
        outSlope: {x: 0, y: 0, z: .0687366724, w: .00477633858}
        tangentMode: -559038737
      - time: 1.71428573
        value: {x: 0, y: 0, z: -.0545843691, w: .998509169}
        inSlope: {x: 0, y: 0, z: .0687366724, w: .00477633858}
        outSlope: {x: 0, y: 0, z: .0631862655, w: .00259588216}
        tangentMode: -559038737
      - time: 2.14285707
        value: {x: 0, y: 0, z: -.0275045466, w: .999621689}
        inSlope: {x: 0, y: 0, z: .0631862655, w: .00259588216}
        outSlope: {x: 0, y: 0, z: .0462432951, w: .000813881517}
        tangentMode: -559038737
      - time: 2.57142854
        value: {x: 0, y: 0, z: -.00768599007, w: .999970496}
        inSlope: {x: 0, y: 0, z: .0462432951, w: .000813881517}
        outSlope: {x: 0, y: 0, z: 0, w: 0}
        tangentMode: 125829136
      - time: 2.99900007
        value: {x: 0, y: 0, z: -4.16118908e-08, w: 1}
        inSlope: {x: 0, y: 0, z: .0179758184, w: 6.90043598e-05}
        outSlope: {x: 0, y: 0, z: 0, w: 0}
        tangentMode: -559038737
      - time: 3
        value: {x: 0, y: 0, z: 0, w: 1}
        inSlope: {x: 0, y: 0, z: 4.16149087e-05, w: 0}
        outSlope: {x: 0, y: 0, z: 0, w: 0}
        tangentMode: 130132928
      m_PreInfinity: 2
      m_PostInfinity: 2
    path: Root/RightLeg
  - curve:
      serializedVersion: 2
      m_Curve:
      - time: 0
        value: {x: 0, y: 0, z: 0, w: 1}
        inSlope: {x: 0, y: 0, z: 0, w: 0}
        outSlope: {x: 0, y: 0, z: 0, w: 0}
        tangentMode: 125829136
      - time: .00100000005
        value: {x: 0, y: 0, z: 0, w: 1}
        inSlope: {x: 0, y: 0, z: 0, w: 0}
        outSlope: {x: 0, y: 0, z: 0, w: 0}
        tangentMode: -559038737
      - time: .428571433
        value: {x: 0, y: 0, z: 0, w: 1}
        inSlope: {x: 0, y: 0, z: 0, w: 0}
        outSlope: {x: 0, y: 0, z: 0, w: 0}
        tangentMode: -559038737
      - time: .857142866
        value: {x: 0, y: 0, z: 0, w: 1}
        inSlope: {x: 0, y: 0, z: 0, w: 0}
        outSlope: {x: 0, y: 0, z: 0, w: 0}
        tangentMode: 130464224
      - time: 1.28571427
        value: {x: 0, y: 0, z: 0, w: 1}
        inSlope: {x: 0, y: 0, z: 0, w: 0}
        outSlope: {x: 0, y: 0, z: 0, w: 0}
        tangentMode: 0
      - time: 1.71428573
        value: {x: 0, y: 0, z: 0, w: 1}
        inSlope: {x: 0, y: 0, z: 0, w: 0}
        outSlope: {x: 0, y: 0, z: 0, w: 0}
        tangentMode: -559038737
      - time: 2.14285707
        value: {x: 0, y: 0, z: 0, w: 1}
        inSlope: {x: 0, y: 0, z: 0, w: 0}
        outSlope: {x: 0, y: 0, z: 0, w: 0}
        tangentMode: -559038737
      - time: 2.57142854
        value: {x: 0, y: 0, z: 0, w: 1}
        inSlope: {x: 0, y: 0, z: 0, w: 0}
        outSlope: {x: 0, y: 0, z: 0, w: 0}
        tangentMode: -559038737
      - time: 2.99900007
        value: {x: 0, y: 0, z: 0, w: 1}
        inSlope: {x: 0, y: 0, z: 0, w: 0}
        outSlope: {x: 0, y: 0, z: 0, w: 0}
        tangentMode: -559038737
      - time: 3
        value: {x: 0, y: 0, z: 0, w: 1}
        inSlope: {x: 0, y: 0, z: 0, w: 0}
        outSlope: {x: 0, y: 0, z: 0, w: 0}
        tangentMode: 130464584
      m_PreInfinity: 2
      m_PostInfinity: 2
    path: Root/LeftLeg
  m_CompressedRotationCurves: []
  m_PositionCurves:
  - curve:
      serializedVersion: 2
      m_Curve:
      - time: 0
        value: {x: 19, y: -9, z: 0}
        inSlope: {x: 0, y: 0, z: 0}
        outSlope: {x: 0, y: 0, z: 0}
        tangentMode: -559038737
      - time: 3
        value: {x: 19, y: -9, z: 0}
        inSlope: {x: 0, y: 0, z: 0}
        outSlope: {x: 0, y: 0, z: 0}
        tangentMode: 8
      m_PreInfinity: 2
      m_PostInfinity: 2
    path: Root
  - curve:
      serializedVersion: 2
      m_Curve:
      - time: 0
        value: {x: -23.0950203, y: 132.638763, z: 0}
        inSlope: {x: 0, y: 0, z: 0}
        outSlope: {x: 0, y: 0, z: 0}
        tangentMode: -559038737
      - time: 3
        value: {x: -34, y: 139, z: 0}
        inSlope: {x: 0, y: 0, z: 0}
        outSlope: {x: 0, y: 0, z: 0}
        tangentMode: -559038737
      m_PreInfinity: 2
      m_PostInfinity: 2
    path: Root/Body
  - curve:
      serializedVersion: 2
      m_Curve:
      - time: 0
        value: {x: -4, y: 191, z: 0}
        inSlope: {x: 0, y: 0, z: 0}
        outSlope: {x: 0, y: 0, z: 0}
        tangentMode: -559038737
      - time: 3
        value: {x: -4, y: 191, z: 0}
        inSlope: {x: 0, y: 0, z: 0}
        outSlope: {x: 0, y: 0, z: 0}
        tangentMode: -559038737
      m_PreInfinity: 2
      m_PostInfinity: 2
    path: Root/LeftArm
  - curve:
      serializedVersion: 2
      m_Curve:
      - time: 0
        value: {x: -56.8250351, y: 193.81749, z: 0}
        inSlope: {x: 0, y: 0, z: 0}
        outSlope: {x: 0, y: 0, z: 0}
        tangentMode: -559038737
      - time: 3
        value: {x: -75, y: 192, z: 0}
        inSlope: {x: 0, y: 0, z: 0}
        outSlope: {x: 0, y: 0, z: 0}
        tangentMode: -559038737
      m_PreInfinity: 2
      m_PostInfinity: 2
    path: Root/RightArm
  - curve:
      serializedVersion: 2
      m_Curve:
      - time: 0
        value: {x: 15.889904, y: 219.098785, z: 0}
        inSlope: {x: 0, y: 0, z: 0}
        outSlope: {x: 0, y: 0, z: 0}
        tangentMode: -559038737
      - time: 3
        value: {x: -35, y: 240, z: 0}
        inSlope: {x: 0, y: 0, z: 0}
        outSlope: {x: 0, y: 0, z: 0}
        tangentMode: -559038737
      m_PreInfinity: 2
      m_PostInfinity: 2
    path: Root/Head
  - curve:
      serializedVersion: 2
      m_Curve:
      - time: 0
        value: {x: -5, y: 34, z: 0}
        inSlope: {x: 0, y: 0, z: 0}
        outSlope: {x: 0, y: 0, z: 0}
        tangentMode: -559038737
      - time: 3
        value: {x: -5, y: 34, z: 0}
        inSlope: {x: 0, y: 0, z: 0}
        outSlope: {x: 0, y: 0, z: 0}
        tangentMode: -559038737
      m_PreInfinity: 2
      m_PostInfinity: 2
    path: Root/Head/Face
  - curve:
      serializedVersion: 2
      m_Curve:
      - time: 0
        value: {x: -67, y: 91.6349945, z: 0}
        inSlope: {x: 0, y: 0, z: 0}
        outSlope: {x: 0, y: 0, z: 0}
        tangentMode: -33686019
      - time: 3
        value: {x: -67, y: 88, z: 0}
        inSlope: {x: 0, y: 0, z: 0}
        outSlope: {x: 0, y: 0, z: 0}
        tangentMode: -559038737
      m_PreInfinity: 2
      m_PostInfinity: 2
    path: Root/RightLeg
  - curve:
      serializedVersion: 2
      m_Curve:
      - time: 0
        value: {x: -14, y: 88, z: 0}
        inSlope: {x: 0, y: 0, z: 0}
        outSlope: {x: 0, y: 0, z: 0}
        tangentMode: -559038723
      - time: 3
        value: {x: -14, y: 88, z: 0}
        inSlope: {x: 0, y: 0, z: 0}
        outSlope: {x: 0, y: 0, z: 0}
        tangentMode: -559038737
      m_PreInfinity: 2
      m_PostInfinity: 2
    path: Root/LeftLeg
  m_ScaleCurves:
  - curve:
      serializedVersion: 2
      m_Curve:
      - time: 0
        value: {x: .422408283, y: .422408283, z: 0}
        inSlope: {x: 0, y: 0, z: 0}
        outSlope: {x: 0, y: 0, z: 0}
        tangentMode: 130760376
      - time: 3
        value: {x: .422408283, y: .422408283, z: 0}
        inSlope: {x: 0, y: 0, z: 0}
        outSlope: {x: 0, y: 0, z: 0}
        tangentMode: -559038737
      m_PreInfinity: 2
      m_PostInfinity: 2
    path: Root
  - curve:
      serializedVersion: 2
      m_Curve:
      - time: 0
        value: {x: 1, y: 1, z: 1}
        inSlope: {x: 0, y: 0, z: 0}
        outSlope: {x: 0, y: 0, z: 0}
        tangentMode: -559038737
      - time: 3
        value: {x: 1, y: 1, z: 1}
        inSlope: {x: 0, y: 0, z: 0}
        outSlope: {x: 0, y: 0, z: 0}
        tangentMode: -559038737
      m_PreInfinity: 2
      m_PostInfinity: 2
    path: Root/Body
  - curve:
      serializedVersion: 2
      m_Curve:
      - time: 0
        value: {x: 1, y: 1, z: 1}
        inSlope: {x: 0, y: 0, z: 0}
        outSlope: {x: 0, y: 0, z: 0}
        tangentMode: -559038737
      - time: 3
        value: {x: 1, y: 1, z: 1}
        inSlope: {x: 0, y: 0, z: 0}
        outSlope: {x: 0, y: 0, z: 0}
        tangentMode: -559038737
      m_PreInfinity: 2
      m_PostInfinity: 2
    path: Root/Body/Body_Sprite
  - curve:
      serializedVersion: 2
      m_Curve:
      - time: 0
        value: {x: 1, y: 1, z: 1}
        inSlope: {x: 0, y: 0, z: 0}
        outSlope: {x: 0, y: 0, z: 0}
        tangentMode: -559038737
      - time: 3
        value: {x: 1, y: 1, z: 1}
        inSlope: {x: 0, y: 0, z: 0}
        outSlope: {x: 0, y: 0, z: 0}
        tangentMode: -559038737
      m_PreInfinity: 2
      m_PostInfinity: 2
    path: Root/LeftArm
  - curve:
      serializedVersion: 2
      m_Curve:
      - time: 0
        value: {x: 1, y: 1, z: 1}
        inSlope: {x: 0, y: 0, z: 0}
        outSlope: {x: 0, y: 0, z: 0}
        tangentMode: -559038737
      - time: 3
        value: {x: 1, y: 1, z: 1}
        inSlope: {x: 0, y: 0, z: 0}
        outSlope: {x: 0, y: 0, z: 0}
        tangentMode: -559038737
      m_PreInfinity: 2
      m_PostInfinity: 2
    path: Root/LeftArm/LeftArm_Sprite
  - curve:
      serializedVersion: 2
      m_Curve:
      - time: 0
        value: {x: 1, y: 1, z: 1}
        inSlope: {x: 0, y: 0, z: 0}
        outSlope: {x: 0, y: 0, z: 0}
        tangentMode: -559038737
      - time: 3
        value: {x: 1, y: 1, z: 1}
        inSlope: {x: 0, y: 0, z: 0}
        outSlope: {x: 0, y: 0, z: 0}
        tangentMode: -559038737
      m_PreInfinity: 2
      m_PostInfinity: 2
    path: Root/RightArm
  - curve:
      serializedVersion: 2
      m_Curve:
      - time: 0
        value: {x: 1, y: 1, z: 1}
        inSlope: {x: 0, y: 0, z: 0}
        outSlope: {x: 0, y: 0, z: 0}
        tangentMode: 75
      - time: 3
        value: {x: 1, y: 1, z: 1}
        inSlope: {x: 0, y: 0, z: 0}
        outSlope: {x: 0, y: 0, z: 0}
        tangentMode: -559038737
      m_PreInfinity: 2
      m_PostInfinity: 2
    path: Root/RightArm/RightArm_Sprite
  - curve:
      serializedVersion: 2
      m_Curve:
      - time: 0
        value: {x: 1, y: 1, z: 1}
        inSlope: {x: 0, y: 0, z: 0}
        outSlope: {x: 0, y: 0, z: 0}
        tangentMode: -559038737
      - time: 3
        value: {x: 1, y: 1, z: 1}
        inSlope: {x: 0, y: 0, z: 0}
        outSlope: {x: 0, y: 0, z: 0}
        tangentMode: -559038737
      m_PreInfinity: 2
      m_PostInfinity: 2
    path: Root/Head
  - curve:
      serializedVersion: 2
      m_Curve:
      - time: 0
        value: {x: 1, y: 1, z: 1}
        inSlope: {x: 0, y: 0, z: 0}
        outSlope: {x: 0, y: 0, z: 0}
        tangentMode: -559038737
      - time: 3
        value: {x: 1, y: 1, z: 1}
        inSlope: {x: 0, y: 0, z: 0}
        outSlope: {x: 0, y: 0, z: 0}
        tangentMode: -559038737
      m_PreInfinity: 2
      m_PostInfinity: 2
    path: Root/Head/Head_Sprite
  - curve:
      serializedVersion: 2
      m_Curve:
      - time: 0
        value: {x: 1, y: 1, z: 1}
        inSlope: {x: 0, y: 0, z: 0}
        outSlope: {x: 0, y: 0, z: 0}
        tangentMode: -559038737
      - time: 3
        value: {x: 1, y: 1, z: 1}
        inSlope: {x: 0, y: 0, z: 0}
        outSlope: {x: 0, y: 0, z: 0}
        tangentMode: -559038737
      m_PreInfinity: 2
      m_PostInfinity: 2
    path: Root/Head/Face
  - curve:
      serializedVersion: 2
      m_Curve:
      - time: 0
        value: {x: 1, y: 1, z: 1}
        inSlope: {x: 0, y: 0, z: 0}
        outSlope: {x: 0, y: 0, z: 0}
        tangentMode: -559038737
      - time: 3
        value: {x: 1, y: 1, z: 1}
        inSlope: {x: 0, y: 0, z: 0}
        outSlope: {x: 0, y: 0, z: 0}
        tangentMode: -559038737
      m_PreInfinity: 2
      m_PostInfinity: 2
    path: Root/Head/Face/Face_Sprite
  - curve:
      serializedVersion: 2
      m_Curve:
      - time: 0
        value: {x: 1, y: 1, z: 1}
        inSlope: {x: 0, y: 0, z: 0}
        outSlope: {x: 0, y: 0, z: 0}
        tangentMode: 59
      - time: 3
        value: {x: 1, y: 1, z: 1}
        inSlope: {x: 0, y: 0, z: 0}
        outSlope: {x: 0, y: 0, z: 0}
        tangentMode: -559038737
      m_PreInfinity: 2
      m_PostInfinity: 2
    path: Root/RightLeg
  - curve:
      serializedVersion: 2
      m_Curve:
      - time: 0
        value: {x: 1, y: 1, z: 1}
        inSlope: {x: 0, y: 0, z: 0}
        outSlope: {x: 0, y: 0, z: 0}
        tangentMode: -559038737
      - time: 3
        value: {x: 1, y: 1, z: 1}
        inSlope: {x: 0, y: 0, z: 0}
        outSlope: {x: 0, y: 0, z: 0}
        tangentMode: 0
      m_PreInfinity: 2
      m_PostInfinity: 2
    path: Root/RightLeg/RightLeg_Sprite
  - curve:
      serializedVersion: 2
      m_Curve:
      - time: 0
        value: {x: 1, y: 1, z: 1}
        inSlope: {x: 0, y: 0, z: 0}
        outSlope: {x: 0, y: 0, z: 0}
        tangentMode: -559038737
      - time: 3
        value: {x: 1, y: 1, z: 1}
        inSlope: {x: 0, y: 0, z: 0}
        outSlope: {x: 0, y: 0, z: 0}
        tangentMode: -559038737
      m_PreInfinity: 2
      m_PostInfinity: 2
    path: Root/LeftLeg
  - curve:
      serializedVersion: 2
      m_Curve:
      - time: 0
        value: {x: 1, y: 1, z: 1}
        inSlope: {x: 0, y: 0, z: 0}
        outSlope: {x: 0, y: 0, z: 0}
        tangentMode: 4
      - time: 3
        value: {x: 1, y: 1, z: 1}
        inSlope: {x: 0, y: 0, z: 0}
        outSlope: {x: 0, y: 0, z: 0}
        tangentMode: 12
      m_PreInfinity: 2
      m_PostInfinity: 2
    path: Root/LeftLeg/LeftLeg_Sprite
  m_FloatCurves: []
  m_SampleRate: 60
  m_WrapMode: 2
  m_Bounds:
    m_Center: {x: 0, y: 0, z: 0}
    m_Extent: {x: 0, y: 0, z: 0}
  m_MuscleClipInfo:
    m_StartTime: 0
    m_StopTime: 1
    m_OrientationOffsetY: 0
    m_Level: 0
    m_CycleOffset: 0
    m_LoopBlend: 0
    m_LoopBlendOrientation: 0
    m_LoopBlendPositionY: 0
    m_LoopBlendPositionXZ: 0
    m_KeepOriginalOrientation: 0
    m_KeepOriginalPositionY: 1
    m_KeepOriginalPositionXZ: 0
    m_HeightFromFeet: 0
    m_Mirror: 0
  m_EditorCurves: []
  m_EulerEditorCurves: []
  m_Events:
  - time: 0
    functionName: AnimationEvent_Triggered
    data: 
    objectReferenceParameter: {fileID: 0}
    floatParameter: 0
    intParameter: 37
    messageOptions: 0
  - time: 3
    functionName: AnimationEvent_Triggered
    data: 
    objectReferenceParameter: {fileID: 0}
    floatParameter: 0
    intParameter: 38
    messageOptions: 0
