<?xml version="1.0" encoding="utf-8"?>
<!-- Generator: Adobe Illustrator 16.0.0, SVG Export Plug-In . SVG Version: 6.00 Build 0)  -->
<!DOCTYPE svg PUBLIC "-//W3C//DTD SVG 1.1//EN" "http://www.w3.org/Graphics/SVG/1.1/DTD/svg11.dtd">
<svg version="1.1" id="Layer_1" xmlns="http://www.w3.org/2000/svg" xmlns:xlink="http://www.w3.org/1999/xlink" x="0px" y="0px"
	 width="2272px" height="2272px" viewBox="0 0 2272 2272" enable-background="new 0 0 2272 2272" xml:space="preserve">
<g id="Nancy_Hair_Back">
	<path fill="#F1EB55" d="M803.803,894.549l-16.57,466.633c0,0,271.119,86.973,588.121-19.332
		c5.52-191.896-30.383-472.148-30.383-472.148s64.727-169.809-235.195-204.328C809.85,630.865,803.803,894.549,803.803,894.549z"/>
	<path fill="#AB802C" d="M867.533,1393.99c-0.195-0.035-0.391-0.076-0.582-0.123l-82.836-19.33
		c-6.15-1.436-10.525-6.885-10.596-13.201c-0.014-1.053-1.146-106.342,1.604-225.467c3.709-160.645,12.369-268.754,25.734-321.32
		c38.512-151.475,233.826-163.246,292.77-163.246c7.74,0,13.148,0.195,15.561,0.309c2.578-0.32,8.039-0.852,15.986-0.852
		c30.473,0,92.941,7.594,168.939,58.441c80.229,53.674,79.607,153.021,79.061,240.672c-0.129,20.48-0.25,39.826,0.604,58.209
		c4.018,86.727,7.98,173.459,11.941,260.193l3.338,72.947c0.207,4.533-1.844,8.875-5.477,11.6
		c-1.016,0.762-24.992,18.475-59.531,21.23c-14.93,4.51-125.469,36.277-276.162,36.279c-0.008,0-0.006,0-0.014,0
		C985.902,1410.332,925.223,1404.834,867.533,1393.99z M1358.318,1269.527c-3.961-86.729-7.93-173.455-11.945-260.178
		c-0.885-19.1-0.762-38.797-0.633-59.648c0.533-84.676,1.082-172.232-66.883-217.701c-69.973-46.818-126.32-53.807-153.684-53.807
		c-8.445,0-13.172,0.715-13.176,0.715l0,0c-1.002,0.164-2.023,0.219-3.039,0.156c-0.055-0.004-5.734-0.332-15.332-0.332
		c-53.941,0-232.547,10.285-266.184,142.578c-28.016,110.188-27.031,462.742-26.586,528.965l72.035,16.814
		c55.943,10.49,114.818,15.811,174.994,15.811c154.299-0.002,268.385-35.146,269.521-35.502c1.039-0.324,2.121-0.527,3.203-0.598
		c18.221-1.189,32.969-7.979,40.676-12.301L1358.318,1269.527z"/>
</g>
</svg>
