<?xml version="1.0" encoding="utf-8"?>
<!-- Generator: Adobe Illustrator 16.0.0, SVG Export Plug-In . SVG Version: 6.00 Build 0)  -->
<!DOCTYPE svg PUBLIC "-//W3C//DTD SVG 1.1//EN" "http://www.w3.org/Graphics/SVG/1.1/DTD/svg11.dtd">
<svg version="1.1" id="Layer_1" xmlns="http://www.w3.org/2000/svg" xmlns:xlink="http://www.w3.org/1999/xlink" x="0px" y="0px"
	 width="2272px" height="2272px" viewBox="0 0 2272 2272" enable-background="new 0 0 2272 2272" xml:space="preserve">
<g id="Nancy_Arm_Left">
	<path fill="#B89A58" d="M1179.888,1062.4c0,0,84.928-262.887,85.531-262.09c-9.184-61.131-52.797-51.91-96.043,55.611
		c-47.074,76.768-153.363,250.334-167.539,275.529c85.312,45.23,86.168,84.361,82.266,145.531
		C1166.296,1083.266,1179.888,1062.4,1179.888,1062.4z"/>
	<path fill="#F7C88F" d="M1034.007,1147c0,0,43.846,44.566,37.084,81.223c-17.967,35.217-46.82,71.709-46.82,71.709
		s-15.383,10.074-16.656-0.82c-1.268-10.891,4.033-36.352,4.033-36.352s-70.506,57.914-102.498,20.246
		c-1.588-13.613-1.588-13.613-1.588-13.613S1017.774,1220.648,1034.007,1147z"/>
	<path fill="#886D33" d="M1098.683,1257.01c46.619-70.527,145.039-377.178,165.252-445.199c-3.525-9.205-25.836,21.43-42.289,50.264
		c-3.889,6.807-73.539,160.914-76.176,170.922c-19.881,75.43-53.371,121.77-71.832,197.709
		C1068.614,1251.354,1087.101,1274.533,1098.683,1257.01z"/>
	<path fill="#E2A672" d="M1002.058,1294.717c21.83-25.762,33.756-58.656,41.715-91.066c3.342-13.605,25.059-10.438,21.682,3.334
		c-8.871,36.088-21.867,72.635-46.195,101.326C1010.118,1319.09,992.882,1305.529,1002.058,1294.717z"/>
	<path fill="#503A2B" d="M906.646,1289.787c-3.469,0-6.691-2.211-7.82-5.688c-4.965-15.316,11.277-25.84,22.275-29.91
		c74.459-45.18,102.199-106.764,102.471-107.383c1.828-4.15,6.68-6.047,10.832-4.223c4.156,1.824,6.051,6.66,4.234,10.816
		c-1.189,2.725-30.043,67.23-109.736,115.289c-0.486,0.297-1.002,0.539-1.539,0.727c-6.26,2.215-13.648,7.277-12.893,9.609
		c1.4,4.32-0.965,8.961-5.285,10.359C908.341,1289.658,907.487,1289.787,906.646,1289.787z"/>
	<path fill="#503A2B" d="M1073.663,1228.021c-2.562,6.039-5.18,11.883-7.896,17.768c-2.715,5.865-5.516,11.697-8.439,17.494
		c-2.922,5.797-5.961,11.557-9.215,17.27c-3.271,5.711-6.701,11.371-10.758,16.961c-2.053,2.791-4.248,5.559-6.988,8.32
		c-1.391,1.375-2.91,2.762-4.906,4.117c-0.967,0.672-2.166,1.346-3.52,1.941c-1.215,0.482-1.414,0.59-2.682,1.031
		c-2.094,0.707-4,1.305-6.855,1.562c-1.369,0.121-3.1,0.094-5.045-0.342c-2.018-0.471-4.426-1.666-6.162-3.492
		c-1.746-1.793-2.719-3.879-3.193-5.482c-0.482-1.617-0.695-3.084-0.762-4.291c-0.162-2.506,0.031-4.477,0.244-6.365
		c0.459-3.736,1.158-6.982,1.814-10.158l1.029-4.822l1.066-4.68l1.34-5.055l1.502-4.902c0.559-1.633,1.092-3.262,1.74-4.906
		c0.297-0.816,0.637-1.648,0.99-2.482c0.361-0.877,0.672-1.584,1.229-2.732l13.762,9.777c-1.773,1.805-3.25,3.152-4.9,4.641
		c-1.615,1.445-3.252,2.836-4.912,4.195c-3.33,2.715-6.758,5.285-10.283,7.723c-7.055,4.867-14.482,9.246-22.342,12.891
		c-7.836,3.66-16.092,6.641-24.688,8.564c-2.137,0.518-4.312,0.893-6.486,1.279c-2.188,0.324-4.377,0.66-6.588,0.848
		c-2.209,0.217-4.426,0.369-6.652,0.414c-2.223,0.129-4.457-0.016-6.686-0.023c-0.334,0-0.66-0.033-0.977-0.092l-0.143-0.029
		c-1.555-0.301-2.496-0.574-3.742-0.961c-1.178-0.381-2.375-0.836-3.633-1.438c-1.256-0.607-2.576-1.336-4.02-2.523
		c-1.402-1.168-3.043-2.865-4.105-5.49c-1.098-2.604-1.068-5.846-0.355-8.092c0.678-2.16,1.695-3.883,2.617-5.047
		c1.906-2.482,3.762-4.004,5.568-5.43c3.602-2.699,7.104-4.664,10.615-6.508c1.799-0.926,3.389-1.713,5.059-2.516l4.906-2.418
		c3.182-1.594,6.391-3.234,9.459-4.938c3.084-1.719,6.092-3.391,8.779-5.203c2.744-1.824,4.898-3.645,7.297-6.055l3.828-3.916
		c1.348-1.385,2.775-2.729,4.221-4.053c2.791-2.557,7.129-2.369,9.688,0.422c2.379,2.598,2.383,6.525,0.129,9.121l-0.09,0.102
		c-2.287,2.617-4.359,5.234-6.895,8.289c-2.498,3.09-5.885,6.18-9.139,8.625c-3.297,2.469-6.576,4.648-9.906,6.545
		c-3.322,1.951-6.623,3.744-9.982,5.529l-9.732,5.055c-2.996,1.58-5.902,3.291-8.186,5.027c-1.082,0.84-2.029,1.758-2.354,2.211
		c-0.246,0.26-0.059,0.213,0.02-0.211c0.195-0.48,0.25-1.791-0.152-2.691c-0.377-0.906-0.758-1.18-0.758-1.18
		c-0.025-0.006,0.264,0.188,0.666,0.369c0.723,0.369,2.289,0.842,3.104,0.994l-1.119-0.121c1.838-0.02,3.668,0.111,5.51-0.018
		c1.838-0.041,3.676-0.178,5.514-0.373c1.838-0.156,3.67-0.457,5.5-0.73c1.826-0.34,3.656-0.656,5.469-1.113
		c7.268-1.664,14.395-4.266,21.262-7.52c6.883-3.23,13.494-7.172,19.799-11.566c3.15-2.203,6.215-4.535,9.182-6.965
		c1.486-1.215,2.947-2.457,4.361-3.723c1.375-1.223,2.889-2.637,3.967-3.729c3.314-3.365,8.729-3.408,12.092-0.092
		c2.637,2.598,3.232,6.488,1.77,9.666l-0.098,0.205c-0.379,0.82-1.035,2.309-1.504,3.602c-0.527,1.324-0.984,2.73-1.463,4.113
		l-1.307,4.25l-1.121,4.191l-1.066,4.656l-0.973,4.539c-0.643,3.07-1.262,6.074-1.578,8.68c-0.156,1.277-0.227,2.5-0.166,3.184
		c0.006,0.387,0.082,0.5,0.037,0.414c-0.033-0.07-0.227-0.709-0.867-1.355c-0.629-0.676-1.572-1.111-2.045-1.188
		c-0.383-0.123-0.506-0.043-0.285-0.078c0.33,0,1.52-0.289,2.438-0.617c0.25-0.055,1.52-0.578,1.787-0.68
		c0.098-0.062,0.316-0.137,0.656-0.387c0.646-0.43,1.523-1.176,2.393-2.051c1.764-1.762,3.572-3.988,5.301-6.336
		c3.482-4.715,6.732-9.957,9.838-15.297c3.105-5.355,6.066-10.867,8.93-16.445c2.865-5.582,5.633-11.236,8.32-16.934
		c2.678-5.684,5.32-11.475,7.781-17.166l0.023-0.057c1.805-4.168,6.645-6.086,10.812-4.281
		C1073.507,1219.059,1075.423,1223.865,1073.663,1228.021z"/>
	<path fill="#493425" d="M1221.011,781.387l-3.797,5.23l-3.4,5.088c-2.27,3.439-4.592,7.109-6.859,10.691
		c-4.529,7.254-9,14.578-13.422,21.945c-8.84,14.74-17.541,29.605-26.156,44.521c-8.613,14.918-17.156,29.887-25.613,44.889
		l-12.566,22.52l-12.527,22.678l-50.273,90.512c-4.188,7.529-8.355,15.068-12.396,22.656l-12.232,22.715l-24.348,45.689
		l-5.992-15.453c1.055,0.383,1.424,0.555,2.037,0.816l1.592,0.725c1.008,0.49,2,0.982,2.932,1.5c1.902,1.02,3.678,2.111,5.43,3.232
		c3.475,2.258,6.713,4.715,9.811,7.297c3.119,2.562,5.982,5.338,8.797,8.148c2.762,2.85,5.402,5.789,7.902,8.822
		c2.494,3.037,4.854,6.158,7.113,9.336c2.242,3.189,4.355,6.445,6.387,9.746c1.963,3.328,3.916,6.668,5.66,10.092
		c1.844,3.387,3.422,6.875,5.094,10.328c1.496,3.51,3.133,6.98,4.469,10.541c1.439,3.529,2.754,7.096,3.986,10.682
		c1.326,3.564,2.359,7.195,3.533,10.797c1.105,3.613,2.066,7.258,3.102,10.889l2.68,10.963c0.77,3.672,1.602,7.336,2.32,11.012
		l1.988,11.055l1.686,11.078l-22.295-2.875l27.727-68.867l28.027-68.75l28.188-68.684c9.301-22.93,18.516-45.895,27.98-68.766
		l7.057-17.168l0.883-2.145l0.682-1.854l1.59-4.348l3.178-8.709l12.607-34.887c8.377-23.27,16.504-46.617,24.701-69.906
		c4.018-11.656,8.066-23.33,11.787-34.998c0.973-2.92,1.852-5.826,2.736-8.73l1.33-4.359l1.16-4.268l0.586-2.137l0.146-0.535
		c-0.012,0.055,0.07-0.311-0.012,0.09l0.029-0.145l0.059-0.283l0.234-1.137c0.311-1.502,0.676-3.117,0.803-4.291
		c0.4-2.482,0.668-5.32,0.656-7.906c0.174-10.574-4.088-19.736-12.486-22.783c-4.109-1.586-9.006-1.713-13.545-0.404
		c-4.553,1.293-8.699,3.986-11.703,7.629L1221.011,781.387z M1208.919,772.111c9.418-12.148,26.346-17.898,41.547-12.6
		c7.576,2.564,14.176,8.361,17.926,15.271c3.854,6.908,5.211,14.504,5.283,21.57c0.029,1.781,0.006,3.555-0.146,5.285
		c-0.076,1.727-0.297,3.514-0.547,5.309c-0.223,1.904-0.531,3.312-0.816,4.848l-0.213,1.141l-0.164,0.797l-0.141,0.594l-0.562,2.361
		l-1.125,4.729l-1.236,4.566c-0.82,3.045-1.641,6.094-2.525,9.078c-3.422,12.039-7.113,23.891-10.787,35.768
		c-3.709,11.854-7.471,23.68-11.385,35.447l-11.752,35.297l-11.932,35.225l-3.01,8.801l-1.512,4.404l-0.879,2.52l-0.832,2.168
		l-6.654,17.348c-8.816,23.156-17.883,46.215-26.861,69.305c-9.072,23.055-18.309,46.043-27.566,69.023l-27.779,68.939
		l-28.076,68.814c-2.426,5.949-9.215,8.801-15.16,6.375c-3.939-1.607-6.523-5.133-7.109-9.055l-0.027-0.193l-1.539-10.471
		l-1.82-10.4l-2.117-10.314l-2.439-10.219c-0.943-3.355-1.814-6.742-2.816-10.078c-1.064-3.309-1.994-6.676-3.191-9.926
		c-1.111-3.289-2.293-6.543-3.582-9.746c-1.193-3.25-2.656-6.355-3.982-9.539c-1.486-3.086-2.875-6.234-4.5-9.232
		c-1.527-3.061-3.25-5.99-4.934-8.939c-1.738-2.91-3.539-5.771-5.438-8.551c-1.91-2.766-3.895-5.471-5.977-8.074
		c-2.082-2.602-4.266-5.098-6.521-7.498c-2.295-2.346-4.617-4.674-7.088-6.752c-2.451-2.102-4.98-4.076-7.576-5.811
		c-1.295-0.854-2.604-1.686-3.895-2.396c-0.646-0.375-1.281-0.697-1.9-1.014l-1.359-0.639l-1.117-0.523
		c-5.389-2.535-7.705-8.957-5.172-14.348c0.09-0.188,0.199-0.402,0.297-0.582l24.838-45.447l12.559-22.744
		c4.154-7.604,8.416-15.129,12.697-22.637l25.658-45.031l25.779-44.889l12.848-22.457l13.008-22.508
		c8.721-14.939,17.514-29.822,26.389-44.668c8.875-14.844,17.838-29.641,26.979-44.369c4.57-7.363,9.203-14.705,13.928-22.021
		c2.408-3.674,4.752-7.266,7.291-10.99l3.893-5.607l3.885-5.188L1208.919,772.111z"/>
</g>
</svg>
