<?xml version="1.0" encoding="UTF-8" standalone="no"?>
<!-- Generator: Adobe Illustrator 16.2.0, SVG Export Plug-In . SVG Version: 6.00 Build 0)  -->

<svg
   xmlns:dc="http://purl.org/dc/elements/1.1/"
   xmlns:cc="http://creativecommons.org/ns#"
   xmlns:rdf="http://www.w3.org/1999/02/22-rdf-syntax-ns#"
   xmlns:svg="http://www.w3.org/2000/svg"
   xmlns="http://www.w3.org/2000/svg"
   xmlns:sodipodi="http://sodipodi.sourceforge.net/DTD/sodipodi-0.dtd"
   xmlns:inkscape="http://www.inkscape.org/namespaces/inkscape"
   version="1.1"
   x="0px"
   y="0px"
   width="260px"
   height="260px"
   viewBox="0 0 260 260"
   enable-background="new 0 0 260 260"
   xml:space="preserve"
   id="svg3017"
   inkscape:version="0.48.2 r9819"
   sodipodi:docname="BBT_PC_Male_Face.svg"><metadata
   id="metadata3057"><rdf:RDF><cc:Work
       rdf:about=""><dc:format>image/svg+xml</dc:format><dc:type
         rdf:resource="http://purl.org/dc/dcmitype/StillImage" /><dc:title></dc:title></cc:Work></rdf:RDF></metadata><defs
   id="defs3055" /><sodipodi:namedview
   pagecolor="#ffffff"
   bordercolor="#666666"
   borderopacity="1"
   objecttolerance="10"
   gridtolerance="10"
   guidetolerance="10"
   inkscape:pageopacity="0"
   inkscape:pageshadow="2"
   inkscape:window-width="640"
   inkscape:window-height="480"
   id="namedview3053"
   showgrid="false"
   inkscape:zoom="0.90769231"
   inkscape:cx="130"
   inkscape:cy="130"
   inkscape:window-x="0"
   inkscape:window-y="0"
   inkscape:window-maximized="0"
   inkscape:current-layer="svg3017" />
<g
   id="Layer_1">
</g>
<g
   id="Layer_2">
	<g
   id="g3021">
		<path
   fill="#FFFFFF"
   d="M20.418,137.467c0,0,9.051-22.271,24.848-17.282c20.519,6.481,18.899,16.741,18.899,16.741    s-2.159,17.822-22.685,17.285C22.013,153.698,20.418,137.467,20.418,137.467z"
   id="path3023" />
		<path
   fill="#FFFFFF"
   d="M104.671,137.467c0,0,9.051-22.271,24.849-17.282c20.52,6.481,18.898,16.741,18.898,16.741    s-2.158,17.822-22.683,17.285C106.267,153.698,104.671,137.467,104.671,137.467z"
   id="path3025" />
		<g
   id="g3027">
			<path
   fill="#0071B5"
   d="M51.202,137.467c0,9.547-4.107,17.285-9.177,17.285s-9.185-7.737-9.185-17.285     c0-9.542,4.115-17.28,9.185-17.28S51.202,127.925,51.202,137.467z"
   id="path3029" />
			<path
   fill="#0071B5"
   d="M134.918,137.467c0,9.547-4.114,17.285-9.183,17.285c-5.07,0-9.179-7.737-9.179-17.285     c0-9.542,4.108-17.28,9.179-17.28C130.804,120.188,134.918,127.925,134.918,137.467z"
   id="path3031" />
			<path
   fill="#6B482E"
   d="M20.772,136.844c-0.009,0.063,0.167-1.088,0.678-2.687c0.553-1.625,1.392-3.955,3.028-6.488     c1.632-2.503,3.989-5.325,7.326-7.465c1.664-1.053,3.528-1.929,5.509-2.553c1.981-0.567,4.054-0.955,6.104-1.025     c0.585-0.021,0.87-0.1,1.699-0.067l1.339,0.08c0.87,0.041,1.757,0.087,2.873,0.294c2.149,0.29,4.02,0.841,5.829,1.573     c1.811,0.708,3.484,1.628,4.905,2.71c1.465,1.021,2.684,2.203,3.716,3.34c2.098,2.271,3.222,4.587,3.945,6.19     c0.355,0.813,0.563,1.493,0.709,1.961c0.143,0.527,0.218,0.808,0.218,0.808c0.349,1.286-0.41,2.611-1.698,2.962     c-1.096,0.294-2.219-0.212-2.744-1.165l-0.202-0.367c0,0-0.076-0.139-0.222-0.401c-0.187-0.31-0.463-0.764-0.811-1.341     c-0.719-1.169-1.987-2.701-3.664-4.263c-0.852-0.766-1.82-1.546-2.957-2.169c-1.109-0.663-2.357-1.223-3.685-1.688     c-1.321-0.462-2.83-0.799-4.172-0.976c-0.616-0.142-1.507-0.187-2.421-0.212l-1.339-0.059l-0.978,0.056     c-3.055,0.093-5.934,0.895-8.342,2.265c-2.425,1.349-4.428,3.211-5.88,5.083c-1.462,1.861-2.528,3.617-3.149,4.889     c-0.658,1.311-0.907,1.905-0.921,1.969c-0.344,1.297-1.677,2.066-2.974,1.721C21.196,139.474,20.428,138.141,20.772,136.844z"
   id="path3033" />
			<path
   fill="#6B482E"
   d="M104.487,136.844c-0.012,0.063,0.203-1.079,0.747-2.657c0.582-1.611,1.484-3.9,3.14-6.391     c1.648-2.463,4.019-5.22,7.325-7.288c3.288-2.074,7.412-3.304,11.45-3.476c0.569-0.021,0.87-0.1,1.661-0.068l1.335,0.083     c0.874,0.044,1.76,0.091,2.846,0.299c2.102,0.297,3.952,0.813,5.746,1.512c1.788,0.677,3.453,1.563,4.867,2.61     c1.462,0.987,2.681,2.141,3.715,3.251c2.103,2.227,3.292,4.479,4.041,6.065c0.371,0.801,0.605,1.469,0.76,1.931     c0.158,0.522,0.241,0.8,0.241,0.8c0.383,1.279-0.343,2.626-1.62,3.01c-1.149,0.345-2.357-0.209-2.867-1.253l-0.159-0.326     c0,0-0.069-0.143-0.198-0.409c-0.158-0.316-0.418-0.776-0.76-1.372c-0.689-1.187-1.896-2.782-3.57-4.388     c-0.849-0.792-1.812-1.603-2.956-2.258c-1.113-0.698-2.37-1.293-3.721-1.79c-1.335-0.497-2.864-0.869-4.253-1.036     c-0.646-0.144-1.535-0.184-2.446-0.209l-1.338-0.053l-1.021,0.053c-3.113,0.073-6.078,0.908-8.508,2.367     c-2.45,1.419-4.44,3.349-5.874,5.26c-1.443,1.903-2.446,3.701-3.039,4.989c-0.617,1.329-0.832,1.934-0.848,1.994     c-0.345,1.297-1.677,2.069-2.975,1.724C104.912,139.474,104.144,138.141,104.487,136.844z"
   id="path3035" />
			<path
   fill="#6B482E"
   d="M75.302,131.785c0.889,4.208,1.493,8.419,1.892,12.682c0.231,2.124,0.307,4.269,0.42,6.408l0.026,3.225     c0.016,1.057,0,2.19-0.057,3.228c-0.237,4.398-0.931,8.7-2.196,12.943c-1.288,4.212-3.124,8.39-6.159,12.013h-0.003l0.193-2.971     c0.329,0.493,0.819,1.044,1.456,1.516c0.63,0.471,1.357,0.883,2.136,1.218c1.563,0.665,3.304,1.025,5.057,1.061     c0.88,0.028,1.76-0.058,2.637-0.187c0.877-0.149,1.733-0.386,2.578-0.684c0.826-0.342,1.671-0.674,2.438-1.165     c0.812-0.417,1.516-1.018,2.272-1.547l0.176-0.127c0.693-0.487,1.649-0.319,2.138,0.374c0.461,0.655,0.332,1.551-0.27,2.057     c-0.826,0.693-1.611,1.449-2.544,2.032c-0.88,0.648-1.874,1.142-2.861,1.633c-1.016,0.449-2.063,0.823-3.151,1.092     c-1.086,0.253-2.196,0.439-3.324,0.494c-2.242,0.12-4.523-0.165-6.711-0.905c-1.092-0.373-2.164-0.867-3.189-1.519     c-1.025-0.655-2.007-1.494-2.861-2.617l-1.025-1.348l1.219-1.623l0,0c2.513-2.753,4.341-6.364,5.648-10.137     c1.298-3.785,2.11-7.829,2.487-11.829c0.099-1.063,0.146-2.035,0.171-3.085l0.099-3.092c-0.032-2.066-0.022-4.136-0.165-6.209     c-0.226-4.136-0.658-8.297-1.354-12.362l-0.003-0.025c-0.137-0.785,0.392-1.53,1.178-1.665     C74.411,130.531,75.14,131.032,75.302,131.785z"
   id="path3037" />
			<path
   fill="#5C1919"
   d="M112.514,94.918c-0.058,0.049,0.695-0.515,1.968-1.154c1.257-0.667,3.082-1.517,5.401-2.247     c2.32-0.735,5.146-1.28,8.26-1.451c1.558,0.016,3.188-0.011,4.832,0.234c1.649,0.242,3.313,0.542,4.928,1.125     c1.658,0.414,3.167,1.234,4.661,1.984c1.513,0.723,2.766,1.807,4.057,2.706c1.229,0.977,2.213,2.128,3.231,3.113     c1.044,0.975,1.684,2.141,2.446,3.086c0.702,0.993,1.367,1.885,1.763,2.771c0.44,0.859,0.825,1.607,1.143,2.225     c0.602,1.239,0.942,1.946,0.942,1.946c0.627,1.296,0.089,2.856-1.208,3.484c-1.143,0.554-2.491,0.2-3.226-0.781l-0.211-0.285     c0,0-0.419-0.559-1.149-1.534c-0.348-0.49-0.772-1.087-1.26-1.771c-0.437-0.721-1.127-1.356-1.804-2.097     c-0.705-0.706-1.307-1.652-2.215-2.318c-0.887-0.682-1.726-1.532-2.731-2.179c-1.066-0.541-2-1.388-3.161-1.823     c-1.146-0.467-2.253-1.052-3.487-1.312c-1.184-0.415-2.434-0.581-3.668-0.743c-1.226-0.204-2.48-0.174-3.681-0.208     c-2.42,0.051-4.721,0.321-6.689,0.71c-1.962,0.39-3.623,0.792-4.737,1.144c-1.121,0.344-1.658,0.506-1.721,0.543     c-1.428,0.742-3.185,0.185-3.928-1.242C110.528,97.42,111.082,95.66,112.514,94.918z"
   id="path3039" />
			<path
   fill="#5C1919"
   d="M19.976,105.276c0.011-0.01,0.043-0.083,0.261-0.356c0.22-0.281,0.482-0.603,0.847-0.992     c0.728-0.755,1.762-1.847,3.202-2.871c1.424-1.043,3.196-2.117,5.231-2.965c1.006-0.46,2.091-0.799,3.192-1.139     c1.095-0.383,2.266-0.524,3.401-0.79c1.153-0.181,2.31-0.312,3.45-0.41c1.136-0.014,2.257-0.028,3.341-0.043     c2.153,0.177,4.137,0.393,5.792,0.766c1.677,0.297,2.987,0.824,3.928,1.095c0.921,0.323,1.449,0.506,1.449,0.506     c1.436,0.503,2.196,2.077,1.692,3.515c-0.421,1.209-1.601,1.938-2.819,1.84l-0.279-0.022c0,0-0.493-0.04-1.357-0.109     c-0.854-0.078-2.066-0.285-3.515-0.285c-1.443-0.149-3.111-0.111-4.877-0.049c-0.874,0.074-1.779,0.151-2.696,0.229     c-0.899,0.146-1.814,0.291-2.729,0.438c-1.791,0.421-3.582,0.85-5.177,1.479c-1.63,0.554-3.085,1.234-4.319,1.845     c-1.241,0.61-2.231,1.185-2.905,1.597c-0.323,0.216-0.595,0.372-0.721,0.441c-0.135,0.065-0.276,0.188-0.267,0.177     c-1.196,1.009-2.981,0.859-3.991-0.335c-0.752-0.891-0.86-2.112-0.369-3.095L19.976,105.276z"
   id="path3041" />
			<path
   fill="#6B482E"
   d="M73.753,197.908c0-0.004,0.697,0.588,1.912,1.312c1.24,0.753,3.119,1.681,5.544,2.304     c2.415,0.633,5.339,0.952,8.487,0.883c1.582-0.035,3.206-0.228,4.864-0.379c1.662-0.196,3.342-0.472,5.016-0.826l2.453-0.617     l2.303-0.722c1.529-0.528,3.2-1,4.71-1.592c3.098-1.073,5.955-2.26,8.306-3.443c1.217-0.535,2.231-1.174,3.156-1.708     c0.93-0.529,1.728-1.007,2.342-1.447c1.243-0.874,1.955-1.373,1.955-1.373l0.102-0.07c0.677-0.475,1.613-0.31,2.089,0.367     c0.465,0.662,0.315,1.572-0.323,2.057c0,0-0.74,0.557-2.031,1.535c-1.267,1.022-3.184,2.282-5.488,3.791     c-2.307,1.503-5.04,3.196-8.099,4.839c-1.547,0.804-3.119,1.601-4.901,2.294c-0.898,0.339-1.851,0.7-2.753,0.965     c-0.934,0.234-1.569,0.449-2.77,0.652c-1.851,0.313-3.721,0.541-5.578,0.687c-1.86,0.143-3.713,0.066-5.494-0.038     c-1.788-0.149-3.512-0.379-5.123-0.766c-1.61-0.386-3.113-0.826-4.456-1.383c-2.702-1.044-4.772-2.342-6.107-3.374     c-0.662-0.497-1.203-0.968-1.52-1.253c-0.315-0.282-0.48-0.431-0.48-0.431l-0.051-0.044c-0.604-0.545-0.657-1.475-0.114-2.083     C72.238,197.452,73.146,197.392,73.753,197.908z"
   id="path3043" />
		</g>
		<ellipse
   fill="#003C61"
   cx="43.981"
   cy="138.388"
   rx="4.253"
   ry="10.153"
   id="ellipse3045" />
		<ellipse
   fill="#003C61"
   cx="126.342"
   cy="138.388"
   rx="4.253"
   ry="10.153"
   id="ellipse3047" />
		<path
   fill="#FFFFFF"
   d="M41.829,135.173c0,2.936-1.424,5.316-3.19,5.316c-1.759,0-3.189-2.38-3.189-5.316    c0-2.937,1.431-5.317,3.189-5.317C40.405,129.856,41.829,132.236,41.829,135.173z"
   id="path3049" />
		<path
   fill="#FFFFFF"
   d="M125.678,135.173c0,2.936-1.424,5.316-3.189,5.316c-1.76,0-3.19-2.38-3.19-5.316    c0-2.937,1.431-5.317,3.19-5.317C124.254,129.856,125.678,132.236,125.678,135.173z"
   id="path3051" />
	</g>
</g>
</svg>