<?xml version="1.0" encoding="utf-8"?>
<!-- Generator: Adobe Illustrator 16.0.0, SVG Export Plug-In . SVG Version: 6.00 Build 0)  -->
<!DOCTYPE svg PUBLIC "-//W3C//DTD SVG 1.1//EN" "http://www.w3.org/Graphics/SVG/1.1/DTD/svg11.dtd">
<svg version="1.1" xmlns="http://www.w3.org/2000/svg" xmlns:xlink="http://www.w3.org/1999/xlink" x="0px" y="0px" width="430px"
	 height="430px" viewBox="0 0 430 430" enable-background="new 0 0 430 430" xml:space="preserve">
<g id="temp_x5F_gray">
	<rect x="-6325" y="-837" fill="#B3B3B3" width="9615" height="7719"/>
</g>
<g id="art">
	<path id="Hair-M-Buzz-High" opacity="0.7" fill="#FFFFFF" d="M254.049,122.323c1.318,1.652,2.515,3.396,3.651,5.177
		c0.536,0.838,1.058,1.685,1.575,2.534c0.328,0.541,0.293,0.665,0.91,0.507c0.449-0.116,0.897-0.237,1.344-0.364
		c3.328-0.95,6.59-2.204,9.637-3.853c1.533-0.831,3.014-1.767,4.385-2.848c0.619-0.488,1.216-1.006,1.779-1.558
		c0.501-0.49,0.342-0.48-0.125-0.974c-0.442-0.469-0.885-0.939-1.325-1.411c-2.997-3.208-5.938-6.467-8.884-9.721
		c-2.286,2.312-4.65,4.143-7.686,5.378c-1.498,0.609-3.049,1.08-4.613,1.481c-1.5,0.385-2.984,0.681-4.246,1.64
		C251.699,119.603,252.929,120.917,254.049,122.323C256.146,124.952,252.961,120.958,254.049,122.323z"/>
</g>
<g id="staging">
</g>
</svg>
