<?xml version="1.0" encoding="utf-8"?>
<!-- Generator: Adobe Illustrator 16.0.0, SVG Export Plug-In . SVG Version: 6.00 Build 0)  -->
<!DOCTYPE svg PUBLIC "-//W3C//DTD SVG 1.1//EN" "http://www.w3.org/Graphics/SVG/1.1/DTD/svg11.dtd">
<svg version="1.1" id="Layer_1" xmlns="http://www.w3.org/2000/svg" xmlns:xlink="http://www.w3.org/1999/xlink" x="0px" y="0px"
	 width="2722px" height="2722px" viewBox="0 0 2722 2722" enable-background="new 0 0 2722 2722" xml:space="preserve">
<g id="Eve_x5F_Head_x5F_Skinny">
	<path fill="#F1CBA6" d="M1622.855,1090c0,0,63.703,165.828,55.734,313.078c31.836,19.906,84.266,11.961,72.305,71.656
		c-11.938,59.672-25.867,129.359-84.234,92.836c-31.852,79.641-118.844,203.25-198.414,219.172
		c-79.625,15.93-161.125,9.039-232.75-46.68C1163.855,1684.359,1121.371,1557,1121.371,1557s-59.688,65-87.555,37.172
		c-27.867-27.898-47.102-106.297-45.055-131.383c3.953-49.727,46.414-51.711,106.094-11.938
		c-15.914-75.609-34.484-246.734-34.484-246.734S1407.949,1308.906,1622.855,1090z"/>
	<path fill="#E6B288" d="M1577.77,1684.359c-92.875,108.758-323.711,119.398-395.906-96.664
		c-42.305-126.523-83.867-250.539-87.336-383.578c-0.461-16.906-31.266-22.305-30.625-4.195
		c2.57,73.344,17.422,195.141,48.945,307.398c-7.016-2.188-15.125-0.766-18.969,6.859c-6.297,12.586-17.328,27.977-30.523,34.016
		c-13.375,6.109-20.016-8.664-27.234-17.375c-11.562-14.016-36.516,0.914-30.484,17.711c9,25.461,37.578,48.625,65.859,36.891
		c24.508-10.203,38.781-28.219,49.227-51.062c21.961,70.648,50.945,135.484,88.242,179.188
		c31.688,37.109,75.047,64.25,122.203,78.25c-0.391,0.234-0.719,0.531-1.086,0.773c29.195,0.617,58.398,2.156,87.484,4.812
		c4.68-0.711,9.391-1.359,14.047-2.188c6.945-1.281,13.031-0.117,18.156,2.477c39.586-7.891,77.539-26.297,109.617-57.406
		C1574.605,1725.508,1592.043,1667.633,1577.77,1684.359z"/>
	<path fill="#E6B288" d="M1680.434,1535.328c5.547,2.281,13.789,5.094,19.133,2.312c18.656-9.727,33.82,16.461,16.414,28.078
		c-14.758,9.812-33.391,8.242-48.594,0.578C1650.395,1557.727,1662.605,1528.008,1680.434,1535.328z"/>
	<path fill="#B07445" d="M1060.387,1555.633c-0.758,0-1.57-0.047-2.336-0.242c-6.477-1.289-10.648-7.555-9.383-14
		c0.156-0.82,7.922-42.695-15.688-49.977c-6.312-1.906-9.844-8.594-7.906-14.914c1.953-6.289,8.641-9.836,14.922-7.891
		c35.375,10.875,36.812,53.789,32.086,77.422C1070.949,1551.711,1065.965,1555.633,1060.387,1555.633z"/>
	<path fill="#B07445" d="M1072.723,1213.719c9.609,76.477,24.148,152.203,39.852,227.641
		c17.633,84.695,42.008,173.328,94.891,243.492c26.523,35.266,62.938,64.039,106.438,78.305
		c35.828,12.031,74.258,14.656,111.773,12.242c32-2.055,62.188-10.711,89.195-28.547c19.172-12.531,36.281-28.461,51.203-46.188
		c29.953-35.578,51.453-77.625,67.234-119.852c17.312-46.641,28.883-95.492,34.094-144.977c4.852-45.953,2.727-90.797-3.516-136.461
		c-6.258-45.805-14.75-91.852-27.484-136.336c-5.219-20.523-12.141-40.586-19.062-60.586c-1.766-5.102-3.281-10.469,1.422-14.727
		c5.969-5.398,14.047-1.75,16.617,4.992c15.008,39.328,27.703,78.953,37.414,119.938c11,46.414,20.938,94.359,23.898,142.047
		c6.039,97.359-13.547,199.367-56.555,287c-13.766,28.055-30.398,54.773-50.406,78.82c-16.43,19.648-35.578,37.789-57.703,52.445
		c-29.805,19.844-64.125,31.359-99.789,33.781c-43.289,2.938-87.062,0.148-128.383-14.016
		c-24.562-8.539-47.859-20.656-68.094-36.281c-20.477-15.328-37.719-33.859-52.484-53.281
		c-55.906-75.055-79.969-168.961-97.125-259.414c-14.312-75.445-26.289-151.562-32.859-228.086
		C1052.293,1203.352,1071.371,1201.352,1072.723,1213.719z"/>
	<path fill="#B07445" d="M1077.387,1454.789c-13.547-8.477-29.266-16.703-45.547-17.32c-6.438-0.305-11.984,1.031-15.984,4.523
		c-10.094,8.047-11.391,25.023-12.195,36.883c-0.891,13.086,0.625,26.445,4.039,39.086c5.188,19.297,15.039,37.43,27.156,49.852
		c6.023,6.234,12.766,10.578,18.969,12.914c6.234,2.508,11.859,2.688,16.992,1.539c10.367-2.305,18.992-10.562,24.211-16.914
		c4.258-4.977,7.695-12.797,13.594-16.164c7.703-4.398,17.836-1.055,21.344,7.117c6.359,14.852-15.062,35.5-24.656,44.102
		c-6.586,5.438-15.344,11.023-26.664,13.914c-11.18,2.984-24.688,2.547-36.555-2.062c-11.875-4.555-22.438-12-31.086-20.93
		c-17.461-17.867-28.836-41.188-34.586-65.562c-5.609-23.938-5.945-49.688,0.828-73.43c3.648-11.766,9.672-24.445,21.188-32.953
		c5.602-4.172,12.07-6.922,18.25-8.211c6.203-1.305,11.992-1.273,17.273-0.82c21.242,2.367,40.336,13.391,57.18,25.906
		C1102.863,1445.117,1089.387,1463.305,1077.387,1454.789z"/>
	<path fill="#B07445" d="M1695.598,1396.875c22.352-0.109,47.445,12.055,59.227,31.469c15.609,22.812,16.141,51.062,11.977,77.375
		c-3.992,25.234-12.664,52.758-30.07,72.062c-16.547,18.359-43.078,26.523-65.531,13.703c-17.68-9.836-0.797-36.992,14.562-26.75
		c3.891,0.625,7.445,0.867,11.281-0.227c12.492-6.422,18.859-18.125,23.984-30.82c5.703-14.125,9.664-29.891,11.367-45.008
		c1.766-15.641,1.805-33.609-7.617-47.094c-4.047-5.789-8.852-10.57-14.844-14.398c-1.812-1.117-14.57-8.875-16.5-7.266
		C1680.23,1417.125,1682.137,1397.172,1695.598,1396.875z"/>
	<path fill="#DA6AA9" d="M952.59,1244.633c0,0,336.359,76.977,529.516-18.914c193.172-95.922,215.594-165.148,215.594-165.148
		s-51.617-158.008-320.234-143.742C1108.848,931.07,979.059,1036.602,952.59,1244.633z"/>
	<path fill="#E9AECF" d="M1684.543,1041.531c-0.031,0.094-102.172,220.625-486.141,208.359
		c-122.547-20.422-212.422-36.766-212.422-36.766l142.984-81.703c0,0-138.641,24.438-138.891,24.5
		c6.453-1.156,33.586-45.266,38.812-50.891c86.875-93.57,258.031-140.445,381.953-149.273
		C1525.223,947.594,1692.684,1022.742,1684.543,1041.531z"/>
	<g>
		<g>
			<path fill="#924B68" d="M1669.543,1112.273c6.594-7.562,12.844-15.539,18.438-23.875c6.133-9.062-6.602-19.477-14.25-11.641
				c-64.555,65.664-150.5,112.055-237.461,140.422c-96.242,31.352-199.914,41.633-300.789,34.984
				c-24.32-1.594-48.516-3.758-72.75-6.094c-14.43-1.297-17.609,20.516-3.453,23.406c89.695,18.562,179.844,25.742,271,13.305
				c99.688-13.625,198.75-50.5,278.203-113.125C1630.449,1152.375,1651.285,1133.492,1669.543,1112.273
				C1675.77,1105.133,1657.176,1126.641,1669.543,1112.273z"/>
		</g>
	</g>
</g>
</svg>
