<?xml version="1.0" encoding="utf-8"?>
<!-- Generator: Adobe Illustrator 16.0.0, SVG Export Plug-In . SVG Version: 6.00 Build 0)  -->
<!DOCTYPE svg PUBLIC "-//W3C//DTD SVG 1.1//EN" "http://www.w3.org/Graphics/SVG/1.1/DTD/svg11.dtd">
<svg version="1.1" id="Layer_1" xmlns="http://www.w3.org/2000/svg" xmlns:xlink="http://www.w3.org/1999/xlink" x="0px" y="0px"
	 width="1024px" height="1024px" viewBox="0 0 1024 1024" enable-background="new 0 0 1024 1024" xml:space="preserve">
<g>
	<path fill="#B5C24D" d="M483.411,286.848c-29.525,21.508-34.797,61.275-41.424,97.719
		c-13.965,76.783-49.863,246.301-134.619,291.172c12.959,2.994,78.773,13.963,147.578,36.896s147.578,5.979,185.473-7.98
		c37.898-13.957,74.789-17.947,74.789-17.947s-42.873-20.936-57.832-66.809c-14.902-45.699-40.693-242.818-40.887-244.297
		c-6.918-52.908-33.076-114.754-113.078-99.754C497.261,277.002,488.11,283.426,483.411,286.848z"/>
	<path fill="#969F44" d="M514.728,278.197c-25.627-8.615-45.385,11.029-55.746,32.859c-0.131,0.17-0.262,0.295-0.395,0.471
		c-7.084,9.496-11.062,23.301-13.955,34.662c-6.48,25.465-2.818,52.998-11.287,77.777
		c-32.684,95.635-34.383,187.334-113.076,239.947c-12.76,8.531,11.266,22.543,24.143,13.938
		c23.086-15.432,36.301-35.963,51.912-58.895c27.883-40.949,42.402-90.664,51.838-138.811c4.824-24.615,10.541-51.516,14.25-76.299
		c3.914-26.148,6.539-57.82,23.111-79.525c10.367-13.582,21.094-8.271,33.074-16.584
		C529.618,300.086,528.536,282.84,514.728,278.197z"/>
	<path fill="#ECEDAC" d="M710.72,687.662c-11.625-1.037-30.381,4.166-41.133,6.773c-4.145,1.006-8.039,2.064-11.783,3.152
		c-9.85-8.018-28.994-28.748-40.811-74.941c-8.203-32.062-8.66-118.654-8.227-145.834c0.887-55.613-6.52-118.482-50.109-158.051
		l5.234-4.242l-17.48-2.668l-7.998,9c0,0-8.92,6.383-14.906,25.83c-5.982,19.441-3.738,101.709-4.486,121.154
		c-0.75,19.447-23.932,133.871-31.41,157.055c-6.426,19.918-31.734,63.521-41.111,81.105c-8.879-3.123-17.74-6.457-26.645-9.902
		c-19.689-7.605-42.42-11.619-62.881-13.623c-8.238-0.809-16.594-2.027-24.68-2.83c-7.141-0.699-16.875,1.887-22.588-2.297
		c-8.029,2.361-16.723,17.186-5.084,21.029c3.832,1.275,9.279-2.623,13.369-3.229c5.432-0.803,12.387-5.32,17.293-3.699
		c10.4,3.43,16.488,20.852,27.674,21.729c13.635,1.064,22.961-8.379,36.645-2.449c8.355,3.623,6.59,7.26,9.723,14.414
		c2.781,6.381,6.182,9.486,12.713,11.18c12.9,3.357,24.541-7.887,36.646-8.227c15.977-0.451,25.02,19.334,39.674,21.525
		c12.586,1.875,20.812-4.996,30.791-9.355c13.227-5.783,21.023-4.125,34.191-0.164c10.332,3.102,21.971,9.826,32.742,4.984
		c10.203-4.58,16.84-14.746,28.633-16.826c12.664-2.227,23.793,6.408,35.875,5.051c12.863-1.441,17.551-12.701,27.529-19.441
		c10.33-6.996,30.596,1.811,40.549-5.221C738.065,702.008,718.935,688.406,710.72,687.662z"/>
	<path fill="#707936" d="M733.806,706.152c-0.428-3.84-3.111-7.357-6.113-10.492c3.576-2.467,3.324-7.98-0.461-10.109l-0.199-0.115
		c-20.08-11.295-38.83-25.268-53.562-43.078c-1.135-1.576-2.348-3.117-3.336-4.791c-9.148-13.725-13.139-30.676-16.443-46.602
		c-3.67-17.701-6.82-35.555-9.537-53.426c-5.686-37.412-9.705-75.047-14.539-112.574c-3.861-29.98-7.23-60.676-17.441-89.309
		c-10.08-28.27-28.584-56.398-59.867-63.061l-3.193-0.67l-2.895-0.41l-1.441-0.203l-0.914-0.121l-0.75-0.07l-3.006-0.26
		c-22.09-1.693-46.525,1.229-64.262,15.668c-8.545,6.959-14.207,16.104-19.045,25.875c-5.055,10.205-9.092,20.904-12.412,31.787
		l-0.801,2.723l-0.398,1.359l-0.199,0.68l-0.1,0.34l-0.17,0.715l-1.174,5.568c-2.314,10.992-4.531,21.998-6.768,33.006l-1.082,5.426
		c-3.678,18.125-6.656,36.352-10.77,54.402c-4.041,17.721-8.602,35.332-13.785,52.754c-9.811,32.98-21.721,65.59-37.723,96.105
		c-17.006,32.42-39.838,65.547-74.027,81.416c-0.234,0.094-0.457,0.199-0.676,0.311c-0.051,0.023-0.111,0.053-0.111,0.053
		c-0.064,0.029-0.115,0.072-0.178,0.105c-2.98,1.643-3.094,5.285-0.777,7.604c-8.549,6.236-1.787,17.996,7.465,17.93
		c7.1-0.055,13.541-4.941,19.75-7.793c6.383-2.934,13.746-4.285,19.154,1.328c3.232,3.355,3.951,8.164,5.523,12.363
		c1.949,5.211,5.988,8.986,11.662,9.73c6.691,1.191,12.393-2.375,17.832-5.748c6.264-3.885,12.75-6.732,20.18-4.148
		c7.145,2.484,7.652,10.488,9.242,16.828c1.639,6.553,4.949,11.744,11.766,13.688c12.168,3.475,23.604-4.268,34.854-7.594
		c5.514-1.629,11.381-2.17,16.771,0.209c5.717,2.523,10.029,7.479,14.152,12.008c3.082,3.387,6.344,6.781,10.645,8.59
		c5.316,2.232,11.734,1.951,17.094,0.008c10.895-3.949,18.506-14.791,30.377-16.395c17.045,1.299,28.271,20.527,46.33,17.096
		c16.049-3.047,20.391-23.92,36.605-26.369c10.562-1.1,18.818,7.936,28.568,10.336c11.725,2.885,21.232-4.891,27.42-14.008
		c3.113-4.59,6.412-8.572,11.879-10.328c4.635-1.484,9.609-1.223,14.391-0.836c5.035,0.41,10.119,1.039,15.17,0.469
		C726.751,713.637,734.597,712.008,733.806,706.152C733.378,702.312,733.929,707.07,733.806,706.152z M336.614,662.279
		c24.795-24.152,42.08-55.545,55.969-86.924c13.879-31.363,24.543-64.133,33.32-97.26c3.615-13.65,6.893-27.387,9.869-41.191
		c2.936-13.615,5.061-27.393,7.951-41.006l1.1-5.424c2.256-10.932,4.494-21.861,6.828-32.777l1.178-5.496l1.496-5.074
		c2.734-8.846,5.961-17.553,9.863-25.947c3.627-7.801,7.654-15.842,13.627-22.133c11.621-12.236,28.744-16.883,45.129-17.732
		c17.812-0.924,35.936,1.512,50.229,12.973c12.953,10.385,21.291,25.477,27.156,40.748c6.715,17.471,10.623,36.051,13.277,54.537
		c2.771,19.268,5.367,38.553,7.723,57.877c4.535,37.16,8.619,74.438,15.041,111.332c2.607,14.992,5.115,30.078,8.596,44.898
		c3.252,13.846,7.598,28.07,15.457,40.072c1.201,2.051,2.643,4.008,4.084,5.896c11.475,14.061,25.119,25.732,40.123,35.904
		c-13.645,0.059-28.32,2.729-40.539,9.012c-12.242-5.818-20.391-18.211-26.572-29.787c-6.572-12.305-12.012-25.348-16.066-38.686
		c-10.873-35.748-11.52-72.99-10.002-110.018c1.553-37.816,4.6-76.02-3.234-113.383c-4.582-21.84-12.395-42.521-23.766-61.676
		c-5.574-9.391-11.783-18.703-19.564-26.422c-6.422-6.367-16.002-13.297-25.301-8.459c-6.938,3.607-11.326,12.611-14.801,19.268
		c-3.803,7.281-6.75,14.986-8.967,22.891c-4.438,15.809-5.969,32.277-6.373,48.641c-0.924,37.496,1.637,74.939-2.494,112.34
		c-1.918,17.363-5.443,34.535-9.162,51.594c-3.695,16.957-7.947,33.801-13.105,50.377c-5.055,16.24-10.982,32.221-18.084,47.684
		c-6.914,15.057-14.674,30.223-25.256,43.068c-0.842-0.676-1.99-1.359-3.525-1.773c-9.344-2.129-18.213-6.328-27.324-9.268
		c-9.6-3.096-19.277-5.971-29.055-8.461c-19.42-4.945-39.543-8.426-59.652-7.561C326.339,671.572,331.362,667.41,336.614,662.279
		C346.638,652.516,331.362,667.41,336.614,662.279z M691.591,707.922C685.319,709.74,695.374,706.822,691.591,707.922
		c-13.504,3.916-21.037,20.24-36.16,20.006c-10.688,0.213-20.289-6.627-30.949-5.893c-10.6,1.111-17.508,10.035-25.506,16.008
		c-9.486,7.086-19.783,6.086-30.311,1.773c-11.168-4.574-21.742-10.344-34.098-6.703c-12.297,3.621-24.234,13.215-37.695,10.559
		c-11.17-1.73-18.955-15.047-31.186-17.631c-8.104-1.393-16.125,1.244-24.08,2.428c-7.77,1.156-15.549,1.135-23.277-0.316
		c-4.426-3.211-6.119-8.516-8.408-13.227c-3.123-6.434-7.791-9.668-14.734-11.332c-8.133-1.949-16.592-0.867-24.283,2.279
		c-3.148,1.287-6.471,3.018-9.967,2.883c-2.709-0.105-5.209-1.84-7.088-3.678c-3.621-3.543-5.855-8.238-9.453-11.812
		c-3.715-3.684-8.414-5.486-13.594-4.771c-5.215,0.721-10.285,2.326-15.395,3.553c-2.855,0.689-6.209,1.521-9.145,0.957
		c-4.262-0.818-3.912-6.043,0.461-6.832c22.008-3.992,45.441,0.307,66.82,5.766c11.215,2.863,22.283,6.283,33.242,10
		c5.27,1.789,10.559,3.523,15.824,5.32c2.426,0.83,4.842,1.699,7.219,2.668c2.422,0.984,4.775,2.428,7.445,2.545
		c3.264,3.041,6.484,1.371,8.982-1.451c3.037-3.426,5.846-7.057,8.469-10.809c4.623-6.619,8.668-13.621,12.428-20.762
		c8.396-15.928,15.453-32.527,21.426-49.508c11.346-32.25,19.143-65.863,25.043-99.51c6.674-38.076,5.648-76.877,5.326-115.365
		c-0.275-32.619,1.184-67.436,20.361-95.246c1.688-2.453,3.684-5.836,7.086-5.729c1.896,0.061,3.727,0.914,5.32,1.885
		c4.422,2.691,8.025,6.74,11.277,10.701c7.766,9.463,14.268,20.131,19.834,31.018c15.393,30.121,20.754,64.457,20.977,97.961
		c0.26,38.957-4.6,77.887-1.699,116.834c2.391,32.189,10.254,63.398,24.668,92.326c7.33,14.719,17.098,30.18,32.217,37.859
		c2.027,2.473,7.398,0.186,9.895-0.617c14.139-5.139,30.035-6.227,44.941-7.051c0.486-0.062,4.164,5.41,4.295,6.189
		c0.891,5.287-9.869,4.111-12.662,4.455C700.882,706.219,696.036,706.629,691.591,707.922z"/>
</g>
</svg>
