<?xml version="1.0" encoding="utf-8"?>
<!-- Generator: Adobe Illustrator 16.0.0, SVG Export Plug-In . SVG Version: 6.00 Build 0)  -->
<!DOCTYPE svg PUBLIC "-//W3C//DTD SVG 1.1//EN" "http://www.w3.org/Graphics/SVG/1.1/DTD/svg11.dtd">
<svg version="1.1" id="Layer_1" xmlns="http://www.w3.org/2000/svg" xmlns:xlink="http://www.w3.org/1999/xlink" x="0px" y="0px"
	 width="1024px" height="1024px" viewBox="0 0 1024 1024" enable-background="new 0 0 1024 1024" xml:space="preserve">
<g>
	<g>
		<path fill="#E58B74" d="M543.763,567.598c-2.668,1.146-6.516,3.014-7.49,6.064c-3.607-2.15-7.43-4.189-11.436-5.473
			c-4.102-1.318-5.615-0.18-8.439,2.703c-6.041,6.174-11.387,13.094-16.664,19.92c-1.012,1.311,0.523,3.404,1.123,4.746
			c1.383,3.111,3.191,6.033,5.42,8.607c3.533,4.078,8.068,7.195,13.08,9.168c3.594,1.414,7.465,2.322,11.338,2.457
			c5.168,0.182,9.955-2.578,14.145-5.338c3.252-2.139,6.311-4.572,9.182-7.201c2.818-2.584,6.229-5.285,6.898-9.252
			c0.572-3.377-0.164-5.252-1.537-8.168c-1.998-4.225-4.184-8.408-6.879-12.232C550.868,571.277,547.288,566.084,543.763,567.598
			C536.917,570.533,550.599,564.662,543.763,567.598z"/>
		<path fill="#493425" d="M500.028,590.467c8.254-5.109,17.729-9.469,27.352-11.027c11-1.781,23.629,2.113,32.629,8.578
			c0.281,0.203,1.914,3.48,1.875,3.51c-0.461,0.398-0.949,0.764-1.438,1.125c-2.84,2.086-5.93,3.838-9.127,5.309
			c-11.791,5.42-25.143,6.502-37.619,2.859c-3.348-0.975-6.604-2.262-9.734-3.791C502.278,596.279,500.028,590.467,500.028,590.467z
			"/>
		<path fill="#7D4743" d="M560.399,592.295c-5.602-10.26-19.016-12.68-29.588-11.457c-5.736,0.594-11.432,2.254-16.865,4.137
			c-4.312,1.672-11.459,4.021-13.66,8.557l-0.426-1.875c8.428,7.125,20.305,10.346,31.188,9.527
			c10.758-0.809,21.232-5.895,30.195-11.658l1.672,4.074l-0.57,0.119C561.392,593.924,560.688,593.104,560.399,592.295z
			 M562.38,589.201c2.258-0.121,3.219,2.887,1.305,4.082c-9.676,6.008-20.871,11.182-32.381,11.863
			c-11.912,0.703-24.764-3.078-33.801-11.053c-0.529-0.467-0.656-1.219-0.359-1.818c2.105-4.254,7.301-6.895,11.438-8.717
			c6.107-2.822,12.961-4.617,19.588-5.67C540.421,575.947,554.825,578.357,562.38,589.201
			C563.472,589.143,561.79,588.354,562.38,589.201z"/>
		<path fill="#7D4743" d="M498.728,595.277c-4.66,0-0.641-6.902,0.232-8.461c2.506-4.482,5.502-8.736,8.811-12.662
			c3.074-3.645,7.367-8.678,12.5-8.941c5.316-0.277,11.293,3.486,15.404,6.521c1.92-2.531,5.49-6.416,8.842-6.666
			c2.895-0.213,5.328,2.283,7.086,4.254c4.363,4.902,7.639,10.844,10.65,16.639c0.752,1.447,2.742,4.137,2.414,5.859
			c-0.334,1.758-2.578,2.428-3.82,1.143c-1.723-1.789-2.684-5.195-3.885-7.389c-2.203-4.033-4.578-8.021-7.365-11.686
			c-0.832-1.1-3.012-4.535-4.748-4.344c-2.541,1.521-5.172,3.666-6.555,6.355c-1.418,2.766-3.715,0.609-5.279-0.547
			c-4.301-3.168-11.006-7.826-16.031-4.018c-4.525,3.428-8.098,8.367-11.264,13.02c-1.402,2.057-2.766,4.172-3.883,6.398
			C501.03,592.365,501.007,595.277,498.728,595.277z"/>
		<path fill="#7D4743" d="M531.888,617.479c-13.264,0-26.27-7.131-32.854-18.625c-0.969-1.695-4.42-6.951-1.025-8.076
			c2.775-0.932,4.527,5.209,5.592,6.908c6.9,11.004,21.85,17.895,34.658,14.385c6.961-1.904,11.387-6.053,15.668-11.695
			c1.787-2.355,3.445-4.811,4.986-7.33c0.949-1.553,3.762-6.475,5.584-2.596c0.791,1.693-1.238,4.096-2.068,5.438
			c-2.01,3.246-4.189,6.396-6.609,9.346C549.731,612.656,541.774,617.479,531.888,617.479z"/>
	</g>
	<path fill="#FFFFFF" d="M510.728,531.902c1.629-14.939-0.281-33.502-11.23-44.85c-4.877-5.051-11.389-7.881-18.127-9.486
		c-8.006-1.908-16.725-3.084-24.891-1.566c-8.139,1.512-14.791,6.213-19.793,12.693c-2.289,2.965-4.229,6.189-5.943,9.516
		c-1.596,3.096-4.582,7.047-2.619,10.414c8.748,14.977,24.197,23.602,41.004,26.121C482.938,536.814,497.378,536.15,510.728,531.902
		C512.144,518.908,498.353,535.84,510.728,531.902z"/>
	<g>
		<path fill="#8E5236" d="M454.054,504.861c0,12.006,4.732,26.877,17.543,30.592c14.457,4.193,27.436-7.807,31.029-21.049
			c3.533-13.02-0.279-28.779-12.793-35.555c-12.746-6.902-28.369-1.941-33.494,11.863c-2.289,6.172-2.285,12.775-2.285,19.176
			c0-3.322,0-6.824,0-10.043C454.054,501.518,454.054,503.189,454.054,504.861z"/>
		<path fill="#CCA998" d="M472.853,477.279c14.684-2.674,28.725,5.982,31.383,20.979c1.086,6.123,0.293,12.893-1.891,18.727
			c-0.838,2.236-2.061,4.734-4.227,5.959c-3.062,1.729-7.117-0.258-8.406-3.34c-1.408-3.363,1.57-6.979,2.213-10.221
			c0.684-3.449,0.176-7.061-1.475-10.172c-1.83-3.447-4.922-6.043-8.352-7.814c-4.143-2.137-8.596-1.852-12.863-3.398
			c-6.074-2.205-1.432-9.43,2.891-10.561c3.449-0.9,7.08-1.314,10.592-1.955c-3.676,0.67-7.348,1.344-11.023,2.008
			C472.081,477.42,472.466,477.35,472.853,477.279C484.813,475.102,465.259,478.662,472.853,477.279z"/>
		<path fill="#6A392A" d="M465.798,498.783c0.809,5.824,1.639,12.029,4.604,17.217c1.197,2.098,2.797,3.92,4.709,5.391
			c1.9,1.459,4.551,2.25,6.129,4.057c2.658,3.045,1.973,9.73-2.812,10.182c-4.422,0.422-9.568-3.645-12.518-6.498
			c-6.91-6.674-11.346-17.863-11.547-27.453c-0.088-4.23,3.414-8.25,7.957-7.01c3.254,0.887,3.527,4.145,3.875,6.967
			c-0.201-1.631-0.469-3.256-0.678-4.887C465.604,497.428,465.704,498.104,465.798,498.783
			C466.497,503.811,464.747,491.168,465.798,498.783z"/>
		<g>
			<path fill="#3C2A1E" d="M480.901,538.045c-12.943,0-23.309-9.752-26.613-21.822c-1.91-6.975-1.99-14.59-0.803-21.695
				c0.922-5.51,3.031-11.799,7.809-15.195l-0.012-0.023c0.389-0.236,0.779-0.473,1.166-0.715l0.002,0.002l0.002-0.002h-0.002
				c2.676-1.639,5.371-3.248,8.031-4.91l0.059,0.094c1.547-0.795,2.592-0.363,4.178,0.041l0.053,0.34
				c17.961-2.291,31.129,14.195,32.277,30.781C508.138,520.689,498.282,538.045,480.901,538.045z M465.446,483.773L465.446,483.773
				c-4.871,3.094-6.039,9.951-6.492,15.223c-0.592,6.861-0.135,14.102,2.854,20.412c5.756,12.143,22.396,17.367,32.359,6.951
				c8.271-8.65,8.615-22.311,3.729-32.682C491.923,481.008,477.528,476.275,465.446,483.773z"/>
		</g>
		<path fill="#231F20" d="M465.149,509.877c0.906,9.906,9.291,21.492,20.48,17.812c9.791-3.223,12.674-16.232,10.094-25.102
			c-2.84-9.766-13.539-18.836-23.391-11.441c-6.727,5.049-7.844,14.135-6.896,21.896c-0.254-2.094-0.451-4.227-0.582-6.332
			C464.919,507.768,465.05,508.824,465.149,509.877C465.964,518.789,464.132,498.908,465.149,509.877z"/>
		<path fill="#FFFFFF" d="M484.44,499.748c0.363,3.955,3.213,9.406,7.98,8.301c4.43-1.025,5.512-7.07,4.701-10.84
			c-0.883-4.109-5.02-9.461-9.605-6.109c-3.146,2.301-3.219,6.598-2.945,10.082c-0.074-0.953-0.164-1.912-0.266-2.863
			C484.356,498.795,484.396,499.273,484.44,499.748C484.778,503.438,483.974,494.779,484.44,499.748z"/>
	</g>
	<path fill="#3C2A1E" d="M551.132,550.055c-2.393,4.826-8.602,6.562-13.576,6.744c-3.029,0.111-6.111-0.41-9.074-0.984
		c-1.895-0.371-8.193-0.789-7.971-3.65c0.252-3.213,5.156-1.518,6.943-1.111c3.656,0.832,7.582,0.865,11.285,0.355
		c2.707-0.369,5.965-1.025,7.867-3.168c0.922-0.863,1.895-1.914,3.295-1.375C551.142,547.342,551.739,548.865,551.132,550.055
		C548.427,555.506,551.868,548.613,551.132,550.055z"/>
	<path fill="#FFFFFF" d="M602.946,495.584c-1.576-8.195-4.957-16.887-10.809-23.002c-6.143-6.422-14.404-7.057-22.66-4.91
		c-16.682,4.338-22.518,19.916-23.262,35.705c-0.205,4.355-0.732,8.715-0.246,13.074c0.258,2.285,0.697,4.559,1.148,6.814
		c0.449,2.232,0.164,4.865,2.746,5.051c8.27,0.562,16.818-0.443,24.633-3.268c12.986-4.695,23.34-14.719,27.906-27.814
		C602.595,496.686,602.776,496.137,602.946,495.584C601.81,489.67,597.444,513.393,602.946,495.584z"/>
	<path fill="#8E5236" d="M554.563,491.252c0,9.846,2.152,23.436,10.914,29.465c11.154,7.676,22.146-3.07,25.932-13.18
		c3.879-10.355,3.896-23.467-1.459-33.34c-6.48-11.953-22.131-11.916-29.924-1.227C556.171,478.26,554.563,484.779,554.563,491.252z
		"/>
	<path fill="#CCA998" d="M563.806,467.229c15.65-12.668,23.889,10.855,25.693,22.9c0.732,4.889,2.273,23.189-7.002,19.631
		c-2.66-1.021-4.266-3.557-3.92-6.381c0.416-3.414,1.371-6.125,0.855-9.666c-0.514-3.527-1.322-7.094-2.412-10.488
		c-0.898-2.793-2.117-6.785-4.684-8.527c-1.184,0.223-1.963,1.324-3.141,1.582c-1.553,0.336-3.195-0.041-4.523-0.891
		C561.749,473.516,560.923,469.57,563.806,467.229c2.66-2.152,5.309-4.322,7.984-6.459c-2.939,2.348-5.887,4.697-8.777,7.104
		C563.272,467.656,563.542,467.443,563.806,467.229C582.321,452.24,558.257,471.729,563.806,467.229z"/>
	<path fill="#6A392A" d="M565.653,487.787c0.453,4.812,1.393,9.664,3.52,14.041c0.979,2.012,2.203,3.975,3.826,5.531
		c1.506,1.443,3.299,2.912,3.252,5.205c-0.088,4.203-5.092,6.658-8.613,4.789c-3.645-1.934-6.32-6.391-8.092-9.945
		c-2.145-4.309-3.469-9.082-4.428-13.785c-0.623-3.066-1.879-8.643,1.605-10.539c2.312-1.258,5.447-0.395,7.264,1.354
		c1.541,1.48,1.828,3.564,1.877,5.607c-0.035-1.406-0.277-2.828-0.398-4.232C565.522,486.471,565.593,487.129,565.653,487.787
		C566.073,492.256,564.985,480.729,565.653,487.787z"/>
	<path fill="#3C2A1E" d="M575.823,526.213c-11.906,0-19.506-12.152-22.711-22.189c-3.129-9.793-4.459-21.301,0.412-30.768
		c-0.061,0.773,7.439-2.227,7.439-2.227c-4.008,8.305-5.432,17.488-3.422,26.471c1.922,8.604,7.781,23.451,18.891,22.719
		c9.982-0.662,12.721-14.66,13.301-22.443c0.879-11.711-3.271-22.473-11.256-31.055l4.383-4.074
		c9.451,10.166,14.01,22.961,12.75,36.771C594.603,510.457,589.403,526.213,575.823,526.213z"/>
	<path fill="#231F20" d="M563.706,496.49c0.68,7.377,5.473,20.857,15.334,17.637c8.303-2.709,9.004-15.613,7.611-22.68
		c-1.432-7.273-8.436-20.658-17.572-13.291c-6.059,4.885-5.725,14.432-5.092,21.381c-0.188-2.029-0.373-4.059-0.562-6.088
		C563.519,494.463,563.612,495.479,563.706,496.49C564.325,503.213,562.735,485.947,563.706,496.49z"/>
	<path fill="#3C2A1E" d="M449.673,474.564c-2.475,1.047-4.82,2.328-7.072,3.742c-0.533-2.598-4-5.201-5.709-7.127
		c-1.314-1.479-4.502-6.844-6.91-5.523c-2.875,1.574,1.387,5.967,2.408,7.525c1.51,2.305,3.408,6.967,5.885,8.27
		c-0.975,0.811-1.91,1.666-2.797,2.582c-1.648-1.578-10.381-11.5-12.164-9.211c-1.293,1.658,2.287,5.219,3.188,6.516
		c1.688,2.438,3.371,4.883,5.082,7.299c-0.582,0.797-1.158,1.631-1.725,2.484c-1.986-1.395-9.225-9.021-11.525-6.209
		c-1.801,2.201,6.977,9.645,8.506,11.295c-1.188,2.291-2.162,4.646-2.729,6.967c-0.764,4.035,3.209,8.5,5.42,11.539
		c3.309,4.545,7.803,8.307,12.297,11.637c-1.477,3.137-2.758,6.379-4.129,9.561c-0.822,1.91,1.611,4.088,3.025,2.109
		c1.152-0.959,1.961-2.748,2.828-3.961c1.051-1.477,2.102-2.947,3.154-4.424c2.131,1.305,4.27,2.48,6.564,3.48
		c-0.812,2.701-1.828,5.352-2.75,8.016c-0.512,1.477-2.303,4.492-0.111,5.465c2.146,0.951,3.123-2.236,3.857-3.59
		c1.43-2.643,2.859-5.281,4.289-7.922c2.375,0.756,4.795,1.383,7.25,1.875c-0.434,2.367-1.021,4.717-1.537,7.066
		c-0.354,1.605-1.752,4.703,0.521,5.537c2.018,0.74,2.611-1.799,3.17-3.135c1.186-2.842,2.369-5.684,3.555-8.523
		c1.92,0.25,3.838,0.449,5.75,0.584c-0.15,2.678-1.025,6.334-0.416,8.943c0.406,1.734,2.855,2.277,3.414,0.344
		c1.459-2.434,1.832-6.34,2.623-9.074c2.422,0.045,4.844-0.012,7.264-0.152c0.252,1.58,0.227,8.4,3.148,7.732
		c2.389-0.545,2.273-6.369,2.582-8.205c2.861-0.326,5.713-0.736,8.547-1.252c1.338-0.244,8.441-0.967,8.83-2.297
		c1.643-5.625,1.879-11.361,1.525-17.186c-0.697-11.434-3.971-22.738-11.746-31.406C489.796,471.18,467.788,468.021,449.673,474.564
		C447.198,475.611,470.31,467.109,449.673,474.564z M429.134,504.35c0.031,0.031,0.039,0.096,0.043,0.164
		c-0.023-0.039-0.047-0.074-0.07-0.113C429.091,504.307,429.087,504.248,429.134,504.35
		C429.165,504.381,429.087,504.248,429.134,504.35z M493.827,534.338c-25.369,2.609-50.637-6.664-64.619-29.775
		c2.557-10.898,12.496-20.314,22.557-24.389c12.869-3.99,28.252-2.436,39.365,5.477c6.344,4.516,10.949,11.277,13.865,18.428
		c3.557,8.719,3.605,18.016,3.984,27.279C503.985,532.816,498.903,533.814,493.827,534.338
		C468.458,536.947,498.903,533.814,493.827,534.338z"/>
	<path fill="#3C2A1E" d="M549.884,525.592c0.035,0.266,0.064,0.535,0.102,0.803C550.618,526.361,549.56,522.732,549.884,525.592z"/>
	<path fill="#3C2A1E" d="M604.446,484.061c1.682-1.895,2.934-4.371,4.342-6.475c1.154-1.717,4.98-5.654,4.641-7.791
		c-0.604-3.803-4.699,0.994-5.49,1.836c-2.215,2.355-4.424,4.711-6.639,7.068c-0.932-1.852-2.004-3.621-3.232-5.279
		c1.312-2.324,2.588-4.668,3.912-6.988c0.879-1.537,3.949-5.062,2.906-6.904c-1.482-2.607-3.674,0.371-4.641,1.6
		c-2.062,2.615-4.119,5.23-6.182,7.844c-1.143-1.043-2.32-1.947-3.621-2.787c1.031-2.617,2.186-5.186,3.305-7.768
		c0.684-1.572,3.357-5.332,0.969-6.594c-2.17-1.146-3.424,2.197-4.273,3.547c-1.717,2.742-3.434,5.484-5.15,8.225
		c-8.428-3.18-18.158-2.15-25.924,2.326c-8.539,4.918-13.348,13.68-15.586,23.043c-2.418,10.1-2.027,20.742-0.496,30.945
		c0.359,2.408,0.791,4.805,1.283,7.188c0.193,0.928,0.293,4.086,1.424,4.449c2.219,0.715,5.133,0.48,7.441,0.523
		c3.275,0.062,6.545-0.107,9.797-0.531c0.699,1.73,1.754,7.174,4.305,7.043c2.926-0.15,1.15-6.379,0.975-7.961
		c1.582-0.348,3.143-0.766,4.688-1.238c0.861,1.777,2.045,6.506,4.412,6.746c3.135,0.32,0.732-7.113,0.496-8.502
		c2.215-0.908,4.363-1.947,6.424-3.139c0.939,1.92,2.232,6.836,4.418,7.598c1.699,0.59,3.445-0.932,2.865-2.689
		c-0.301-2.607-1.805-5.479-2.631-7.979c1.289-0.949,2.545-1.947,3.736-3.025c1.771,1.852,3.742,4.84,5.967,6.111
		c1.639,0.941,3.797-0.639,2.66-2.426c-0.99-2.637-3.314-5.219-4.826-7.588c0.992-1.137,1.945-2.311,2.828-3.562
		c1.723,1.107,6.768,5.93,8.734,3.361c1.748-2.287-4.527-6.738-5.855-8.059c1.664-3.102,2.998-6.436,3.68-9.875
		c0.352-3.809-1.129-8.014-2.309-11.59C604.028,484.572,604.251,484.354,604.446,484.061
		C605.177,483.236,604.251,484.354,604.446,484.061z M549.985,526.395c-1.514-10.916-1.959-22.158,0.23-33.02
		c1.701-8.455,5.402-17.303,13.479-21.439c7.576-3.879,17.982-4.293,25.172,0.674c7.336,5.068,10.881,14.406,11.988,22.939
		C593.56,517.006,570.761,525.328,549.985,526.395C549.942,526.078,570.761,525.328,549.985,526.395z"/>
	<path fill="#FFFFFF" d="M574.552,485.977c0.363,3.939,3.205,9.363,7.951,8.27c4.42-1.02,5.502-7.035,4.693-10.799
		c-0.879-4.092-5.004-9.434-9.57-6.088c-3.113,2.277-3.25,6.58-2.945,10.045c-0.082-0.953-0.17-1.906-0.262-2.855
		C574.464,485.025,574.509,485.5,574.552,485.977C574.888,489.645,574.095,481.02,574.552,485.977z"/>
	<path fill="#3C2A1E" d="M409.665,452.98c6.391-16.393,21.598-29.826,38.008-35.674c17.957-6.398,39.119-2.336,54.207,9.129
		c1.816,1.35,0.604,4.348-1.656,4.027c-1.564-0.219-3.328-1.596-4.717-2.273c-4.564-2.227-9.506-3.932-14.443-5.102
		c-10.373-2.455-20.789-2.178-30.879,1.277c-8.578,2.938-16.596,8.127-23.25,14.229c-3.902,3.578-7.514,7.668-10.51,12.041
		c-0.904,1.32-1.652,3.146-2.729,4.314C412.345,457.285,408.642,455.506,409.665,452.98z"/>
	<path fill="#3C2A1E" d="M533.466,425.221c5.033-5.92,12.137-10.229,19.219-13.258c7.945-3.398,16.969-6.129,25.688-5.137
		c16.125,1.838,29.027,15.939,35.355,30.07c0.645,1.408-0.352,3.084-1.904,3.18c-1.371,0.086-1.998-0.973-2.625-1.961
		c-2.016-2.938-4.072-5.803-6.428-8.482c-5.477-6.234-12.035-11.916-20.115-14.379c-8.76-2.672-17.9-0.049-26.271,2.857
		c-6.582,2.285-14.512,5.354-19.672,10.227C534.704,430.232,531.644,427.33,533.466,425.221z"/>
</g>
</svg>
