<?xml version="1.0" encoding="utf-8"?>
<!-- Generator: Adobe Illustrator 16.0.0, SVG Export Plug-In . SVG Version: 6.00 Build 0)  -->
<!DOCTYPE svg PUBLIC "-//W3C//DTD SVG 1.1//EN" "http://www.w3.org/Graphics/SVG/1.1/DTD/svg11.dtd">
<svg version="1.1" id="Layer_1" xmlns="http://www.w3.org/2000/svg" xmlns:xlink="http://www.w3.org/1999/xlink" x="0px" y="0px"
	 width="1024px" height="1024px" viewBox="0 0 1024 1024" enable-background="new 0 0 1024 1024" xml:space="preserve">
<g>
	<path fill="#FFFFFF" d="M509.555,528.937c1.674-15.35-0.291-34.422-11.537-46.082c-5.014-5.191-11.701-8.098-18.629-9.742
		c-8.221-1.965-17.182-3.174-25.574-1.615c-8.361,1.555-15.195,6.385-20.338,13.043c-2.352,3.047-4.344,6.361-6.102,9.779
		c-1.645,3.18-4.713,7.24-2.693,10.697c8.986,15.393,24.859,24.256,42.131,26.844C481.006,533.987,495.842,533.302,509.555,528.937
		C511.014,515.589,496.844,532.985,509.555,528.937z"/>
	<g>
		<path fill="#8E5236" d="M451.324,501.155c0,12.332,4.863,27.611,18.023,31.432c14.855,4.307,28.195-8.021,31.885-21.631
			c3.631-13.375-0.285-29.568-13.145-36.531c-13.1-7.09-29.15-1.992-34.414,12.191c-2.355,6.342-2.35,13.125-2.35,19.701
			c0-3.412,0-7.01,0-10.318C451.324,497.718,451.324,499.437,451.324,501.155z"/>
		<path fill="#CCA998" d="M470.641,472.812c15.088-2.746,29.514,6.148,32.24,21.559c1.121,6.291,0.305,13.246-1.934,19.238
			c-0.863,2.301-2.123,4.869-4.348,6.123c-3.146,1.781-7.312-0.264-8.637-3.428c-1.449-3.461,1.611-7.174,2.273-10.504
			c0.703-3.543,0.182-7.256-1.518-10.451c-1.879-3.543-5.053-6.211-8.58-8.031c-4.254-2.191-8.83-1.9-13.213-3.49
			c-6.244-2.266-1.475-9.691,2.969-10.852c3.545-0.926,7.275-1.35,10.881-2.008c-3.773,0.686-7.549,1.381-11.324,2.062
			C469.85,472.956,470.244,472.884,470.641,472.812C482.928,470.575,462.836,474.233,470.641,472.812z"/>
		<path fill="#6A392A" d="M463.389,494.907c0.834,5.982,1.688,12.363,4.734,17.695c1.225,2.15,2.871,4.023,4.84,5.535
			c1.951,1.5,4.672,2.309,6.297,4.17c2.727,3.131,2.027,9.998-2.895,10.461c-4.543,0.434-9.83-3.75-12.861-6.68
			c-7.098-6.855-11.656-18.35-11.861-28.205c-0.092-4.35,3.5-8.479,8.178-7.205c3.338,0.912,3.625,4.26,3.979,7.16
			c-0.203-1.676-0.482-3.346-0.697-5.02C463.189,493.517,463.295,494.21,463.389,494.907
			C464.107,500.073,462.311,487.083,463.389,494.907z"/>
		<g>
			<path fill="#3C2A1E" d="M478.91,535.253c-13.299,0-23.947-10.023-27.344-22.426c-1.965-7.168-2.049-14.99-0.826-22.291
				c0.943-5.662,3.117-12.125,8.023-15.615l-0.012-0.021c0.398-0.246,0.801-0.488,1.201-0.734v0.002v-0.002l0,0
				c2.748-1.686,5.518-3.338,8.252-5.047l0.061,0.096c1.592-0.816,2.66-0.373,4.291,0.043l0.055,0.35
				c18.453-2.354,31.988,14.584,33.164,31.625C506.898,517.421,496.766,535.253,478.91,535.253z M463.029,479.485L463.029,479.485
				c-5.006,3.182-6.201,10.229-6.67,15.641c-0.609,7.051-0.141,14.49,2.93,20.973c5.918,12.48,23.014,17.848,33.256,7.143
				c8.5-8.889,8.85-22.92,3.824-33.58C490.236,476.644,475.439,471.78,463.029,479.485z"/>
		</g>
		<path fill="#231F20" d="M462.723,506.31c0.928,10.176,9.545,22.082,21.049,18.303c10.057-3.311,13.021-16.68,10.371-25.793
			c-2.922-10.037-13.914-19.355-24.035-11.76c-6.914,5.189-8.059,14.527-7.088,22.5c-0.264-2.15-0.463-4.342-0.6-6.506
			C462.49,504.142,462.625,505.226,462.723,506.31C463.564,515.466,461.678,495.038,462.723,506.31z"/>
		<path fill="#FFFFFF" d="M482.549,495.897c0.371,4.066,3.299,9.664,8.197,8.531c4.553-1.055,5.664-7.266,4.828-11.137
			c-0.906-4.227-5.15-9.723-9.865-6.279c-3.236,2.365-3.309,6.781-3.029,10.361c-0.076-0.984-0.17-1.967-0.268-2.941
			C482.461,494.921,482.5,495.413,482.549,495.897C482.896,499.69,482.07,490.796,482.549,495.897z"/>
	</g>
	<path fill="#3C2A1E" d="M551.07,547.589c-2.455,4.957-8.836,6.742-13.945,6.93c-3.117,0.117-6.281-0.418-9.328-1.014
		c-1.943-0.375-8.416-0.809-8.186-3.748c0.254-3.301,5.297-1.559,7.133-1.141c3.758,0.855,7.791,0.887,11.594,0.365
		c2.783-0.377,6.129-1.055,8.086-3.256c0.945-0.887,1.945-1.971,3.381-1.414C551.08,544.804,551.693,546.368,551.07,547.589
		C548.293,553.194,551.826,546.11,551.07,547.589z"/>
	<path fill="#FFFFFF" d="M604.309,491.62c-1.617-8.42-5.088-17.35-11.104-23.635c-6.311-6.598-14.801-7.248-23.285-5.045
		c-17.139,4.457-23.137,20.465-23.895,36.688c-0.215,4.475-0.756,8.955-0.258,13.434c0.266,2.346,0.719,4.689,1.18,7.004
		c0.461,2.293,0.174,4.998,2.822,5.191c8.498,0.574,17.279-0.457,25.311-3.357c13.344-4.828,23.984-15.127,28.672-28.584
		C603.955,492.753,604.135,492.19,604.309,491.62C603.143,485.546,598.66,509.919,604.309,491.62z"/>
	<path fill="#8E5236" d="M554.598,487.175c0,10.115,2.209,24.074,11.215,30.271c11.463,7.887,22.758-3.156,26.643-13.541
		c3.99-10.641,4.008-24.113-1.494-34.262c-6.662-12.281-22.744-12.24-30.75-1.26C556.25,473.819,554.598,480.521,554.598,487.175z"
		/>
	<path fill="#CCA998" d="M564.096,462.487c16.078-13.016,24.545,11.154,26.398,23.529c0.754,5.023,2.336,23.826-7.195,20.17
		c-2.732-1.047-4.379-3.656-4.027-6.553c0.43-3.512,1.412-6.295,0.879-9.934c-0.527-3.627-1.354-7.291-2.477-10.779
		c-0.922-2.871-2.176-6.969-4.812-8.76c-1.215,0.225-2.016,1.361-3.229,1.625c-1.594,0.346-3.281-0.043-4.646-0.916
		C561.986,468.946,561.131,464.894,564.096,462.487c2.736-2.213,5.455-4.441,8.203-6.637c-3.02,2.412-6.051,4.828-9.018,7.297
		C563.549,462.925,563.822,462.708,564.096,462.487C583.121,447.087,558.393,467.112,564.096,462.487z"/>
	<path fill="#6A392A" d="M565.994,483.61c0.463,4.943,1.43,9.93,3.613,14.426c1.01,2.068,2.264,4.086,3.934,5.686
		c1.547,1.482,3.391,2.992,3.34,5.348c-0.088,4.318-5.23,6.842-8.848,4.92c-3.75-1.986-6.496-6.564-8.316-10.221
		c-2.201-4.424-3.562-9.328-4.551-14.162c-0.639-3.152-1.934-8.879,1.652-10.83c2.373-1.291,5.596-0.402,7.459,1.391
		c1.592,1.523,1.881,3.666,1.934,5.764c-0.035-1.447-0.287-2.91-0.41-4.35C565.859,482.257,565.928,482.937,565.994,483.61
		C566.422,488.202,565.309,476.358,565.994,483.61z"/>
	<path fill="#3C2A1E" d="M576.441,523.095c-12.234,0-20.041-12.486-23.334-22.803c-3.219-10.061-4.582-21.885,0.424-31.613
		c-0.061,0.797,7.646-2.289,7.646-2.289c-4.119,8.535-5.584,17.971-3.52,27.199c1.973,8.842,7.996,24.098,19.41,23.342
		c10.258-0.678,13.072-15.061,13.67-23.057c0.902-12.035-3.363-23.09-11.566-31.91l4.5-4.186
		c9.709,10.443,14.396,23.592,13.102,37.781C595.74,506.903,590.393,523.095,576.441,523.095z"/>
	<path fill="#231F20" d="M563.994,492.554c0.699,7.578,5.621,21.43,15.752,18.121c8.531-2.781,9.252-16.043,7.826-23.305
		c-1.477-7.473-8.67-21.227-18.057-13.656c-6.229,5.02-5.881,14.83-5.238,21.969c-0.188-2.086-0.375-4.172-0.574-6.254
		C563.803,490.47,563.896,491.511,563.994,492.554C564.627,499.46,562.998,481.718,563.994,492.554z"/>
	<path fill="#3C2A1E" d="M446.822,470.022c-2.541,1.076-4.955,2.391-7.27,3.848c-0.541-2.67-4.105-5.348-5.863-7.324
		c-1.35-1.518-4.625-7.033-7.1-5.676c-2.955,1.619,1.42,6.131,2.475,7.734c1.551,2.365,3.498,7.156,6.047,8.496
		c-1.002,0.832-1.965,1.711-2.873,2.652c-1.697-1.621-10.668-11.816-12.502-9.465c-1.324,1.703,2.354,5.363,3.275,6.693
		c1.736,2.506,3.469,5.018,5.225,7.502c-0.6,0.818-1.193,1.676-1.77,2.553c-2.043-1.432-9.482-9.271-11.842-6.379
		c-1.855,2.26,7.162,9.906,8.732,11.605c-1.215,2.354-2.219,4.771-2.797,7.158c-0.789,4.146,3.291,8.732,5.566,11.857
		c3.393,4.668,8.02,8.535,12.633,11.957c-1.52,3.223-2.83,6.551-4.242,9.82c-0.848,1.963,1.66,4.201,3.111,2.168
		c1.182-0.984,2.016-2.824,2.902-4.066c1.084-1.521,2.166-3.033,3.242-4.549c2.191,1.338,4.391,2.551,6.746,3.576
		c-0.838,2.777-1.881,5.498-2.824,8.238c-0.525,1.518-2.367,4.615-0.117,5.613c2.209,0.979,3.209-2.299,3.963-3.691
		c1.469-2.713,2.939-5.426,4.41-8.139c2.441,0.779,4.93,1.422,7.447,1.928c-0.445,2.432-1.051,4.846-1.582,7.264
		c-0.359,1.648-1.799,4.83,0.543,5.686c2.072,0.762,2.682-1.846,3.252-3.223c1.217-2.918,2.438-5.836,3.65-8.754
		c1.975,0.256,3.945,0.459,5.908,0.604c-0.152,2.748-1.049,6.504-0.424,9.188c0.414,1.781,2.934,2.338,3.508,0.352
		c1.5-2.502,1.885-6.512,2.695-9.322c2.492,0.047,4.975-0.014,7.463-0.158c0.258,1.623,0.232,8.631,3.236,7.945
		c2.451-0.562,2.332-6.545,2.65-8.432c2.945-0.334,5.867-0.76,8.785-1.283c1.371-0.252,8.676-0.996,9.07-2.363
		c1.686-5.781,1.932-11.676,1.57-17.66c-0.719-11.748-4.078-23.361-12.07-32.27C488.047,466.546,465.432,463.298,446.822,470.022
		C444.281,471.099,468.021,462.364,446.822,470.022z M425.721,500.626c0.027,0.035,0.041,0.098,0.041,0.17
		c-0.023-0.037-0.047-0.078-0.07-0.113C425.674,500.585,425.67,500.526,425.721,500.626
		C425.748,500.661,425.67,500.526,425.721,500.626z M492.193,531.438c-26.068,2.686-52.031-6.844-66.395-30.594
		c2.625-11.197,12.832-20.869,23.17-25.059c13.229-4.1,29.033-2.504,40.449,5.629c6.518,4.639,11.25,11.588,14.248,18.934
		c3.656,8.957,3.705,18.51,4.094,28.031C502.627,529.88,497.408,530.905,492.193,531.438
		C466.125,534.124,497.408,530.905,492.193,531.438z"/>
	<path fill="#3C2A1E" d="M549.793,522.456c0.035,0.275,0.064,0.547,0.1,0.826C550.549,523.247,549.453,519.515,549.793,522.456z"/>
	<path fill="#3C2A1E" d="M605.855,479.782c1.729-1.947,3.012-4.492,4.459-6.654c1.188-1.764,5.117-5.812,4.77-8.008
		c-0.621-3.906-4.832,1.023-5.643,1.889c-2.275,2.42-4.547,4.842-6.82,7.266c-0.955-1.906-2.057-3.725-3.322-5.428
		c1.352-2.387,2.66-4.795,4.023-7.178c0.902-1.584,4.057-5.205,2.984-7.098c-1.529-2.678-3.779,0.385-4.77,1.646
		c-2.115,2.686-4.234,5.375-6.355,8.059c-1.168-1.074-2.381-2-3.717-2.863c1.057-2.689,2.248-5.328,3.396-7.984
		c0.699-1.613,3.449-5.477,0.998-6.773c-2.232-1.178-3.521,2.26-4.395,3.646c-1.764,2.816-3.529,5.633-5.291,8.447
		c-8.66-3.268-18.656-2.207-26.643,2.391c-8.766,5.057-13.711,14.059-16.014,23.68c-2.479,10.375-2.08,21.312-0.504,31.795
		c0.367,2.475,0.809,4.936,1.316,7.385c0.201,0.957,0.301,4.199,1.461,4.574c2.279,0.732,5.277,0.492,7.646,0.539
		c3.365,0.059,6.727-0.111,10.066-0.547c0.721,1.773,1.805,7.367,4.42,7.232c3.01-0.152,1.188-6.551,1.006-8.18
		c1.627-0.354,3.229-0.785,4.816-1.271c0.881,1.832,2.1,6.686,4.535,6.934c3.223,0.326,0.75-7.309,0.51-8.738
		c2.273-0.932,4.482-2,6.598-3.223c0.967,1.975,2.297,7.023,4.541,7.801c1.748,0.613,3.539-0.951,2.943-2.758
		c-0.307-2.682-1.854-5.629-2.703-8.195c1.324-0.979,2.617-2.004,3.838-3.111c1.822,1.9,3.85,4.969,6.135,6.281
		c1.682,0.963,3.896-0.656,2.734-2.496c-1.023-2.705-3.408-5.359-4.961-7.795c1.02-1.168,1.998-2.377,2.906-3.662
		c1.77,1.137,6.949,6.096,8.971,3.453c1.799-2.348-4.646-6.918-6.012-8.279c1.705-3.186,3.076-6.611,3.779-10.146
		c0.359-3.912-1.164-8.232-2.375-11.908C605.422,480.31,605.65,480.083,605.855,479.782
		C606.604,478.937,605.65,480.083,605.855,479.782z M549.893,523.282c-1.553-11.219-2.01-22.771,0.24-33.93
		c1.746-8.688,5.549-17.781,13.85-22.033c7.783-3.98,18.477-4.408,25.865,0.697c7.537,5.203,11.18,14.799,12.314,23.568
		C594.666,513.632,571.238,522.183,549.893,523.282C549.852,522.954,571.238,522.183,549.893,523.282z"/>
	<path fill="#FFFFFF" d="M575.139,481.751c0.371,4.047,3.293,9.621,8.17,8.496c4.541-1.051,5.65-7.229,4.816-11.096
		c-0.902-4.207-5.135-9.693-9.832-6.26c-3.193,2.344-3.334,6.764-3.023,10.322c-0.088-0.977-0.176-1.957-0.264-2.934
		C575.047,480.769,575.092,481.261,575.139,481.751C575.48,485.521,574.67,476.655,575.139,481.751z"/>
	<path fill="#3C2A1E" d="M407.4,464.776c7.383-13.4,20.977-25.34,36.152-28.527c9.301-1.949,18.559,0.529,27.842,1.324
		c8.893,0.129,17.705-0.369,25.896-4.16c3.217-1.484,6.191-3.496,8.557-6.152c2.002-2.256,5.822-0.738,4.043,2.344
		c-3.848,6.654-11.467,10.725-18.564,12.928c-8.646,2.688-17.811,2.9-26.766,2.037c-6.1-0.578-11.893-2.031-18.082-1.16
		c-8.189,1.152-15.762,5.229-22.125,10.391c-2.867,2.322-5.572,4.855-8.086,7.553c-1.152,1.234-2.252,2.518-3.32,3.818
		c-0.277,0.338-1.625,1.576-1.625,2.066C409.68,469.489,406.086,467.257,407.4,464.776z"/>
	<path fill="#3C2A1E" d="M536.338,425.806c2.059,4.865,9.703,7.963,14.445,8.67c7.898,1.746,15.773-0.016,23.672-0.605
		c13.949-1.041,29.844,1.477,41.215,10.203c1.273,0.941,1.211,2.928-0.125,3.787c-1.141,0.74-2.213,0.16-3.25-0.365
		c-3.803-1.906-7.939-3.219-12.059-4.238c-8.777-2.184-18.059-2.592-27.035-1.545c-14.059,1.639-34.922,2.115-41.129-14.111
		C530.914,424.854,535.174,423.058,536.338,425.806z"/>
	<g>
		<path fill="#E58B74" d="M541.191,565.616c-2.742,1.176-6.697,3.094-7.705,6.23c-3.867-2.311-8.016-4.551-12.359-5.814
			c-4.43-1.283-6.234,1.01-9.135,4.102c-5.9,6.281-11.262,13.113-16.514,19.945c1.67,0.33,3.229-0.252,4.863-0.422
			c2.66-0.281,5.18,0.814,7.43,2.127c6.781,3.938,13.48,6.826,21.484,6.551c5.266-0.176,10.635,0.125,15.65-1.764
			c3.398-1.283,6.381-3.416,8.906-6.01c1.053-1.09,3.223-3.949,5.049-2.604c-1.756-4.125-3.766-8.168-6.043-12.035
			C551.025,572.87,546.025,563.542,541.191,565.616C534.154,568.632,548.211,562.599,541.191,565.616z"/>
		<path fill="#493425" d="M496.248,589.112c8.484-5.25,18.217-9.732,28.109-11.332c11.385-1.84,24.205,2.238,33.543,8.83
			c-0.555,0.305-3.004,2.127-3.508,1.904c-0.66-0.281-1.33-0.52-2.01-0.75c-4.076-1.395-8.338-2.273-12.607-2.789
			c-6.787-0.828-13.695-0.68-20.449,0.375c-4.211,0.656-8.369,1.67-12.42,3c-2.234,0.738-4.443,1.574-6.613,2.496
			C498.955,590.255,497.602,589.679,496.248,589.112z"/>
		<path fill="#7D4743" d="M558.283,590.991c-5.758-10.545-19.539-13.029-30.404-11.775c-5.895,0.615-11.742,2.32-17.326,4.254
			c-4.434,1.721-11.773,4.137-14.037,8.795l-2.162-2.293c11.367-3.689,23.34-5.871,35.189-7.258
			c10.688-1.248,21.867,1.283,31.77,5.246c1.172,0.473,1.734,1.801,1.268,2.975c-0.377,0.943-1.338,1.42-2.299,1.523
			C559.303,592.663,558.582,591.823,558.283,590.991z M559.355,587.94l0.586-0.117l-0.445,4.371
			c-9.129-3.826-19.705-6.527-29.658-5.379c-11.645,1.342-23.32,3.076-34.557,6.504c-0.887,0.27-1.824-0.229-2.096-1.113
			c-0.131-0.426-0.078-0.867,0.102-1.236c2.328-4.705,8.24-7.5,12.83-9.428c6.385-2.68,13.348-4.602,20.213-5.52
			c12.625-1.693,28.279,1.254,35.023,13.379L559.355,587.94z"/>
		<path fill="#7D4743" d="M494.916,594.058c-4.789,0-0.66-7.09,0.234-8.695c2.576-4.605,5.656-8.977,9.057-13.008
			c3.158-3.746,7.568-8.914,12.842-9.193c5.463-0.281,11.602,3.586,15.828,6.703c1.975-2.6,5.643-6.592,9.09-6.846
			c2.969-0.221,5.473,2.346,7.281,4.371c4.482,5.035,7.846,11.137,10.938,17.094c0.775,1.488,2.82,4.254,2.484,6.023
			c-0.348,1.805-2.656,2.496-3.926,1.172c-1.777-1.846-2.764-5.361-4-7.629c-2.139-3.932-4.436-7.812-7.096-11.42
			c-1.002-1.365-3.275-5.092-5.346-5.014c-2.609,1.562-5.312,3.766-6.734,6.531c-1.457,2.84-3.816,0.625-5.422-0.562
			c-4.424-3.258-11.314-8.045-16.48-4.129c-4.648,3.525-8.32,8.6-11.568,13.379c-1.443,2.113-2.844,4.285-3.988,6.576
			C497.279,591.063,497.256,594.058,494.916,594.058z"/>
		<path fill="#7D4743" d="M529.373,599.917c-8.426,0-16.129-4.049-24.273-5.631c-2.877-0.553-6.502-1.307-9.428-0.494
			c-2.811,0.781-4.334-3.367-1.523-4.352c0.869-0.305,1.818-0.402,2.725-0.463c6.107-0.41,12.41,1.312,18.16,3.162
			c7.807,2.504,14.801,4.32,22.836,1.625c7.266-2.441,14.129-5.094,21.82-5.93c2.572-0.285,4.471,3.125,1.635,4.359
			c-1.842,0.797-4.441,0.668-6.387,1.055c-8.355,1.646-16.104,6.369-24.682,6.65C529.959,599.905,529.666,599.911,529.373,599.917z"
			/>
	</g>
</g>
</svg>
