<?xml version="1.0" encoding="UTF-8" standalone="no"?>
<!-- Generator: Adobe Illustrator 16.2.0, SVG Export Plug-In . SVG Version: 6.00 Build 0)  -->

<svg
   xmlns:dc="http://purl.org/dc/elements/1.1/"
   xmlns:cc="http://creativecommons.org/ns#"
   xmlns:rdf="http://www.w3.org/1999/02/22-rdf-syntax-ns#"
   xmlns:svg="http://www.w3.org/2000/svg"
   xmlns="http://www.w3.org/2000/svg"
   xmlns:sodipodi="http://sodipodi.sourceforge.net/DTD/sodipodi-0.dtd"
   xmlns:inkscape="http://www.inkscape.org/namespaces/inkscape"
   version="1.1"
   x="0px"
   y="0px"
   width="400px"
   height="400px"
   viewBox="0 0 400 400"
   enable-background="new 0 0 400 400"
   xml:space="preserve"
   id="svg8836"
   inkscape:version="0.48.2 r9819"
   sodipodi:docname="LACT5_ThisNotThat_Lemon.svg"><metadata
   id="metadata8927"><rdf:RDF><cc:Work
       rdf:about=""><dc:format>image/svg+xml</dc:format><dc:type
         rdf:resource="http://purl.org/dc/dcmitype/StillImage" /><dc:title></dc:title></cc:Work></rdf:RDF></metadata><defs
   id="defs8925" /><sodipodi:namedview
   pagecolor="#ffffff"
   bordercolor="#666666"
   borderopacity="1"
   objecttolerance="10"
   gridtolerance="10"
   guidetolerance="10"
   inkscape:pageopacity="0"
   inkscape:pageshadow="2"
   inkscape:window-width="640"
   inkscape:window-height="480"
   id="namedview8923"
   showgrid="false"
   inkscape:zoom="0.59"
   inkscape:cx="200"
   inkscape:cy="200"
   inkscape:window-x="0"
   inkscape:window-y="0"
   inkscape:window-maximized="0"
   inkscape:current-layer="svg8836" />
<symbol
   id="fire"
   viewBox="-247 -304.032 545 590.845">
	<path
   fill="#E34202"
   d="M-64.896-293.09c90.598-27.231,225.488-3.499,302.298,69.65c19.06,18.15,36.939,43.105,47.284,67.452   c28.415,66.877,5.562,150.72-32.6,209.382c-16.075,24.71-6.901,81.784-5.098,84.14c-53.399-28.644-51.34-67.331-47.4-96.14   c7.843-57.357-1.474-80.81-20.998-137.993c-14.584-42.713-43.498-59.997-85.496-98.995c-21.443-19.911-30.852-32.154-58.951-39.003   c-35.887-8.747-91.123-27.636-119.541-50.492C-85.398-285.089-64.898-293.089-64.896-293.09z"
   id="path8839" />
	<path
   fill="#E34202"
   d="M-46.397-294c-42.42-1-94.153,28.323-122.492,56.914c-48.403,48.834-75.884,115.583-77.105,184.243   c-0.617,34.692,12.718,71.951,26.738,103.526c3.608,8.127,9.431,22.829,18.183,25.522C-217.491,20.154-171.461-1.239-136.393-31.6   c48.356-41.866,55.833-88.375,56.89-150.736c0.534-31.496,17.233-55.95,37.6-78.71C-32.261-271.82-22.955-284-23.898-294H-46.397z"
   id="path8841" />
	<path
   fill="#E34202"
   d="M-112.957,141.798c0,0-50.737-76.51-73.99-145.902c-68.522-204.488,170.991-398.98,328.483-221.989   c71.244,80.065,73.325,206.765,40.498,304.485c-16.694,49.697-60.075,123.015-98.367,159.94   C14.66,205.329-35.456,134.389-15.957,60.893C3.076-10.85-27.956-33.603-27.956-33.603s-33.711-48.731-47.711,75.269   C-83.405,110.204-112.957,141.798-112.957,141.798z"
   id="path8843" />
	<path
   fill="#E34202"
   d="M-55.952,118.795c0,0-42.003,21.002-33.003,60.006s30.004,93.009,0,108.011   c60.006-12.001,81.008-42.004,63.006-78.008S-70.953,142.798-55.952,118.795z"
   id="path8845" />
	<path
   fill="#FE8A37"
   d="M244.588-13.104c-41.998-12-52.498-34.499-67.497-89.996c-2.822-10.44-8.481-18.84-14.696-25.368   c11.627,41.31,13.751,87.375,2.607,133.466c-29.334,121.333-92.002,160-92.002,160S11.014,128.076,32,52C48-6,28-76-36-76   c-69.293,0-38.236,143.636-76.958,178.793c0,0-52.634-81.321-57.489-174.37c-11,19.108-22.255,32.821-34.941,37.474   c-0.232,0.085-1.64-26.417-1.608-27.727c0.55-22.712,4.435-45.525,11.278-67.176c18.971-60.015,56.244-114.549,115.33-137.577   c78.676-30.663,190.621-17.985,257.764,36.761c18.205,14.844,36.029,36.437,46.212,57.727   C256.587-103.1,201.09-80.6,244.588-13.104z"
   id="path8847" />
	<path
   fill="#E34202"
   d="M190,112c0,0-53.725,49.658,2,86c23,15,4,39,4,39s69-35,13-73C196,152,184,135,190,112z"
   id="path8849" />
	<path
   fill="#FFC642"
   d="M-100.957-47.222c0,0,12.807-89.448,81.008-84.008c89.548,7.142,96.01,117.012,96.01,117.012   s150.65-211.73-58.959-244.863C-129.959-282.328-166.964-122.229-100.957-47.222z"
   id="path8851" />
	<polygon
   display="none"
   fill="none"
   points="-247,286 298,286 298,-304 -247,-304  "
   id="polygon8853" />
</symbol>
<g
   id="fruit_sketches"
   display="none">
</g>
<g
   id="Layer_23">
	<g
   id="pomegranite">
	</g>
	<g
   id="Lemon">
	</g>
	<g
   id="Grapes">
	</g>
	<g
   id="New_Symbol_2">
	</g>
	<g
   id="meat_pie">
	</g>
	<g
   id="das_boot">
	</g>
	<g
   id="cake">
	</g>
	<g
   id="yum">
	</g>
	<g
   id="potato">
	</g>
	<g
   id="radish">
	</g>
	<g
   id="Lettuce">
	</g>
	<g
   id="Carrot">
	</g>
	<g
   id="g8869">
		<g
   id="g8871">
			<path
   fill="#ECBB39"
   d="M68.69,245.377c0,0-26.235-87.45,67.046-139.922c93.281-52.471,163.241,14.576,163.241,14.576     s49.556-8.745,49.556,11.66c0,20.404-17.489,40.81-17.489,40.81s15.549,64.246-61.217,119.517     c-72.876,52.472-166.156-2.914-166.156-2.914s-37.896,23.319-49.556,2.914C42.455,271.613,48.285,268.697,68.69,245.377z"
   id="path8873" />
		</g>
		<g
   id="g8875">
			<path
   fill="#FBD448"
   d="M308.15,120.095c-0.939-0.149-13.068,0.551-13.068,0.551c-0.846-12.223-65.225-33.149-76.496-34.498     c-33.336-3.989-85.248,15.768-110.994,35.998c-10.327,8.113-14.051,27.38-21.725,37.988c-7.09,9.801-10.721,21.154-12.479,33.031     c-2.312,15.604-1.341,31.278-3.003,46.903c-0.244,1.381-0.442,2.77-0.596,4.18c-3.275,26.867-34.764,15.191-15.674,47.77     c4.439,7.576,3.512,6.935,11.117,2.38c42.938-25.711,91.417-14.34,137.55-37.36c32.262-16.1,64.083-51.658,84.545-87.467     C315.619,148.375,367.369,129.552,308.15,120.095z"
   id="path8877" />
		</g>
		<g
   id="g8879">
			<path
   fill="#472A14"
   d="M197.004,320.106c-44.496,0.001-82.77-18.956-93.322-24.688c-5.84,3.156-19.606,9.761-32.505,9.761     c-9.201,0-16.622-3.41-21.461-9.861c-11.878-15.833-4.052-31.515,12.933-51.365c-1.661-7.16-5.054-26.293-0.83-49.832     c4.863-27.096,21.168-65.304,71.222-93.46c24.497-13.779,49.674-20.767,74.829-20.767c49.937,0,84.508,27.065,92.958,34.4     c2.602-0.249,6.953-0.571,12.08-0.571c14.575,0,33.423,2.654,40.436,15.3c10.075,18.168-9.252,38.825-16.343,45.513     c0.91,6.136,2.059,20.221-2.439,38.323c-5.431,21.852-20.512,54.097-61.52,83.622     C251.27,312.156,225.688,320.105,197.004,320.106z M103.671,283.604c0.971,0,1.942,0.257,2.809,0.771     c0.414,0.246,42.325,24.733,90.524,24.732c26.33-0.001,49.748-7.252,69.609-21.553c30.09-21.664,49.842-48.198,57.116-76.731     c5.492-21.539,2.001-36.892,1.965-37.044c-0.476-2.022,0.224-4.157,1.815-5.491c0.234-0.198,23.669-20.485,16.214-33.929     c-3.396-6.123-14.628-9.635-30.816-9.635c-7.413,0-13.144,0.752-13.201,0.759c-1.648,0.217-3.327-0.323-4.534-1.48     c-0.342-0.326-35.327-33.107-87.303-33.107c-23.242,0-46.605,6.512-69.437,19.354c-37.187,20.918-59.32,49.79-65.786,85.815     c-4.812,26.818,1.25,47.526,1.312,47.732c0.543,1.812,0.117,3.777-1.13,5.202c-22,25.144-19.661,32.593-14.315,39.718     c2.759,3.676,6.9,5.463,12.663,5.463c13.52,0,29.462-9.669,29.621-9.767C101.679,283.874,102.675,283.604,103.671,283.604z"
   id="path8881" />
		</g>
		<g
   id="g8883">
			<path
   fill="#E7FEF8"
   d="M140.986,130.672c-21.455,8.402-34.307,32.01-40.215,53.195c-1.768,6.337,2.108,13.114,8.434,14.854     c6.92,1.903,12.368-2.347,14.854-8.435c3.057-7.483,7.771-14.926,12.799-21.521c-0.491,0.713-0.226,0.413,0.795-0.9     c0.664-0.784,1.344-1.554,2.038-2.31c1.355-1.508,2.814-2.916,4.29-4.306c3.885-3.654,5.709-4.888,9.798-8.603     C163.145,144.141,153.392,125.814,140.986,130.672z"
   id="path8885" />
		</g>
		<g
   id="g8887">
			<path
   fill="#ECBB39"
   d="M208.611,172.174c-4.946,0-9.073,4.127-9.073,9.072c0,4.946,4.127,9.073,9.073,9.073     c4.945,0,9.072-4.127,9.072-9.073C217.684,176.301,213.557,172.174,208.611,172.174z"
   id="path8889" />
		</g>
		<g
   id="g8891">
			<path
   fill="#ECBB39"
   d="M255,141.178c-10,0-10,16.007,0,16.007S265,141.178,255,141.178z"
   id="path8893" />
		</g>
		<g
   id="g8895">
			<path
   fill="#ECBB39"
   d="M150.311,210.18c-4.886,0-8.963,4.076-8.963,8.962s4.077,8.963,8.963,8.963s8.963-4.077,8.963-8.963     S155.196,210.18,150.311,210.18z"
   id="path8897" />
		</g>
		<g
   id="g8899">
			<path
   fill="#ECBB39"
   d="M196,124.047c-13,0-13,21.117,0,21.117C210,145.164,210,124.047,196,124.047z"
   id="path8901" />
		</g>
		<g
   id="g8903">
			<path
   fill="#ECBB39"
   d="M185,201.052c-16,0-16,24.521,0,24.521C200,225.573,200,201.052,185,201.052z"
   id="path8905" />
		</g>
	</g>
</g>
<g
   id="Barn_Wall">
</g>
<g
   id="hay">
</g>
<g
   id="dirt_floor">
</g>
<g
   id="hay_2">
</g>
<g
   id="Layer_17">
</g>
<g
   id="Layer_18">
</g>
<g
   id="sunlight"
   display="none">
</g>
<g
   id="Layer_29">
</g>
<g
   id="Layer_26">
</g>
<g
   id="Layer_24">
</g>
<g
   id="Layer_25">
</g>
<g
   id="Layer_27">
</g>
<g
   id="Barrel">
</g>
<g
   id="crates">
</g>
<g
   id="Leroy_1_">
</g>
<g
   id="Eve">
</g>
</svg>