<?xml version="1.0" encoding="UTF-8" standalone="no"?>
<!-- Generator: Adobe Illustrator 16.2.0, SVG Export Plug-In . SVG Version: 6.00 Build 0)  -->

<svg
   xmlns:dc="http://purl.org/dc/elements/1.1/"
   xmlns:cc="http://creativecommons.org/ns#"
   xmlns:rdf="http://www.w3.org/1999/02/22-rdf-syntax-ns#"
   xmlns:svg="http://www.w3.org/2000/svg"
   xmlns="http://www.w3.org/2000/svg"
   xmlns:sodipodi="http://sodipodi.sourceforge.net/DTD/sodipodi-0.dtd"
   xmlns:inkscape="http://www.inkscape.org/namespaces/inkscape"
   version="1.1"
   x="0px"
   y="0px"
   width="400px"
   height="400px"
   viewBox="0 0 400 400"
   enable-background="new 0 0 400 400"
   xml:space="preserve"
   id="svg9241"
   inkscape:version="0.48.2 r9819"
   sodipodi:docname="LACT5_ThisNotThat_Potato.svg"><metadata
   id="metadata9324"><rdf:RDF><cc:Work
       rdf:about=""><dc:format>image/svg+xml</dc:format><dc:type
         rdf:resource="http://purl.org/dc/dcmitype/StillImage" /><dc:title></dc:title></cc:Work></rdf:RDF></metadata><defs
   id="defs9322" /><sodipodi:namedview
   pagecolor="#ffffff"
   bordercolor="#666666"
   borderopacity="1"
   objecttolerance="10"
   gridtolerance="10"
   guidetolerance="10"
   inkscape:pageopacity="0"
   inkscape:pageshadow="2"
   inkscape:window-width="640"
   inkscape:window-height="480"
   id="namedview9320"
   showgrid="false"
   inkscape:zoom="0.59"
   inkscape:cx="200"
   inkscape:cy="200"
   inkscape:window-x="0"
   inkscape:window-y="0"
   inkscape:window-maximized="0"
   inkscape:current-layer="svg9241" />
<symbol
   id="fire"
   viewBox="-247 -304.032 545 590.845">
	<path
   fill="#E34202"
   d="M-64.896-293.09c90.598-27.231,225.488-3.499,302.298,69.65c19.06,18.15,36.939,43.105,47.284,67.452   c28.415,66.877,5.562,150.72-32.6,209.382c-16.075,24.71-6.901,81.784-5.098,84.14c-53.399-28.644-51.34-67.331-47.4-96.14   c7.843-57.357-1.474-80.81-20.998-137.993c-14.584-42.713-43.498-59.997-85.496-98.995c-21.443-19.911-30.852-32.154-58.951-39.003   c-35.887-8.747-91.123-27.636-119.541-50.492C-85.398-285.089-64.898-293.089-64.896-293.09z"
   id="path9244" />
	<path
   fill="#E34202"
   d="M-46.397-294c-42.42-1-94.153,28.323-122.492,56.914c-48.403,48.834-75.884,115.583-77.105,184.243   c-0.617,34.692,12.718,71.951,26.738,103.526c3.608,8.127,9.431,22.829,18.183,25.522C-217.491,20.154-171.461-1.239-136.393-31.6   c48.356-41.866,55.833-88.375,56.89-150.736c0.534-31.496,17.233-55.95,37.6-78.71C-32.261-271.82-22.955-284-23.898-294H-46.397z"
   id="path9246" />
	<path
   fill="#E34202"
   d="M-112.957,141.798c0,0-50.737-76.51-73.99-145.902c-68.522-204.488,170.991-398.98,328.483-221.989   c71.244,80.065,73.325,206.765,40.498,304.485c-16.694,49.697-60.075,123.015-98.367,159.94   C14.66,205.329-35.456,134.389-15.957,60.893C3.076-10.85-27.956-33.603-27.956-33.603s-33.711-48.731-47.711,75.269   C-83.405,110.204-112.957,141.798-112.957,141.798z"
   id="path9248" />
	<path
   fill="#E34202"
   d="M-55.952,118.795c0,0-42.003,21.002-33.003,60.006s30.004,93.009,0,108.011   c60.006-12.001,81.008-42.004,63.006-78.008S-70.953,142.798-55.952,118.795z"
   id="path9250" />
	<path
   fill="#FE8A37"
   d="M244.588-13.104c-41.998-12-52.498-34.499-67.497-89.996c-2.822-10.44-8.481-18.84-14.696-25.368   c11.627,41.31,13.751,87.375,2.607,133.466c-29.334,121.333-92.002,160-92.002,160S11.014,128.076,32,52C48-6,28-76-36-76   c-69.293,0-38.236,143.636-76.958,178.793c0,0-52.634-81.321-57.489-174.37c-11,19.108-22.255,32.821-34.941,37.474   c-0.232,0.085-1.64-26.417-1.608-27.727c0.55-22.712,4.435-45.525,11.278-67.176c18.971-60.015,56.244-114.549,115.33-137.577   c78.676-30.663,190.621-17.985,257.764,36.761c18.205,14.844,36.029,36.437,46.212,57.727   C256.587-103.1,201.09-80.6,244.588-13.104z"
   id="path9252" />
	<path
   fill="#E34202"
   d="M190,112c0,0-53.725,49.658,2,86c23,15,4,39,4,39s69-35,13-73C196,152,184,135,190,112z"
   id="path9254" />
	<path
   fill="#FFC642"
   d="M-100.957-47.222c0,0,12.807-89.448,81.008-84.008c89.548,7.142,96.01,117.012,96.01,117.012   s150.65-211.73-58.959-244.863C-129.959-282.328-166.964-122.229-100.957-47.222z"
   id="path9256" />
	<polygon
   display="none"
   fill="none"
   points="-247,286 298,286 298,-304 -247,-304  "
   id="polygon9258" />
</symbol>
<g
   id="fruit_sketches"
   display="none">
</g>
<g
   id="Layer_23">
	<g
   id="pomegranite">
	</g>
	<g
   id="Lemon">
	</g>
	<g
   id="Grapes">
	</g>
	<g
   id="New_Symbol_2">
	</g>
	<g
   id="meat_pie">
	</g>
	<g
   id="das_boot">
	</g>
	<g
   id="cake">
	</g>
	<g
   id="yum">
	</g>
	<g
   id="potato">
	</g>
	<g
   id="radish">
	</g>
	<g
   id="Lettuce">
	</g>
	<g
   id="Carrot">
	</g>
	<g
   id="g9274">
		<g
   id="g9276">
			<path
   fill="#FFC191"
   d="M311.322,119.134c-2.208-5.322-5.036-10.383-8.553-15.065c-30.644-40.81-94.259-36.222-125.509,1.17     c-10.57,12.646-13.352,30.127-22.004,44.018c-15.73,25.256-41.973,41.057-57.35,66.791c-13.055,21.85-15.615,48.678-3.143,71.301     c22.877,41.489,76.133,28.92,110.726,12.494c8.241-3.913,16.194-8.439,23.856-13.391c3.195-2.065,6.32-4.243,9.381-6.504     c2.215-1.636,4.385-3.336,6.551-5.035c-3.858,3.025,1.945-1.52,3.044-2.387c1.597-1.26,3.147-2.576,4.691-3.9     c20.401-17.503,48.628-47.646,57.444-72.956C318.757,171.846,321.186,142.886,311.322,119.134z"
   id="path9278" />
		</g>
		<g
   id="g9280">
			<path
   fill="#DE8A47"
   d="M311.077,155.566c-1.418-2.779-2.909-5.526-4.566-8.172c-0.814-1.298-1.637-2.594-2.514-3.852     c-0.432-0.623-1.951-2.609-2.042-2.77c-1.584-1.9-3.239-3.74-5.022-5.455c-1.023-0.985-2.055-1.965-3.143-2.88     c-0.182-0.153-0.335-0.282-0.473-0.401c-2.203-1.533-4.486-2.976-6.916-4.131c-0.043-0.021-0.076-0.037-0.115-0.056     c-0.041-0.014-0.074-0.025-0.118-0.04c-1.253-0.428-2.515-0.844-3.808-1.148c-0.638-0.151-1.94-0.346-2.638-0.457     c-0.485-0.027-0.972-0.059-1.458-0.06c-1.273-0.002-2.551,0.022-3.82,0.135c-0.219,0.054-0.475,0.114-0.781,0.186     c-0.471,0.109-0.94,0.229-1.411,0.347c-31.417,23.163-21.669,58.266-43.363,88.192c-14.794,20.404-91.033,76.79-114.239,43.675     c-10.805-15.417-24.282,13.158-14.677,35.098c3.978,9.091,8.082,16.276,13.916,21.388c5.049,4.424,10.548,5.771,15.974,6.456     c4.271,0.541,8.558-0.224,12.81-1.335c1.276-0.144,2.531-0.485,3.737-1.044c0.307-0.089,0.612-0.179,0.92-0.269     c1.588-0.467,3.162-0.947,4.723-1.5c9.705,3.519,21.061,2.553,30.943,1.108c12.374-1.81,24.46-7.505,35.42-13.31     c12.229-6.477,23.474-14.706,34.145-23.473c10.111-8.308,19.385-17.646,27.71-27.739c7.521-9.116,14.905-18.997,19.909-29.768     c5.611-12.075,7.262-25.623,8.986-38.686c1.277-9.679,2.096-19.467,2.299-29.255C311.335,156.091,311.21,155.826,311.077,155.566     z M273.917,209.421c-0.076,0.229-0.183,0.519-0.295,0.817c-0.514,1.028-1.074,2.036-1.619,3.044     c-1.822,3.38-3.859,6.641-6.004,9.829c2.989-4.693,5.725-9.549,8.176-14.535C274.084,208.856,274.011,209.142,273.917,209.421z"
   id="path9282" />
		</g>
		<g
   id="g9284">
			<path
   fill="#4B3A2E"
   d="M145.711,328.155h-0.006c-21.129-0.001-38.473-8.252-53.021-25.225     c-13.421-15.656-18.539-34.978-14.803-55.874c3.197-17.876,12.796-36.014,27.028-51.072c5.332-5.643,11.414-10.279,17.295-14.764     c6.586-5.02,12.805-9.761,17.779-15.644c1.23-1.457,2.354-2.951,3.338-4.442c4.097-6.206,6.648-13.372,9.35-20.959     c3.35-9.411,6.814-19.143,13.543-27.5c19.662-24.423,52.264-40.832,81.125-40.832c16.746,0,32.118,5.385,44.454,15.572     c25.524,21.082,34.67,61.591,30.511,90.71c-7.227,50.591-43.047,95.367-100.864,126.083     C191.11,320.322,166.336,328.155,145.711,328.155z M247.34,82.844c-25.712,0-54.87,14.761-72.557,36.73     c-5.56,6.905-8.565,15.35-11.749,24.291c-2.802,7.871-5.699,16.011-10.531,23.329c-1.222,1.851-2.607,3.696-4.117,5.483     c-5.751,6.802-12.747,12.135-19.511,17.291c-5.787,4.412-11.253,8.579-15.971,13.571c-32.938,34.851-29.694,71.436-11.869,92.232     c12.505,14.587,26.699,21.382,44.672,21.383h0.004c18.782,0,41.865-7.412,70.569-22.661     c54.632-29.023,88.419-70.902,95.136-117.923c4.92-34.46-9.67-66.668-26.626-80.674C274.301,87.235,261.7,82.844,247.34,82.844z"
   id="path9286" />
		</g>
		<g
   id="g9288">
			<path
   fill="#4B3A2E"
   d="M215.587,141.795c-3.119,0-6.985-0.28-8.431-4.269c-0.878-2.421-0.116-5.157,1.895-6.811     c1.764-1.45,4.109-1.724,6.085-0.918c4.424,0.137,18.615-0.937,22.797-1.686c2.065-1.149,4.704-1.017,6.665,0.546     c1.989,1.583,2.805,4.344,1.975,6.747c-1.477,4.28-5.356,4.634-14.729,5.488c-5.663,0.517-11.742,0.868-15.486,0.897     C216.107,141.793,215.85,141.795,215.587,141.795z"
   id="path9290" />
		</g>
		<g
   id="g9292">
			<path
   fill="#4B3A2E"
   d="M194.865,239.353c-2.207,0-4.331-1.222-5.379-3.332c-0.422-0.851-1.128-1.911-1.945-3.139     c-4.367-6.562-11.677-17.543-4.373-39.43c1.051-3.144,4.451-4.836,7.592-3.792c3.143,1.049,4.841,4.447,3.792,7.591     c-5.447,16.322-0.971,23.048,2.979,28.982c0.999,1.501,1.942,2.919,2.703,4.449c1.474,2.968,0.263,6.569-2.705,8.043     C196.672,239.151,195.762,239.353,194.865,239.353z"
   id="path9294" />
		</g>
		<g
   id="g9296">
			<path
   fill="#4B3A2E"
   d="M260.854,203.353c-1.04,0-2.095-0.271-3.055-0.841c-0.92-0.546-1.89-1.17-2.897-1.819     c-2.991-1.93-7.508-4.845-9.472-3.919c-2.992,1.417-6.572,0.143-7.992-2.853c-1.418-2.994-0.142-6.572,2.854-7.991     c7.986-3.783,15.887,1.309,21.114,4.678c0.876,0.565,1.718,1.11,2.517,1.584c2.85,1.691,3.789,5.372,2.099,8.222     C264.899,202.303,262.902,203.353,260.854,203.353z"
   id="path9298" />
		</g>
		<g
   id="g9300">
			<path
   fill="#4B3A2E"
   d="M118.864,283.353c-2.249,0-4.404-1.27-5.429-3.438c-5.218-11.044-4.166-27.25,8.061-35.53     c2.742-1.859,6.475-1.14,8.332,1.604s1.141,6.474-1.604,8.332c-6.455,4.371-7.071,13.84-3.939,20.47     c1.416,2.996,0.135,6.572-2.863,7.987C120.596,283.168,119.723,283.353,118.864,283.353z"
   id="path9302" />
		</g>
	</g>
</g>
<g
   id="Barn_Wall">
</g>
<g
   id="hay">
</g>
<g
   id="dirt_floor">
</g>
<g
   id="hay_2">
</g>
<g
   id="Layer_17">
</g>
<g
   id="Layer_18">
</g>
<g
   id="sunlight"
   display="none">
</g>
<g
   id="Layer_29">
</g>
<g
   id="Layer_26">
</g>
<g
   id="Layer_24">
</g>
<g
   id="Layer_25">
</g>
<g
   id="Layer_27">
</g>
<g
   id="Barrel">
</g>
<g
   id="crates">
</g>
<g
   id="Leroy_1_">
</g>
<g
   id="Eve">
</g>
</svg>