%YAML 1.1
%TAG !u! tag:unity3d.com,2011:
--- !u!114 &11400000
MonoBehaviour:
  m_ObjectHideFlags: 0
  m_PrefabParentObject: {fileID: 0}
  m_PrefabInternal: {fileID: 0}
  m_GameObject: {fileID: 0}
  m_Enabled: 1
  m_EditorHideFlags: 0
  m_Script: {fileID: 529336600, guid: 2a53e83e1a186495ebcacce8848a4057, type: 3}
  m_Name: Ned_Atlas
  material: {fileID: 2100000, guid: 3ced5b4de6a754146b6e881e817f555d, type: 2}
  uvs:
  - serializedVersion: 2
    x: 0
    y: 0
    width: .312011719
    height: .312011719
  - serializedVersion: 2
    x: .312255859
    y: 0
    width: .312011719
    height: .312011719
  - serializedVersion: 2
    x: .624511719
    y: 0
    width: .312011719
    height: .312011719
  - serializedVersion: 2
    x: 0
    y: .312255859
    width: .312011719
    height: .312011719
  - serializedVersion: 2
    x: 0
    y: .624511719
    width: .312011719
    height: .312011719
  - serializedVersion: 2
    x: .312255859
    y: .312255859
    width: .312011719
    height: .312011719
  - serializedVersion: 2
    x: .624511719
    y: .312255859
    width: .312011719
    height: .312011719
  textureGUIDs:
  - cf19dcf0611974ae29cd3ba9de89bc30
  - f1619c9423b1a4729a7831c6cda7bdbe
  - cfb25aaa2c3e749788f32b46b4e580d8
  - 2b88e79d3b97948dea813acf2f8e2b87
  - 0c4ea30e545a14a90a6a17b860405391
  - e8c86e1e6c8544eccb7710b6fa5a352b
  - 8d75f720481274ec68727b8998eb1483
  textureSizes:
  - {x: 2272, y: 2272}
  - {x: 2272, y: 2272}
  - {x: 2272, y: 2272}
  - {x: 2272, y: 2272}
  - {x: 2272, y: 2272}
  - {x: 2272, y: 2272}
  - {x: 2272, y: 2272}
  defaultPivotOffsets:
  - {x: -.0428571403, y: .101785712}
  - {x: .0107142851, y: .149999991}
  - {x: .00535714254, y: .101785712}
  - {x: -.0535714254, y: .149999991}
  - {x: 0, y: 0}
  - {x: .0267857127, y: .0107142851}
  - {x: 0, y: 0}
  textureNames:
  - BBT_Ned_LLeg
  - BBT_Ned_RArm
  - BBT_Ned_RLeg
  - BBT_Ned_LArm
  - BBT_Ned_Head
  - BBT_ThinNed_Torso
  - BBT_Ned_Torso
  texturePaths:
  - Assets/Project/content/textures/Characters/NPCs/BBT_Ned_Anim/BBT_Ned_LLeg.png
  - Assets/Project/content/textures/Characters/NPCs/BBT_Ned_Anim/BBT_Ned_RArm.png
  - Assets/Project/content/textures/Characters/NPCs/BBT_Ned_Anim/BBT_Ned_RLeg.png
  - Assets/Project/content/textures/Characters/NPCs/BBT_Ned_Anim/BBT_Ned_LArm.png
  - Assets/Project/content/textures/Characters/NPCs/BBT_Ned_Anim/BBT_Ned_Head.png
  - Assets/Project/content/textures/Characters/NPCs/BBT_Ned_Anim/BBT_ThinNed_Torso.png
  - Assets/Project/content/textures/Characters/NPCs/BBT_Ned_Anim/BBT_Ned_Torso.png
  lastBuildID: 20130816130903490
  needsRebuilt: 0
  dataVersion: 4
  maxAtlasSize: 1024
  padding: 1
  forceSquare: 0
