<?xml version="1.0" encoding="utf-8"?>
<!-- Generator: Adobe Illustrator 16.0.0, SVG Export Plug-In . SVG Version: 6.00 Build 0)  -->
<!DOCTYPE svg PUBLIC "-//W3C//DTD SVG 1.1//EN" "http://www.w3.org/Graphics/SVG/1.1/DTD/svg11.dtd">
<svg version="1.1" xmlns="http://www.w3.org/2000/svg" xmlns:xlink="http://www.w3.org/1999/xlink" x="0px" y="0px" width="1200px"
	 height="1200px" viewBox="0 0 1200 1200" enable-background="new 0 0 1200 1200" xml:space="preserve">
<g id="Backgrounds">
</g>
<g id="reusables">
</g>
<g id="Find_Elsewhere">
	<g>
		<g>
			<path fill="#9C9227" d="M1106.021,1020.849c-1.45-6.898-6.377-10.809-12.282-12.497c-12.254,12.796-34.924,16.316-47.613,2.781
				c-13.393,23.134-42.614,21.916-54.79,3.653c-31.656,18.263-53.572,0-62.095-15.829c-17.477,6.474-28.071-1.851-34.161-11.068
				c-5.061,1.73-9.495,5.443-12.415,11.33c-3.564,7.19-2.106,13.442,1.88,18.064c-3.206,1.703-5.875,4.118-7.418,7.521
				c-4.312,9.525,1.826,20.306,11.028,23.743c-3.119,6.447,1.269,14.831,6.98,20.059c8.396,7.677,19.002,6.75,26.987,0.837
				c9.972,10.231,33.1,7.867,40.024-3.307c7.586,2.145,16.391,0.146,23.952-3.803c6.585,6.888,15.915,7.612,24.04,3.945
				c7.578,12.111,30.684,14.703,39.813,5.249c11.27,5.996,27.956,2.075,37.879-4.939c7.187-5.079,13.005-18.55,10.059-27.021
				C1103.886,1035.464,1107.753,1029.077,1106.021,1020.849z"/>
			<path fill="#DBDB2D" d="M929.241,998.958c8.523,15.829,30.439,34.092,62.095,15.829c12.175,18.263,41.397,19.481,54.79-3.653
				c12.689,13.535,35.359,10.015,47.613-2.781c-0.746-0.211-1.504-0.395-2.276-0.539c4.144-8.848,2.828-18.657-6.854-26.132
				c-7.955-6.142-20.323-7.912-28.271-2.24c-4.586-3.942-10.436-6.15-16.543-7.058c2.794-7.041,3.345-16.066-0.026-21.59
				c4.989-5.281,7.416-12.343,3.979-20.019c-3.242-7.245-9.99-9.861-16.991-9.653c2.178-9.525-1.189-18.833-12.233-24.085
				c-5.174-2.462-11.448-3.224-17.104-2.09c0.652-4.624-1.248-7.991-4.308-10.084c1.714-1.591,2.977-3.539,3.377-5.916
				c1.113-6.648-4.5-12.353-10.799-12.972c0.875-4.533-3.245-9.032-7.67-11.346c-6.502-3.396-12.959-1.065-16.959,3.943
				c-7.907-4.727-21.931,0.572-24.396,8.682c-8.228-0.131-16.658,7.021-20.293,13.964c-2.631,5.026-2.017,14.469,2.163,18.465
				c-2.237,4.116-2.58,8.919,0.833,13.134c2.188,2.706,5.035,3.807,7.993,3.831c-2.839,2.037-5.299,4.892-7.149,8.622
				c-3.563,7.189-2.104,13.442,1.88,18.063c-3.206,1.703-5.876,4.119-7.418,7.521c-3.747,8.28,0.404,17.5,7.594,22.03
				c-0.278,0.073-0.559,0.143-0.835,0.22c-7.461,2.11-13.146,7.501-14.668,14.095c-4.006-0.785-8.008-0.566-11.683,0.691
				C901.17,997.106,911.764,1005.431,929.241,998.958z"/>
		</g>
		<path fill="#2D5626" d="M1040.971,932.02c3.282,7.33-0.044,13.118-3.414,16.684c-0.943,0.998-1.101,2.503-0.385,3.676
			c2.6,4.262,2.516,12.026-0.205,18.881c-0.344,0.864-0.272,1.837,0.191,2.643c0.463,0.805,1.27,1.354,2.189,1.491
			c6.022,0.896,11.212,3.094,15.006,6.355c1.065,0.915,2.614,0.983,3.752,0.169c2.632-1.877,6.033-2.87,9.839-2.87
			c5.182,0,10.715,1.885,14.804,5.042c7.797,6.02,9.912,13.986,5.957,22.432c-0.399,0.853-0.382,1.843,0.049,2.682
			c0.431,0.837,1.225,1.43,2.151,1.602c4.697,0.874,10.614,3.434,12.136,10.669c1.654,7.859-2.825,12.81-6.872,15.58
			c-1.135,0.775-1.608,2.214-1.157,3.512c2.476,7.118-2.938,19.293-8.941,23.535c-6.394,4.519-15.25,7.326-23.117,7.326
			c-4.453,0-8.348-0.871-11.575-2.588c-1.201-0.639-2.678-0.405-3.621,0.573c-2.944,3.049-8.067,4.798-14.057,4.798
			c-8.979,0-17.413-3.837-20.986-9.548c-0.572-0.914-1.56-1.429-2.582-1.429c-0.421,0-0.847,0.087-1.25,0.27
			c-2.772,1.25-5.711,1.912-8.5,1.912c-4.665,0-8.844-1.794-12.087-5.186c-0.936-0.98-2.408-1.222-3.609-0.594
			c-5.1,2.663-10.317,4.132-15.059,4.299c-0.685,2.01-1.34,4.042-2.005,6.066c5.655,0.205,11.85-1.155,17.916-3.996
			c4.152,3.605,9.241,5.499,14.844,5.499c2.907,0,5.816-0.51,8.679-1.518c5.187,6.333,14.543,10.313,24.64,10.313
			c6.672,0,12.646-1.855,16.773-5.148c3.673,1.571,7.859,2.366,12.479,2.366c0.001,0,0,0,0.001,0c9.058,0,19.263-3.236,26.629-8.443
			c7.359-5.2,13.708-18.388,11.771-28.295c6.529-5.271,9.305-12.656,7.643-20.556c-1.472-7-6.297-12.144-13.45-14.501
			c3.137-9.841-0.118-19.529-9.079-26.448c-5.195-4.011-11.946-6.311-18.525-6.311c-4.208,0-8.103,0.949-11.401,2.762
			c-3.578-2.612-7.912-4.538-12.759-5.675c1.679-6.019,2.032-13.229-0.369-18.805c5.261-6.538,6.41-14.344,3.11-21.711
			c-1.712-3.825-4.349-6.753-7.731-8.696c-1.057,1.74-2.096,3.488-3.143,5.232C1037.77,927.259,1039.677,929.13,1040.971,932.02z"/>
		<path fill="#2D5626" d="M1015.833,894.288c-4.625-2.2-10.067-3.198-15.337-2.819c-0.313-2.617-1.367-4.957-3.108-6.896
			c1.092-1.575,1.795-3.288,2.104-5.124c0.616-3.683-0.34-7.403-2.693-10.476c-1.995-2.606-4.873-4.546-8.019-5.479
			c-0.61-4.905-4.813-9.192-9.351-11.563c-2.473-1.292-5.045-1.947-7.643-1.947c-4.179,0-8.247,1.75-11.458,4.87
			c-1.922-0.729-4.082-1.107-6.367-1.107c-8.97,0-16.475,5.153-19.344,10.553c-8.902,0.905-17.142,8.246-20.942,15.504
			c-2.819,5.385-2.685,14.776,1.273,20.351c-2.072,5.136-1.364,10.355,2.051,14.574c1.206,1.49,2.621,2.658,4.208,3.485
			c-1.431,1.681-2.675,3.585-3.725,5.7c-3.235,6.53-3.125,13.009,0.24,18.575c-2.606,1.935-4.559,4.315-5.824,7.107
			c-3.339,7.378-1.438,16.15,4.318,22.231c-5.432,2.607-9.582,6.884-11.583,11.985c-0.858-0.083-1.713-0.124-2.56-0.124
			c-9.598,0-17.667,5.166-22.137,14.176c-3.237,6.531-3.126,13.01,0.24,18.575c-2.605,1.934-4.558,4.314-5.824,7.107
			c-2.194,4.85-2.233,10.333-0.109,15.441c1.965,4.726,5.654,8.747,10.147,11.178c-1.61,7.284,2.896,15.38,8.688,20.683
			c4.517,4.13,9.931,6.313,15.655,6.313c4.513,0,9.005-1.331,13.124-3.871c4.604,3.651,11.122,5.705,18.305,5.705
			c9.704,0,18.547-3.644,23.267-9.435c1.353,0.259,2.761,0.386,4.195,0.438c0.665-2.024,1.32-4.057,2.005-6.066
			c-2.361,0.084-4.606-0.148-6.655-0.729c-1.309-0.368-2.701,0.172-3.416,1.327c-3.105,5.011-10.9,8.379-19.395,8.379
			c-6.616,0-12.398-2.039-15.863-5.594c-1.062-1.091-2.768-1.228-3.991-0.321c-3.604,2.668-7.606,4.08-11.574,4.08
			c-4.238,0-8.123-1.588-11.545-4.717c-4.916-4.5-8.656-11.608-6.295-16.487c0.372-0.771,0.403-1.665,0.084-2.459
			c-0.319-0.794-0.958-1.418-1.76-1.718c-4.147-1.549-7.644-4.929-9.355-9.042c-1.039-2.5-1.877-6.368,0.034-10.592
			c1.151-2.538,3.138-4.53,6.074-6.089c0.818-0.434,1.394-1.217,1.563-2.127c0.171-0.91-0.082-1.848-0.686-2.549
			c-2.537-2.942-4.85-7.883-1.459-14.723c3.454-6.961,9.379-10.794,16.683-10.794c1.347,0,2.728,0.136,4.102,0.407
			c1.624,0.316,3.185-0.704,3.552-2.303c1.266-5.482,6.068-10.023,12.531-11.851l0.788-0.207c1.171-0.311,2.046-1.286,2.229-2.482
			c0.182-1.198-0.361-2.39-1.386-3.036c-5.539-3.489-9.679-11.052-6.444-18.197c1.149-2.539,3.137-4.53,6.073-6.09
			c0.817-0.435,1.393-1.217,1.563-2.127c0.171-0.91-0.082-1.848-0.686-2.549c-2.536-2.941-4.848-7.886-1.459-14.724
			c1.564-3.148,3.648-5.674,6.198-7.502c1.071-0.768,1.525-2.142,1.127-3.397c-0.398-1.257-1.559-2.119-2.876-2.13
			c-2.348-0.019-4.197-0.914-5.651-2.714c-2.884-3.563-1.877-7.301-0.524-9.789c0.656-1.208,0.422-2.754-0.571-3.704
			c-3.148-3.012-3.561-10.6-1.569-14.403c3.175-6.062,10.541-11.98,17.373-11.98h0.175c0.017,0,0.034,0,0.049,0
			c1.339,0,2.522-1.226,2.912-2.511c1.345-4.423,8.066-8.379,14.385-8.379c2.146,0,4.062,0.33,5.538,1.212
			c1.305,0.778,2.99,0.408,3.94-0.783c2.234-2.796,5.275-4.435,8.347-4.435c1.606,0,3.229,0.405,4.824,1.238
			c3.369,1.761,6.648,5.18,6.091,8.063c-0.162,0.841,0.038,1.707,0.549,2.393c0.513,0.687,1.29,1.124,2.143,1.207
			c2.547,0.25,5.003,1.621,6.572,3.669c0.931,1.216,1.951,3.204,1.522,5.767c-0.257,1.531-1.057,2.9-2.446,4.19
			c-0.678,0.629-1.033,1.533-0.964,2.457c0.069,0.922,0.554,1.764,1.317,2.286c2.433,1.665,3.447,4.069,3.012,7.146
			c-0.138,0.978,0.207,1.962,0.925,2.64c0.717,0.678,1.719,0.964,2.687,0.771c1.505-0.301,3.08-0.454,4.68-0.454
			c3.708,0,7.344,0.797,10.518,2.308c8.897,4.232,12.652,11.568,10.573,20.659c-0.209,0.918,0.018,1.883,0.616,2.611
			c0.599,0.729,1.524,1.137,2.442,1.11c0.225-0.006,0.449-0.009,0.673-0.009c2.516,0,5.488,0.425,8.133,1.912
			c1.046-1.745,2.085-3.492,3.143-5.232c-2.458-1.412-5.306-2.306-8.487-2.63C1031.289,907.928,1026.057,899.151,1015.833,894.288z"
			/>
		<g>
			<path fill="#9C9227" d="M123.682,1020.849c1.451-6.898,6.377-10.809,12.283-12.497c12.254,12.796,34.924,16.316,47.613,2.781
				c13.393,23.134,42.614,21.916,54.79,3.653c31.656,18.263,53.572,0,62.095-15.829c17.478,6.474,28.071-1.851,34.162-11.068
				c5.06,1.73,9.494,5.443,12.414,11.33c3.564,7.19,2.107,13.442-1.88,18.064c3.206,1.703,5.875,4.118,7.418,7.521
				c4.311,9.525-1.827,20.306-11.028,23.743c3.118,6.447-1.269,14.831-6.979,20.059c-8.396,7.677-19.003,6.75-26.988,0.837
				c-9.972,10.231-33.099,7.867-40.024-3.307c-7.586,2.145-16.391,0.146-23.952-3.803c-6.585,6.888-15.915,7.612-24.039,3.945
				c-7.578,12.111-30.684,14.703-39.813,5.249c-11.27,5.996-27.956,2.075-37.88-4.939c-7.186-5.079-13.006-18.55-10.059-27.021
				C125.817,1035.464,121.951,1029.077,123.682,1020.849z"/>
			<path fill="#DBDB2D" d="M300.462,998.958c-8.522,15.829-30.438,34.092-62.095,15.829c-12.176,18.263-41.397,19.481-54.79-3.653
				c-12.689,13.535-35.359,10.015-47.613-2.781c0.746-0.211,1.504-0.395,2.276-0.539c-4.144-8.848-2.828-18.657,6.854-26.132
				c7.954-6.142,20.322-7.912,28.271-2.24c4.586-3.942,10.436-6.15,16.542-7.058c-2.794-7.041-3.344-16.066,0.026-21.59
				c-4.989-5.281-7.416-12.343-3.979-20.019c3.243-7.245,9.99-9.861,16.991-9.653c-2.178-9.525,1.189-18.833,12.232-24.085
				c5.175-2.462,11.448-3.224,17.104-2.09c-0.653-4.624,1.247-7.991,4.308-10.084c-1.715-1.591-2.978-3.539-3.377-5.916
				c-1.113-6.648,4.499-12.353,10.799-12.972c-0.875-4.533,3.245-9.032,7.67-11.346c6.503-3.396,12.959-1.065,16.959,3.943
				c7.907-4.727,21.932,0.572,24.396,8.682c8.228-0.131,16.658,7.021,20.293,13.964c2.631,5.026,2.017,14.469-2.163,18.465
				c2.238,4.116,2.58,8.919-0.832,13.134c-2.188,2.706-5.034,3.807-7.993,3.831c2.84,2.037,5.299,4.892,7.15,8.622
				c3.563,7.189,2.104,13.442-1.88,18.063c3.206,1.703,5.876,4.119,7.418,7.521c3.746,8.28-0.404,17.5-7.595,22.03
				c0.278,0.073,0.559,0.143,0.835,0.22c7.461,2.11,13.145,7.501,14.669,14.095c4.006-0.785,8.008-0.566,11.683,0.691
				C328.533,997.106,317.939,1005.431,300.462,998.958z"/>
		</g>
		<path fill="#2D5626" d="M188.733,932.02c-3.282,7.33,0.044,13.118,3.414,16.684c0.943,0.998,1.101,2.503,0.385,3.676
			c-2.6,4.262-2.516,12.026,0.205,18.881c0.344,0.864,0.272,1.837-0.191,2.643c-0.464,0.805-1.27,1.354-2.189,1.491
			c-6.022,0.896-11.212,3.094-15.006,6.355c-1.065,0.915-2.614,0.983-3.753,0.169c-2.631-1.877-6.033-2.87-9.839-2.87
			c-5.182,0-10.716,1.885-14.805,5.042c-7.796,6.02-9.912,13.986-5.957,22.432c0.399,0.853,0.382,1.843-0.049,2.682
			c-0.43,0.837-1.225,1.43-2.15,1.602c-4.697,0.874-10.614,3.434-12.137,10.669c-1.654,7.859,2.825,12.81,6.873,15.58
			c1.134,0.775,1.607,2.214,1.156,3.512c-2.476,7.118,2.938,19.293,8.941,23.535c6.394,4.519,15.25,7.326,23.117,7.326
			c4.453,0,8.348-0.871,11.575-2.588c1.201-0.639,2.677-0.405,3.62,0.573c2.944,3.049,8.067,4.798,14.057,4.798
			c8.979,0,17.413-3.837,20.986-9.548c0.572-0.914,1.56-1.429,2.581-1.429c0.421,0,0.847,0.087,1.251,0.27
			c2.771,1.25,5.711,1.912,8.5,1.912c4.665,0,8.844-1.794,12.088-5.186c0.936-0.98,2.408-1.222,3.608-0.594
			c5.1,2.663,10.317,4.132,15.059,4.299c0.685,2.01,1.34,4.042,2.004,6.066c-5.655,0.205-11.85-1.155-17.916-3.996
			c-4.152,3.605-9.241,5.499-14.844,5.499c-2.907,0-5.816-0.51-8.678-1.518c-5.187,6.333-14.543,10.313-24.64,10.313
			c-6.671,0-12.646-1.855-16.773-5.148c-3.673,1.571-7.859,2.366-12.479,2.366c-0.001,0,0,0-0.001,0
			c-9.058,0-19.264-3.236-26.629-8.443c-7.359-5.2-13.708-18.388-11.771-28.295c-6.529-5.271-9.306-12.656-7.644-20.556
			c1.472-7,6.297-12.144,13.45-14.501c-3.137-9.841,0.118-19.529,9.08-26.448c5.195-4.011,11.946-6.311,18.525-6.311
			c4.208,0,8.103,0.949,11.401,2.762c3.578-2.612,7.912-4.538,12.759-5.675c-1.679-6.019-2.032-13.229,0.369-18.805
			c-5.262-6.538-6.41-14.344-3.11-21.711c1.712-3.825,4.349-6.753,7.73-8.696c1.058,1.74,2.097,3.488,3.143,5.232
			C191.934,927.259,190.026,929.13,188.733,932.02z"/>
		<path fill="#2D5626" d="M213.871,894.288c4.625-2.2,10.067-3.198,15.337-2.819c0.314-2.617,1.367-4.957,3.109-6.896
			c-1.092-1.575-1.796-3.288-2.104-5.124c-0.616-3.683,0.34-7.403,2.693-10.476c1.995-2.606,4.873-4.546,8.019-5.479
			c0.61-4.905,4.813-9.192,9.351-11.563c2.473-1.292,5.045-1.947,7.643-1.947c4.179,0,8.247,1.75,11.457,4.87
			c1.923-0.729,4.082-1.107,6.367-1.107c8.97,0,16.475,5.153,19.344,10.553c8.902,0.905,17.142,8.246,20.942,15.504
			c2.819,5.385,2.685,14.776-1.273,20.351c2.072,5.136,1.364,10.355-2.051,14.574c-1.206,1.49-2.621,2.658-4.208,3.485
			c1.431,1.681,2.675,3.585,3.725,5.7c3.235,6.53,3.125,13.009-0.24,18.575c2.606,1.935,4.559,4.315,5.824,7.107
			c3.339,7.378,1.439,16.15-4.318,22.231c5.433,2.607,9.582,6.884,11.583,11.985c0.858-0.083,1.713-0.124,2.56-0.124
			c9.598,0,17.666,5.166,22.137,14.176c3.238,6.531,3.126,13.01-0.24,18.575c2.605,1.934,4.557,4.314,5.824,7.107
			c2.194,4.85,2.234,10.333,0.109,15.441c-1.966,4.726-5.654,8.747-10.147,11.178c1.61,7.284-2.897,15.38-8.688,20.683
			c-4.517,4.13-9.931,6.313-15.656,6.313c-4.512,0-9.004-1.331-13.123-3.871c-4.604,3.651-11.122,5.705-18.305,5.705
			c-9.704,0-18.548-3.644-23.267-9.435c-1.354,0.259-2.761,0.386-4.195,0.438c-0.665-2.024-1.319-4.057-2.004-6.066
			c2.361,0.084,4.606-0.148,6.655-0.729c1.309-0.368,2.701,0.172,3.416,1.327c3.105,5.011,10.901,8.379,19.396,8.379
			c6.615,0,12.397-2.039,15.862-5.594c1.063-1.091,2.768-1.228,3.991-0.321c3.604,2.668,7.606,4.08,11.574,4.08
			c4.239,0,8.124-1.588,11.545-4.717c4.916-4.5,8.656-11.608,6.294-16.487c-0.372-0.771-0.403-1.665-0.084-2.459
			c0.318-0.794,0.958-1.418,1.76-1.718c4.147-1.549,7.644-4.929,9.355-9.042c1.039-2.5,1.877-6.368-0.035-10.592
			c-1.151-2.538-3.138-4.53-6.073-6.089c-0.818-0.434-1.394-1.217-1.564-2.127c-0.171-0.91,0.082-1.848,0.686-2.549
			c2.538-2.942,4.851-7.883,1.459-14.723c-3.454-6.961-9.379-10.794-16.683-10.794c-1.348,0-2.728,0.136-4.103,0.407
			c-1.624,0.316-3.184-0.704-3.551-2.303c-1.266-5.482-6.069-10.023-12.531-11.851l-0.787-0.207
			c-1.172-0.311-2.047-1.286-2.229-2.482c-0.182-1.198,0.361-2.39,1.386-3.036c5.539-3.489,9.678-11.052,6.444-18.197
			c-1.15-2.539-3.137-4.53-6.074-6.09c-0.816-0.435-1.392-1.217-1.563-2.127c-0.171-0.91,0.082-1.848,0.687-2.549
			c2.536-2.941,4.848-7.886,1.459-14.724c-1.564-3.148-3.648-5.674-6.197-7.502c-1.072-0.768-1.525-2.142-1.127-3.397
			c0.398-1.257,1.559-2.119,2.876-2.13c2.348-0.019,4.197-0.914,5.651-2.714c2.884-3.563,1.877-7.301,0.524-9.789
			c-0.656-1.208-0.422-2.754,0.57-3.704c3.148-3.012,3.561-10.6,1.569-14.403c-3.174-6.062-10.54-11.98-17.372-11.98h-0.175
			c-0.017,0-0.033,0-0.049,0c-1.339,0-2.522-1.226-2.912-2.511c-1.344-4.423-8.066-8.379-14.385-8.379
			c-2.146,0-4.062,0.33-5.537,1.212c-1.306,0.778-2.99,0.408-3.94-0.783c-2.234-2.796-5.275-4.435-8.347-4.435
			c-1.606,0-3.229,0.405-4.824,1.238c-3.368,1.761-6.647,5.18-6.091,8.063c0.161,0.841-0.038,1.707-0.55,2.393
			c-0.512,0.687-1.29,1.124-2.143,1.207c-2.547,0.25-5.003,1.621-6.571,3.669c-0.931,1.216-1.951,3.204-1.522,5.767
			c0.257,1.531,1.058,2.9,2.446,4.19c0.678,0.629,1.033,1.533,0.964,2.457c-0.069,0.922-0.553,1.764-1.317,2.286
			c-2.433,1.665-3.447,4.069-3.012,7.146c0.138,0.978-0.207,1.962-0.925,2.64c-0.717,0.678-1.72,0.964-2.688,0.771
			c-1.505-0.301-3.079-0.454-4.68-0.454c-3.708,0-7.345,0.797-10.518,2.308c-8.897,4.232-12.652,11.568-10.573,20.659
			c0.209,0.918-0.018,1.883-0.616,2.611c-0.599,0.729-1.524,1.137-2.442,1.11c-0.225-0.006-0.45-0.009-0.673-0.009
			c-2.516,0-5.488,0.425-8.133,1.912c-1.046-1.745-2.085-3.492-3.143-5.232c2.458-1.412,5.306-2.306,8.487-2.63
			C198.415,907.928,203.646,899.151,213.871,894.288z"/>
		<polygon fill="#7F7F7F" points="305.306,379.621 302.074,460.292 263.863,414.555 		"/>
		<polygon fill="#7F7F7F" points="926.5,379.621 926.5,467.909 967.943,414.555 		"/>
		<path fill="#E5BBBA" d="M301.825,1059.037c0,0,2.246-276.192,0.216-316.714c-2.025-40.524,0.111-270.004,0.111-270.004
			l-0.32-32.776l-0.589-57.379l316.639-278.238L929.5,384.852v514.429v159.4L301.825,1059.037z"/>
		<polygon fill="#CC9E9E" points="572.149,966.098 615.455,1001 768.908,1001 753.536,969.942 748.968,958.343 		"/>
		<path fill="#C19595" d="M301.063,427.385l315.897-283.681c0,0,155.77,144.796,162.072,149.127
			c6.304,4.331,148.594,142.657,148.594,142.657l2.252-50.637L618.076,103.925L301.254,382.163L301.063,427.385z"/>
		
			<path fill="none" stroke="#A58C8C" stroke-width="5.4034" stroke-linecap="round" stroke-linejoin="round" stroke-miterlimit="10" d="
			M494.723,371.582c2.666,2.853,39.133,0.875,51.505,2.307c12.373,1.431,54.299,2.189,54.299,2.189"/>
		
			<path fill="none" stroke="#A58C8C" stroke-width="5.4034" stroke-linecap="round" stroke-linejoin="round" stroke-miterlimit="10" d="
			M510.892,824.275c2.743,2.776,105.889,1.477,105.889,1.477"/>
		
			<path fill="none" stroke="#A58C8C" stroke-width="5.4034" stroke-linecap="round" stroke-linejoin="round" stroke-miterlimit="10" d="
			M463.654,513.421c2.666,2.852,39.133,0.875,51.506,2.307c12.373,1.432,54.297,2.189,54.297,2.189"/>
		
			<path fill="none" stroke="#A58C8C" stroke-width="5.4034" stroke-linecap="round" stroke-linejoin="round" stroke-miterlimit="10" d="
			M797.313,903.816c2.666,2.854,39.133,0.875,51.508,2.306c12.373,1.432,54.297,2.19,54.297,2.19"/>
		<polygon fill="#C19595" points="313.441,682.244 335.792,749.739 527.775,738.528 543.222,684.872 424.407,585.486 		"/>
		<path fill="none" stroke="#826E6E" stroke-width="13" stroke-linecap="round" stroke-linejoin="round" stroke-miterlimit="10" d="
			M298.576,1059.037c0,0,3.869-276.192,1.843-316.714c-2.026-40.524,0.92-270.004,0.92-270.004l-0.515-80.699l314.949-282.292
			L923,384.852v514.429v159.4L298.576,1059.037z"/>
		<g>
			<polygon fill="#D8D8D8" points="311.189,688.529 321.32,752 336.182,752 323.514,677.11 			"/>
			
				<polygon fill="none" stroke="#B2AFAF" stroke-width="6" stroke-linecap="round" stroke-linejoin="round" stroke-miterlimit="10" points="
				311.189,689.029 321.32,753 336.182,753 323.514,677.859 			"/>
		</g>
		<g>
			<polygon fill="#D8D8D8" points="546.914,688.529 535.432,752 520.572,752 534.589,677.11 			"/>
			
				<polygon fill="none" stroke="#B2AFAF" stroke-width="6" stroke-linecap="round" stroke-linejoin="round" stroke-miterlimit="10" points="
				546.914,689.029 535.432,753 520.572,753 534.589,677.859 			"/>
		</g>
		<polyline fill="#F4F4F4" points="213.928,352.186 259.858,415.92 615.567,102.279 974.457,415.92 1014.16,367.046 615.567,0.965 
			213.928,352.186 		"/>
		<path fill="#D8D8D8" d="M239.559,384.36c3.037-1.124,313.407-266.772,315.446-268.573c2.039-1.8,62.579-51.332,62.579-51.332
			L931.229,336.65l61.681,56.555l-6.082,4.382L616.916,75.262L274.042,372.941l-25.507,21.8L239.559,384.36z"/>
		
			<path fill="none" stroke="#858383" stroke-width="9.7404" stroke-linecap="round" stroke-linejoin="round" stroke-miterlimit="10" d="
			M293.458,449.979l-79.53-97.793c8.105-4.052,401.64-351.221,401.64-351.221l398.592,366.081l-83.13,92.896"/>
		
			<polyline fill="none" stroke="#858383" stroke-width="9.7404" stroke-linecap="round" stroke-linejoin="round" stroke-miterlimit="10" points="
			239.559,384.36 615.567,61.754 992.911,390.556 		"/>
		<polyline fill="#F4F4F4" points="277.326,678.864 294.642,701.969 423.197,584.268 557.234,697.052 571.488,678.82 
			422.612,552.996 277.326,678.864 		"/>
		<path fill="#D8D8D8" d="M286.966,690.511c1.109-0.435,113.333-100.186,114.07-100.862c0.737-0.676,22.641-19.293,22.641-19.293
			l117.127,97.866l23.055,20.357l-6.625,8.474L421.96,595.339l-127.319,106.63l-4.305-7.706L286.966,690.511z"/>
		
			<path fill="none" stroke="#969494" stroke-width="8.5229" stroke-linecap="round" stroke-linejoin="round" stroke-miterlimit="10" d="
			M294.642,701.969l-17.315-23.104c2.949-1.545,145.286-125.868,145.286-125.868L571.488,678.82l-14.254,18.232"/>
		
			<polyline fill="none" stroke="#969494" stroke-width="8.5229" stroke-linecap="round" stroke-linejoin="round" stroke-miterlimit="10" points="
			286.966,690.511 422.917,569.376 563.842,687.605 		"/>
		
			<polyline fill="none" stroke="#969494" stroke-width="8.5229" stroke-linecap="round" stroke-linejoin="round" stroke-miterlimit="10" points="
			294.642,705.208 421.96,595.339 554.345,698.003 		"/>
		<polyline fill="none" stroke="#858383" stroke-width="9.7404" stroke-miterlimit="10" points="264.699,415.92 615.567,102.279 
			969.986,415.92 		"/>
		<path fill="#CC9E9E" d="M731.917,357.282c0,60.225-50.376,109.046-112.519,109.046c-62.139,0-112.519-48.821-112.519-109.046
			c0-60.224,50.38-109.045,112.519-109.045C681.541,248.236,731.917,297.058,731.917,357.282z"/>
		
			<circle fill="none" stroke="#B2AFAF" stroke-width="14.1464" stroke-linecap="round" stroke-linejoin="round" stroke-miterlimit="10" cx="612.389" cy="344.904" r="105.51"/>
		<circle fill="#F4F4F4" cx="612.389" cy="344.904" r="105.51"/>
		<circle fill="#8DC3DA" cx="612.39" cy="344.904" r="79.052"/>
		<circle fill="none" stroke="#658B9C" stroke-width="8.8415" stroke-miterlimit="10" cx="612.39" cy="344.904" r="79.052"/>
		<path fill="#F4F4F4" d="M628.949,344.904c0,9.145-7.415,16.558-16.561,16.558c-9.143,0-16.558-7.414-16.558-16.558
			c0-9.146,7.416-16.559,16.558-16.559C621.534,328.346,628.949,335.759,628.949,344.904z"/>
		<line fill="none" stroke="#F4F4F4" stroke-width="13" stroke-miterlimit="10" x1="611.5" y1="347.5" x2="707.5" y2="347.5"/>
		<line fill="none" stroke="#F4F4F4" stroke-width="13" stroke-miterlimit="10" x1="511.5" y1="346.5" x2="606.5" y2="346.5"/>
		
			<line fill="none" stroke="#F4F4F4" stroke-width="12.3781" stroke-miterlimit="10" x1="613.883" y1="252.103" x2="610.205" y2="347.521"/>
		
			<line fill="none" stroke="#F4F4F4" stroke-width="12.3781" stroke-miterlimit="10" x1="610.951" y1="347.642" x2="616.674" y2="442.958"/>
		
			<line fill="none" stroke="#F4F4F4" stroke-width="12.3781" stroke-miterlimit="10" x1="545.784" y1="280.882" x2="614.645" y2="347.034"/>
		
			<line fill="none" stroke="#F4F4F4" stroke-width="12.3781" stroke-miterlimit="10" x1="612.978" y1="348.078" x2="681.841" y2="414.229"/>
		
			<line fill="none" stroke="#F4F4F4" stroke-width="12.3781" stroke-miterlimit="10" x1="550.783" y1="417.29" x2="613.184" y2="345.014"/>
		
			<line fill="none" stroke="#F4F4F4" stroke-width="12.3781" stroke-miterlimit="10" x1="616.208" y1="346.556" x2="678.611" y2="274.28"/>
		<polygon fill="#F4F4F4" points="339.5,1032 339.5,781.756 339.5,698.003 516.5,702.854 516.5,823.633 516.5,1032 		"/>
		
			<polygon fill="none" stroke="#8F8C8C" stroke-width="10" stroke-linecap="round" stroke-linejoin="round" stroke-miterlimit="10" points="
			338.5,1035 338.5,781.756 338.5,698.003 514.5,702.854 514.5,823.633 514.5,1035 		"/>
		<rect x="246.5" y="1057" fill="#D3D3D3" width="727" height="39"/>
		<polyline fill="#F4F4F4" points="243.647,1057.33 298.637,1035.266 923.125,1031.664 970.405,1057.33 		"/>
		<path fill="#D3D3D3" d="M538.569,1036.271c0,0-2.842,12.7,49.9,14.368c52.74,1.668,94.022-3.002,93.816-8.627
			C682.081,1036.388,587.146,1027.648,538.569,1036.271z"/>
		<path fill="#D3D3D3" d="M829.452,1034.172c0,0-7.115,11.87,20.374,14.467c27.491,2.595,54.76-0.577,54.553-6.202
			C904.173,1036.813,854.59,1026.408,829.452,1034.172z"/>
		
			<polyline fill="none" stroke="#7A7A7A" stroke-width="8.5229" stroke-linecap="round" stroke-linejoin="round" stroke-miterlimit="10" points="
			243.647,1057.33 298.637,1035.266 923.125,1031.664 970.405,1057.33 		"/>
		
			<path fill="#BFBFBF" stroke="#BFBFBF" stroke-width="4" stroke-linecap="round" stroke-linejoin="round" stroke-miterlimit="10" d="
			M249.099,1090.922c0,0,117.498-2.274,170.855-6.833c53.36-4.559,120.892-1.138,212.749-3.164
			c91.858-2.026,191.815,0.504,230.315-2.874c38.498-3.376,81.719-18.051,81.719-18.051H970.5v35.154L249.099,1090.922z"/>
		
			<rect x="244" y="1057.5" fill="none" stroke="#7A7A7A" stroke-width="9" stroke-linecap="round" stroke-linejoin="round" stroke-miterlimit="10" width="727" height="39"/>
		<polygon fill="#8DC3DA" points="365.5,737 365.5,966.843 470.142,961 489.501,961 486.35,737 		"/>
		<polygon fill="none" stroke="#658B9C" stroke-width="6" stroke-miterlimit="10" points="362.5,738 362.5,966.843 470.142,964 
			489.501,964 486.35,738 		"/>
		<path fill="#D6EFFA" d="M375.5,752.038c0,4.052,0,56.735,0,56.735l100-40.525v-20.263L375.5,752.038z"/>
		<path fill="#424F54" d="M507.062,856.954c0-2.79-2.461-5.608-5.402-5.403c-2.361,0.164-4.048,1.077-5.372,3.05
			c-0.794,1.183-0.931,2.777-0.934,4.154c-0.003,2.946,2.46,5.403,5.404,5.403c2.435,0,4.506-1.684,5.165-3.924
			C506.645,859.295,507.062,858.146,507.062,856.954z"/>
		
			<path fill="none" stroke="#A58C8C" stroke-width="5.4034" stroke-linecap="round" stroke-linejoin="round" stroke-miterlimit="10" d="
			M305.051,470.756c4.831,2.628,196.157,3.457,196.157,3.457"/>
		
			<path fill="none" stroke="#A58C8C" stroke-width="5.4034" stroke-linecap="round" stroke-linejoin="round" stroke-miterlimit="10" d="
			M718.373,541.948c4.748,2.775,202.344,0.688,202.344,0.688"/>
		
			<path fill="none" stroke="#A58C8C" stroke-width="5.4034" stroke-linecap="round" stroke-linejoin="round" stroke-miterlimit="10" d="
			M866.38,513.026c12.373,1.43,54.3,2.188,54.3,2.188"/>
		
			<path fill="none" stroke="#A58C8C" stroke-width="5.4034" stroke-linecap="round" stroke-linejoin="round" stroke-miterlimit="10" d="
			M873.115,706.13c12.425,0.846,54.338-0.378,54.338-0.378"/>
		
			<path fill="none" stroke="#A58C8C" stroke-width="5.4034" stroke-linecap="round" stroke-linejoin="round" stroke-miterlimit="10" d="
			M651.421,233.794c2.666,2.854,39.133,0.876,51.508,2.308c12.373,1.431,54.297,2.189,54.297,2.189"/>
		
			<path fill="none" stroke="#A58C8C" stroke-width="5.4034" stroke-linecap="round" stroke-linejoin="round" stroke-miterlimit="10" d="
			M533.899,183.813c2.665,2.854,39.131,0.876,51.505,2.306c12.373,1.432,54.298,2.19,54.298,2.19"/>
		<polygon fill="#F4F4F4" points="593.5,649.208 598.197,958.027 739.452,957.408 734.046,695.945 732.015,620 593.5,620 		"/>
		
			<polygon fill="none" stroke="#B2AFAF" stroke-width="10" stroke-linecap="round" stroke-linejoin="round" stroke-miterlimit="10" points="
			594.5,649.208 598.696,958.027 739.7,957.408 734.168,695.945 732.015,620 594.5,620 		"/>
		<polygon fill="#8DC3DA" points="615.455,650.273 620.702,779.261 621.34,928 713.569,928 705.883,702.865 703.835,649.562 		"/>
		<polygon fill="none" stroke="#658B9C" stroke-width="7" stroke-miterlimit="10" points="615.455,650.273 620.702,778.511 
			621.34,926.5 713.569,926.5 705.883,702.115 703.835,649.186 		"/>
		<polygon fill="#D6EFFA" points="629.5,666 629.5,722.14 689.5,694.887 689.5,666 		"/>
		<rect x="607.5" y="771" fill="#F4F4F4" width="114" height="20"/>
		<polygon fill="#D6EFFA" points="637.5,803.61 637.5,858.949 696.5,818.745 696.5,798.998 		"/>
		<rect x="571.5" y="958" fill="#F4F4F4" width="181" height="18"/>
		
			<rect x="572.5" y="958" fill="none" stroke="#B2AFAF" stroke-width="10" stroke-linecap="round" stroke-linejoin="round" stroke-miterlimit="10" width="181" height="17"/>
		<polygon fill="#CC9E9E" points="742.935,966.098 760.343,1001 913.796,1001 898.424,969.942 893.856,958.343 		"/>
		<polygon fill="#F4F4F4" points="738.5,649.208 743.142,958.027 884.368,957.408 878.948,695.945 876.903,620 738.5,620 		"/>
		
			<polygon fill="none" stroke="#B2AFAF" stroke-width="10" stroke-linecap="round" stroke-linejoin="round" stroke-miterlimit="10" points="
			739.5,649.208 743.64,958.027 884.617,957.408 879.07,695.945 876.903,620 739.5,620 		"/>
		<polygon fill="#8DC3DA" points="760.343,650.273 765.59,779.261 766.229,928 858.458,928 850.771,702.865 848.724,649.562 		"/>
		<polygon fill="none" stroke="#658B9C" stroke-width="7" stroke-miterlimit="10" points="760.343,650.273 765.59,778.511 
			766.229,926.5 858.458,926.5 850.771,702.115 848.724,649.186 		"/>
		<polygon fill="#D6EFFA" points="774.5,666 774.5,722.14 834.5,694.887 834.5,666 		"/>
		<rect x="752.5" y="771" fill="#F4F4F4" width="113" height="20"/>
		<polygon fill="#D6EFFA" points="781.5,803.61 781.5,858.949 841.5,818.745 841.5,798.998 		"/>
		<rect x="740.5" y="958" fill="#F4F4F4" width="157" height="18"/>
		
			<rect x="740.5" y="958" fill="none" stroke="#B2AFAF" stroke-width="10" stroke-linecap="round" stroke-linejoin="round" stroke-miterlimit="10" width="158" height="17"/>
		<g>
			<g>
				<path fill="#F4F4F4" d="M578.527,873.781c-22.503,8.213-27.402,25.65-27.404,35.926c0,13.82,13.995,70.977,13.995,70.977
					l23.212,0.41L578.527,873.781z"/>
				<path fill="#F4F4F4" d="M613.376,869.394c-1.568-0.091-3.164-0.148-4.8-0.153c-8.887-0.023-16.435,0.859-22.853,2.391
					l10.016,109.593l16.682,0.294L613.376,869.394z"/>
				<g>
					<path fill="#F4F4F4" d="M647.207,879.532c-7.274-4.282-16.04-7.778-26.471-9.36l-0.947,111.477l19.87,0.35L647.207,879.532z"/>
					<path fill="#F4F4F4" d="M654.245,884.228l-7.211,97.901l15.069,0.265l14.041-72.687
						C676.143,909.707,669.56,895.748,654.245,884.228z"/>
				</g>
			</g>
			<g>
				
					<path fill="none" stroke="#B2AFAF" stroke-width="4.4195" stroke-linecap="round" stroke-linejoin="round" stroke-miterlimit="10" d="
					M578.527,873.781c-22.503,8.213-27.402,25.65-27.404,35.926c0,13.82,13.995,70.977,13.995,70.977l23.212,0.41L578.527,873.781z"
					/>
				
					<path fill="none" stroke="#B2AFAF" stroke-width="4.4195" stroke-linecap="round" stroke-linejoin="round" stroke-miterlimit="10" d="
					M613.376,869.394c-1.568-0.091-3.164-0.148-4.8-0.153c-8.887-0.023-16.435,0.859-22.853,2.391l10.016,109.593l16.682,0.294
					L613.376,869.394z"/>
				<g>
					
						<path fill="none" stroke="#B2AFAF" stroke-width="4.4195" stroke-linecap="round" stroke-linejoin="round" stroke-miterlimit="10" d="
						M647.207,879.532c-7.274-4.282-16.04-7.778-26.471-9.36l-0.947,111.477l19.87,0.35L647.207,879.532z"/>
					
						<path fill="none" stroke="#B2AFAF" stroke-width="4.4195" stroke-linecap="round" stroke-linejoin="round" stroke-miterlimit="10" d="
						M654.245,884.228l-7.211,97.901l15.069,0.265l14.041-72.687C676.143,909.707,669.56,895.748,654.245,884.228z"/>
				</g>
			</g>
			<rect x="560.5" y="1000" fill="#F4F4F4" width="105" height="18"/>
			<rect x="560.5" y="1018" fill="#F4F4F4" width="8" height="28"/>
			<rect x="656.5" y="1018" fill="#F4F4F4" width="9" height="28"/>
			<rect x="560.5" y="983" fill="#F4F4F4" width="105" height="17"/>
			<path fill="#F4F4F4" d="M551.388,979.858l0.472,18.168l8.104-1.474l1.959-30.228c0,0-17.322-3.721-20.271,2.976
				c-2.946,6.694,6.278,12.359,13.889,8.102"/>
			<path fill="#F4F4F4" d="M675.375,979.858l-0.471,18.168l-8.104-1.474l-1.962-30.228c0,0,17.324-3.721,20.271,2.976
				c2.946,6.694-6.278,12.359-13.888,8.102"/>
			
				<rect x="560.5" y="999" fill="none" stroke="#B2AFAF" stroke-width="4" stroke-linecap="round" stroke-linejoin="round" stroke-miterlimit="10" width="106" height="18"/>
			
				<rect x="560.5" y="1017" fill="none" stroke="#B2AFAF" stroke-width="4" stroke-linecap="round" stroke-linejoin="round" stroke-miterlimit="10" width="10" height="28"/>
			
				<rect x="657.5" y="1017" fill="none" stroke="#B2AFAF" stroke-width="4" stroke-linecap="round" stroke-linejoin="round" stroke-miterlimit="10" width="7" height="28"/>
			
				<rect x="560.5" y="982" fill="none" stroke="#B2AFAF" stroke-width="4" stroke-linecap="round" stroke-linejoin="round" stroke-miterlimit="10" width="106" height="17"/>
			
				<path fill="none" stroke="#B2AFAF" stroke-width="4.4195" stroke-linecap="round" stroke-linejoin="round" stroke-miterlimit="10" d="
				M547.441,982.394"/>
			
				<path fill="none" stroke="#B2AFAF" stroke-width="4.4195" stroke-linecap="round" stroke-linejoin="round" stroke-miterlimit="10" d="
				M551.388,979.858l0.472,18.168l8.104-1.474l1.959-30.228c0,0-17.322-3.721-20.271,2.976c-2.946,6.694,6.278,12.359,13.889,8.102"
				/>
			
				<path fill="none" stroke="#B2AFAF" stroke-width="4.4195" stroke-linecap="round" stroke-linejoin="round" stroke-miterlimit="10" d="
				M675.375,979.858l-0.471,18.168l-8.104-1.474l-1.962-30.228c0,0,17.324-3.721,20.271,2.976
				c2.946,6.694-6.278,12.359-13.888,8.102"/>
		</g>
		
			<rect x="361.5" y="982" fill="#E2E2E2" stroke="#E2E2E2" stroke-width="4" stroke-linecap="round" stroke-linejoin="round" stroke-miterlimit="10" width="128" height="36"/>
		<g>
			<g>
				<path fill="#74B55C" d="M901.208,974.567c-0.812-3.621-3.005-5.917-5.823-7.31c1.182-4.406,0.414-8.924-2.156-12.989
					c6.127-6.883,7.67-16.607,1.256-22.021c3.224-4.608,4.362-10.223,1.801-14.762c3.931-3.37,6.861-7.867,6.926-13.179
					c0.056-4.444-2.406-7.116-5.738-8.61c0.515-1.597,0.628-3.374,0.157-5.35c-1.359-5.68-5.846-9.612-11.055-11.748
					c-0.896-6.122-5.356-10.882-11.186-14.055c-4.199-2.289-15.088-4.964-19.842-0.991c-6.751,1.066-12.162,6.632-10.63,12.378
					c-3.81,2.977-5.727,7.475-4.67,11.514c-2.243,2.343-3.204,5.715-2.521,9.2c-4.259,2.807-5.928,7.73-4.072,12.99
					c-5.273,5.268-3.447,13.445,1.667,18.982c-2.704,4.526-1.557,10.685,1.87,15.564c-4.254,4.806-5.32,11.416-2.873,17.511
					c-3.472,2.803-5.316,6.695-4.214,12.062c0.771,3.753,3.481,6.924,6.831,9.228c-0.379,1.211-0.461,2.603-0.105,4.217
					c0.684,3.091,2.533,5.688,4.924,7.74c-1.367,1.914-1.606,4.579,0.551,6.725c5.376,5.345,10.812,10.25,18.084,12.77
					c8.195,2.841,17.086-0.323,24.489-3.821c1.577-0.745,2.578-2.613,2.68-4.406c1.358-0.445,2.713-0.921,4.134-1.353
					c2.793-0.849,4.117-3.335,3.804-5.91c3.76-3.785,4.383-8.522,1.983-13.069C900.274,982.758,902.183,978.921,901.208,974.567z"/>
				<path fill="#2D5626" d="M896.5,954.552c3.392-4.42,5.12-9.55,4.779-14.325c-0.229-3.201-1.379-6.054-3.359-8.368
					c2.595-4.618,3.177-9.512,1.639-13.713c4.105-4.064,6.295-8.801,6.356-13.805c0.054-4.282-1.837-7.784-5.375-10.055
					c0.183-1.485,0.089-3.016-0.28-4.569c-1.342-5.611-5.332-10.188-11.298-13.017c-1.375-5.82-5.681-10.937-12.277-14.529
					c-3.061-1.667-8.832-3.356-13.942-3.356c-3.452,0-6.244,0.738-8.312,2.194c-4.432,0.88-8.352,3.399-10.584,6.832
					c-1.427,2.192-2.06,4.64-1.845,7.043c-3.445,3.271-5.171,7.656-4.645,11.798c-1.869,2.468-2.749,5.539-2.512,8.755
					c-3.883,3.309-5.456,8.351-4.203,13.523c-4.807,6.048-3.091,14.196,1.481,20.058c-1.773,4.442-1.126,9.993,1.761,14.994
					c-3.446,4.856-4.438,11.041-2.7,16.879c-1.279,1.295-2.254,2.732-2.937,4.284c2.161-0.057,4.321-0.104,6.481-0.151
					c0.385-0.422,0.803-0.836,1.29-1.229l1.555-1.255l-0.744-1.854c-2.08-5.176-1.187-10.676,2.387-14.714l1.415-1.598l-1.227-1.746
					c-3.053-4.348-3.745-9.304-1.761-12.625l1.036-1.733l-1.371-1.484c-4.052-4.39-5.952-11.033-1.742-15.239l1.206-1.204
					l-0.567-1.606c-1.408-3.989-0.282-7.666,3.011-9.835l1.514-0.997l-0.349-1.78c-0.507-2.589,0.156-5.072,1.822-6.812l1.043-1.09
					l-0.382-1.461c-0.763-2.923,0.697-6.339,3.72-8.702l1.407-1.1l-0.459-1.725c-0.492-1.847,0.188-3.438,0.844-4.448
					c1.505-2.313,4.416-4.063,7.596-4.564l0.738-0.117l0.573-0.479c1.102-0.921,2.99-1.408,5.46-1.408
					c4.161,0,8.957,1.39,11.357,2.698c3.984,2.169,8.92,6.025,9.805,12.074l0.222,1.524l1.425,0.584
					c2.936,1.204,8.068,4.086,9.453,9.873c0.33,1.387,0.297,2.661-0.102,3.895l-0.742,2.304l2.208,0.99
					c2.863,1.284,4.178,3.226,4.143,6.113c-0.062,5.038-3.288,8.85-5.983,11.161l-1.687,1.446l1.092,1.934
					c1.859,3.295,1.238,7.738-1.662,11.885l-1.414,2.022l1.886,1.59c1.904,1.607,2.962,3.727,3.146,6.3
					c0.272,3.831-1.476,8.263-4.678,11.862l-1.353,1.52l1.086,1.719c1.843,2.916,2.566,6.051,2.155,9.159
					c1.811,0.027,3.622,0.062,5.433,0.093C898.888,961.422,898.209,957.89,896.5,954.552z"/>
				<path fill="#2D5626" d="M892.775,966.558l-0.573,2.14l1.986,0.982c2.388,1.181,3.822,2.973,4.384,5.479
					c0.658,2.936-0.358,5.851-3.103,8.913l-1.256,1.4l0.877,1.664c1.891,3.582,1.369,7.006-1.51,9.904l-0.924,0.93l0.158,1.301
					c0.068,0.547,0.127,2.38-1.906,2.999c-0.995,0.302-1.96,0.625-2.917,0.946l-3.025,1l-0.106,1.838
					c-0.05,0.895-0.561,1.845-1.137,2.117c-4.593,2.171-10.626,4.662-16.553,4.662c-2.093,0-4.077-0.32-5.896-0.951
					c-6.884-2.386-12.205-7.302-17.063-12.132c-1.243-1.237-0.827-2.444-0.258-3.238l1.438-2.013l-1.876-1.609
					c-2.177-1.868-3.537-3.978-4.045-6.271c-0.233-1.06-0.219-1.985,0.045-2.828l0.596-1.903l-1.642-1.129
					c-3.129-2.153-5.159-4.832-5.715-7.546c-0.685-3.332-0.044-5.97,1.974-8.186c-2.16,0.047-4.321,0.094-6.481,0.151
					c-1.192,2.712-1.472,5.783-0.786,9.122c0.741,3.609,3.026,7.05,6.498,9.835c-0.12,1.17-0.042,2.391,0.236,3.649
					c0.618,2.793,2.072,5.431,4.246,7.728c-0.973,2.792-0.29,5.829,1.962,8.07c5.303,5.271,11.146,10.648,19.105,13.406
					c2.389,0.829,4.969,1.249,7.666,1.25c0,0,0,0,0.001,0c7.001,0,13.757-2.768,18.861-5.18c1.863-0.881,3.279-2.664,3.896-4.791
					c0.836-0.28,1.679-0.562,2.55-0.826c3.476-1.058,5.672-3.981,5.763-7.49c3.379-3.954,4.237-8.888,2.395-13.65
					c3.027-3.948,4.134-8.177,3.205-12.321c-0.76-3.389-2.618-6.142-5.418-8.064c0.049-0.316,0.075-0.632,0.107-0.948
					c-1.811-0.032-3.622-0.066-5.433-0.093C893.025,965.436,892.927,965.998,892.775,966.558z"/>
				<path fill="#C6714B" d="M843.666,1041.919c-3.564-0.209-16.443-48.902-11.688-49.556c4.754-0.655,66.547,0.177,66.547,0.177
					c5.545,10.683-8.095,48.399-8.095,48.399S864.071,1043.119,843.666,1041.919z"/>
				<path fill="#B55F3E" d="M831.5,1007.208c0,0.773,53.332,5.995,53.332,5.995s-3.572,13.759-24.081,18.461
					c-20.51,4.701-20.393,4.701-20.393,4.701s-2.823,5.958,9.759,5.914c12.587-0.044,40.673-2.447,40.673-2.447l8.575-35.86
					l-67.866-0.675V1007.208z"/>
				<path fill="none" stroke="#A8502D" stroke-width="4.0526" stroke-miterlimit="10" d="M843.666,1041.919
					c-3.564-0.209-16.443-48.902-11.688-49.556c4.754-0.655,66.547,0.177,66.547,0.177c5.545,10.683-8.095,48.399-8.095,48.399
					S864.071,1043.119,843.666,1041.919z"/>
				<rect x="822.5" y="991" fill="#C6714B" width="85" height="12"/>
				<rect x="821.5" y="992" fill="none" stroke="#A8502D" stroke-width="4" stroke-miterlimit="10" width="85" height="12"/>
			</g>
			<path fill="#4A7D36" d="M862.756,904.602c-2-1.648-4.883,1.202-2.866,2.866c0.079,0.064,0.157,0.132,0.236,0.197
				c-0.887,0.019-1.781-0.047-2.656-0.109c-0.906-0.062-1.863-0.267-2.763-0.097c-1.853,0.347-3.981,2.476-5.46,0.859
				c-1.765-1.935-4.623,0.939-2.864,2.864c2.274,2.489,4.58,2.357,7.394,0.869c1.824-0.965,3.795-0.386,5.785-0.345
				c1.771,0.037,4.235-0.047,5.312-1.717C866.224,907.898,864.286,905.863,862.756,904.602z"/>
			<path fill="#4A7D36" d="M863.679,881.321c-2.169,1.435-0.143,4.946,2.044,3.5c3.906-2.586,15.08-0.444,13.235,5.816
				c-0.742,2.514,3.17,3.578,3.906,1.078C885.783,881.819,870.603,876.736,863.679,881.321z"/>
			<path fill="#4A7D36" d="M881.31,952.967c-5.94-11.106-19.767-7.987-25.449,1.689c-1.327,2.257,2.176,4.297,3.498,2.045
				c4.154-7.074,13.961-10.084,18.452-1.689C879.043,957.318,882.542,955.271,881.31,952.967z"/>
			<path fill="#4A7D36" d="M859.16,967.909c-2.553-0.486-3.642,3.42-1.076,3.907c0.494,0.095,0.968,0.174,1.42,0.403
				c0.004,0.001,0.004,0,0.007,0.002c-0.378,0.833-1.244,1.346-2.012,1.762c-2.642,1.433-4.98-0.047-6.245-2.441
				c-0.651-1.234-2.232-1.214-3.183-0.411c-0.874,0.737-3.741,0.794-2.896-0.923c1.149-2.335-2.346-4.389-3.498-2.043
				c-2.583,5.25,2.735,8.517,7.126,7.021c2.899,3.647,7.807,4.472,11.907,1.575C864.728,973.922,864.286,968.883,859.16,967.909z"/>
		</g>
		
			<line fill="none" stroke="#999999" stroke-width="4.0526" stroke-linecap="round" stroke-linejoin="round" stroke-miterlimit="10" x1="290.929" y1="1057.33" x2="311.189" y2="1045.172"/>
		
			<line fill="none" stroke="#999999" stroke-width="4.0526" stroke-linecap="round" stroke-linejoin="round" stroke-miterlimit="10" x1="746.164" y1="1032.646" x2="759.222" y2="1045.172"/>
		
			<line fill="none" stroke="#999999" stroke-width="4.0526" stroke-linecap="round" stroke-linejoin="round" stroke-miterlimit="10" x1="677.257" y1="1033.082" x2="688.077" y2="1053.518"/>
		
			<line fill="none" stroke="#999999" stroke-width="4.0526" stroke-linecap="round" stroke-linejoin="round" stroke-miterlimit="10" x1="914.792" y1="1042.279" x2="927.177" y2="1053.518"/>
		
			<line fill="none" stroke="#999999" stroke-width="4.0526" stroke-linecap="round" stroke-linejoin="round" stroke-miterlimit="10" x1="389.98" y1="1034.739" x2="378.283" y2="1044.498"/>
		
			<line fill="none" stroke="#999999" stroke-width="4.0526" stroke-linecap="round" stroke-linejoin="round" stroke-miterlimit="10" x1="452.128" y1="1057.33" x2="468.339" y2="1034.739"/>
		
			<line fill="none" stroke="#999999" stroke-width="4.0526" stroke-linecap="round" stroke-linejoin="round" stroke-miterlimit="10" x1="525.074" y1="1033.082" x2="520.572" y2="1046.034"/>
	</g>
</g>
<g id="text_x2F_dialogue_box">
</g>
</svg>
