<?xml version="1.0" encoding="utf-8"?>
<!-- Generator: Adobe Illustrator 16.0.0, SVG Export Plug-In . SVG Version: 6.00 Build 0)  -->
<!DOCTYPE svg PUBLIC "-//W3C//DTD SVG 1.1//EN" "http://www.w3.org/Graphics/SVG/1.1/DTD/svg11.dtd">
<svg version="1.1" id="Layer_1" xmlns="http://www.w3.org/2000/svg" xmlns:xlink="http://www.w3.org/1999/xlink" x="0px" y="0px"
	 width="2272px" height="2272px" viewBox="0 0 2272 2272" enable-background="new 0 0 2272 2272" xml:space="preserve">
<g>
	<g>
		<g>
			<path fill="#B08E65" d="M680.988,929.234c27.068-25.785,53.479-48.338,75.76-66.277c45.24-36.418,124.779-80.289,160.662-124.945
				c20.766-25.836,28.424-59.117,30.1-92.801c3.516-70.561-46.031-131.91-88.881-182.73c0,0-14.484-88.305,53.027-47.264
				c67.512,41.039,231.135,303.164,5.25,441.92c-77.512,47.605-129.957,93.896-163.826,137.266
				c-18.609-10.23-40.758-5.836-58.488-23.049C681.803,958.949,682.793,943.58,680.988,929.234z"/>
			<g>
				<path fill="#D4AC7A" d="M878.123,457.602c-1.295-13.27,0.375-28.41,3.674-30.994c0.006,0,0.627-0.211,2.232-0.041
					c2.631,0.285,8.607,1.699,19.02,8.031c21.604,13.137,62.127,61.465,87.914,123.547c-4.904,14.9-13.125,30.324-26.438,44.414
					C951.295,554.844,918.184,506.199,878.123,457.602z"/>
				<path fill="#F7C88F" d="M768.707,877.812c13.102-10.557,28.08-21.516,43.934-33.129c39.285-28.779,95.553-58.193,122.348-91.531
					c20.883-25.992,32.098-59.945,34.283-103.805c0.82-16.484-1.4-33.121-6.047-49.879c13.307-14.09,21.533-29.516,26.438-44.414
					c13.881,33.414,23.508,70.807,23.596,108.859c0.176,73.984-35.607,133.527-106.336,176.969
					c-77.533,47.625-135.324,96.734-173.055,146.875c-13.48-3.043-27.375-4.848-39.275-16.404
					c-5.869-5.693-8.824-12.002-10.494-18.557C716.203,921.396,746.918,895.355,768.707,877.812z"/>
			</g>
			<path fill="#34241A" d="M680.988,929.234c1.805,14.346,0.814,29.715,13.604,42.119c17.73,17.213,39.879,12.818,58.488,23.049
				c-78.756,100.863-56.906,185.867-15.209,234.648c-8.521,79.322-46.629,121.684-160.406,109.461
				C432.117,1216.125,562.828,1041.801,680.988,929.234z"/>
		</g>
		<path fill="#34241A" d="M684.098,952.797c1.67,6.555,4.625,12.863,10.494,18.557c11.9,11.557,25.795,13.361,39.275,16.404
			c-27.598,36.664-44.482,73.887-50.402,111.465c-7.75,49.154,4.484,96.967,34.496,135.586
			c-8.156,59.645-35.111,94.363-132.598,85.32c-36.125-32.012-53.484-68.348-53.021-110.898
			C533.326,1120.375,612.188,1023.139,684.098,952.797z"/>
	</g>
	<g>
		<path fill="#094D6B" d="M903.312,399.771c0,0,94.5-328.5,348-331.5s228,271.5,63,277.5s-340.5-1.5-396,60
			C907.812,413.271,903.312,399.771,903.312,399.771z"/>
		<g>
			<path fill="#1485BF" d="M1333.695,306.984c15.016-0.129,31.682-1.438,48.109-4.676c-17.348,14.723-40.135,24.455-68.148,25.475
				c-26.396,0.961-53.438,1.582-79.588,2.182c-122.334,2.811-238.857,5.492-302.205,42.402
				c11.742-30.629,33.002-78.969,65.334-127.199c2.291-3.418,4.605-6.773,6.928-10.082c24.162,2.299,48.066,7.555,70.078,14.812
				C1158.551,277.695,1243.273,307.758,1333.695,306.984z"/>
			<path fill="#5BA1D8" d="M1251.523,86.271c1.307-0.018,2.607-0.023,3.896-0.023c121.314,0,165.58,67.1,166.627,124.557
				c0.605,33.377-13.17,68.531-40.242,91.504c-16.428,3.238-33.094,4.547-48.109,4.676c-90.422,0.773-175.145-29.289-259.492-57.086
				c-22.012-7.258-45.916-12.514-70.078-14.812C1072.734,137.459,1155.916,87.402,1251.523,86.271z"/>
		</g>
		<path fill="#094D6B" d="M1308.312,141.771c0,0-274.504,8.498-397.5,252c3,7.5,7.5,12,7.5,12S984.312,233.271,1308.312,141.771z"/>
		<path fill="#094D6B" d="M1331.809,332.27c0,0-37.998-118-187.998-130c120,32,165.998,134,165.998,134L1331.809,332.27z"/>
		<path fill="#094D6B" d="M1273.809,152.27c0,0,116.002,7.996,146.002,114c-6,12-12,20-12,20S1393.809,192.268,1273.809,152.27z"/>
		<path fill="#094D6B" d="M1085.809,234.27c0,0,110,12,118.002,108c-13.998,2-13.998,2-13.998,2S1193.809,276.27,1085.809,234.27z"
			/>
		<path fill="#094D6B" d="M1015.809,278.27c0,0,62.002,0,92.002,62c-12,2-12,2-12,2S1075.809,298.266,1015.809,278.27z"/>
		<path fill="#094D6B" d="M1157.809,182.27c0,0,12.004-57.996,76.002-98c24-6,37.998-6,37.998-6S1205.809,106.266,1157.809,182.27z"
			/>
		<path fill="#094D6B" d="M1075.809,226.27c0,0,42-66,22-108c-16,12-16,12-16,12S1099.809,154.27,1075.809,226.27z"/>
		<path fill="#094D6B" d="M1015.809,278.27c0,0,42-63.996,12-80c-15.998,14-15.998,14-15.998,14S1039.809,216.268,1015.809,278.27z"
			/>
	</g>
	<g>
		<g>
			<path fill="#82694B" d="M1143.961,1427.355c19.783,45.598,42.963,92.48,64.941,139.168
				c39.65,84.223,75.234,166.293,99.076,256.758c7.963,30.227,29.449,78.316,11.525,106.715
				c-31.734,50.285-66.814,2.812-89.361-28.914c-55.758-78.457-102.713-120.891-187.348-169.957
				c-97.049-56.262-235.572-133.309-245.189-262.363c-4.098-55.02,14.775-136.84,57.266-176.996
				c43.162-40.793,113.393-43.82,166.982-21.789C1078.713,1293.35,1118.531,1368.75,1143.961,1427.355z"/>
			<g>
				<path fill="#D4AC7A" d="M872.953,1305.209c-16.434,95.893,38.48,195.701,125.293,271.779
					c69.146,60.598,140.631,104.652,200.736,177.199c41.42,49.992,67.957,111.023,85.037,173.883
					c-12.457-6.875-27.074-27.418-35.863-39.793c-57.506-80.922-106.531-125.402-194.277-176.273l-7.322-4.242
					c-92.174-53.355-218.404-126.426-226.914-240.645c-3.736-50.16,14.475-125.332,50.406-159.293
					C870.998,1306.932,871.971,1306.062,872.953,1305.209z"/>
				<path fill="#F7C88F" d="M1198.982,1754.188c-60.105-72.547-131.59-116.602-200.736-177.199
					c-86.812-76.078-141.727-175.887-125.293-271.779c16.49-14.326,38.451-23.271,63.797-25.916
					c25.514-2.676,52.754,1.281,76.701,11.121c2.262,0.932,4.553,1.996,6.814,3.16c36.047,18.641,69.879,65.277,103.424,142.582
					c14.303,32.965,30.568,67.029,46.295,99.969c6.334,13.266,12.68,26.545,18.926,39.812
					c42.311,89.883,75.117,167.297,97.699,252.973c1.66,6.312,3.768,13.031,6.004,20.145c7.262,23.156,17.217,54.863,8.203,69.152
					c-8.846,14.012-12.561,12.082-16.16,10.227c-0.004,0-0.004,0-0.004,0c-0.211-0.113-0.422-0.254-0.633-0.363
					C1266.939,1865.211,1240.402,1804.18,1198.982,1754.188z"/>
			</g>
		</g>
		<g>
			<path fill="#82694B" d="M763.557,1784.719c8.525,23.832,65.215,43.617,93.883,51.184c0,0,130.307,32.781,255.975,110.016
				c8.553,5.262,20.002,13.711,31.979,22.902c37.857,29.062,89.705,68.867,144.715,61.203c33.879-4.719,69.529-27.234,67.748-65.516
				c-0.254-5.473-1.232-10.82-2.92-15.906c-14.859-44.891-79.939-57.57-101.326-61.742c-22.617-4.406-41.59-9.543-59.947-14.52
				c-21.645-5.871-44.025-11.934-71.842-16.641c-38.771-6.555-77.027-20.707-114.441-32.391
				c-49.723-15.52-100.547-29.543-149.57-47.137C838.73,1769.32,749.098,1744.273,763.557,1784.719z"/>
			<g>
				<path fill="#D4AC7A" d="M1004.012,1858.441c108.311,34.957,153.094,76.184,220.227,118.906
					c37.906,24.117,66.457,25.164,84.133,21.516c-8.469,4.891-18.41,8.066-28.154,9.426
					c-61.688,8.602-122.543-57.625-158.248-78.246c-77.395-44.684-167.492-80.918-253.08-106.172
					c-27.936-8.238-55.029-16.492-82.184-27.598c-8.98-3.672-13.861-9.844-13.512-15.176
					C845.264,1805.68,942.289,1838.527,1004.012,1858.441z"/>
				<path fill="#F7C88F" d="M1224.238,1977.348c-67.133-42.723-111.916-83.949-220.227-118.906
					c-61.723-19.914-158.748-52.762-230.818-77.344c0.027-0.469,0.086-0.938,0.197-1.387c6.916-19.918,69.02,7.547,97.537,17.852
					c56.291,20.352,207.729,69.738,248.191,76.582c48.006,8.117,77.537,20.344,125.391,29.668
					c30.205,5.887,84.504,19.645,86.332,58.863c0.756,16.219-8.988,28.387-22.471,36.188
					C1290.695,2002.512,1262.145,2001.465,1224.238,1977.348z"/>
			</g>
		</g>
		<g>
			<g>
				<path fill="#82694B" d="M771.031,1758.652c-32.139-4.078-81.895,37.254-100.111,57.855
					c-18.225,20.594-105.715,229.387-53.986,229.77c10.871,1.914,128.943-161.449,175.467-238.137
					C806.859,1784.297,795.119,1761.734,771.031,1758.652z"/>
				<g>
					<path fill="#F7C88F" d="M736.525,1828.449c-5.926,9.48-9.811,20.102-14.811,30.059c-5.285,10.535-13.459,17.027-20.885,25.863
						c-25.936,30.871-42.072,72.004-72.775,99.023c-2.012,1.77-4.318,3.387-6.797,4.805c1.129-6.727,2.375-12.793,2.883-14.293
						c10.486-30.703,17.098-49.539,28.406-79.816c6.594-17.648,23.545-50.793,36.477-65.324
						c15.693-17.637,34.705-33.691,55.102-45.41c10.828-6.211,21.021-5.141,25.777,2.828
						C756.348,1797.445,745.174,1814.613,736.525,1828.449z"/>
					<path fill="#B08E65" d="M619.334,2009.258c-0.854-2.223,0.436-12.211,1.924-21.059c2.479-1.418,4.785-3.035,6.797-4.805
						c30.703-27.02,46.84-68.152,72.775-99.023c7.426-8.836,15.6-15.328,20.885-25.863c5-9.957,8.885-20.578,14.811-30.059
						c8.648-13.836,19.822-31.004,33.377-42.266c1.518,2.551,2.504,5.785,2.746,9.734c1.422,22.176-16.045,29.734-29.809,42.789
						c-18.195,17.25-22.078,38.258-31.547,59.703c-0.986,2.238-2.086,4.477-3.271,6.703c-11.262,21.156-30.656,41.512-45.078,59.676
						C658.125,1970.844,626.361,2027.621,619.334,2009.258z"/>
				</g>
				<path fill="#82694B" d="M786.393,1763.637c-29.188-7.457-63.416,14.891-74.697,26.965
					c-11.275,12.07-40.195,148.195,5.355,155.809c9.996,2.906,76.227-96.57,99.484-144.535
					C823.77,1786.965,808.266,1769.246,786.393,1763.637z"/>
			</g>
			<g>
				<path fill="#F7C88F" d="M759.346,1844.555c-2.496,18.254-27.264,44.977-48.455,44.996c0-0.113,0-0.254,0.006-0.324
					c1.615-19.48,2.768-31.406,5.205-50.453c1.42-11.105,8.062-31.25,15.756-39.199c9.334-9.664,21.934-17.715,36.797-22.559
					c9.092-2.965,19.818,0.59,25.645,9.117c-9.42,6.004-19.969,11.055-27.123,21.707
					C759.006,1819.988,761.219,1830.832,759.346,1844.555z"/>
				<path fill="#B08E65" d="M715.342,1912.793c-2.18-2.828-4.459-20.074-4.451-23.242c21.191-0.02,45.959-26.742,48.455-44.996
					c1.873-13.723-0.34-24.566,7.83-36.715c7.154-10.652,17.703-15.703,27.123-21.707c0.85,1.242,1.59,2.582,2.209,4.031
					c6.646,15.484-6.688,17.93-15.463,24.738c-11.596,9.004-9.852,22.852-12.842,36.109c-0.312,1.391-0.719,2.754-1.205,4.102
					c-4.627,12.781-16.508,23.727-24.615,33.957C739.678,1892.48,725.932,1926.539,715.342,1912.793z"/>
			</g>
		</g>
	</g>
	<path fill="#34241A" d="M891.928,1048.557c106.354-50.662,226.271-71.215,333.521-4.256
		c117.205,73.176,171.891,173.285,131.121,326.176c-75.328,282.484-499.986,292.016-698.195,168.18
		c-110.76-69.195-202.641-229.406-96.832-356.742c56.543-68.051,96.131-55.029,173.262-65.141
		c43.988-5.768,89.855-32.885,127.521-53.184C872.059,1058.344,881.932,1053.316,891.928,1048.557z"/>
	<path fill="#094D6B" d="M504.199,1339.428c0,0,134.994,44.998,382.484-53.998c-85.496,112.496-175.496,206.992-274.49,247.488
		C522.199,1447.426,504.199,1339.428,504.199,1339.428z"/>
	<path fill="#1E96D4" d="M617.535,1504.367c-45.438-47.52-68.881-100.357-80.209-134.07c14.867,1.875,33.688,3.336,56.275,3.336
		c49.629,0,124.793-7.193,221.693-37.332C743.811,1420.791,679.703,1475.168,617.535,1504.367z"/>
	<g>
		<g>
			<path fill="#34241A" d="M1168.344,1076.062c0,0,14.871-198.523,148.646-273.354c51.035-28.547,119.684-21.646,158.104,24.105
				c49.74,59.236,0.598,125.24-50.701,163.611c-61.928,46.318-131.092,70.664-184.354,129.16
				C1197.066,1166.781,1157.896,1120.332,1168.344,1076.062z"/>
			<g>
				<path fill="#D1D3D4" d="M1425.752,965.121c17.092-17.176,41.285-35.416,49.213-62.82c6.943-24.02,3.768-44.83-12.832-64.6
					c-26.01-30.973-70.406-42.826-113.127-30.205c-8.314,2.461-16.307,5.818-23.754,9.984c-18.311,10.242-49.4,34.086-64.723,50.441
					c0.211,0.025,0.41,0.049,0.598,0.07c5.684,0.611,11.76-0.162,19.693-2.508c4.084-1.205,8.215-2.682,12.592-4.25
					c4.605-1.641,9.363-3.342,14.32-4.807c8.162-2.412,20.619-5.379,34.693-3.363c42.141,6.025,53.098,39.428,61.898,66.27
					c1.26,3.867,2.572,7.863,3.949,11.748C1412.381,942.725,1418.938,956.023,1425.752,965.121z"/>
			</g>
		</g>
		<g>
			<path fill="#34241A" d="M1237.701,1065.842c0,0,107.432-205.283,284.889-223.559c67.693-6.973,137.871,32.057,157.822,98.662
				c25.834,86.236-57.105,134.105-129.621,151.453c-87.527,20.939-172.664,15.062-256.553,53.014
				C1226.557,1176.027,1206.125,1108.324,1237.701,1065.842z"/>
			<g>
				<path fill="#D1D3D4" d="M1563.916,1065.988c26.186-10.477,60.445-18.812,81.557-44.443
					c18.492-22.459,24.697-46.16,16.072-74.943c-13.506-45.086-55.488-78.227-106.951-84.434
					c-10.025-1.211-20.115-1.305-29.988-0.291c-24.293,2.502-68.514,13.643-92.42,24.059c0.205,0.123,0.404,0.244,0.604,0.346
					c5.795,3.281,12.639,5.254,22.201,6.406c4.922,0.596,10.014,0.924,15.41,1.27c5.678,0.367,11.555,0.742,17.52,1.461
					c9.826,1.188,24.521,3.76,38.631,12.402c42.246,25.869,38.549,66.617,35.572,99.359c-0.428,4.711-0.867,9.586-1.189,14.367
					C1559.955,1035.891,1560.828,1053.117,1563.916,1065.988z"/>
			</g>
		</g>
		<g>
			<path fill="#34241A" d="M1266.658,1131.9c0,0,181.465-162.996,363.24-115.77c69.34,18.014,124.213,82.318,119.402,155.365
				c-6.223,94.566-105.65,111.283-183.551,101.734c-94.049-11.527-175.875-48.635-272.578-42.049
				C1215.148,1236.492,1219.889,1162.195,1266.658,1131.9z"/>
			<g>
				<path fill="#D1D3D4" d="M1588.402,1252.004c29.684-0.703,66.545,3.672,96.791-13.852c26.508-15.355,41.344-36.455,43.418-68.02
					c3.258-49.438-25.969-97.57-74.455-122.621c-9.445-4.879-19.359-8.682-29.473-11.309c-24.885-6.467-72.604-11.734-100.02-10.258
					c0.152,0.203,0.316,0.393,0.469,0.568c4.506,5.361,10.541,9.832,19.547,14.482c4.629,2.393,9.539,4.594,14.736,6.916
					c5.467,2.449,11.121,4.98,16.746,7.889c9.252,4.781,22.799,12.723,33.545,26.43c32.168,41.062,13.529,79.902-1.441,111.102
					c-2.156,4.488-4.383,9.139-6.469,13.734C1595.562,1220.855,1590.09,1238.178,1588.402,1252.004z"/>
			</g>
		</g>
		<g>
			<path fill="#34241A" d="M1298.111,1111.777c0,0,221.449-14.102,324.621,122.078c39.363,51.947,42.293,128.805-2.309,178.25
				c-57.75,64.016-138.176,19.906-188.42-30.828c-60.65-61.238-98.162-133.855-170.93-183.67
				C1202.369,1157.422,1247.633,1107.043,1298.111,1111.777z"/>
			<g>
				<path fill="#D1D3D4" d="M1460.146,1378.891c21.598,16.234,45.451,40.133,76.922,44.672c27.58,3.977,50.068-2.725,69.346-24.094
					c30.193-33.469,36.451-84.309,15.949-129.531c-3.99-8.801-8.924-17.111-14.666-24.684
					c-14.121-18.645-45.229-49.305-65.643-63.703c0.006,0.23,0.012,0.457,0.018,0.67c0.205,6.365,1.986,12.959,5.795,21.357
					c1.957,4.318,4.225,8.656,6.627,13.242c2.52,4.832,5.127,9.826,7.512,15.074c3.914,8.629,9.105,21.939,9.047,37.785
					c-0.176,47.449-35.373,64.674-63.656,78.516c-4.072,1.992-8.279,4.055-12.352,6.162
					C1482.822,1360.688,1469.146,1369.967,1460.146,1378.891z"/>
			</g>
		</g>
	</g>
	<g>
		<path fill="#82694B" d="M1152.773,1297.98c44.836,21.449,93.078,41.637,140.293,62.469
			c85.168,37.582,165.85,76.195,243.18,128.852c25.836,17.598,73.596,39.816,78.688,73.008
			c9.023,58.766-48.594,45.938-86.426,36.773c-93.545-22.666-156.82-23.906-252.891-5.43
			c-110.162,21.168-265.26,53.859-357.158-37.266c-39.182-38.848-78.592-112.992-72.85-171.172
			c5.828-59.102,56.859-107.449,111.766-125.961C1015.625,1239.609,1095.137,1270.416,1152.773,1297.98z"/>
		<g>
			<path fill="#D4AC7A" d="M868.074,1383.504c50.479,83.168,157.398,122.496,272.824,122.998
				c91.939,0.4,174.801-13.229,267.75,2.123c64.055,10.578,124.113,39.242,178.23,75.492c-13.906,2.984-38.414-2.941-53.164-6.516
				c-96.484-23.379-162.666-24.801-262.27-5.656l-8.305,1.6c-104.576,20.17-247.797,47.791-329.125-32.85
				c-35.719-35.422-71.27-104.109-66.416-153.312C867.729,1386.086,867.893,1384.793,868.074,1383.504z"/>
			<path fill="#F7C88F" d="M1408.648,1508.625c-92.949-15.352-175.811-1.723-267.75-2.123
				c-115.426-0.502-222.346-39.83-272.824-122.998c3.055-21.633,13.77-42.785,31.166-61.406
				c17.51-18.75,40.664-33.633,65.193-41.902c2.32-0.781,4.75-1.482,7.219-2.082c39.438-9.574,95.564,3.445,171.584,39.809
				c32.42,15.504,67.037,30.551,100.512,45.102c13.482,5.855,26.982,11.723,40.396,17.645c90.891,40.102,166.43,77.027,239.66,126.9
				c5.395,3.67,11.391,7.361,17.742,11.271c20.67,12.711,48.982,30.121,51.543,46.82c2.514,16.371-1.553,17.363-5.49,18.324l0,0
				c-0.229,0.051-0.486,0.082-0.721,0.133C1532.762,1547.867,1472.703,1519.203,1408.648,1508.625z"/>
		</g>
	</g>
	<g>
		<path fill="#82694B" d="M1698.898,2147.32c16.201-19.445,4.441-78.328-3.609-106.863c0,0-37.963-128.895-35.289-276.375
			c0.186-10.035,1.641-24.191,3.479-39.18c5.801-47.367,13.744-112.25-20.803-155.738c-21.279-26.785-58.789-46.055-90.854-25.07
			c-4.582,3-8.695,6.562-12.221,10.598c-31.109,35.602-8.967,98.098-1.695,118.641c7.699,21.723,12.908,40.676,17.947,59.004
			c5.943,21.633,12.092,43.992,22.172,70.344c14.045,36.727,21.293,76.863,30.24,115.031
			c11.895,50.707,25.637,101.605,35.385,152.77C1647.447,2090.391,1671.412,2180.32,1698.898,2147.32z"/>
		<g>
			<path fill="#D4AC7A" d="M1640.24,1902.762c-24.924-111.051-12.166-170.57-9.479-250.102c1.52-44.906-12.078-70.031-24.207-83.395
				c8.52,4.805,16.305,11.754,22.426,19.457c38.74,48.762,12.619,134.832,13,176.059c0.832,89.367,15.398,185.371,37.131,271.922
				c7.096,28.246,13.748,55.781,17.982,84.801c1.4,9.609-1.441,16.953-6.207,19.359
				C1675.443,2066.297,1654.438,1966.039,1640.24,1902.762z"/>
			<path fill="#F7C88F" d="M1630.762,1652.66c-2.688,79.531-15.445,139.051,9.479,250.102
				c14.197,63.277,35.203,163.535,50.646,238.102c-0.42,0.211-0.852,0.398-1.299,0.535c-20.666,4.16-28.568-63.281-34.174-93.078
				c-11.072-58.828-45.473-214.359-60.133-252.684c-17.402-45.477-21.871-77.121-38.15-123.082
				c-10.277-29.004-26.01-82.758,6.838-104.258c13.588-8.895,29.021-6.684,42.586,0.969
				C1618.684,1582.629,1632.281,1607.754,1630.762,1652.66z"/>
		</g>
	</g>
	<path fill="none" stroke="#EEB239" stroke-width="12" stroke-linecap="round" stroke-miterlimit="10" d="M1053.172,1330.428
		c0,0,305.988,170.994,733.465-17.998"/>
	<g>
		<g>
			<path fill="#82694B" d="M1703.158,2126.832c-16.354-27.973-79.453-42.219-106.887-44.105
				c-27.439-1.891-246.287,56.012-215.062,97.254c5.109,9.785,206.584,3.82,295.74-6.047
				C1704.664,2170.863,1715.395,2147.801,1703.158,2126.832z"/>
			<g>
				<path fill="#F7C88F" d="M1626.793,2142.02c-11.127,1.078-21.92,4.469-32.859,6.578c-11.572,2.227-21.703-0.293-33.234-0.789
					c-40.285-1.746-82.729,10.527-122.859,2.66c-2.625-0.516-5.312-1.359-7.951-2.461c6.018-3.207,11.59-5.918,13.084-6.422
					c30.732-10.402,49.699-16.641,80.59-26.133c18.012-5.539,54.625-12.289,74.021-10.898c23.553,1.691,47.865,6.977,69.588,16.008
					c11.523,4.793,16.887,13.523,13.473,22.152C1663.455,2138.832,1643.027,2140.441,1626.793,2142.02z"/>
				<path fill="#B08E65" d="M1412.016,2159.32c1.246-2.031,9.949-7.102,17.873-11.312c2.639,1.102,5.326,1.945,7.951,2.461
					c40.131,7.867,82.574-4.406,122.859-2.66c11.531,0.496,21.662,3.016,33.234,0.789c10.939-2.109,21.732-5.5,32.859-6.578
					c16.234-1.578,36.662-3.188,53.852,0.695c-1.094,2.762-3.066,5.508-6.039,8.117c-16.723,14.641-33.359,5.395-52.098,2.441
					c-24.766-3.902-43.785,5.812-66.555,11.379c-2.379,0.586-4.824,1.078-7.312,1.5c-23.633,3.961-51.598,0.996-74.783,0.629
					C1466.113,2166.656,1401.746,2176.086,1412.016,2159.32z"/>
			</g>
			<path fill="#82694B" d="M1708.566,2142.047c-11.875-27.684-50.455-41.195-66.902-42.777
				c-16.447-1.59-141.99,58.457-120.258,99.211c3.785,9.691,123.018,1.562,175.223-9.23
				C1712.855,2185.895,1717.453,2162.801,1708.566,2142.047z"/>
		</g>
		<g>
			<path fill="#F7C88F" d="M1627.93,2169.926c-15.99,9.148-52.277,5.801-65.203-10.984c0.088-0.066,0.199-0.16,0.264-0.199
				c16.428-10.594,26.578-16.945,43.166-26.625c9.674-5.645,29.688-12.652,40.682-11.402c13.354,1.512,27.412,6.598,40.314,15.426
				c7.885,5.402,11.605,16.066,8.4,25.883c-10.506-3.809-20.941-9.09-33.748-8.27
				C1647.207,2154.688,1639.953,2163.047,1627.93,2169.926z"/>
			<path fill="#B08E65" d="M1547.012,2176.637c0.914-3.453,13.199-15.773,15.715-17.695c12.926,16.785,49.213,20.133,65.203,10.984
				c12.023-6.879,19.277-15.238,33.875-16.172c12.807-0.82,23.242,4.461,33.748,8.27c-0.469,1.43-1.078,2.836-1.846,4.211
				c-8.23,14.707-18.293,5.625-29.043,2.82c-14.205-3.703-24.117,6.117-36.453,11.828c-1.289,0.598-2.621,1.113-3.984,1.543
				c-12.955,4.129-28.881,1.375-41.924,1.184C1577.953,2183.543,1542.57,2193.406,1547.012,2176.637z"/>
		</g>
	</g>
	<g>
		<path fill="#34241A" d="M1061.902,1002.312c63.289-6.434,139.611,40.371,156.48,93.781
			c33.146,104.969-54.662,161.309-77.133,173.203c53.502,33.568,51.275,125.408,21.885,166.555
			c-27.621,38.672-102.201,74.582-162.973,35.91c-15.924,42.484-30.949,91.715-80.039,102.125
			c-51.668,10.953-98.225-24.836-135.414-57.928c-32.678-29.076-55.131-53.006-64.15-96.619
			c-9.713-46.984-14.744-87.277,8.793-130.336c33.738-61.725,81.459-113.5,120.777-171.426
			c33.555-49.438-23.777-109.793,20.207-145.781c30.387-24.865,102.164-77.189,143.637-63.535
			C1057.699,922.66,1085.791,955.219,1061.902,1002.312z"/>
		<path fill="#D1D3D4" d="M900.916,1553.801c4.904,0,9.826-0.516,14.625-1.535c31.594-6.695,44.572-35.926,60.771-79.75
			c1.055-2.859,2.105-5.699,3.16-8.508l9.562-25.521l22.992,14.631c13.717,8.727,29.062,13.154,45.615,13.154
			c36.768,0,72.529-22.291,87.51-43.264c14.133-19.785,20.086-55.938,14.15-85.957c-3.123-15.801-10.828-37.129-29.799-49.035
			l-32.426-20.344l33.836-17.906c5.234-2.773,32.344-17.973,51.812-45.066c21.562-30.004,26.469-64.305,14.58-101.953
			c-12.814-40.57-72.82-78.928-123.479-78.928c-3.295,0-6.553,0.162-9.693,0.479l-40.242,4.092l18.299-36.076
			c6.65-13.109,8.066-24.5,4.201-33.863c-5.01-12.125-18.975-22.496-39.33-29.195c-2.271-0.75-5.008-1.129-8.125-1.129
			c-19.496,0-59.842,15.969-114.605,60.771c-11.752,9.619-10.891,21.387-5.664,50.131c4.846,26.656,10.875,59.832-10.254,90.961
			c-15.199,22.387-31.703,43.988-47.664,64.875c-26.648,34.867-51.82,67.809-72.01,104.742
			c-20.412,37.348-15.32,72.797-6.539,115.258c7.307,35.328,23.549,54.645,57.197,84.586
			C831.123,1527.678,865.379,1553.801,900.916,1553.801z"/>
		<path fill="#34241A" d="M947.844,1076.668c-2.092,1.959,37.797-13.098,39.709-15.258c54.258-23.137,112.828-19.859,149.861,47.945
			c31.979,58.551-19.734,142.029-97.49,144.105c109.77,85.004-1.312,202.496-110.496,132.594
			c31.822,94.961-38.385,183.684-130.604,139.352c-31.484-15.131-145.408-109.047-176.652-133.973
			c-191.018-152.365,95.934-302.855,193.387-375.723c37.229-27.84,99.455-93.93,145.758-70.996
			C1009.734,968.695,980.357,1046.156,947.844,1076.668z"/>
	</g>
	<path fill="#B08E65" d="M973.127,498.277c-7.336-141.918-183.043-167.531-262.291-78.68
		c-81.006,90.824,4.02,186.359,122.283,182.672C961.127,598.275,973.127,498.324,973.127,498.277z"/>
	<g>
		<path fill="#D4AC7A" d="M954.717,493.758c0.111,1.227,0.246,2.43,0.328,3.676c-1.986,11.328-18.727,83.605-122.486,86.844
			c-2.035,0.064-4.051,0.094-6.064,0.094c-54.477,0-102.316-23.457-121.242-58.869c21.117,7.268,48.445,13.385,83.789,16.77
			C890.328,551.969,936.652,515.227,954.717,493.758z"/>
		<path fill="#F7C88F" d="M724.27,431.578c25.848-28.98,64.678-45.602,106.531-45.602c57.547,0,117.277,33.354,123.916,107.781
			c-18.064,21.469-64.389,58.211-165.676,48.514c-35.344-3.385-62.672-9.502-83.789-16.77c-0.832-1.559-1.629-3.131-2.35-4.736
			C690.176,492.359,697.564,461.52,724.27,431.578z"/>
	</g>
	<path fill="#826226" d="M799.117,499.273c-7.217-17.332-17.467-29.137-25-38c-29.883-35.164-73.705-40.484-105.721-12.225
		c-67.477,59.576-99.535,53.537-99.535,53.537s-20.787,8.473-5.289,33.531c15.66,13.748,37.465,21.141,46.406,23.836
		c30.016,9.062,60.439,8.906,90.973,8.262c27.199-0.582,58.072,12.986,84.686-1.18C810.246,553.943,809.742,524.799,799.117,499.273
		z"/>
	<g>
		<path fill="#FCC34F" d="M614.377,498.047c16.795-6.717,36.447-16.736,55.74-33.773c13.104-11.562,29.926-22,45-22
			c13.555,0,29.08,8.041,41.92,18.961C729.338,504.689,661.322,506.211,614.377,498.047z"/>
		<path fill="#D6A132" d="M614.377,498.047c46.945,8.164,114.961,6.643,142.66-36.812c4.404,3.746,8.496,7.824,12.08,12.039
			c9.035,10.639,18.939,28.639,21.412,48.303c3.883,30.822-21.328,34.697-32.414,34.697c-8.744,0-19.09-1.703-27.998-3
			c-39.719-5.793-78.004,0.219-118-5c-23-3-41.891-15.598-43.002-27C566.373,511.264,586.412,509.234,614.377,498.047z"/>
	</g>
	<path fill="#B08E65" d="M957.119,465.771c0,0-33,51-96,42c-73.502-10.5-88.484-58.477-88.502-58.5
		c0.621,0.936,45.463-17.297,49.863-18.506c16.102-4.422,32.943-6.551,49.59-5.406C904.707,427.609,935.627,440.492,957.119,465.771
		z"/>
	<path fill="#34241A" d="M947.223,453.633c0,0-26.496-74.793-93.439-66.398c-49.771,6.246-68.17,65.213-68.17,65.213
		S861.242,551.141,947.223,453.633z"/>
	<path fill="#826226" d="M740.768,543.105c2.742,0,5.498-0.307,8.182-1.035c7.127-1.934,12.629-6.408,16.35-13.297
		c13.059-24.168-1.939-43.379-2.584-44.184c-2.029-2.543-5.74-2.957-8.279-0.922c-2.533,2.025-2.949,5.717-0.939,8.258
		c0.488,0.625,10.688,14.125,1.438,31.246c-2.156,3.994-5.125,6.457-9.072,7.527c-9.777,2.666-23.303-3.674-27.689-6.334
		c-0.869-0.527-1.861-0.82-2.879-0.854l-142.5-4.285c-3.223-0.086-5.969,2.461-6.064,5.713c-0.098,3.252,2.457,5.967,5.713,6.064
		l141.035,4.242C717.434,537.41,728.953,543.105,740.768,543.105z"/>
	<circle fill="#EDEEEF" cx="879.944" cy="422.855" r="16.001"/>
	<circle fill="#EDEEEF" cx="903.312" cy="452.271" r="10.751"/>
	<path fill="#34241A" d="M959.82,396.279c0,0-10.002,28.002-48,34.002c7.998,22,21.996,34,21.996,34s42.004-5.998,56.004-40
		c-22.002,13.998-44.004,13.998-44.004,13.998S957.82,416.277,959.82,396.279z"/>
</g>
</svg>
