<?xml version="1.0" encoding="UTF-8" standalone="no"?>
<!-- Generator: Adobe Illustrator 16.2.0, SVG Export Plug-In . SVG Version: 6.00 Build 0)  -->

<svg
   xmlns:dc="http://purl.org/dc/elements/1.1/"
   xmlns:cc="http://creativecommons.org/ns#"
   xmlns:rdf="http://www.w3.org/1999/02/22-rdf-syntax-ns#"
   xmlns:svg="http://www.w3.org/2000/svg"
   xmlns="http://www.w3.org/2000/svg"
   xmlns:sodipodi="http://sodipodi.sourceforge.net/DTD/sodipodi-0.dtd"
   xmlns:inkscape="http://www.inkscape.org/namespaces/inkscape"
   version="1.1"
   x="0px"
   y="0px"
   width="300px"
   height="300px"
   viewBox="0 0 300 300"
   enable-background="new 0 0 300 300"
   xml:space="preserve"
   id="svg3919"
   inkscape:version="0.48.2 r9819"
   sodipodi:docname="BBT_GACT5_junk_bucket.svg"><metadata
   id="metadata3979"><rdf:RDF><cc:Work
       rdf:about=""><dc:format>image/svg+xml</dc:format><dc:type
         rdf:resource="http://purl.org/dc/dcmitype/StillImage" /><dc:title></dc:title></cc:Work></rdf:RDF></metadata><defs
   id="defs3977" /><sodipodi:namedview
   pagecolor="#ffffff"
   bordercolor="#666666"
   borderopacity="1"
   objecttolerance="10"
   gridtolerance="10"
   guidetolerance="10"
   inkscape:pageopacity="0"
   inkscape:pageshadow="2"
   inkscape:window-width="640"
   inkscape:window-height="480"
   id="namedview3975"
   showgrid="false"
   inkscape:zoom="0.78666667"
   inkscape:cx="150"
   inkscape:cy="150"
   inkscape:window-x="0"
   inkscape:window-y="0"
   inkscape:window-maximized="0"
   inkscape:current-layer="svg3919" />
<g
   id="Layer_15">
</g>
<g
   id="Layer_1">
	<g
   id="Wheel">
	</g>
</g>
<g
   id="Layer_6">
</g>
<g
   id="Layer_11">
</g>
<g
   id="Layer_10">
</g>
<g
   id="land">
</g>
<g
   id="Layer_8">
</g>
<g
   id="Layer_7">
</g>
<g
   id="Layer_12">
</g>
<g
   id="Junk">
	<g
   id="bucket">
		<g
   id="g3933">
			<g
   id="g3935">
				<polygon
   fill="#876044"
   points="75.279,75.022 150.27,70.862 224.275,74.704 206.594,221.741 151.943,229.856 92.59,220.648           "
   id="polygon3937" />
				<path
   fill="#BA8E63"
   d="M95.205,74.548c-1.428,21.895,0.736,55.749,3.465,77.415c0.045,0.361,0.08,0.641,0.109,0.88      c0.176,1.443,0.346,2.893,0.516,4.341c0.311,2.64,0.592,5.286,0.861,7.932c0.533,5.272,0.932,10.558,1.191,15.85      c0.523,10.562,0.834,30.887,0.91,41.404l31.105,1.566c3.328-10.494,1.553-30.271,1.344-41.225      c-0.207-10.6-1.246-21.173-2.363-31.708c-2.268-21.355-4.77-56.615-3.23-78.135C129.113,72.868,95.818,65.216,95.205,74.548z"
   id="path3939" />
				<path
   fill="#6C482F"
   d="M175.264,72.116c0,0,0.182,32.572-1.273,44.118c-1.373,10.901-1.816,21.885-2.289,32.855      c-0.453,10.516-0.891,21.063-2.09,31.528c-0.049,0.266-0.328,2.303-0.391,2.7c-0.211,1.311-0.461,2.615-0.713,3.919      c-0.49,2.509-1.078,5.012-1.691,7.497c-0.58,2.346-1.322,4.662-2.021,6.977c-0.334,1.107-0.738,2.186-1.064,3.293      c-0.178,1.323-0.354,2.646-0.529,3.97c0.502,4.628,2.943,21.701,2.672,18.421c0,0,26.523-0.214,28.533-2.922      c1.975-2.661,3.584-14.892,4.803-17.892c1.947-4.792,1.639-9.464,2.648-14.533c2.414-12.132,3.35-24.556,3.998-36.89      c0.584-11.111,0.975-22.233,2.105-33.309c0.082-0.775,0.178-1.551,0.271-2.324c0.035-0.151,0.318-2.24,0.389-2.7      c0.402-2.542,0.922-5.063,1.496-7.577c1.305-5.689,5.143-26.812,5.428-32.691L175.264,72.116z"
   id="path3941" />
				<path
   fill="#483324"
   d="M208.518,224.043c-0.332,0.276-0.725,0.485-1.162,0.599c-1.27,0.334-31.416,8.167-59.553,6.887      c-36.621-1.667-55.375-7.771-56.156-8.031c-1.105-0.364-1.896-1.337-2.035-2.49L72.299,75.379      c-0.096-0.808,0.139-1.616,0.65-2.246c0.514-0.629,1.256-1.028,2.062-1.099c0.348-0.029,35.039-3.088,72.713-3.668      c28.822-0.438,76.314,3.31,76.791,3.346c0.812,0.066,1.562,0.461,2.082,1.091c0.518,0.633,0.756,1.448,0.656,2.26      L209.57,222.099C209.479,222.874,209.09,223.561,208.518,224.043z M95.336,218.333c5.469,1.52,23.326,5.863,52.74,7.201      c23.205,1.057,48.629-4.504,55.785-6.209l17.062-141.867c-11.029-0.819-48.828-3.462-73.107-3.092      c-30.977,0.477-59.918,2.637-69.191,3.388L95.336,218.333z"
   id="path3943" />
				<path
   fill="#483324"
   d="M114.523,226.909c-0.473,0.396-1.07,0.648-1.73,0.692c-1.652,0.107-3.08-1.147-3.188-2.801      L99.953,76.157c-0.109-1.652,1.146-3.081,2.799-3.188c1.654-0.108,3.082,1.146,3.189,2.799l9.652,148.645      C115.656,225.405,115.23,226.317,114.523,226.909z"
   id="path3945" />
				<path
   fill="#483324"
   d="M138.527,228.859c-0.514,0.427-1.168,0.688-1.889,0.696c-1.656,0.021-3.016-1.308-3.035-2.964      l-1.83-153.662c-0.02-1.656,1.307-3.014,2.965-3.033c1.656-0.022,3.016,1.306,3.035,2.964l1.83,153.661      C139.615,227.459,139.193,228.303,138.527,228.859z"
   id="path3947" />
				<path
   fill="#483324"
   d="M164.525,228.135c-0.539,0.454-1.236,0.718-1.996,0.699c-1.656-0.038-2.967-1.414-2.928-3.071      l3.67-154.006c0.039-1.658,1.414-2.969,3.07-2.928c1.656,0.038,2.967,1.413,2.926,3.071L165.6,225.905      C165.578,226.806,165.164,227.602,164.525,228.135z"
   id="path3949" />
				<path
   fill="#483324"
   d="M189.855,226.749c-0.568,0.475-1.312,0.742-2.109,0.692c-1.654-0.104-2.912-1.525-2.809-3.18      l9.346-150.686c0.1-1.655,1.521-2.912,3.178-2.808c1.654,0.1,2.912,1.524,2.809,3.178l-9.344,150.687      C190.873,225.488,190.467,226.238,189.855,226.749z"
   id="path3951" />
				<g
   id="g3953">
					<polygon
   fill="#B0A59B"
   points="73.002,101.027 226.998,100.697 223.047,123.538 74.385,124.442      "
   id="polygon3955" />
					<path
   fill="#6A584A"
   d="M224.973,125.841c-0.52,0.434-1.188,0.694-1.906,0.698l-148.662,0.902       c-1.596,0.01-2.922-1.233-3.016-2.823l-1.381-23.415c-0.051-0.824,0.242-1.629,0.807-2.231s1.354-0.943,2.182-0.944       l153.996-0.329c0.887-0.002,1.727,0.386,2.301,1.064c0.57,0.677,0.814,1.573,0.66,2.446l-3.949,22.841       C225.879,124.771,225.502,125.396,224.973,125.841z M77.213,121.424l143.307-0.869l2.912-16.849l-147.248,0.314L77.213,121.424       z"
   id="path3957" />
				</g>
				<g
   id="g3959">
					<polygon
   fill="#B0A59B"
   points="216.498,179.052 81.832,178.009 85.883,201.331 213.555,204.393      "
   id="polygon3961" />
					<path
   fill="#6A584A"
   d="M215.48,206.692c-0.541,0.454-1.242,0.715-1.998,0.697l-127.672-3.058       c-1.43-0.035-2.637-1.076-2.881-2.486l-4.051-23.322c-0.152-0.879,0.09-1.778,0.664-2.455c0.576-0.679,1.424-1.067,2.314-1.062       l134.664,1.043c0.854,0.009,1.662,0.377,2.227,1.016c0.564,0.64,0.83,1.485,0.732,2.332l-2.947,25.341       C216.441,205.527,216.051,206.215,215.48,206.692z M88.418,198.391l122.473,2.938l2.246-19.301l-127.734-0.991L88.418,198.391z       "
   id="path3963" />
				</g>
			</g>
			<path
   fill="#DDDAD9"
   d="M143.279,105.526c-15.205,0.102-30.402,0.463-45.609,0.468c-9.168,0.004-9.236,14.111-0.068,14.207     c15.219,0.153,30.457,0.484,45.609-1.208C151.611,118.056,152.184,105.469,143.279,105.526z"
   id="path3965" />
			<path
   fill="#DDDAD9"
   d="M141.314,185.637c-16.123-3.718-20.164-3.181-36.594-4.264c-9.115-0.602-9.1,13.473-0.068,14.122     c15.885,1.144,19.086,1.78,34.986,2.658C146.885,198.552,148.338,187.258,141.314,185.637z"
   id="path3967" />
		</g>
	</g>
</g>
<g
   id="Layer_9">
</g>
<g
   id="Layer_16">
</g>
<g
   id="gears">
	<g
   id="stool">
		<g
   id="das_boot">
			<g
   id="New_Symbol_1">
			</g>
		</g>
	</g>
</g>
</svg>