<?xml version="1.0" encoding="UTF-8" standalone="no"?>
<!-- Generator: Adobe Illustrator 16.2.0, SVG Export Plug-In . SVG Version: 6.00 Build 0)  -->

<svg
   xmlns:dc="http://purl.org/dc/elements/1.1/"
   xmlns:cc="http://creativecommons.org/ns#"
   xmlns:rdf="http://www.w3.org/1999/02/22-rdf-syntax-ns#"
   xmlns:svg="http://www.w3.org/2000/svg"
   xmlns="http://www.w3.org/2000/svg"
   xmlns:sodipodi="http://sodipodi.sourceforge.net/DTD/sodipodi-0.dtd"
   xmlns:inkscape="http://www.inkscape.org/namespaces/inkscape"
   version="1.1"
   x="0px"
   y="0px"
   width="300px"
   height="300px"
   viewBox="0 0 300 300"
   enable-background="new 0 0 300 300"
   xml:space="preserve"
   id="svg4337"
   inkscape:version="0.48.2 r9819"
   sodipodi:docname="BBT_GACT5_gear_01.svg"><metadata
   id="metadata4387"><rdf:RDF><cc:Work
       rdf:about=""><dc:format>image/svg+xml</dc:format><dc:type
         rdf:resource="http://purl.org/dc/dcmitype/StillImage" /><dc:title></dc:title></cc:Work></rdf:RDF></metadata><defs
   id="defs4385" /><sodipodi:namedview
   pagecolor="#ffffff"
   bordercolor="#666666"
   borderopacity="1"
   objecttolerance="10"
   gridtolerance="10"
   guidetolerance="10"
   inkscape:pageopacity="0"
   inkscape:pageshadow="2"
   inkscape:window-width="640"
   inkscape:window-height="480"
   id="namedview4383"
   showgrid="false"
   inkscape:zoom="0.78666667"
   inkscape:cx="150"
   inkscape:cy="150"
   inkscape:window-x="0"
   inkscape:window-y="0"
   inkscape:window-maximized="0"
   inkscape:current-layer="svg4337" />
<g
   id="Layer_15">
</g>
<g
   id="Layer_1">
	<g
   id="Wheel">
	</g>
</g>
<g
   id="Layer_6">
</g>
<g
   id="Layer_11">
</g>
<g
   id="Layer_10">
</g>
<g
   id="land">
</g>
<g
   id="Layer_8">
</g>
<g
   id="Layer_7">
</g>
<g
   id="Layer_12">
</g>
<g
   id="Junk">
	<g
   id="bucket">
	</g>
</g>
<g
   id="Layer_9">
</g>
<g
   id="Layer_16">
</g>
<g
   id="gears">
	<g
   id="g4354">
		<path
   fill="#9B989C"
   d="M183.141,166.224c9.257-18.368,1.866-40.763-16.506-50.021c-18.371-9.252-40.764-1.861-50.02,16.51    c-9.253,18.371-1.864,40.764,16.504,50.019C151.494,191.987,173.889,184.597,183.141,166.224z"
   id="path4356" />
		<path
   fill="#B3B0B5"
   d="M166.635,116.203c-0.279-0.138-0.56-0.263-0.842-0.395l-51.635,44.181    c2.811,9.528,9.392,17.922,18.961,22.742c0.171,0.086,0.343,0.161,0.512,0.243l53.025-39.358    C184.829,132.204,177.744,121.801,166.635,116.203z"
   id="path4358" />
		<g
   id="g4360">
			<g
   id="g4362">
				<path
   fill="#999B9C"
   d="M225.119,192.649c7.065,2.143,14.118,4.312,21.149,6.521c3.233-11.291,6.088-22.933,8.644-34.874      c-6.556-2.463-13.173-4.85-19.839-7.177c0.225-7.418-0.495-14.956-2.016-22.376c6.178-2.799,12.175-5.559,17.939-8.271      c-5.246-12.385-10.295-24.813-15.087-37.042c-5.687,2.946-11.597,5.908-17.681,8.877c-3.969-6.045-8.582-11.505-13.862-16.155      c3.142-6.806,6.251-13.626,9.333-20.464c-10.092-5.264-20.397-10.102-30.915-14.516c-3.5,6.407-6.978,12.823-10.435,19.253      c-6.916-1.366-14.068-1.747-21.29-1.317c-1.425-6.617-2.768-13.045-4.01-19.242c-12.7,3.682-25.664,7.179-38.665,10.396      c1.429,5.859,2.931,11.962,4.487,18.262c-6.8,2.997-13.214,6.628-18.979,10.872c-6.113-3.938-12.251-7.774-18.416-11.493      c-7.799,8.646-15.181,17.312-22.066,26.022c5.933,4.203,11.844,8.468,17.738,12.776c-2.824,6.212-4.594,12.736-5.456,19.478      c-7.01-0.021-13.891-0.149-20.606-0.41c1.686,12.247,3.37,24.949,4.934,37.923c6.172,0.244,12.536,0.365,19.059,0.391      c2.06,7.303,4.844,14.461,8.287,21.192c-4.69,4.932-9.227,9.857-13.578,14.783c7.672,10.118,15.209,19.978,22.623,29.419      c4.693-4.965,9.518-9.918,14.441-14.861c3.031,2.351,6.254,4.46,9.692,6.292c2.728,1.454,5.518,2.692,8.361,3.737      c-1.144,7.175-2.369,14.295-3.701,21.336c11.703,0.905,23.861,1.586,36.36,2.153c1.492-6.505,2.866-13.126,4.139-19.842      c7.483-0.926,14.988-2.727,22.244-5.292c3.784,5.541,7.536,10.921,11.252,16.097c11.553-6.657,23.02-13.155,34.17-19.477      c-3.92-5.303-7.851-10.772-11.787-16.37C216.859,204.392,221.439,198.871,225.119,192.649z M124.339,199.672      c-26.29-14.029-37.891-49.331-24.873-75.592c13.353-26.089,48.625-37.779,75.548-25.001      c26.744,13.105,38.519,48.499,25.045,75.676C186.236,201.759,150.79,213.362,124.339,199.672z"
   id="path4364" />
			</g>
		</g>
		<path
   fill="#303030"
   d="M149.85,191.557C149.849,191.557,149.85,191.557,149.85,191.557c-6.605,0-12.965-1.517-18.901-4.507    c-10.039-5.058-17.508-13.721-21.03-24.395c-3.521-10.674-2.677-22.08,2.381-32.119c7.195-14.282,21.606-23.155,37.609-23.155    c6.604,0,12.964,1.517,18.9,4.509c10.038,5.056,17.507,13.719,21.029,24.392c3.522,10.674,2.678,22.08-2.379,32.119    C180.264,182.684,165.852,191.557,149.85,191.557z M149.908,113.381c-13.724,0-26.081,7.607-32.25,19.854    c-4.337,8.607-5.062,18.389-2.042,27.54c3.02,9.151,9.424,16.579,18.031,20.915c5.092,2.565,10.543,3.866,16.201,3.866    c13.724,0.001,26.081-7.607,32.251-19.855c4.336-8.607,5.061-18.388,2.04-27.539c-3.02-9.151-9.423-16.579-18.03-20.914    C161.017,114.682,155.566,113.381,149.908,113.381z"
   id="path4366" />
		<g
   id="g4368">
			<path
   fill="#C8C5C9"
   d="M218.229,98.308c-3.969-6.045-8.582-11.505-13.862-16.155c3.142-6.806,6.251-13.626,9.333-20.464     c-4.248-2.217-8.542-4.354-12.866-6.419l-43.513,38.928c6.078,0.626,12.069,2.212,17.692,4.882     c19.228,9.422,30.719,30.366,30.651,51.492l43.568-28.311c-4.613-10.987-9.074-21.987-13.323-32.83     C230.224,92.377,224.313,95.339,218.229,98.308z"
   id="path4370" />
			<path
   fill="#C8C5C9"
   d="M124.339,199.672c-17.996-9.604-29.106-29.174-30.152-48.991l-24.392,21.823     c1.972,6.462,4.509,12.785,7.571,18.771c-4.69,4.932-9.227,9.857-13.578,14.783c6.354,8.379,12.609,16.565,18.784,24.5     l45.109-29.313C126.556,200.763,125.438,200.24,124.339,199.672z"
   id="path4372" />
		</g>
		<g
   id="g4374">
			<g
   id="g4376">
				<path
   fill="#303030"
   d="M151.566,257.134c-0.045,0-0.091-0.001-0.137-0.003c-13.913-0.632-25.838-1.338-36.456-2.159      c-0.851-0.065-1.633-0.49-2.15-1.168c-0.519-0.677-0.725-1.543-0.565-2.381c1.142-6.038,2.226-12.229,3.301-18.858      c-2.205-0.899-4.357-1.908-6.425-3.01c-2.734-1.457-5.412-3.126-7.988-4.978c-4.459,4.502-8.582,8.758-12.555,12.96      c-0.599,0.635-1.451,0.982-2.317,0.937c-0.871-0.04-1.683-0.458-2.222-1.145c-8.166-10.398-16.396-21.206-22.654-29.459      c-0.863-1.139-0.804-2.728,0.143-3.799c3.779-4.278,7.879-8.758,12.203-13.336c-2.75-5.634-5.07-11.558-6.917-17.666      c-6.019-0.044-11.575-0.169-16.924-0.38c-1.473-0.059-2.684-1.177-2.86-2.639c-1.37-11.37-2.936-23.404-4.927-37.873      c-0.121-0.879,0.153-1.767,0.749-2.424c0.596-0.658,1.455-1.006,2.339-0.983c5.65,0.22,11.659,0.353,17.898,0.396      c0.884-5.399,2.34-10.579,4.343-15.455c-5.52-4.022-10.696-7.745-15.768-11.338c-0.672-0.477-1.118-1.207-1.235-2.021      s0.105-1.642,0.616-2.287c6.655-8.419,14.122-17.224,22.192-26.172c0.962-1.067,2.547-1.302,3.777-0.559      c5.474,3.302,11.108,6.808,16.771,10.436c4.742-3.328,9.961-6.328,15.564-8.947c-1.345-5.447-2.646-10.741-3.893-15.85      c-0.391-1.606,0.59-3.227,2.194-3.623c12.668-3.135,25.638-6.621,38.551-10.365c0.806-0.232,1.673-0.119,2.392,0.317      c0.718,0.436,1.22,1.151,1.385,1.975c1.044,5.21,2.209,10.822,3.469,16.718c6.008-0.198,11.78,0.167,17.281,1.089      c3.101-5.757,6.262-11.584,9.41-17.349c0.738-1.35,2.379-1.921,3.794-1.328c10.555,4.43,21.032,9.35,31.142,14.622      c1.409,0.735,2.001,2.443,1.348,3.893c-2.81,6.233-5.639,12.443-8.423,18.49c4.069,3.809,7.837,8.186,11.238,13.056      c5.371-2.639,10.5-5.224,15.279-7.7c0.753-0.391,1.64-0.445,2.436-0.144c0.796,0.299,1.428,0.922,1.737,1.713      c4.939,12.604,10.005,25.042,15.057,36.967c0.628,1.483-0.027,3.198-1.485,3.885c-4.919,2.314-10.115,4.716-15.822,7.311      c1.14,6.261,1.696,12.468,1.66,18.508c6.195,2.178,12.192,4.355,17.854,6.482c1.391,0.522,2.189,1.984,1.879,3.437      c-2.65,12.386-5.575,24.186-8.693,35.072c-0.223,0.777-0.75,1.433-1.462,1.815c-0.713,0.384-1.549,0.462-2.321,0.221      c-5.92-1.861-12.125-3.777-18.905-5.84c-3.057,4.798-6.722,9.305-10.937,13.444c3.537,5.001,6.979,9.768,10.255,14.199      c0.511,0.69,0.701,1.566,0.522,2.406s-0.708,1.563-1.455,1.986l-0.761,0.432c-10.87,6.162-22.11,12.534-33.391,19.035      c-1.337,0.768-3.036,0.401-3.935-0.85c-3.201-4.459-6.485-9.144-10.003-14.27c-6.119,2.024-12.328,3.5-18.516,4.399      c-1.19,6.153-2.451,12.141-3.756,17.828C154.176,256.173,152.958,257.134,151.566,257.134z M118.769,249.24      c9.048,0.662,19.059,1.248,30.426,1.781c1.24-5.539,2.436-11.342,3.562-17.288c0.242-1.281,1.285-2.259,2.579-2.419      c7.212-0.892,14.483-2.622,21.612-5.143c1.285-0.454,2.71,0.013,3.478,1.136c3.397,4.976,6.565,9.524,9.634,13.833      c9.753-5.608,19.453-11.113,28.893-16.464c-3.161-4.317-6.456-8.913-9.823-13.701c-0.865-1.231-0.686-2.913,0.422-3.933      c5.201-4.789,9.57-10.146,12.986-15.921c0.704-1.189,2.126-1.743,3.453-1.344c6.536,1.982,12.531,3.826,18.23,5.607      c2.558-9.172,4.978-18.964,7.211-29.188c-5.529-2.056-11.353-4.153-17.348-6.246c-1.235-0.431-2.049-1.614-2.01-2.923      c0.213-7.018-0.445-14.312-1.955-21.683c-0.281-1.373,0.425-2.757,1.7-3.335c5.518-2.5,10.547-4.812,15.291-7.03      c-4.284-10.176-8.572-20.7-12.777-31.363c-4.668,2.391-9.628,4.868-14.788,7.386c-1.357,0.664-2.994,0.212-3.823-1.05      c-3.93-5.984-8.417-11.217-13.337-15.551c-0.996-0.877-1.298-2.304-0.741-3.509c2.688-5.823,5.425-11.815,8.152-17.848      c-8.379-4.295-16.994-8.338-25.679-12.052c-3.062,5.616-6.125,11.273-9.124,16.852c-0.625,1.16-1.94,1.773-3.224,1.522      c-6.413-1.269-13.34-1.697-20.531-1.266c-1.453,0.083-2.799-0.916-3.11-2.363c-1.213-5.631-2.344-11.028-3.374-16.09      c-10.966,3.142-21.954,6.095-32.745,8.801c1.213,4.962,2.476,10.088,3.776,15.353c0.35,1.415-0.368,2.877-1.702,3.465      c-6.762,2.98-12.956,6.527-18.411,10.543c-1.003,0.739-2.357,0.781-3.403,0.105c-5.463-3.52-10.908-6.931-16.22-10.161      c-6.571,7.346-12.716,14.578-18.316,21.559c4.865,3.464,9.859,7.07,15.188,10.965c1.147,0.839,1.549,2.369,0.961,3.663      c-2.613,5.748-4.367,12.012-5.212,18.617c-0.191,1.498-1.467,2.619-2.976,2.619h-0.009c-5.933-0.018-11.682-0.113-17.142-0.286      c1.626,11.907,2.963,22.183,4.147,31.895c5.16,0.176,10.553,0.272,16.4,0.295c1.339,0.005,2.512,0.897,2.876,2.186      c2.028,7.192,4.743,14.137,8.07,20.641c0.58,1.134,0.381,2.511-0.497,3.434c-4.187,4.402-8.172,8.721-11.873,12.866      c5.457,7.188,12.173,15.99,18.963,24.683c3.816-3.998,7.798-8.076,12.097-12.393c1.068-1.073,2.766-1.183,3.965-0.254      c2.949,2.288,6.066,4.312,9.265,6.016c2.542,1.355,5.229,2.556,7.985,3.568c1.346,0.495,2.153,1.873,1.928,3.289      C120.853,237.496,119.832,243.459,118.769,249.24z M148.586,208.443c-9.046,0-17.907-2.112-25.626-6.107      c-27.666-14.763-39.885-51.945-26.182-79.588c9.915-19.374,31.337-31.869,54.594-31.869c8.865,0,17.252,1.847,24.928,5.49      c13.36,6.546,23.925,18.892,29.018,33.887c5.207,15.328,4.27,32.033-2.571,45.832      C192.679,195.756,171.427,208.443,148.586,208.443z M151.372,96.879c-20.704,0-40.49,11.48-49.235,28.568      c-12.308,24.829-1.281,58.293,23.614,71.578c6.837,3.538,14.745,5.418,22.835,5.418c20.612,0,39.768-11.405,48.802-29.056      c6.12-12.344,6.945-27.374,2.249-41.202c-4.584-13.494-14.04-24.579-25.943-30.412      C166.862,98.531,159.341,96.879,151.372,96.879z"
   id="path4378" />
			</g>
		</g>
	</g>
	<g
   id="stool">
		<g
   id="das_boot">
			<g
   id="New_Symbol_1">
			</g>
		</g>
	</g>
</g>
</svg>