<?xml version="1.0" encoding="utf-8"?>
<!-- Generator: Adobe Illustrator 16.2.0, SVG Export Plug-In . SVG Version: 6.00 Build 0)  -->
<!DOCTYPE svg PUBLIC "-//W3C//DTD SVG 1.1//EN" "http://www.w3.org/Graphics/SVG/1.1/DTD/svg11.dtd">
<svg version="1.1" xmlns="http://www.w3.org/2000/svg" xmlns:xlink="http://www.w3.org/1999/xlink" x="0px" y="0px" width="405px"
	 height="377px" viewBox="0 0 405 377" enable-background="new 0 0 405 377" xml:space="preserve">
<g id="Fixed_BG">
</g>
<g id="Leroy_x27_s_House">
</g>
<g id="Ground">
</g>
<g id="Fence">
</g>
<g id="foreground">
</g>
<g id="Ground_color">
</g>
<g id="Smoke">
</g>
<g id="Layer_17">
	<g id="bucket">
	</g>
	<g id="waterdrop">
	</g>
</g>
<g id="Barn__x28_not_burnt_x29_" display="none">
</g>
<g id="Layer_7">
</g>
<g id="Barn">
</g>
<g id="Layer_13">
</g>
<g id="Leroy">
</g>
<g id="well">
	<g>
		<g>
			<path fill="#8DC3DB" d="M186.359,145.055c1.085-0.065,2.2-0.205,3.348-0.428c27.095-5.249,45.373-41.153,75.827-32.155
				c31.172,9.209,25.542,46.25,11.472,67.244c-6.354,9.48-13.908,18.791-8.662,30.26c4.572,10,15.515,16.992,21.393,26.416
				c12.147,19.475,12.793,42.845-10.688,53.535c-40.911,18.625-55.851-44.614-93.711-40.157
				c-13.876,1.633-23.872,12.818-35.775,18.88c-29.65,15.1-45.843-13.86-34.137-39.504c8.244-18.06,21.785-31.447,12.149-52.003
				c-7.363-15.705-26.185-35.781-7.068-50.916C147.053,105.21,160.999,146.587,186.359,145.055z"/>
			<path fill="#1C95D1" d="M264.409,295.5c-15.571,0-27.333-11.125-38.709-22.107c-11.446-11.05-22.258-21.373-36.556-21.373
				c-1.153,0-2.332,0.128-3.503,0.266c-8.443,0.994-15.377,5.851-22.719,10.962c-3.891,2.709-7.915,5.525-12.179,7.697
				c-5.79,2.949-11.373,4.451-16.594,4.451c-8.428,0-15.596-3.916-20.185-11.031c-6.31-9.786-6.657-23.692-0.904-36.294
				c1.898-4.158,4.055-8.043,6.14-11.802c6.936-12.5,12.926-23.297,6.02-38.028c-1.442-3.076-3.349-6.342-5.367-9.8
				c-8.005-13.714-17.968-30.78-0.962-44.243c5.548-4.393,10.928-6.529,16.444-6.529c9.402,0,17.371,6.348,25.078,12.486
				c7.964,6.343,16.168,12.892,25.789,12.313c0.99-0.059,2.001-0.189,3.006-0.385c10.47-2.028,19.956-9.199,29.13-16.135
				c11.387-8.607,23.161-17.509,37.521-17.509c3.435,0,6.938,0.521,10.412,1.547c11.007,3.251,18.723,10.208,22.311,20.115
				c6.01,16.594-0.399,37.599-9.417,51.056c-0.54,0.805-1.088,1.609-1.637,2.414c-5.666,8.308-11.017,16.155-6.822,25.329
				c2.355,5.149,6.586,9.492,11.065,14.09c3.644,3.741,7.412,7.609,10.171,12.032c7.895,12.658,10.555,26.097,7.296,36.873
				c-2.682,8.869-9.29,15.689-19.111,20.161c-5.356,2.438-10.643,3.445-15.713,3.445C264.412,295.5,264.41,295.5,264.409,295.5z
				 M189.145,246.952c16.4,0,28.483,11.526,40.168,22.807c11.122,10.737,21.628,20.741,35.096,20.741c0.002,0,0.002,0,0.003,0
				c4.382,0,8.816-0.912,13.557-3.07c8.542-3.889,14.025-9.597,16.294-17.102c2.827-9.35,0.373-21.21-6.733-32.602
				c-2.463-3.949-5.875-7.433-9.486-11.141c-4.591-4.712-9.337-9.576-12.065-15.542c-5.411-11.83,1.317-21.69,7.252-30.393
				c0.541-0.793,1.082-1.583,1.614-2.378c8.023-11.971,14.215-31.6,8.85-46.411c-3.047-8.413-9.406-14.101-18.9-16.905
				c-2.994-0.885-6.001-1.333-8.937-1.333c-12.614,0-23.188,7.994-34.383,16.457c-9.647,7.292-19.622,14.833-31.274,17.091
				c-1.227,0.239-2.468,0.398-3.687,0.471c-11.556,0.699-20.631-6.498-29.343-13.437c-7.331-5.838-14.254-11.353-21.836-11.353
				c-4.298,0-8.621,1.768-13.215,5.405c-13.481,10.672-5.854,23.739,2.222,37.573c2.08,3.562,4.043,6.926,5.585,10.214
				c8.027,17.126,1.125,29.565-6.182,42.735c-2.037,3.671-4.143,7.468-5.957,11.441c-4.952,10.848-4.738,23.15,0.545,31.343
				c3.599,5.582,9.215,8.655,15.815,8.655c4.392,0,9.181-1.305,14.232-3.877c3.947-2.01,7.649-4.587,11.568-7.315
				c7.545-5.253,15.346-10.685,25.084-11.83C186.406,247.034,187.789,246.952,189.145,246.952z"/>
		</g>
		<g id="XMLID_6_">
			<g>
				<path fill="#8DC3DD" d="M299.718,102.024c0,0,14.819-50.306,43.739-72.66c28.919-22.354,57.482,3.846,31.236,32.362
					C348.447,90.241,299.718,102.024,299.718,102.024z"/>
				<path fill="#1C95D1" d="M296.911,104.808c-0.019-0.02-0.038-0.039-0.057-0.058c-0.975-1.022-1.33-2.486-0.931-3.839
					c0.155-0.526,3.878-13.055,11.247-28.529c9.983-20.963,21.376-36.486,33.865-46.14c12.002-9.277,30.17-13.983,41.698-2.393
					c8.324,8.368,9.967,24.152-5.126,40.55c-26.751,29.064-74.919,40.972-76.957,41.465
					C299.303,106.19,297.885,105.788,296.911,104.808z M377.117,29.415c-5.707-5.738-17.917-7.224-31.238,3.073
					c-21.276,16.445-34.869,49.33-40.024,63.684c14.241-4.398,46.655-16.183,65.925-37.119
					C380.109,50.004,384.99,37.33,377.117,29.415z"/>
			</g>
			<path fill="#D6E9F3" d="M366.483,39.712c4.326,12.151-19.325,32.958-26.22,16.834C334.809,43.793,360.486,22.871,366.483,39.712z
				"/>
		</g>
		<g id="XMLID_5_">
			<g>
				<path fill="#8DC3DD" d="M97.955,102.943c0,0-33.428-13.602-46.734-34.891c-13.306-21.29,6.619-38.97,24.33-19.079
					C93.262,68.865,97.955,102.943,97.955,102.943z"/>
				<path fill="#1C95D1" d="M99.667,105.052c-0.015,0.012-0.029,0.024-0.044,0.035c-0.768,0.595-1.794,0.735-2.694,0.37
					c-0.349-0.142-8.672-3.552-18.76-9.654c-13.666-8.267-23.509-17.12-29.255-26.313c-5.522-8.835-7.486-21.562,1.251-28.628
					c6.309-5.102,17.233-5.129,27.418,6.31c18.053,20.275,22.87,53.979,23.066,55.403
					C100.779,103.515,100.405,104.455,99.667,105.052z M53.589,45.079c-4.326,3.498-6.189,11.729-0.061,21.536
					c9.789,15.662,31.371,27.22,40.844,31.734c-2.026-10.026-7.85-32.968-20.854-47.572C67.898,44.464,59.556,40.254,53.589,45.079z
					"/>
			</g>
			<path fill="#D6E9F3" d="M59.904,53.052c8.623-2.111,21.234,15.475,9.713,19.064C60.504,74.955,47.954,55.978,59.904,53.052z"/>
		</g>
		<g id="XMLID_4_">
			<g>
				<path fill="#8DC3DD" d="M98.244,287.357c0,0-15.458,44.056-42.185,62.622s-50.932-6.02-26.302-30.185
					C54.385,295.629,98.244,287.357,98.244,287.357z"/>
				<path fill="#1C95D1" d="M100.867,285.01c0.017,0.018,0.032,0.036,0.048,0.055c0.821,0.952,1.07,2.27,0.654,3.456
					c-0.162,0.46-4.041,11.431-11.294,24.855c-9.827,18.187-20.662,31.473-32.203,39.491c-11.092,7.705-27.459,11.067-37.182,0.241
					c-7.021-7.817-7.765-21.925,6.398-35.821c25.104-24.63,68.469-33.038,70.303-33.384
					C98.803,283.673,100.045,284.095,100.867,285.01z M26.134,348.412c4.814,5.36,15.602,7.233,27.913-1.319
					c19.662-13.658,33.241-42.281,38.476-54.81c-12.861,3.267-42.215,12.277-60.298,30.02
					C24.409,329.971,19.495,341.019,26.134,348.412z"/>
			</g>
			<path fill="#D6E9F3" d="M36.056,339.738c-3.294-11,18.678-28.428,24.076-13.781C64.402,337.542,40.624,354.983,36.056,339.738z"
				/>
		</g>
	</g>
	<g id="fire_2">
	</g>
</g>
<g id="fire">
</g>
<g id="Layer_2">
</g>
</svg>
