<?xml version="1.0" encoding="utf-8"?>
<!-- Generator: Adobe Illustrator 16.0.0, SVG Export Plug-In . SVG Version: 6.00 Build 0)  -->
<!DOCTYPE svg PUBLIC "-//W3C//DTD SVG 1.1//EN" "http://www.w3.org/Graphics/SVG/1.1/DTD/svg11.dtd">
<svg version="1.1" id="Layer_1" xmlns="http://www.w3.org/2000/svg" xmlns:xlink="http://www.w3.org/1999/xlink" x="0px" y="0px"
	 width="2272px" height="2272px" viewBox="0 0 2272 2272" enable-background="new 0 0 2272 2272" xml:space="preserve">
<g id="Ned_Foot_Left">
	<polygon fill="#FFE8B7" points="1018.097,891.849 1010.497,988.126 1053.567,988.126 1058.638,889.317 	"/>
	<path fill="#966744" d="M1109.304,983.063l-144.412,5.062l10.137,172.295l217.898,5.068c0,0,15.201-43.072,5.064-70.941
		c-10.131-27.875-43.068-43.076-73.482-35.473c-30.404,7.598-38.004-2.531-38.004-2.531L1109.304,983.063z"/>
	<path fill="#E2A672" d="M1060.149,897.458c-13.074-0.988-42.883-5.303-45.719,14.139c-3.477,23.768,39.883,27.119,48.129,7.758
		C1063.774,916.501,1066.724,897.954,1060.149,897.458z"/>
	<path fill="#C48458" d="M1190.915,1073.302c-43.994-11.785-87.82-19.229-130.062,1.895c-10.705,5.363-2.973,24.168,8.232,19.504
		c39.924-16.621,75.08-6.578,115.699,0.828C1199.198,1098.153,1205.491,1077.185,1190.915,1073.302z"/>
	<path fill="#8B6541" d="M1012.614,996.157c4.018,0,7.371-3.148,7.586-7.203l4.648-88.258c0.221-4.193-3-7.77-7.191-7.992
		c-4.16-0.221-7.77,3-7.988,7.191l-4.65,88.258c-0.221,4.195,3,7.77,7.193,7.992
		C1012.345,996.149,1012.481,996.157,1012.614,996.157z"/>
	<path fill="#8B6541" d="M1051.46,992.786c3.779,0,7.055-2.816,7.535-6.66l11.426-91.645c0.518-4.166-2.438-7.965-6.604-8.48
		c-4.16-0.525-7.963,2.434-8.484,6.6l-11.426,91.643c-0.52,4.168,2.438,7.965,6.604,8.482
		C1050.829,992.763,1051.146,992.786,1051.46,992.786z"/>
	<path fill="#624530" d="M1043.731,1097.513c1.098-1.266,2.965-3.121,4.682-4.629c1.768-1.58,3.662-3.082,5.604-4.523
		c3.9-2.871,8.049-5.477,12.395-7.723c8.641-4.602,18.016-7.855,27.684-9.887c9.678-2.027,19.672-2.754,29.699-2.406
		c2.504,0.035,5.021,0.307,7.529,0.441c2.508,0.277,5.018,0.516,7.525,0.859c4.98,0.707,10.09,1.652,14.914,2.742
		c1.422,0.305,2.43,0.602,3.504,0.891c1.055,0.258,2.217,0.67,3.33,1c2.225,0.734,4.389,1.547,6.447,2.484
		c4.145,1.85,7.883,4.135,11.09,6.832c6.406,5.391,10.52,12.574,12.297,21.148c1.83,8.535,1.336,18.172-0.479,27.727
		c-0.896,4.795-2.133,9.602-3.654,14.344c-0.762,2.367-1.584,4.723-2.48,7.033c-0.861,2.244-1.922,4.756-2.771,6.539l-0.002,0.002
		l10.197-6.301l-216.209-4.082h-0.004l15.457,14.6l-16.742-176.982v-0.004l-8.547,9.371l146.949-5.062l0,0l-8.773-11.492
		l-24.012,73.105c-1.746,5.316,1.148,11.045,6.465,12.793c5.32,1.746,11.047-1.148,12.793-6.469c0.031-0.09,0.074-0.225,0.102-0.318
		l21.59-73.854l0.082-0.281c1.359-4.645-1.305-9.512-5.953-10.871c-0.957-0.281-1.959-0.383-2.902-0.34h-0.004l-146.945,5.062
		c-4.896,0.168-8.729,4.273-8.559,9.168c0,0.053,0.006,0.148,0.008,0.203v0.002l3.535,177.736
		c0.156,7.906,6.461,14.25,14.262,14.555l1.195,0.047h0.004l216.209-4.082l0.422-0.008c4.322-0.082,8.025-2.646,9.775-6.293
		l0.004-0.012c1.512-3.094,2.555-5.586,3.676-8.387c1.086-2.73,2.082-5.484,3.004-8.266c1.844-5.566,3.371-11.262,4.52-17.117
		c2.189-11.684,3.004-24.145,0.297-36.875c-1.352-6.328-3.645-12.68-7.072-18.508c-3.375-5.852-7.887-11.074-12.973-15.355
		c-5.107-4.275-10.744-7.617-16.506-10.172c-2.883-1.297-5.801-2.383-8.725-3.336c-1.486-0.445-2.883-0.928-4.459-1.324
		c-1.547-0.41-3.148-0.836-4.379-1.092c-5.758-1.268-11.342-2.15-17.105-2.889c-2.867-0.346-5.758-0.578-8.641-0.84
		c-2.904-0.121-5.793-0.371-8.711-0.371c-11.641-0.207-23.402,0.828-34.916,3.441c-11.496,2.613-22.74,6.717-33.152,12.484
		c-5.203,2.893-10.174,6.211-14.895,9.91c-2.355,1.859-4.654,3.799-6.867,5.898c-2.268,2.164-4.254,4.141-6.615,7.051
		c-3.531,4.34-2.867,10.719,1.473,14.25c4.258,3.457,10.469,2.887,14.037-1.219L1043.731,1097.513z"/>
</g>
</svg>
