<?xml version="1.0" encoding="utf-8"?>
<!-- Generator: Adobe Illustrator 16.0.0, SVG Export Plug-In . SVG Version: 6.00 Build 0)  -->
<!DOCTYPE svg PUBLIC "-//W3C//DTD SVG 1.1//EN" "http://www.w3.org/Graphics/SVG/1.1/DTD/svg11.dtd">
<svg version="1.1" id="Layer_1" xmlns="http://www.w3.org/2000/svg" xmlns:xlink="http://www.w3.org/1999/xlink" x="0px" y="0px"
	 width="2272px" height="2272px" viewBox="0 0 2272 2272" enable-background="new 0 0 2272 2272" xml:space="preserve">
<g>
	<g>
		<g>
			<g>
				<path fill="#FFFFFF" d="M1016.17,1260.324l-38.005,42.962c0,0-0.012-0.053-7.077-1.769c-7.063-1.717-15.619,15.59-15.619,15.59
					s22.612,24.189,31.567,23.978c11.928-0.282,10.207-15.021,10.377-18.64l33.469-50.025c0,0,4.562-5.238-0.18-9.884
					C1025.961,1257.89,1016.17,1260.324,1016.17,1260.324z"/>
				<path fill="#D7D6D6" d="M998.552,1320.921c-7.69,5.119-20.475,11.376-28.165,9.868c2.581,3.258,12.13,10.403,16.649,10.296
					c11.928-0.282,10.207-15.021,10.377-18.64L998.552,1320.921z"/>
				<path fill="#A1A1A0" d="M952.917,1318.249c-0.318-0.708,0.638-1.821-0.021-2.233c-1.103-0.684,0.25-4.236,2.612-7.319
					c4.507-5.885,13.419-10.581,16.24-9.896c2.222,0.539,3.959,0.967,5.19,1.275l36.901-41.295c0.853-1.287,2.585-1.639,3.873-0.788
					c1.309,0.848,1.639,2.589,0.787,3.875l-38.005,42.962c-0.626,0.947-1.759,1.418-2.871,1.199
					c-0.121-0.023-0.24-0.055-0.357-0.094c-0.205-0.061-1.348-0.368-6.838-1.703c-3.19-0.775-10.141,9.403-11.855,12.824
					c1.517,2.834,22.875,22.189,28.398,21.234c9.491-1.642,8.528-9.057,8.863-16.221c0.026-0.557,0.219-1.096,0.553-1.541
					l32.256-49.781c0.923-1.236,2.677-1.49,3.912-0.566c1.236,0.926,1.49,2.676,0.566,3.912l-32.97,49.358
					c1.406,12.385-3.624,20.204-13.05,20.429c-2.896,0.067-22.269-12.09-24.502-13.578
					C956.588,1326.304,953.114,1318.686,952.917,1318.249z M975.423,1303.835c0.234,1.174,1.104,1.849,1.809,2.087
					C976.312,1305.596,975.618,1304.807,975.423,1303.835z"/>
				<g>
					<path fill="#525551" d="M966.358,1309.094l-24.473,15.529c0,0,2.098,26.433,39.877,28.002
						c6.395-9.611,9.589-18.578,9.589-18.578S989.41,1307.797,966.358,1309.094z"/>
					<path fill="#211D1E" d="M954.194,1347c-0.001,0-0.002,0-0.002,0c-13.061-9-14.3-21.597-14.341-22.137
						c-0.061-0.746,0.308-1.505,0.94-1.906l24.479-15.549c0.29-0.184,0.627-0.303,0.972-0.321
						c5.703-0.321,10.705,0.915,14.862,3.683c10.969,7.299,12.214,22.487,12.261,23.131c0.021,0.281-0.018,0.562-0.113,0.826
						c-0.133,0.376-3.351,9.312-9.809,19.017c-0.391,0.588-1.079,1.008-1.785,0.979C970.532,1354.26,961.274,1352,954.194,1347z
						 M944.099,1325.892c0.579,3.084,2.962,11.108,12.425,18.108c0,0,0.002,0,0.002,0c6.3,3,14.344,6.256,24.208,6.81
						c5.031-7.786,7.897-15.123,8.573-16.896c-0.274-2.347-2.042-14.137-10.433-19.721c-3.291-2.19-7.275-3.113-11.869-2.941
						L944.099,1325.892z"/>
				</g>
			</g>
			<g>
				<path fill="#FFFFFF" d="M1030.773,1273.215c7.099-3.184,10.226-6.271,10.226-6.271l33.795-41.406
					c0,0,10.793-13.564-2.839-24.364c-13.632-10.8-24.918,2.444-24.918,2.444l-29.523,54.41c0,0-4.68,8.74,3.726,13.486
					C1025.576,1273.962,1030.773,1273.215,1030.773,1273.215z"/>
				<path fill="#D7D6D6" d="M1076.832,1206.63c-10.145,18.877-23.714,35.849-37.349,52.278c-4.134,4.979-8.35,9.886-12.58,14.779
					c2.191,0.342,3.871-0.473,3.871-0.473c7.099-3.184,10.226-6.271,10.226-6.271l33.795-41.406
					C1074.794,1225.537,1082.331,1216.052,1076.832,1206.63z"/>
				<path fill="#A1A1A0" d="M1015.776,1260.221c0.187,0.146,0.396,0.273,0.625,0.374c1.417,0.612,3.064-0.039,3.676-1.456
					l29.524-54.408c0.615-1.418-0.036-3.062-1.454-3.676c-1.417-0.614-3.062,0.037-3.675,1.453l-29.523,54.409
					C1014.434,1258.105,1014.808,1259.453,1015.776,1260.221z"/>
				<path fill="#A1A1A0" d="M1029.036,1275.404c0.791,0.627,1.896,0.803,2.88,0.361c7.477-3.354,10.904-6.693,11.045-6.833
					c0.072-0.071,0.14-0.146,0.202-0.223l33.796-41.407c0.976-1.195,0.798-2.955-0.398-3.932c-1.191-0.967-2.954-0.799-3.932,0.398
					l-33.678,41.262c-0.521,0.471-3.477,3.011-9.322,5.633c-1.409,0.633-2.038,2.287-1.406,3.695
					C1028.412,1274.783,1028.696,1275.136,1029.036,1275.404z"/>
			</g>
			<g>
				<path fill="#FFFFFF" d="M1167.5,1271.254c-18.092,23.52-49.226,55.276-49.226,55.276s-11.333,20.918-2.87,25.448
					c8.24,4.391,16.14,16.187,16.14,16.187l63.656-87.952c0,0,0.039-9.767-10.445-14.191
					C1174.272,1261.592,1167.5,1271.254,1167.5,1271.254z"/>
				<path fill="#D7D6D6" d="M1192.463,1278.014c-4.559,5.604-9.104,11.223-13.631,16.857c-9.586,11.935-32.432,39.272-41.752,51.416
					c-3.708,4.83-7.774,9.572-11.197,14.65c3.384,3.826,5.662,7.228,5.662,7.228l63.656-87.952c0,0,0-1.945-0.921-4.488
					C1193.686,1276.492,1193.081,1277.256,1192.463,1278.014z"/>
				<path fill="#A1A1A0" d="M1130.488,1371.18c0.329,0.115,0.676,0.178,1.033,0.182c1.056,0.009,2.05-0.51,2.65-1.378l63.657-87.954
					c1.003-1.448,0.641-3.439-0.81-4.444c-1.449-1.001-3.44-0.642-4.445,0.81l-61.104,84.27
					c-2.867-3.676-16.848-20.645-16.33-22.119c7.216-20.584,41.97-46.184,55.504-68.723c0.907-1.513-0.84-3.398-2.575-3.712
					c-1.737-0.313-2.687,1.142-3.711,2.576c-9.47,13.266-43.381,35.456-55.155,67.776c-2.739-0.596,19.615,31.369,19.69,31.48
					C1129.282,1370.523,1129.846,1370.954,1130.488,1371.18z"/>
				<g>
					<path fill="#525551" d="M1112.461,1336.741l-19.808,21.032c0,0,8.545,25.015,45.421,17.211
						c3.807-10.858,4.68-20.307,4.68-20.307S1134.406,1329.803,1112.461,1336.741z"/>
					<path fill="#211D1E" d="M1110.168,1376c-0.002,0-0.002,0-0.003,0c-14.871-5-19.19-17.158-19.364-17.668
						c-0.242-0.707-0.099-1.441,0.414-1.986l19.794-21.011c0.235-0.248,0.525-0.423,0.852-0.526
						c5.431-1.718,10.562-1.746,15.261-0.1c12.395,4.345,17.341,18.715,17.544,19.324c0.09,0.268,0.122,0.549,0.097,0.828
						c-0.037,0.396-0.94,9.821-4.785,20.789c-0.233,0.665-0.741,1.065-1.431,1.209C1127.686,1379.157,1118.174,1379,1110.168,1376z
						 M1095.08,1358.014c1.319,2.836,5.798,9.986,16.441,13.986c0.001,0,0.003,0,0.003,0c7.03,2,15.422,2.945,25.085,1.048
						c2.94-8.763,3.912-16.336,4.126-18.214c-0.842-2.201-5.452-13.042-14.934-16.365c-3.719-1.305-7.805-1.379-12.199-0.078
						L1095.08,1358.014z"/>
				</g>
			</g>
			<g>
				<path fill="#FFFFFF" d="M1165.743,1152.538c0,0-72.41,55.103-4.539,116.509c0,0,7.73,3.838,18.644,7.663
					c10.91,3.825,14.73,3.284,14.73,3.284l-5.756-27.593c0,0,34.844-26.902,36.941-74.31c0,0-1.837-14.183-24.114-23.121
					C1179.37,1146.033,1165.743,1152.538,1165.743,1152.538z"/>
				<path fill="#D7D6D6" d="M1175.223,1236.75c5.242,14.264,10.412,28.541,15.139,42.883c3.006,0.532,4.217,0.361,4.217,0.361
					l-5.756-27.593c0,0,34.844-26.902,36.941-74.31c0,0-0.938-7.164-9.47-14.518c-5.628,24.832-19.423,47.363-35.927,67.18
					C1178.682,1232.775,1176.961,1234.77,1175.223,1236.75z"/>
				<path fill="#A1A1A0" d="M1193.525,1283.011c0.545,0.19,1.137,0.283,1.735,0.251c2.057-0.115,3.421-1.672,3.045-3.477
					l-5.416-25.957c2.862-2.446,9.788-8.826,16.908-18.865c8.397-11.836,18.638-31.223,19.749-56.365
					c0.08-1.785-1.549-3.461-3.643-3.74c-2.089-0.279-3.848,0.942-3.927,2.729c-2.014,45.516-35.521,72.002-35.858,72.264
					c-0.862,0.668-1.246,1.697-1.022,2.758l5.756,27.595C1191.12,1281.48,1192.189,1282.542,1193.525,1283.011z"/>
				<path fill="#A1A1A0" d="M1166.081,1274.143c1.327,0.465,2.817,0.309,3.824-0.514c1.432-1.166,1.352-3.23-0.175-4.609
					c-18.094-16.371-33.391-35.84-33.758-53.755c-0.709-34.517,28.115-58.756,28.446-59.009c1.476-1.123,5.479-4.334,3.995-5.75
					c-1.481-1.418-3.878-1.654-5.355-0.533c-1.445,1.104-35.424,27.395-34.661,64.639c0.404,19.746,16.509,40.854,36.155,58.629
					C1165.003,1273.646,1165.529,1273.949,1166.081,1274.143z"/>
			</g>
			<g>
				<g>
					<path fill="#FAE583" d="M1255.027,1153.32c0,0,6.184-19.409,31.848-28.734c25.666-9.324,52.713-0.643,61.012,26.517
						c8.297,27.16-6.736,58.646-14.6,90.108c-7.863,31.46,13.744,42.457,35.487,43.642c0,0-41.45,22.688-60.467-2.484
						c-19.791-26.197-6.55-79.732-8.198-96.969c-2.084-21.789-14.068-37.178-35.69-20.125
						C1264.419,1165.275,1249.214,1164.184,1255.027,1153.32z"/>
					<path fill="#EEB239" d="M1334.33,1296.163c-11.953,0-21.225-4.251-27.558-12.634c-14.788-19.573-11.792-52.84-9.604-77.129
						c0.785-8.719,1.463-16.248,1.026-20.816c-1.188-12.412-6.274-25.676-16.99-25.676c-4.561,0-9.808,2.314-15.596,6.879
						c-0.376,0.297-0.85,0.441-1.329,0.408c-0.896-0.064-8.835-0.775-11.599-5.788c-1.382-2.507-1.189-5.483,0.57-8.847
						c0.732-2.134,7.717-20.609,32.967-29.783c6.812-2.473,13.693-3.729,20.457-3.729c20.933,0,37.026,11.773,43.051,31.492
						c6.432,21.055-0.561,43.915-7.962,68.119c-2.308,7.541-4.692,15.341-6.61,23.018c-2.932,11.729-1.815,21.201,3.317,28.156
						c7.651,10.371,22.336,12.658,30.408,13.099c0.858,0.046,1.581,0.657,1.771,1.495c0.191,0.839-0.197,1.701-0.951,2.113
						C1368.98,1286.934,1351.916,1296.163,1334.33,1296.163z M1281.205,1156.061c11.291,0,19.074,10.898,20.82,29.157
						c0.471,4.925-0.223,12.619-1.025,21.527c-2.131,23.665-5.05,56.075,8.842,74.464c5.568,7.37,13.807,11.106,24.488,11.106
						c10.453,0,20.957-3.587,27.351-6.269c-11.76-1.849-20.958-6.68-26.306-13.928c-5.847-7.923-7.176-18.48-3.954-31.375
						c1.942-7.771,4.343-15.621,6.664-23.21c7.226-23.626,14.05-45.938,7.962-65.867c-5.504-18.015-20.223-28.771-39.371-28.771
						c-6.313,0-12.754,1.177-19.143,3.499c-24.39,8.861-30.615,27.328-30.674,27.513c-0.036,0.109-0.082,0.219-0.137,0.32
						c-1.176,2.199-1.403,3.988-0.673,5.316c1.33,2.422,5.575,3.445,7.798,3.736
						C1270.096,1158.49,1275.933,1156.061,1281.205,1156.061z"/>
				</g>
				<path fill="#EEB239" d="M1361.094,1287.549c-0.065,0-0.132-0.003-0.198-0.011c-1.042-0.104-25.609-2.699-33.157-11.005
					c-6.208-6.83-9.506-12.701-11.025-19.63c-1.683-7.668-1.069-16.817,1.93-28.793c0.258-1.03,1.304-1.655,2.334-1.398
					c1.031,0.259,1.657,1.304,1.398,2.334c-5.92,23.636-1.682,34.017,8.211,44.9c5.45,5.997,24.01,9.083,30.7,9.765
					c1.057,0.109,1.827,1.053,1.719,2.109C1362.904,1286.811,1362.068,1287.549,1361.094,1287.549z"/>
				<path fill="#EEB239" d="M1337.95,1296.407c-0.078,0-0.157-0.005-0.237-0.015c-11.062-1.361-20.231-9.156-26.52-22.544
					c-4.646-9.89-6.091-19.247-6.15-19.64c-0.158-1.051,0.565-2.029,1.616-2.189c1.048-0.158,2.03,0.564,2.189,1.615
					c0.054,0.36,5.728,36.032,29.335,38.938c1.054,0.13,1.803,1.09,1.674,2.146
					C1339.737,1295.694,1338.908,1296.407,1337.95,1296.407z"/>
				<path fill="#EEB239" d="M1260.277,1163.62c-0.538,0-1.073-0.224-1.453-0.663c-0.696-0.802-0.611-2.016,0.19-2.713
					c0.246-0.213,6.124-5.281,14.428-8.875c11.255-4.873,21.518-4.611,29.679,0.754c0.888,0.584,1.134,1.777,0.551,2.664
					c-0.584,0.889-1.776,1.133-2.665,0.551c-17.121-11.258-39.247,7.619-39.47,7.812
					C1261.174,1163.466,1260.725,1163.62,1260.277,1163.62z"/>
				<path fill="#EEB239" d="M1254.302,1161.9c-0.394,0-0.791-0.119-1.134-0.371c-0.857-0.627-1.045-1.83-0.418-2.688
					c0.193-0.264,4.789-6.56,12.541-12.873c10.357-8.432,21.423-12.969,32.002-12.969c0.016,0,0.031,0,0.047,0
					c25.85,0,34.197,25.121,34.279,25.374c0.325,1.013-0.232,2.126-1.242,2.451c-1.012,0.325-2.096-0.216-2.42-1.228
					c-0.301-0.923-7.658-22.645-30.66-22.635c-23.532,0.028-41.264,23.904-41.44,24.146
					C1255.479,1161.624,1254.895,1161.9,1254.302,1161.9z"/>
				<path fill="#EEB239" d="M1304.534,1221.726c-0.148,0-0.299-0.018-0.449-0.055c-1.034-0.247-1.671-1.284-1.423-2.317
					c5.729-23.948,2.691-47.829,2.66-48.068c-0.139-1.053,0.604-2.019,1.656-2.156c1.053-0.141,2.02,0.601,2.158,1.654
					c0.133,1.004,3.161,24.832-2.732,49.465C1306.192,1221.131,1305.404,1221.726,1304.534,1221.726z"/>
			</g>
			<g>
				<path fill="#FFFFFF" d="M1087.27,1100.875c0,0,34.687,30.725,68.514,21.633c33.825-9.089,58.295-25.69,85.817-21.347
					c27.521,4.341,47.165,41.867,29.932,113.411c-7.991,33.159-43.838,47.295-74.69,52.375
					c-51.748,8.519-111.308,8.048-153.189-27.082C986.789,1192.169,1028.769,1090.252,1087.27,1100.875z"/>
				<path fill="#D7D6D6" d="M1110.625,1254.34c74.579,8.984,137.843-40.513,163.249-59.336c1.584,20.447-11.725,45.178-27.359,54.59
					c-15.635,9.411-70.939,19.871-93.807,22.588c-22.866,2.717-78.171-9.411-89.896-20.707
					C1051.084,1240.182,1051.997,1247.277,1110.625,1254.34z"/>
				<path fill="#FFFFFF" d="M1115.977,1126.965c10.617,5.426,22.334,9.959,34.482,10.484c12.547,0.538,25.205-1.864,37.235-5.132
					c12.136-3.301,23.999-7.473,36.16-10.688c9.94-2.625,21.272-5.946,31.703-4.608c4.823,0.62,9.029,2.092,12.768,4.169
					c-6.611-11.672-16.071-18.351-26.725-20.028c-27.522-4.343-51.992,12.258-85.817,21.347
					c-33.827,9.092-68.514-21.633-68.514-21.633c-3.785-0.688-7.499-0.893-11.123-0.686
					C1088.852,1109.933,1101.633,1119.637,1115.977,1126.965z"/>
				<path fill="#A1A1A0" d="M1129.841,1274.898c20.483,1.301,43.063-0.07,67.679-4.123c25.128-4.139,68.662-16.829,77.938-55.324
					c10.547-43.784,8.313-79.458-6.287-100.45c-6.863-9.866-16.167-15.975-26.918-17.669c-19.445-3.067-36.746,3.465-56.78,11.027
					c-9.683,3.655-19.696,7.433-30.772,10.412c-16.138,4.338-32.733-1.421-43.811-7.018c-12.331-6.227-20.81-13.66-20.895-13.735
					c-0.554-0.489-1.24-0.823-1.98-0.957c-6.697-1.216-13.411-1.105-19.957,0.327c-2.169,0.474-3.528,2.553-3.038,4.645
					c0.494,2.088,2.652,3.4,4.822,2.923c5.113-1.117,10.357-1.267,15.604-0.448c4.828,4.049,27.385,21.807,53.364,23.456
					c5.898,0.374,11.974-0.083,18.057-1.715c11.472-3.083,21.676-6.936,31.548-10.663c18.93-7.146,35.279-13.315,52.535-10.595
					c8.493,1.339,15.937,6.294,21.524,14.331c7.731,11.113,18.678,38.153,5.135,94.374c-8.224,34.122-48.293,45.613-71.446,49.428
					c-65.811,10.837-116.231,2.026-149.863-26.186c-8.41-7.054-14.878-15.64-19.228-25.524c-0.868-1.976-3.232-2.897-5.281-2.059
					c-2.05,0.835-3.006,3.114-2.139,5.087c4.829,10.979,12.015,20.517,21.355,28.353
					C1063.741,1261.863,1093.483,1272.59,1129.841,1274.898z"/>
			</g>
			<g>
				<g>
					<path fill="#FAE583" d="M1081.28,994.969c0,0,36.745,30.184,45.46,76.142c5.539,19.024-0.365,33.035-0.365,33.035
						l13.855,23.561c-11.706,15.558-24.461,4.769-24.461,4.769l-78.765-90.636C1037.005,1041.839,1055.271,984.469,1081.28,994.969z
						"/>
					<path fill="#EEB239" d="M1125.981,1138.573c-6.728,0-11.593-4.052-11.797-4.224c-0.096-0.08-0.185-0.17-0.268-0.264
						l-78.765-90.637c-0.562-0.647-0.746-1.539-0.486-2.355c0.649-2.035,16.156-49.864,40.244-49.864
						c2.435,0,4.888,0.492,7.291,1.462c0.231,0.093,0.446,0.221,0.64,0.378c1.527,1.255,37.473,31.235,46.291,77.467
						c4.803,16.611,1.285,29.481-0.047,33.368l13.263,22.557c0.502,0.855,0.441,1.93-0.154,2.722
						C1137.504,1135.413,1132.05,1138.573,1125.981,1138.573z M1117.476,1130.694c0.672,0.515,4.116,2.968,8.505,2.968
						c4.043,0,7.832-2.071,11.278-6.164l-13-22.108c-0.392-0.668-0.448-1.483-0.146-2.198c0.053-0.128,5.475-13.518,0.269-31.397
						c-0.022-0.076-0.04-0.151-0.054-0.229c-8.038-42.389-40.903-71.527-44.322-74.459c-1.701-0.642-3.414-0.966-5.098-0.966
						c-16.497,0-30.524,31.411-35.138,45.139L1117.476,1130.694z"/>
				</g>
				<path fill="#FFFFFF" d="M1055.653,1020.824c-24.643-3.11-39.257,24.213-44.551,51.258
					c-7.971,40.723-26.531,94.411,2.898,130.217c15.059,18.322,34.14,26.32,55.226,20.778c22.035-5.792,43.572-31.11,46.528-58.891
					c3.195-30.029-2.693-49.481-10.087-78.303c-7.266-28.335-17.717-55.891-44.34-63.848
					C1059.38,1021.453,1057.49,1021.054,1055.653,1020.824z"/>
				<path fill="#D7D6D6" d="M1020.321,1169.598c0.31-12.5,2.193-24.728,4.941-36.778c1.38-6.059,2.985-12.052,4.733-17.973
					c1.196-4.05,2.182-9.669,4.097-13.644c-0.94-1.437,0.383-4.154,2.274-3.423c21.467,8.35,48.995-2.369,64.375-21.308
					c0.588-0.723,1.138-1.468,1.7-2.214c-7.235-23.932-18.163-45.359-41.115-52.221c-1.947-0.583-3.837-0.982-5.674-1.212
					c-24.643-3.11-39.257,24.213-44.551,51.258c-7.971,40.723-26.531,94.411,2.898,130.217c4.214,5.13,8.754,9.414,13.557,12.857
					C1022.675,1200.756,1019.932,1185.501,1020.321,1169.598z"/>
				<path fill="#D7D6D6" d="M1069.024,1027.686c2.112,6.67,3.86,13.489,5.925,20.176c4.87,15.779,9.568,65.95,16.573,80.565
					c6.644,13.871,23.311,26.59,24.247,4.048c-1.684-15.052-5.614-29.097-10.102-46.592c-6.621-25.812-15.888-50.973-37.613-61.266
					C1068.379,1025.655,1068.705,1026.678,1069.024,1027.686z"/>
				<path fill="#A1A1A0" d="M1021.051,1218.535c1.392,1.305,3.418,1.18,4.688-0.357c1.367-1.656,1.349-4.314-0.04-5.94
					c-31.719-37.161-22.882-80.984-13.527-127.379c0.793-3.929,1.589-7.871,2.361-11.823c4.913-25.087,18.196-50.879,40.748-48.037
					c1.688,0.213,3.434,0.588,5.187,1.108c24.92,7.45,34.831,33.722,41.828,61.002c0.537,2.092,1.065,4.134,1.581,6.135
					c5.175,19.991,9.262,35.782,9.24,54.891c-0.003,2.32,1.574,4.203,3.521,4.205c1.945,0.003,3.527-1.873,3.529-4.193
					c0.024-20.38-4.201-36.707-9.549-57.378c-0.518-1.993-1.044-4.028-1.579-6.112c-3.143-12.258-7.736-27.974-15.413-40.78
					c-8.119-13.54-18.402-22.015-31.441-25.914c-2.071-0.618-4.146-1.062-6.162-1.315c-12.372-1.561-23.618,3.867-32.526,15.694
					c-7.177,9.534-12.8,23.308-15.831,38.786c-0.768,3.934-1.559,7.854-2.348,11.768c-4.904,24.309-9.533,47.271-8.85,69.934
					c0.777,25.77,8.721,47.16,24.284,65.396C1020.849,1218.334,1020.948,1218.438,1021.051,1218.535z"/>
			</g>
			<g>
				<path fill="#FFFFFF" d="M1219.229,1290.314c-18.092,23.521-49.227,55.277-49.227,55.277s-11.333,20.918-2.869,25.445
					c8.239,4.394,16.141,16.188,16.141,16.188l63.656-87.951c0,0,0.038-9.766-10.445-14.191
					C1226,1280.652,1219.229,1290.314,1219.229,1290.314z"/>
				<path fill="#D7D6D6" d="M1244.191,1297.075c-4.56,5.603-9.104,11.222-13.63,16.854c-9.587,11.936-32.433,39.275-41.753,51.418
					c-3.708,4.83-7.774,9.574-11.197,14.65c3.384,3.827,5.662,7.227,5.662,7.227l63.656-87.951c0,0,0.001-1.945-0.922-4.487
					C1245.413,1295.552,1244.809,1296.317,1244.191,1297.075z"/>
				<path fill="#A1A1A0" d="M1182.216,1390.241c0.329,0.115,0.677,0.177,1.034,0.181c1.056,0.009,2.05-0.509,2.65-1.377
					l63.657-87.955c1.004-1.449,0.641-3.439-0.81-4.443c-1.449-1.004-3.44-0.643-4.445,0.809l-61.104,84.27
					c-2.868-3.675-16.848-20.645-16.33-22.121c7.216-20.583,41.969-46.182,55.503-68.723c0.908-1.512-0.839-3.396-2.574-3.709
					c-1.737-0.314-2.687,1.14-3.713,2.576c-9.469,13.264-43.379,35.455-55.153,67.774c-2.739-0.594,19.614,31.369,19.69,31.481
					C1181.01,1389.586,1181.574,1390.016,1182.216,1390.241z"/>
				<g>
					<path fill="#525551" d="M1164.189,1355.801l-19.808,21.033c0,0,8.546,25.015,45.422,17.211
						c3.807-10.857,4.68-20.307,4.68-20.307S1186.135,1348.863,1164.189,1355.801z"/>
					<path fill="#211D1E" d="M1161.914,1395h-0.002c-14.871-5-19.199-17.127-19.373-17.639c-0.242-0.705-0.104-1.426,0.407-1.969
						l19.793-21.003c0.235-0.251,0.524-0.422,0.851-0.524c5.431-1.717,10.562-1.745,15.262-0.098
						c12.393,4.345,17.339,18.718,17.544,19.326c0.09,0.266,0.122,0.549,0.096,0.828c-0.037,0.396-0.941,9.821-4.786,20.789
						c-0.232,0.664-0.732,1.033-1.421,1.179C1179.424,1398.188,1169.92,1398,1161.914,1395z M1146.816,1377.045
						c1.32,2.835,5.807,9.955,16.452,13.955c0.001,0,0.002,0,0.002,0c7.031,3,15.413,2.975,25.077,1.077
						c2.939-8.762,3.907-16.319,4.121-18.198c-0.844-2.199-5.455-13.033-14.936-16.356c-3.72-1.304-7.801-1.39-12.195-0.091
						L1146.816,1377.045z"/>
				</g>
			</g>
			<g>
				<path fill="#FFFFFF" d="M1217.471,1171.6c0,0-72.408,55.104-4.537,116.508c0,0,7.729,3.838,18.642,7.664
					c10.911,3.824,14.731,3.283,14.731,3.283l-5.757-27.593c0,0,34.844-26.901,36.941-74.31c0,0-1.836-14.182-24.113-23.121
					C1231.099,1165.094,1217.471,1171.6,1217.471,1171.6z"/>
				<path fill="#D7D6D6" d="M1226.95,1255.811c5.243,14.264,10.413,28.541,15.14,42.885c3.005,0.53,4.217,0.359,4.217,0.359
					l-5.757-27.593c0,0,34.844-26.901,36.941-74.31c0,0-0.937-7.164-9.469-14.519c-5.629,24.833-19.423,47.362-35.927,67.181
					C1230.41,1251.836,1228.689,1253.831,1226.95,1255.811z"/>
				<path fill="#A1A1A0" d="M1245.253,1302.071c0.546,0.191,1.138,0.284,1.735,0.251c2.058-0.117,3.42-1.67,3.046-3.477
					l-5.416-25.957c2.862-2.446,9.787-8.826,16.908-18.865c8.397-11.836,18.638-31.224,19.749-56.366
					c0.079-1.784-1.549-3.461-3.643-3.738c-2.089-0.279-3.848,0.942-3.928,2.728c-2.013,45.516-35.521,72.003-35.857,72.264
					c-0.862,0.668-1.245,1.699-1.022,2.758l5.756,27.595C1242.848,1300.541,1243.918,1301.604,1245.253,1302.071z"/>
				<path fill="#A1A1A0" d="M1217.81,1293.203c1.327,0.466,2.817,0.311,3.824-0.514c1.432-1.166,1.352-3.229-0.175-4.609
					c-18.094-16.37-33.391-35.839-33.758-53.755c-0.709-34.518,28.114-58.756,28.445-59.009c1.477-1.123,5.48-4.334,3.996-5.751
					c-1.481-1.417-3.879-1.654-5.355-0.53c-1.446,1.102-35.424,27.393-34.662,64.638c0.404,19.744,16.511,40.853,36.156,58.628
					C1216.73,1292.708,1217.257,1293.01,1217.81,1293.203z"/>
			</g>
			<g>
				<g>
					<path fill="#FFFFFF" d="M1021.81,980.08c0,0-10.467-11.787,3.108-29.476c13.578-17.688,13.455-25.414,13.455-25.414
						s30.53,25.029,7.695,70.444"/>
					<path fill="#D7D6D6" d="M1039.245,930.228c0,0-13.282,17.486-16.366,23.083c-3.083,5.595-8.843,17.935,0.624,27.336
						C1035.055,992.121,1046.853,940.256,1039.245,930.228z"/>
					<path fill="#A1A1A0" d="M1030.847,983.949c-1.263-0.864-1.632-2.578-0.816-3.89c13.635-21.933,5.641-53.834,5.559-54.155
						c-0.396-1.537,0.529-3.105,2.066-3.501c1.538-0.394,3.105,0.531,3.502,2.068c0.361,1.402,8.676,34.625-6.244,58.625
						c-0.837,1.348-2.611,1.762-3.959,0.923C1030.917,983.997,1030.882,983.974,1030.847,983.949z"/>
					<path fill="#A1A1A0" d="M1020.185,982.453c-0.189-0.13-0.366-0.285-0.524-0.465c-0.121-0.135-11.874-13.786,2.977-33.135
						c12.482-16.262,12.859-23.618,12.862-23.689c-0.017-1.12,0.616-2.113,1.625-2.601c1.008-0.486,2.207-0.308,3.073,0.401
						c0.335,0.275,8.261,6.87,13.258,19.346c4.578,11.438,7.459,30.198-4.817,54.614c-0.713,1.42-2.441,1.992-3.86,1.278
						c-1.418-0.712-1.991-2.442-1.278-3.861c9.029-17.956,10.617-34.653,4.721-49.629c-2.465-6.26-5.799-10.908-8.271-13.803
						c-1.581,4.416-5.068,11.438-12.748,21.444c-11.862,15.456-3.584,25.417-3.226,25.833c1.03,1.198,0.909,3.011-0.281,4.049
						C1022.686,983.117,1021.24,983.175,1020.185,982.453z"/>
				</g>
				<path fill="#FFFFFF" d="M955.729,1084.204c8.619-5.027,18.822-4.093,26.196-2.271c1.357-1.293,3.377-1.835,5.477-0.616
					c12.299,7.155,31.905,18.793,44.851,16.509c18.606-3.284,29.203-12.181,44.495-27.553c15.53-15.61,10.579-42.325,1.237-59.696
					c-14.048-26.12-40.74-38.854-68.582-32.671c-22.718,5.045-29.148,24.099-47.401,34.748
					c-19.395,11.314-48.048,24.056-53.504,29.378c-5.457,5.325-1.121,28.484,4.889,40.881
					C919.394,1095.31,940.213,1093.255,955.729,1084.204z"/>
				<path fill="#D7D6D6" d="M1081.824,1024.675c0,0-33.804,55.782-57.848,52.476c-24.046-3.307-29.35-20.934-55.077-9.708
					c-25.729,11.223-58.302,8.583-58.302,8.583s0.339,12.279,13.359,14.446c13.019,2.168,27.192-7.695,36.742-9.082
					c9.551-1.387,20.886-5.2,35.436,5.234c14.55,10.435,27.558,13.605,40.651,9.751c13.093-3.852,31.254-11.658,39.962-26.103
					c8.708-14.443,11.78-19.424,11.78-19.424L1081.824,1024.675z"/>
				<path fill="#A1A1A0" d="M915.415,1091.136c-0.507-0.348-1.007-0.721-1.486-1.11c-8.199-6.638-12.766-20.395-13.653-31.084
					c-0.424-5.119-0.397-14.542,4.563-20.147c5.261-5.944,19.873-13.252,38.43-22.19c6.562-3.16,12.761-6.146,16.292-8.183
					c5.792-3.342,11.039-9.481,16.114-15.422c4.096-4.792,7.965-9.32,11.99-12.121c9.343-6.502,44.54-16.344,68.442,0.019
					c2.084,1.426,4.055,3.038,5.861,4.791c19.443,18.877,33.078,34.621,31.439,65.42c-0.037,0.7-0.224,1.382-0.549,2.003
					c-0.853,1.632-21.258,40.072-53.755,48.182c-14.712,3.672-29.444,0.554-43.788-9.265c-0.689-0.471-1.371-0.954-2.064-1.461
					c-0.477-0.349-0.95-0.684-1.418-1.004c-14.768-10.109-24.193-5.621-33.307-1.281l-0.7,0.333
					C947.664,1093.443,928.642,1100.188,915.415,1091.136z M1050.587,988.961c-19.927-13.641-50.729-4.663-57.34-0.061
					c-2.995,2.082-6.468,6.147-10.144,10.449c-5.35,6.26-11.413,13.355-18.659,17.537c-3.847,2.218-9.913,5.14-16.936,8.522
					c-13.073,6.297-30.978,14.919-35.351,19.862c-1.42,1.604-2.728,5.824-2.144,12.863c0.833,10.034,5.066,20.252,10.063,24.299
					c0.28,0.227,0.565,0.439,0.857,0.64c2.479,1.695,12.161,6.472,32.699-3.281l0.69-0.329c9.966-4.747,23.618-11.249,43.028,2.039
					c0.55,0.376,1.105,0.771,1.667,1.181c0.609,0.446,1.209,0.871,1.814,1.285c11.94,8.173,24.019,10.813,35.903,7.848
					c25.747-6.426,43.793-36.678,46.965-42.322c1.045-26.019-10.659-39.431-28.541-56.793
					C1053.752,991.333,1052.213,990.075,1050.587,988.961z"/>
				<g>
					<path fill="#76493D" d="M926.143,1056.41c0,0,9.706-7.035,12.839-4.13c3.132,2.906-2.699,9.116-7.321,9.903
						C927.04,1062.971,922.616,1060.342,926.143,1056.41z"/>
					<path fill="#A1A1A0" d="M925.299,1062.555c-1.116-0.764-1.781-1.794-1.924-2.978c-0.114-0.949,0.078-2.444,1.637-4.182
						c0.071-0.08,0.152-0.152,0.238-0.215c1.679-1.217,10.261-7.146,14.32-4.367c0.155,0.106,0.303,0.224,0.443,0.354
						c1.28,1.186,1.683,2.856,1.133,4.702c-1.024,3.439-5.424,7.163-9.231,7.81C929.423,1064.105,926.949,1063.685,925.299,1062.555
						z M927.171,1057.542c-0.548,0.642-0.83,1.246-0.779,1.671c0.036,0.296,0.246,0.577,0.623,0.835
						c0.985,0.674,2.708,0.924,4.39,0.637c2.681-0.457,6.127-3.325,6.83-5.683c0.314-1.052-0.107-1.443-0.286-1.608
						c-0.03-0.028-0.06-0.054-0.093-0.076C936.381,1052.309,931.176,1054.674,927.171,1057.542z"/>
				</g>
				<g>
					<path fill="#76493D" d="M915.001,1049.565c0,0,7.273-9.531,4.444-12.735c-2.827-3.203-9.177,2.474-10.081,7.076
						C908.466,1048.506,910.986,1052.992,915.001,1049.565z"/>
					<path fill="#A1A1A0" d="M910.128,1051.606C910.128,1051.606,910.128,1051.606,910.128,1051.606
						c-2.014-1.378-2.918-4.59-2.253-7.993c0.682-3.479,3.915-7.406,7.208-8.754c2.151-0.879,4.19-0.519,5.5,0.966
						c1.656,1.875,1.344,4.911-0.955,9.28c-1.506,2.863-3.341,5.278-3.42,5.379c-0.064,0.086-0.138,0.165-0.221,0.235
						C913.114,1053.173,910.933,1052.158,910.128,1051.606z M918.056,1037.61c-0.517-0.354-1.275-0.163-1.821,0.061
						c-2.332,0.954-4.895,4.064-5.378,6.526c-0.45,2.302,0.162,4.337,0.987,4.902c0.588,0.402,1.418-0.074,2.052-0.59
						c3.035-4.026,5.576-9.355,4.411-10.674C918.228,1037.745,918.143,1037.669,918.056,1037.61z"/>
				</g>
				<g>
					<path fill="#FAE583" d="M1058.563,989.194c0,0,14.513-28.355-36.425-33.463c-24.188-2.425-42.518-25.647-42.518-25.647
						s-16.609,44.957,29.901,48.497C1009.521,978.581,1029.843,967.333,1058.563,989.194z"/>
					<path fill="#EEB239" d="M987.71,973.292c0,0-0.001-0.001-0.003-0.002c-8.683-5.945-13.409-15.231-13.105-27.676
						c0.224-9.148,2.756-16.288,2.869-16.595c0.308-0.833,0.965-1.323,1.84-1.462c0.874-0.138,1.721,0.259,2.27,0.955
						c0.064,0.081,6.537,8.247,16.635,15.157c8.147,5.577,16.275,8.82,24.177,9.612c13.28,1.331,23.463,4.378,30.277,9.043
						c12.907,8.836,11.086,21.804,8.222,27.698c-0.069,0.195-0.166,0.387-0.289,0.566c-0.766,1.119-2.303,1.444-3.413,0.634
						c-0.036-0.024-0.073-0.049-0.108-0.076c-1.148-0.875-2.314-1.718-3.465-2.506c-25.117-17.193-42.202-8.295-42.918-7.908
						c-0.413,0.224-0.594-0.107-1.063-0.143C1000.526,979.895,993.348,977.151,987.71,973.292z M980.573,935.512
						c-1.934,8.052-4.472,26.488,8.988,35.488h0.001c4.786,3,11.387,4.841,19.318,5.524c3.813-1.778,22.26-8.936,47.423,8.29
						c0.334,0.229,0.71,0.354,1.046,0.592c1.149-4.265,1.815-12.617-7.475-18.977c-6.128-4.195-15.54-6.983-27.993-8.231
						c-8.729-0.875-17.707-4.179-26.539-10.225C988.729,943.447,983.57,938.72,980.573,935.512z"/>
				</g>
				<g>
					<path fill="#FAE583" d="M1088.527,1050.85c1.795-51.966-31.133-60.515-31.133-60.515s39.202-9.337,62.436,27.339
						c0,0-13.441-3.247-18.13,2.472c0,0,23.017,51.154,22.823,54.195l-16.656-4.688L1088.527,1050.85z"/>
					<path fill="#EEB239" d="M1106.481,1071.676c-0.115-0.079-0.224-0.167-0.325-0.265l-19.338-18.804
						c-0.495-0.482-0.764-1.15-0.74-1.842c0.498-14.407-1.581-40.571-21.101-53.932c-4.585-3.139-8.171-4.119-8.206-4.129
						c-1.085-0.288-1.839-1.278-1.822-2.401c0.014-1.122,0.786-2.092,1.877-2.352c1.009-0.24,24.974-5.713,47.067,9.411
						c6.994,4.788,13.052,11.181,18.006,19.002c0.534,0.843,0.504,1.926-0.078,2.738c-0.581,0.811-1.597,1.189-2.567,0.955
						c-2.797-0.67-10.83-1.789-14.595,0.698c10.455,23.267,22.497,50.796,22.31,53.743c-0.046,0.737-0.425,1.416-1.029,1.843
						c-0.604,0.427-1.367,0.56-2.08,0.358l-16.657-4.687C1106.944,1071.94,1106.701,1071.826,1106.481,1071.676z M1091.009,1049.844
						l18.119,17.619l11.735,3.302c-3.601-9.486-14.302-33.843-21.399-49.612c-0.382-0.849-0.25-1.84,0.34-2.561
						c3.423-4.172,9.957-4.576,14.781-4.194c-3.924-5.196-8.434-9.551-13.46-12.992c-12.778-8.747-26.463-9.95-34.919-9.625
						c0.501,0.312,1.017,0.647,1.542,1.006C1088.703,1007.134,1091.392,1034.231,1091.009,1049.844z"/>
				</g>
				<path fill="#EEB239" d="M1067.468,1000.202c-0.735-0.503-1.169-1.392-1.047-2.337c0.173-1.341,1.402-2.29,2.743-2.117
					c0.702,0.09,17.269,2.266,23.818,7.312c1.073,0.824,1.272,2.365,0.447,3.436c-0.824,1.073-2.362,1.273-3.437,0.449
					c-4.569-3.513-17.036-5.767-21.455-6.336C1068.141,1000.557,1067.777,1000.414,1067.468,1000.202z"/>
				<g>
					<path fill="#FFFFFF" d="M1058.125,1008.896c0,0-4.773-15.022,14.822-25.667c19.595-10.642,22.625-17.75,22.625-17.75
						s17.718,35.277-21.605,67.489"/>
					<path fill="#D7D6D6" d="M1094.32,970.439c0,0-19.243,10.576-24.335,14.437c-5.093,3.859-15.37,12.79-10.542,25.229
						C1065.334,1025.282,1097.194,982.694,1094.32,970.439z"/>
					<path fill="#A1A1A0" d="M1065.634,1016.974c-0.289-0.198-0.545-0.451-0.754-0.759c-0.892-1.312-0.549-3.101,0.765-3.993
						c21.328-14.465,27.037-46.894,27.092-47.219c0.264-1.564,1.748-2.621,3.313-2.356c1.564,0.264,2.62,1.746,2.356,3.31
						c-0.239,1.429-6.147,35.164-29.534,51.025C1067.866,1017.665,1066.581,1017.622,1065.634,1016.974z"/>
					<path fill="#A1A1A0" d="M1072.344,1035.344c-0.221-0.151-0.423-0.335-0.601-0.552c-1.007-1.229-0.827-3.041,0.402-4.047
						c15.545-12.734,23.786-27.346,24.486-43.425c0.293-6.722-0.863-12.325-1.947-15.974c-3.238,3.391-9.28,8.39-20.365,14.41
						c-17.308,9.402-13.495,22.142-13.454,22.27c0.481,1.513-0.357,3.129-1.87,3.611c-1.513,0.48-3.131-0.355-3.612-1.869
						c-0.055-0.173-5.243-17.422,16.19-29.064c18.014-9.784,21.35-16.352,21.381-16.416c0.438-1.03,1.421-1.679,2.541-1.714
						c1.119-0.036,2.142,0.614,2.645,1.616c0.195,0.387,4.755,9.634,4.248,23.063c-0.465,12.312-5.458,30.623-26.6,47.942
						C1074.777,1036.023,1073.371,1036.047,1072.344,1035.344z"/>
				</g>
				<path fill="#A1A1A0" d="M910.598,1076.026c0,0,10.245,1.335,17.194,0.513c6.951-0.82,15.176-7.055,15.176-7.055
					s0.044,7.569-9.336,9.567c-9.381,1.998-21.596,2.726-21.596,2.726L910.598,1076.026z"/>
				
					<ellipse transform="matrix(0.6984 0.7157 -0.7157 0.6984 1051.4863 -420.5559)" fill="#31251B" cx="1024.716" cy="1037.27" rx="9.579" ry="9.224"/>
				
					<ellipse transform="matrix(0.6983 0.7158 -0.7158 0.6983 1014.1079 -400.5251)" fill="#31251B" cx="982.238" cy="1002.876" rx="9.579" ry="9.224"/>
				<circle fill="#FFFFFF" cx="1023.764" cy="1033.243" r="3.548"/>
				<circle fill="#FFFFFF" cx="981.284" cy="998.85" r="3.547"/>
			</g>
			<g>
				<path fill="#FFFFFF" d="M1053.369,1290.035l-35.407,45.127c0,0-0.015-0.052-7.168-1.349
					c-7.152-1.298-14.673,16.483-14.673,16.483s24,22.814,32.925,22.076c11.891-0.984,9.304-15.598,9.26-19.22l30.462-51.911
					c0,0,4.245-5.498-0.762-9.856C1062.999,1287.027,1053.369,1290.035,1053.369,1290.035z"/>
				<path fill="#D7D6D6" d="M1039.354,1351.564c-7.375,5.564-19.769,12.563-27.534,11.512c2.769,3.101,12.721,9.67,17.227,9.297
					c11.891-0.984,9.304-15.598,9.26-19.22L1039.354,1351.564z"/>
				<path fill="#A1A1A0" d="M993.642,1351.587c-0.359-0.688,0.528-1.856-0.153-2.228c-1.142-0.618,0-4.243,2.176-7.461
					c4.153-6.141,12.772-11.355,15.628-10.836c2.25,0.408,4.01,0.732,5.257,0.968l34.403-43.399
					c0.775-1.334,2.483-1.787,3.819-1.014c1.357,0.77,1.789,2.488,1.015,3.821l-35.408,45.127c-0.569,0.982-1.673,1.52-2.796,1.366
					c-0.121-0.017-0.242-0.041-0.36-0.072c-0.208-0.047-1.368-0.288-6.927-1.297c-3.23-0.585-9.569,9.985-11.079,13.502
					c1.682,2.738,24.143,20.801,29.601,19.521c9.377-2.197,7.979-9.541,7.891-16.713c-0.006-0.559,0.155-1.107,0.461-1.572
					l29.267-51.596c0.849-1.288,2.585-1.645,3.871-0.795c1.289,0.851,1.645,2.583,0.795,3.871l-30.004,51.217
					c2.134,12.279-2.427,20.383-11.822,21.161c-2.886,0.239-22.943-10.755-25.26-12.11
					C997.779,1359.41,993.863,1352.01,993.642,1351.587z M1015.258,1335.871c0.304,1.158,1.211,1.781,1.928,1.977
					C1016.249,1337.577,1015.51,1336.83,1015.258,1335.871z"/>
				<g>
					<path fill="#525551" d="M1006.519,1341.656l-23.516,16.943c0,0,3.653,26.264,41.459,25.603c5.817-9.97,8.477-19.11,8.477-19.11
						S1029.453,1339.002,1006.519,1341.656z"/>
					<path fill="#211D1E" d="M996.723,1380c-0.001,0-0.002,0-0.003,0c-13.673-8-15.604-20.61-15.677-21.146
						c-0.104-0.741,0.192-1.468,0.799-1.905l23.505-16.937c0.279-0.202,0.602-0.326,0.944-0.365
						c5.675-0.657,10.738,0.289,15.051,2.805c11.38,6.641,13.517,21.733,13.602,22.373c0.037,0.278,0.013,0.563-0.065,0.834
						c-0.111,0.382-2.797,9.493-8.671,19.562c-0.356,0.609-0.962,0.963-1.669,0.977C1013.403,1386.391,1003.904,1385,996.723,1380z
						 M985.155,1359.695c0.759,3.044,3.775,11.305,13.34,17.305c0.001,0,0.002,0,0.002,0c6.618,4,14.82,5.439,24.699,5.412
						c4.563-8.07,7.059-15.543,7.628-17.352c-0.411-2.328-2.838-13.982-11.544-19.062c-3.414-1.992-7.495-2.694-12.072-2.252
						L985.155,1359.695z"/>
				</g>
			</g>
			<g>
				<path fill="#FFFFFF" d="M1068.493,1303.097c7.099-3.184,10.226-6.271,10.226-6.271l33.794-41.407
					c0,0,10.793-13.563-2.839-24.364c-13.632-10.799-24.918,2.445-24.918,2.445l-29.523,54.41c0,0-4.679,8.74,3.726,13.486
					C1063.294,1303.844,1068.493,1303.097,1068.493,1303.097z"/>
				<path fill="#D7D6D6" d="M1114.552,1236.512c-10.146,18.877-23.716,35.85-37.351,52.277c-4.133,4.98-8.349,9.887-12.579,14.781
					c2.191,0.342,3.871-0.474,3.871-0.474c7.099-3.184,10.226-6.271,10.226-6.271l33.794-41.407
					C1112.514,1255.419,1120.05,1245.934,1114.552,1236.512z"/>
				<path fill="#A1A1A0" d="M1053.495,1290.102c0.188,0.148,0.396,0.274,0.626,0.375c1.417,0.613,3.064-0.039,3.675-1.455
					l29.525-54.408c0.614-1.418-0.036-3.062-1.454-3.676c-1.417-0.615-3.062,0.037-3.675,1.453l-29.524,54.408
					C1052.152,1287.987,1052.526,1289.334,1053.495,1290.102z"/>
				<path fill="#A1A1A0" d="M1066.755,1305.287c0.792,0.627,1.896,0.803,2.881,0.36c7.477-3.354,10.904-6.693,11.045-6.832
					c0.072-0.071,0.14-0.146,0.203-0.223l33.795-41.407c0.977-1.195,0.798-2.955-0.397-3.932c-1.192-0.967-2.955-0.799-3.933,0.398
					l-33.677,41.262c-0.521,0.471-3.477,3.011-9.322,5.633c-1.409,0.633-2.038,2.287-1.406,3.695
					C1066.132,1304.666,1066.415,1305.018,1066.755,1305.287z"/>
			</g>
		</g>
		<path fill="#603A17" d="M1042.723,1250.252c-1.145,0-2.281-0.341-3.253-1.01c-1.133-0.779-27.862-19.379-37.403-45.4
			c-0.588-1.605-0.431-3.389,0.429-4.866c0.86-1.477,2.333-2.494,4.02-2.774c77.23-12.852,106.94-78.019,107.231-78.676
			c0.791-1.785,2.435-3.046,4.364-3.346c0.295-0.046,0.591-0.069,0.885-0.069c1.626,0,3.191,0.691,4.29,1.927
			c0,0,3.096,3.481,6.187,6.971c1.549,1.748,3.097,3.498,4.256,4.816c2.586,2.939,4.313,4.903,2.919,8.181
			c-11.892,43.834-35.972,72.336-54.129,88.555c-19.864,17.744-36.87,24.951-37.584,25.249
			C1044.223,1250.106,1043.471,1250.252,1042.723,1250.252z"/>
		<g>
			<path fill="#B8834B" d="M1050.104,1213.347c24.109,0,57.881-42.825,79.973-75.208c0.419-1.432,0.828-2.878,1.221-4.345
				c0.82,0.82-12.302-13.942-12.302-13.942s-27.291,61.549-99.275,79.465C1026.03,1206.08,1036.073,1213.347,1050.104,1213.347z"/>
			<path fill="#865F36" d="M1050.104,1213.347c-14.031,0-24.073-7.267-30.384-14.03c-3.955,0.984-8.036,1.846-12.263,2.549
				c9.021,24.604,35.266,42.646,35.266,42.646s64.066-26.746,87.354-106.373C1107.984,1170.521,1074.212,1213.347,1050.104,1213.347
				z"/>
		</g>
		<path fill="#603A17" d="M1116.534,1174h168.127c0,0,17.223,16-7.381,32c-27.064,0-184.53,0-184.53,0L1116.534,1174z"/>
		<g>
			<path fill="#B8834B" d="M1284.728,1188.622c0.383-3.591-1.399-6.622-2.716-8.622h-162.592l-10.368,14h173.514
				C1283.716,1192,1284.523,1190.529,1284.728,1188.622z"/>
			<path fill="#865F36" d="M1109.052,1194l-4.878,6h171.388c2.54-2,5.198-4,7.004-6H1109.052z"/>
		</g>
		<g>
			<path fill="#603A17" d="M1106.012,1078.951c0,0-19.472,14.298-14.333,33.93c5.138,19.632,16.721,12.555,16.721,12.555
				s1.265,39.766,20.073,58.396c30.704,30.414,70.604,10.814,83.492-28.424c12.889-39.238-4.313-53.563-4.313-53.563
				s-54.205,3.348-84.603,0.598C1114.29,1096.362,1106.012,1078.951,1106.012,1078.951z"/>
			<path fill="#B8834B" d="M1154.584,1192.279c-7.843-1.572-15.269-5.788-22.071-12.526c-16.938-16.778-18.363-54.128-18.376-54.503
				c-0.068-2.09-1.154-4.053-3.019-5.002c-0.505-0.256-1.029-0.44-1.559-0.546c-1.403-0.281-2.847-0.027-4.094,0.797
				c-0.246,0.118-1.339,0.602-2.426,0.383c-2.202-0.442-4.373-3.976-5.806-9.453c-2.573-9.832,2.806-18.236,7.214-23.168
				c3.499,6.093,9.123,14.592,15.328,18.899c0.647,0.45,1.378,0.759,2.145,0.913c0.201,0.041,0.406,0.07,0.612,0.089
				c26.923,2.437,71.225,0.22,82.74-0.425c3.266,4.261,10.49,17.719,1.238,45.881
				C1197.747,1180.296,1175.909,1196.557,1154.584,1192.279z"/>
		</g>
		<g>
			<path fill="#865F36" d="M1203.469,1146.096c-4.922,15.582-12.303,38.546-42.647,37.727c-31.035-0.84-42.647-56.59-42.647-56.59
				s-1.532-16.024-17.107-7.577c0.641,0.67,1.305,1.091,1.971,1.225c1.087,0.219,2.181-0.265,2.426-0.383
				c1.248-0.824,2.691-1.078,4.094-0.797c0.53,0.106,1.054,0.29,1.559,0.546c1.865,0.95,2.951,2.912,3.019,5.002
				c0.013,0.375,1.438,37.725,18.376,54.503c6.803,6.738,14.229,10.954,22.071,12.526c21.325,4.277,43.163-11.983,51.926-38.663
				c2.439-7.427,3.726-13.82,4.249-19.302C1207.933,1136.88,1205.195,1140.627,1203.469,1146.096z"/>
		</g>
	</g>
	<g>
		<g>
			<g>
				<path fill="#87D0C7" d="M1181.099,1113.161l-1.021,13.662l-10.771-1.179l-2.039-20.494c0,0,1.964-11.679,9.345-9.328
					C1183.994,1098.176,1181.099,1113.161,1181.099,1113.161z"/>
			</g>
			<g>
				<path fill="#6FA8A1" d="M1167.123,1102.488c0.42-6.403,7.644-8.017,9.49-6.666c1.951,1.427,5.01,1.35,5.623,4.314
					c1.055,5.095,0.546,20.986-2.019,20.341c-5.514-1.379-8.584-5.009-13.47-8.046
					C1164.452,1110.999,1166.931,1105.419,1167.123,1102.488z"/>
			</g>
			<g>
				<path fill="#499D96" d="M1183.474,1099.348c-1.202-3.083-3.634-5.224-6.905-5.791c-4.486-0.748-8.332,1.405-10.32,5.453
					c-0.826,1.681-1.645,3.894-1.613,5.803c0.041,2.347,0.689,4.817,0.982,7.152c0.593,4.748,0.879,9.536,0.876,14.321
					c0,1.258,1.522,2.042,2.632,1.801c1.929-0.417,1.634-2.338,1.584-3.836c-0.125-3.774-0.435-7.541-0.829-11.298
					c-0.191-1.814-0.399-3.628-0.628-5.439c-0.115-0.908-0.236-1.818-0.364-2.725c0.14-0.918,0.385-1.828,0.711-2.698
					c1.111-2.965,3.187-4.74,6.442-4.116c2.848,0.546,3.625,3.644,3.777,6.14c0.106,1.751-0.049,3.521-0.321,5.25
					c-0.212,1.333-1.078,3.206-0.646,4.546c-0.045,2.706-0.718,5.535-1.063,8.216c-0.219,1.681-0.437,3.362-0.652,5.043
					c-0.415,3.201,4.306,4.057,4.636,0.821c0.367-3.582,0.733-7.163,1.101-10.744
					C1183.484,1111.272,1185.701,1105.312,1183.474,1099.348C1183.145,1098.502,1184.108,1101.048,1183.474,1099.348z"/>
			</g>
			<g>
				<path fill="#231F20" d="M1179.672,1125.061c-0.312-0.324-0.732-0.551-1.216-0.601l-11.25-1.176
					c-0.881-0.103-1.677,0.404-2.019,1.172c-0.344,0.502-0.521,1.123-0.436,1.774l0.004,0.042l0.266,2.065
					c0.094,0.689,0.129,1.373,0.193,2.062c0.07,0.699,0.395,1.348,0.436,2.021c0.048,0.653,0.35,1.37,0.35,2.084v0.532v0.267v0.054
					c0,0.008-0.311,0.021-0.311,0.021l-0.167,0.117l-0.192,0.941c-0.102,0.624-0.283,1.24-0.453,1.85
					c-0.186,0.604-0.423,1.202-0.683,1.782c-0.272,0.577-0.582,1.141-0.915,1.691c-1.383,2.174-3.348,3.99-5.532,5.484
					c-1.096,0.744-2.258,1.411-3.453,2c-0.597,0.302-1.212,0.562-1.827,0.809c-0.602,0.24-1.274,0.48-1.809,0.635l-0.035,0.01
					c-0.434,0.125-0.824,0.399-1.091,0.805c-0.593,0.903-0.343,2.117,0.561,2.71c0.351,0.229,0.642,0.407,0.964,0.597l0.954,0.537
					c0.642,0.348,1.296,0.674,1.97,0.975c1.352,0.596,2.771,1.117,4.392,1.357l0.082,0.012c0.032,0.006,0.068,0.008,0.104,0.01
					c1.389,0.029,2.811-0.088,4.213-0.438c1.399-0.342,2.78-0.954,3.965-1.845c1.041-0.767,2.027-1.755,2.685-2.833l0.579,2.876
					v0.281c0,0.547,0.281,1.26,0.852,1.26H1176v-0.293c0,0.027,0.414-0.471,0.522-0.995l-0.269-0.183l5.482-27.434
					c0.016-0.084-0.042-0.188-0.034-0.276C1181.832,1126.526,1180.902,1125.355,1179.672,1125.061z"/>
			</g>
		</g>
		<g>
			<g>
				<path fill="#E2253D" d="M1115.956,1081.995c1.711-1.904,0.383-12.667,0.687-15.705c0.493-4.916,1.263-9.763,2.609-14.522
					c5.828-20.595,22.397-31.623,43.289-31.556c6.902,0.021,16.082,4.416,22.35,7.448c7.793,3.771,20.211,16.379,23.133,24.702
					c3.402,9.691,1.267,13.106,1.176,23.132c-0.018,2.066-4.346,7.843-3.297,9.348l13.092,18.787l-29.032,5.691l-9.678-15.939
					l2.847,15.939l-22.201,1.708l-5.693-21.63l-7.4,22.2l-18.787-4.553l4.556-17.647c0,0-9.678,10.813-14.232,14.799
					c-11.385-4.554-15.939-11.955-15.939-11.955S1110.833,1087.688,1115.956,1081.995z"/>
			</g>
			<g>
				<path fill="#FFFFFF" d="M1141.573,1029.621c0,0-7.4,25.618,10.817,54.65c7.969-11.385,20.494-23.908,17.645-52.94
					c-0.567-0.57-6.26-2.848-6.26-2.848s-7.114-2.39-17.074,0L1141.573,1029.621z"/>
			</g>
			<g>
				<path fill="#BD253D" d="M1217.22,1103.864c0.568-0.961,0.649-2.239-0.268-3.319c-4.246-4.985-7.68-10.686-12.456-15.201
					c6.826-11.443,2.957-26.563,1.854-39.211c-0.301-3.448-5.594-3.549-5.447,0c0.543,13.054,5.643,27.991-1.898,39.945
					c-0.899,1.422,0.418,3.031,1.791,3.119c3.555,3.571,6.343,7.754,9.411,11.732c-5.897,1.377-11.82,2.13-17.967,2.037
					c-3.131-0.049-2.954,4.393,0,4.742c7.431,0.873,15.575-0.024,22.717-2.389c0.796-0.021,1.554-0.477,2.06-1.143
					C1217.09,1104.072,1217.157,1103.971,1217.22,1103.864z"/>
			</g>
			<g>
				<path fill="#BD253D" d="M1121.268,1099.651c-4.866-2.254-9.435-4.088-13.304-7.956c-2.211-2.214-5.3,1.044-3.371,3.372
					c3.826,4.606,9.243,7.111,14.65,9.383C1121.982,1105.599,1123.949,1100.896,1121.268,1099.651z"/>
			</g>
			<g>
				<path fill="#BD253D" d="M1145.561,1104.947c-4.477-0.097-8.662-1.694-13.016-2.54c-3.076-0.595-4.319,3.731-1.298,4.716
					c4.665,1.511,9.371,3.002,14.313,3.152C1148.996,1110.38,1148.992,1105.024,1145.561,1104.947z"/>
			</g>
			<g>
				<path fill="#BD253D" d="M1178.008,1104.939c-5.121,0.577-10.211,1.208-15.371,1.325c-3.196,0.071-3.206,4.949,0,4.967
					c5.141,0.032,10.264-0.392,15.371-0.951C1181.396,1109.911,1181.423,1104.557,1178.008,1104.939z"/>
			</g>
			<g>
				<path fill="#D1C1B4" d="M1171.123,1030.568c-0.296-1.366-1.032-8.691-1.032-8.691s-15.291-2.059-27.054,2.352
					c-1.891,0.71,0.356,5.618-0.154,6.272c-3.021,3.863,4.61,6.008,7.023,6.634c1.942,0.501,15.556,1.642,15.613-0.188
					c-0.438,13.832-6.624,28.057-15.037,38.586c-2.123,2.658,1.488,6.471,3.814,3.816
					C1164.304,1067.931,1174.6,1046.652,1171.123,1030.568z"/>
			</g>
			<g>
				<path fill="#981B28" d="M1100.728,1091.794c-5.147,3.051,10.511,11.721,12.772,12.765c1.922,0.889,6.736,3.744,8.508,1.309
					c2.422-3.324,4.913-6.598,7.371-9.896c-0.464,2.291-3.754,11.169-1.511,12.952c2.36,1.871,21.793,5.918,23.062,2.39
					c1.595-4.435,3.114-8.912,4.646-13.37c1.126,4.126,1.82,12.227,4.574,15.502c1.71,2.039,23.532,0.497,24.345-2.085
					c0.965-3.068-1.041-8.487-1.462-11.624c1.991,3.193,4,6.376,6.05,9.53c2.077,3.195,3.246,2.944,6.802,2.252
					c5.765-1.118,11.517-2.293,17.265-3.485c5.154-1.068,11.398-1.553,6.186-7.433c-2.977-3.354-6.218-6.559-8.571-10.407
					c-3.253-5.318-1.411-9.893-0.12-15.589c1.178-5.2,0.927-10.168-0.033-15.32c-2.213-11.865-8.198-22.785-18.075-29.922
					c-18.251-13.185-47.296-13.603-63.53,3.092c-8.393,8.629-11.443,20.359-13.186,31.94c-0.734,4.879,1.23,13.638-1.989,17.58
					C1110.486,1086.067,1105.202,1089.125,1100.728,1091.794C1099.853,1092.313,1103.839,1089.939,1100.728,1091.794z
					 M1111.639,1098.254c0.032,0.02,0.058,0.035,0.074,0.045C1111.698,1098.29,1111.674,1098.275,1111.639,1098.254z
					 M1105.736,1094.063c4.392-2.898,9.405-6.228,12.297-10.744c2.13-3.324,1.25-7.869,1.033-11.638
					c-0.188-3.294,0.506-6.704,1.019-9.946c1.419-9.008,3.689-17.579,8.934-25.128l-0.303-0.172c2.01-2.182,3.924-4.221,6.307-5.982
					c3.231-2.39,7.018-4.22,10.89-5.308c10.538-2.958,22.593-2.139,32.762,1.962c8.435,3.401,16.254,8.666,21.03,16.564
					c4.389,7.257,7.397,15.65,7.804,24.17c0.311,6.51-4.48,15.615-1.201,21.37c2.695,4.731,6.292,9.159,9.424,13.615
					c-3.419,0.665-6.836,1.334-10.254,2.001c-3.47,0.677-6.933,1.398-10.393,2.119c-0.6,0.125-1.2,0.25-1.801,0.375
					c-0.25-0.375-11.336-16.817-12.084-17.375c-1.107-0.828-2.748-0.157-2.962,1.209c-0.117,0.745,0.17,1.602,0.294,2.335
					c0.147,0.872,1.727,11.226,2.298,15.543c-5.747,0.194-11.491,0.37-17.235,0.608c-0.61-2.273-5.111-20.03-5.984-21.129
					c-0.877-1.104-2.592-1.15-3.527-0.089c-0.413,0.472-0.551,1.084-0.733,1.667c-0.463,1.481-4.264,14.187-5.672,19.064
					c-5.441-0.952-10.867-1.979-16.262-3.17c0.077-0.292,0.151-0.585,0.228-0.877c0.938-3.628,3.883-15.812,3.974-18.275
					c0.164-1.465-1.182-2.708-2.63-2.427c-0.694,0.134-10.243,12.583-13.782,17.254c-2.683-0.75-5.244-2.004-7.623-3.44
					C1109.53,1096.98,1107.583,1095.589,1105.736,1094.063z"/>
			</g>
			<g>
				<path fill="none" d="M1139.865,1042.908"/>
			</g>
			<g>
				<path fill="#981B28" d="M1139.853,1044.204c-0.171,7.43,0.229,14.974,1.935,22.227c1.564,6.645,4.374,13.426,9.738,17.902
					c1.986,1.677,4.492-1.136,5.774-2.483c1.892-2.084,3.43-4.471,4.755-6.949c2.739-5.12,4.725-10.611,6.315-16.184
					c0.327-1.149,0.64-2.309,0.934-3.476c0.131-0.082,0.257-0.173,0.349-0.308c0.267-0.387,0.259-0.884,0.018-1.258
					c1.823-7.704,2.823-15.707,2.035-23.562c-0.099-1.21-1.75-1.371-2.328-0.432c-0.277,0.452-0.125,0.983-0.069,1.473
					c0.128,1.153,0.239,2.302,0.2,3.462c-0.024,0.701-0.062,1.401-0.109,2.099l-14.729,6.568l-11.168-7.657
					c0.074-1.207,0.16-2.412,0.277-3.616c0.094-0.983,0.452-2.238-0.615-2.838c-2.786-1.573-2.658,4.568-2.78,5.883
					c-0.28,3.027-0.46,6.065-0.53,9.108c0.012-0.506,0.016-0.752-0.001,0.014
					C1139.782,1047.249,1139.828,1045.244,1139.853,1044.204z M1144.139,1057.673l6.771,5.28l-5.269,2.333
					c-0.037-0.136-0.077-0.274-0.111-0.409C1144.928,1062.506,1144.479,1060.099,1144.139,1057.673z M1161.062,1067.981
					l-5.754-4.487l9.199-4.07c-0.851,2.454-1.789,4.877-2.849,7.244C1161.465,1067.1,1161.264,1067.541,1161.062,1067.981z
					 M1153.273,1061.907l-9.512-7.418c-0.124-1.237-0.226-2.474-0.301-3.713l10.973-4.894l11.783,8.078
					c-0.24,0.857-0.5,1.707-0.764,2.557L1153.273,1061.907z M1152.229,1044.372l-8.89,3.964c-0.025-0.623-0.047-1.245-0.062-1.868
					c-0.064-2.721-0.018-5.448,0.095-8.167L1152.229,1044.372z M1169.164,1039.312c-0.416,3.864-1.15,7.696-2.087,11.461
					c-0.07,0.288-0.157,0.572-0.23,0.857l-9.974-6.835L1169.164,1039.312z M1146.269,1067.496l6.677-2.954l7.113,5.547
					c-1.768,3.574-3.936,7.134-6.936,9.592C1149.718,1076.415,1147.651,1071.992,1146.269,1067.496z"/>
			</g>
		</g>
		<g>
			<g>
				<path fill="#E2253D" d="M1252.863,945.005c0,0,7.115-6.262,6.548-19.072c-0.569-12.809-9.108-29.317-29.034-29.601
					c-3.7,0-7.685-0.854-7.685-0.854s3.416-6.831-3.132-8.822c-6.546-1.995-16.793-5.978-21.347-2.562
					c-2.847,2.277-1.991,7.97-1.991,7.97l-25.334-16.792c0,0-8.538-6.833-21.349-3.133c-12.808,3.701-19.353,6.265-19.07,19.072
					c-6.261,0.853-29.317,4.839-35.864,12.809c-6.545,7.969-21.063,28.176,7.117,34.439c0,0.57,1.422,0.854,1.422,0.854
					s9.109-26.188,35.011-31.309c25.901-5.125,36.476,29.982,41.885,33.398c2.562,0,13.723,1.569,13.723,1.569
					s27.054,4.705,43.912,12.547C1241.375,953.24,1247.479,951.204,1252.863,945.005z"/>
			</g>
			<g>
				<path fill="#F27E6A" d="M1176.369,876.928c-11.16-6.955-44.087-8.511-43.995,10.581c0.014,2.699,4.367,3.46,4.837,0.652
					c2.479-14.772,27.388-10.326,37.165-6.51C1177.2,882.749,1178.756,878.414,1176.369,876.928z"/>
			</g>
			<g>
				<path fill="#F27E6A" d="M1210.365,885.223c-3.056-2.38-7.108-2.695-10.578-0.953c-1.48,0.743-2.694,2.278-2.975,3.923
					c-0.383,2.21,0.489,3.995,1.93,5.618c1.962,2.206,5.071-0.599,3.883-2.998c-0.182-0.364-0.293-0.77-0.391-1.165
					c-0.014-0.036-0.041,0-0.018-0.112c0.014-0.012,0.049-0.062,0.137-0.15c-0.386,0.382,0.817-0.383,0.451-0.244
					c1.303-0.482,2.917-0.303,4.3,0.309c1.12,0.5,2.335,0.504,3.261-0.423C1211.308,888.087,1211.525,886.13,1210.365,885.223z"/>
			</g>
			<g>
				<path fill="#BD253D" d="M1191.08,903.397c-16.746-10.159-36.186-15.803-54.89-14.162c-16.011,1.405-61.042,12.662-48.935,37.765
					c1.868,3.873,7.522,8.31,11.622,10.873c9.41,5.881,33.341,11.985,38.034,11.762c16.467-0.785,21.227-7.565,36.856-7.843
					c13.238-0.231,49.57,8.197,61.556,14.115c-1.347-0.665-3.069-6.749-3.84-8.285c-1.472-2.927-3.039-5.807-4.688-8.637
					C1218.566,924.873,1205.873,912.373,1191.08,903.397z"/>
			</g>
			<g>
				<path fill="#BD253D" d="M1258.5,923.087c-1.082-2.142-4.709-1.805-4.851,0.812c-0.264,4.753-1.812,8.875-4.675,12.688
					c-2.352,3.109-8.553,6.383-8.553,6.383s3.566,8.07,8.172,6.287c6.674-2.588,10.106-8.222,11.219-15.247
					C1260.385,930.39,1260.179,926.408,1258.5,923.087z"/>
			</g>
			<g>
				<path fill="#981B28" d="M1133.754,889.439c-0.798-1.704-1.085-3.221-0.83-4.7c0.246-1.456,1.085-2.856,2.33-4.092
					c2.521-2.486,6.24-4.208,10.002-5.396c1.9-0.593,3.857-1.053,5.816-1.365c0.976-0.158,1.956-0.277,2.917-0.345
					c0.479-0.032,0.954-0.05,1.413-0.05l0.298,0.002l0.397,0.016l0.793,0.03c3.78,0.219,7.653,1.284,11.23,2.985
					c3.611,1.686,7.028,3.953,10.388,6.402c3.362,2.454,6.675,5.101,10.177,7.624c1.75,1.245,3.529,2.518,5.542,3.621
					c2.062,1.127,4.158,1.981,6.345,2.638c4.364,1.315,8.84,1.713,13.165,1.83c4.336,0.114,8.571-0.043,12.712,0.051
					c4.137,0.084,8.185,0.45,12.014,1.479c3.688,0.917,7.001,3.083,9.888,5.795c2.865,2.721,5.283,5.997,6.975,9.556
					c0.837,1.781,1.495,3.636,1.855,5.509c0.188,0.955,0.289,1.828,0.317,2.842c0.056,1.088,0.036,1.95-0.004,2.984
					c-0.197,3.973-1.154,7.905-2.883,11.488c-1.712,3.589-4.178,6.826-7.183,9.472c-2.993,2.67-6.54,4.71-10.321,6.137l1.133-0.001
					c-3.396-1.258-6.884-2.655-10.375-3.916c-3.497-1.274-7.028-2.472-10.595-3.567c-7.131-2.189-14.409-3.973-21.817-5.116
					c-7.404-1.123-14.957-1.588-22.49-0.983c-3.764,0.308-7.514,0.928-11.188,1.88c-0.923,0.217-1.834,0.486-2.738,0.781
					c-0.907,0.284-1.816,0.562-2.7,0.92l-2.596,0.994c-0.854,0.309-1.738,0.739-2.565,0.944c-3.325,1.055-6.93,1.681-10.499,1.882
					c-1.793,0.105-3.598,0.113-5.397,0.023c-1.799-0.11-3.595-0.311-5.38-0.59c-3.568-0.556-7.095-1.422-10.538-2.541
					c-3.457-1.102-6.752-2.533-10.166-4.011c-3.364-1.474-6.658-3.018-9.746-4.832c-3.066-1.817-5.966-3.916-8.123-6.476
					c-1.055-1.285-1.925-2.671-2.432-4.143c-0.262-0.712-0.452-1.53-0.512-2.2l-0.065-0.692c-0.005-0.199,0.009-0.349,0.009-0.524
					c-0.012-0.317,0.036-0.728,0.073-1.123c0.363-3.186,1.8-6.461,3.611-9.348c0.916-1.446,1.96-2.814,3.096-3.982
					c0.209-0.196,0.656-0.633,0.934-0.87c0.31-0.247,0.564-0.49,0.92-0.747c0.664-0.514,1.366-1.006,2.096-1.467
					c2.917-1.865,6.171-3.371,9.5-4.67c6.689-2.569,13.741-4.35,20.867-5.548c7.133-1.192,14.379-1.736,21.597-1.667
					c7.219,0.098,14.425,0.75,21.469,2.166c7.041,1.414,13.918,3.575,20.397,6.567c6.469,3.004,12.569,6.774,18.021,11.353
					c5.472,4.557,10.224,9.947,14.275,15.836c0.515,0.73,1.017,1.47,1.485,2.233l1.464,2.319c1.026,1.634,2.097,3.211,3.247,4.764
					c1.154,1.547,2.368,3.072,3.777,4.522c0.707,0.724,1.46,1.433,2.322,2.107c0.872,0.665,1.846,1.329,3.193,1.791
					c1.33,0.457,2.778-0.251,3.234-1.58c0.443-1.29-0.208-2.69-1.46-3.19l-0.159-0.064c-0.398-0.157-0.994-0.525-1.564-1.009
					c-0.579-0.487-1.159-1.066-1.721-1.687c-1.127-1.244-2.207-2.632-3.224-4.077c-1.019-1.445-1.991-2.952-2.897-4.474
					l-1.439-2.409c-0.484-0.823-1.002-1.627-1.532-2.422c-4.175-6.402-9.292-12.23-15.122-17.228
					c-5.826-5.005-12.367-9.182-19.339-12.355c-6.962-3.199-14.306-5.483-21.771-6.965c-7.466-1.488-15.066-2.179-22.641-2.121
					c-7.574,0.047-15.133,0.735-22.572,2.098c-7.437,1.367-14.785,3.329-21.831,6.286c-3.519,1.484-6.976,3.181-10.242,5.391
					c-0.817,0.549-1.619,1.14-2.401,1.781c-0.386,0.294-0.803,0.688-1.199,1.038c-0.41,0.381-0.619,0.601-1.065,1.054
					c-1.406,1.522-2.563,3.149-3.585,4.852c-1.993,3.419-3.574,7.115-3.973,11.316c-0.036,0.526-0.083,1.039-0.054,1.648
					c0.008,0.284,0.011,0.598,0.03,0.859l0.083,0.688c0.146,1.167,0.421,2.155,0.811,3.173c0.755,2.012,1.943,3.771,3.272,5.304
					c2.708,3.045,5.978,5.233,9.299,7.103c3.342,1.854,6.799,3.367,10.248,4.777c3.395,1.404,6.93,2.849,10.552,3.909
					c3.616,1.084,7.318,1.91,11.07,2.409c7.5,0.937,15.227,0.875,22.649-1.458c0.967-0.258,1.774-0.599,2.667-0.895l0.653-0.232
					l0.683-0.256l1.261-0.472c0.832-0.338,1.693-0.596,2.555-0.86c0.854-0.278,1.717-0.531,2.596-0.732
					c3.488-0.891,7.065-1.475,10.677-1.757c7.227-0.556,14.539-0.088,21.75,1.028c7.216,1.14,14.339,2.908,21.343,5.083
					c3.501,1.089,6.976,2.278,10.424,3.548c3.464,1.265,6.84,2.633,10.378,3.957c0.369,0.138,0.759,0.133,1.104,0.01l0.028-0.011
					c4.162-1.492,8.106-3.688,11.503-6.587c3.405-2.88,6.253-6.46,8.265-10.476c2.033-4.007,3.207-8.444,3.516-12.921
					c0.07-1.077,0.107-2.334,0.072-3.361c-0.005-1.102-0.129-2.342-0.339-3.466c-0.411-2.294-1.159-4.467-2.092-6.529
					c-1.892-4.114-4.54-7.801-7.767-10.956c-1.616-1.573-3.392-3.008-5.351-4.222c-0.979-0.607-1.997-1.168-3.073-1.64
					c-1.133-0.498-2.21-0.876-3.293-1.167c-4.346-1.242-8.803-1.634-13.117-1.75c-4.326-0.117-8.561,0.018-12.689-0.115
					c-4.123-0.13-8.16-0.537-11.916-1.693c-1.864-0.566-3.701-1.338-5.35-2.251c-1.7-0.935-3.373-2.134-5.062-3.353
					c-3.357-2.443-6.647-5.103-10.113-7.662c-3.461-2.551-7.116-5.023-11.175-6.948c-4.059-1.94-8.479-3.239-13.16-3.527
					l-0.793-0.035l-0.397-0.018l-0.496-0.009c-0.599-0.003-1.182,0.018-1.758,0.052c-1.152,0.074-2.277,0.208-3.39,0.38
					c-2.223,0.354-4.396,0.871-6.538,1.539c-2.142,0.671-4.25,1.498-6.294,2.561c-2.037,1.063-4.03,2.355-5.794,4.109
					c-1.748,1.727-3.28,4.083-3.743,6.829c-0.507,2.72,0.192,5.531,1.193,7.636l0.054,0.113c0.606,1.271,2.126,1.811,3.395,1.205
					C1133.807,892.217,1134.347,890.706,1133.754,889.439z"/>
			</g>
			<g>
				<path fill="#981B28" d="M1197.856,891.656c-0.009-0.015-0.041-0.115-0.142-0.406c-0.09-0.281-0.222-0.701-0.348-1.225
					c-0.11-0.523-0.248-1.156-0.242-1.806c-0.008-0.647,0.111-1.279,0.403-1.662c0.253-0.394,0.683-0.688,1.456-0.971
					c0.77-0.285,1.812-0.418,2.947-0.489c1.146-0.083,2.374-0.016,3.686,0.066c0.721,0.035,1.314,0.103,1.963,0.161
					c0.652,0.078,1.309,0.153,1.957,0.263c1.293,0.22,2.578,0.457,3.803,0.788c1.228,0.329,2.391,0.743,3.46,1.197
					c2.112,0.919,3.86,2.205,4.456,3.372c0.345,0.568,0.397,1.06,0.352,1.551c-0.047,0.492-0.275,0.979-0.523,1.37
					c-0.24,0.398-0.502,0.712-0.694,0.914c-0.191,0.207-0.293,0.315-0.293,0.315l-0.11,0.119c-0.541,0.583-0.506,1.498,0.077,2.039
					c0.509,0.472,1.265,0.506,1.81,0.125c0,0,0.168-0.115,0.479-0.333c0.312-0.221,0.771-0.562,1.297-1.126
					c0.508-0.563,1.134-1.354,1.501-2.531c0.362-1.159,0.371-2.712-0.184-4.063c-0.538-1.367-1.453-2.541-2.514-3.516
					c-1.065-0.983-2.298-1.782-3.599-2.473c-1.299-0.696-2.695-1.232-4.124-1.684c-1.429-0.445-2.894-0.812-4.37-1.052
					c-0.738-0.13-1.478-0.223-2.213-0.317c-0.744-0.077-1.535-0.164-2.199-0.201c-1.445-0.105-2.945-0.096-4.426,0.046
					c-1.486,0.146-2.978,0.487-4.431,1.158c-1.437,0.67-2.849,1.963-3.44,3.522c-0.577,1.557-0.434,2.947-0.184,3.977
					c0.269,1.044,0.641,1.828,0.988,2.442c0.342,0.615,0.661,1.051,0.894,1.345c0.243,0.301,0.374,0.46,0.374,0.46l0.071,0.088
					c0.441,0.545,1.24,0.628,1.783,0.185C1198.078,892.901,1198.188,892.189,1197.856,891.656z"/>
			</g>
			<g>
				<path fill="#7B1721" d="M1232.187,952.773c-1.927-0.755-5.694-13.003-7.086-15.31c-3.077-5.106-6.857-9.725-11.235-13.771
					c-7.688-7.103-16.842-12.038-26.777-15.188c-17.206-5.456-32.682-6.864-49.201,0.881c-27.362,12.826-2.948,34.282,17.059,36.724
					C1154.945,946.108,1178.08,931.601,1232.187,952.773z"/>
			</g>
		</g>
		<g>
			<path fill="#87D0C7" d="M1094.333,949.549c0,0,40.231,21.633,81.597-31.12c3.033,6.072,20.87,43.266,45.159,43.266
				c2.658-5.314,9.49-11.006,9.49-11.006s-15.645-29.675-40.23-39.09c-3.417,1.52-19.749-10.469-38.343-7.053
				c-18.6,3.416-32.348,12.351-44.39,21.475C1104.581,929.056,1093.951,944.614,1094.333,949.549z"/>
		</g>
		<g>
			<path fill="#6FA8A1" d="M1110.229,926.902c3.542-3.446,7.207-6.356,10.876-8.819c-0.26-1.094,0.144-2.433,1.458-2.979
				c17.435-7.274,39.903-11.721,58.85-7.617c12.908,2.797,22.332,8.82,30.557,18.666c1.824,2.183,18.472,24.671,18.402,24.707
				c-0.623,0.315-1.169,0.236-1.883,0.064c-15.474-3.766-24.585-15.417-30.6-29.606c-1.111-2.625-32.752,5.35-35.795,6.081
				c-17.34,4.162-35.737,9.512-53.679,6.091C1104.09,932.666,1107.092,929.955,1110.229,926.902z"/>
		</g>
		<g>
			<path fill="#EECAB0" d="M1204.394,1018.242c0,0,11.003-5.312,15.559-16.319c7.591,3.417,15.183,2.279,18.598-2.656
				c3.417-4.935,10.626-19.736,10.626-19.736s4.176-16.318,1.138-21.25c-3.037-4.936-15.183-17.838-29.224,3.415
				c-4.932,0.378-28.465-1.139-45.159-43.266c-6.454,9.109-22.771,26.188-41.748,30.741c-18.979,4.555-35.294,1.897-35.294,1.897
				l-3.795,8.35c0,0-7.97-14.803-17.839-8.728c-9.868,6.071-9.868,37.193,4.176,48.199c3.417,1.896,9.109,3.034,9.109,3.034
				l3.415-4.553c0,0,6.454,15.181,23.149,20.873C1167.885,1037.069,1204.394,1018.242,1204.394,1018.242z"/>
		</g>
		<g>
			<path fill="#D2986D" d="M1245.462,970.008c-2.602,12.086-9.653,32.904-23.683,25.489c-0.686-1.184-2.014-2.047-3.474-2.313
				c-0.115-0.096-0.232-0.171-0.353-0.271c-1.688-1.398-3.938,0.075-3.982,1.688c-0.144,0.15-0.29,0.291-0.42,0.469
				c-4.816,6.636-11.132,10.929-18.238,13.657c0.497-0.425,1.005-0.822,1.48-1.309c4.123-4.187-2.317-10.632-6.439-6.439
				c-9.655,9.821-26.702-1.9-33.979-9.676c-1.809-1.938-4.58-1.542-6.438,0c-7.437,6.159-20.362,20.108-29.425,9.107
				c-3.26-3.959-8.549,0.472-7.385,4.652c-16.329-3.708-21.337-22.099-21.453-16.233c-0.026,1.443,0.067,2.819,0.262,4.132
				c-0.423,0.163-0.814,0.447-1.09,0.981c-1.525,2.981-3.28,2.008-5.456,0.104c-2.095-1.833-3.798-4.114-5.412-6.366
				c-1.695-2.363-5.645-0.095-3.931,2.298c3.588,5.009,11.923,14.875,17.384,8.301c6.781,16.039,60.339,41.536,110.112,20.588
				c1.666-0.64,3.292-1.333,4.832-2.143c6.377-3.355,8.022-10.354,12.635-16.531c5.341,2.486,10.932,2.463,16.375-2.038
				c7.471-6.178,10.526-17.923,12.466-26.938C1250.464,968.356,1246.075,967.139,1245.462,970.008z M1151.81,1018.642
				c-12.153-1.569-18.428-3.528-21.563-5.88c5.517-2.59,17.896-8.206,22.638-12.119c5.878,5.359,21.11,12.146,29.116,14.078
				C1172.59,1019.035,1160.736,1019.794,1151.81,1018.642z"/>
		</g>
		<g>
			<path fill="#A15E33" d="M1095.448,959.334c0,0-0.026-0.091-0.077-0.268c-0.061-0.199-0.15-0.485-0.273-0.82
				c-0.247-0.688-0.628-1.676-1.284-2.873c-0.662-1.186-1.549-2.622-2.981-4.011c-1.403-1.383-3.408-2.739-5.918-3.325
				c-2.495-0.591-5.323-0.362-7.918,0.501l-0.251,0.07l-0.032,0.007c0.13-0.054-0.213,0.085-0.188,0.075l-0.053,0.021l-0.105,0.046
				l-0.426,0.181c-0.29,0.128-0.542,0.209-0.959,0.472c-0.373,0.225-0.763,0.46-1.118,0.707l-0.909,0.763
				c-1.145,1.074-2.146,2.318-2.867,3.664c-1.542,2.674-2.331,5.626-2.821,8.599c-0.48,2.982-0.57,6.013-0.41,9.02
				c0.35,6.002,1.678,11.95,4.04,17.164c1.174,2.605,2.58,5.033,4.189,7.181c1.594,2.157,3.442,3.988,5.355,5.448
				c0.496,0.343,0.982,0.68,1.458,1.009l0.178,0.122l0.088,0.059l0.219,0.131l0.33,0.183c0.218,0.121,0.432,0.241,0.646,0.36
				c0.339,0.22,1.077,0.514,1.635,0.745c0.583,0.267,1.196,0.37,1.776,0.517c0.569,0.144,1.255,0.128,1.841,0.159
				c0.643-0.077,1.262-0.1,1.849-0.315c1.206-0.329,2.137-1.027,2.846-1.666c1.355-1.355,1.831-2.586,2.149-3.399
				c0.295-0.819,0.384-1.32,0.401-1.391c0.293-1.368-0.577-2.711-1.943-3.006c-1.367-0.291-2.712,0.578-3.006,1.945
				c0.015-0.073-0.035,0.13-0.23,0.555c-0.19,0.402-0.54,1.021-0.993,1.404c-0.238,0.151-0.441,0.319-0.712,0.342
				c-0.116,0.062-0.305,0.002-0.457,0.049c-0.217-0.066-0.39-0.021-0.656-0.116c-0.255-0.091-0.542-0.109-0.791-0.256
				c-0.285-0.146-0.458-0.139-0.941-0.449c-0.21-0.124-0.422-0.248-0.639-0.373l-0.325-0.192l-0.041-0.025l-0.02-0.011
				c-0.037-0.022,0.242,0.146,0.116,0.069l-0.066-0.048l-0.135-0.098c-0.359-0.263-0.727-0.528-1.103-0.802
				c-2.897-2.343-5.766-5.958-7.813-10.495c-2.053-4.514-3.519-9.791-3.955-15.156c-0.221-2.675-0.217-5.374,0.124-7.941
				c0.354-2.55,0.931-5.046,1.98-7.061c0.487-1.041,1.144-1.88,1.825-2.602l0.534-0.5c0.164-0.117,0.315-0.214,0.464-0.337
				c0.091-0.114,0.423-0.258,0.697-0.392l0.418-0.201l0.103-0.05l0.052-0.025c0.043-0.019-0.282,0.115-0.132,0.056l0.023-0.008
				l0.191-0.059c2.021-0.779,3.965-0.96,5.644-0.679c1.687,0.279,3.115,1.092,4.239,2.062c1.137,0.962,1.941,2.088,2.548,3.035
				c0.618,0.948,1.008,1.768,1.256,2.319c0.127,0.283,0.207,0.48,0.257,0.608c0.055,0.15,0.085,0.23,0.085,0.23l0.021,0.055
				c0.303,0.81,1.204,1.225,2.015,0.92C1095.261,960.949,1095.669,960.113,1095.448,959.334z"/>
		</g>
		<g>
			<path fill="#499D96" d="M1231.02,950.291c-0.287-1.29-0.624-2.457-1.016-3.647c-0.401-1.176-0.834-2.339-1.311-3.482
				c-0.952-2.287-2.023-4.529-3.272-6.672c-2.487-4.294-5.491-8.305-8.956-11.903c-0.867-0.898-1.779-1.751-2.7-2.594
				c-0.938-0.823-1.873-1.656-2.863-2.419c-0.974-0.783-1.976-1.531-3.009-2.238c-1.02-0.725-2.092-1.371-3.146-2.038
				c-1.089-0.612-2.15-1.277-3.273-1.826l-1.666-0.857l-1.702-0.778c-1.128-0.538-2.304-0.951-3.459-1.417
				c-1.164-0.446-2.354-0.816-3.529-1.223l0.41,0.172c-2.399-1.189-4.646-2.055-7.022-2.887c-2.352-0.815-4.739-1.509-7.153-2.1
				c-4.825-1.179-9.764-1.906-14.735-2.152c-4.97-0.222-9.98,0-14.896,0.867c-4.917,0.847-9.738,2.25-14.327,4.186
				c-4.592,1.93-8.949,4.387-12.98,7.268c-4.043,2.866-7.752,6.159-11.165,9.706l-2.476,2.673l-2.423,2.791
				c-1.562,1.888-3.104,3.793-4.526,5.799c-1.432,1.994-2.8,4.042-4.041,6.179c-0.613,1.073-1.215,2.155-1.763,3.276
				c-0.56,1.138-1.059,2.212-1.521,3.537l-0.011,0.031c-0.24,0.695,0.075,1.446,0.711,1.77c1.968,1.006,3.824,1.681,5.794,2.3
				c1.949,0.608,3.933,1.078,5.937,1.42c2,0.368,4.021,0.578,6.044,0.708c2.025,0.101,4.055,0.138,6.075,0.016
				c1.012-0.042,2.021-0.111,3.025-0.235c1.009-0.09,2.012-0.216,3.009-0.391c0.999-0.147,1.996-0.314,2.979-0.542
				c0.988-0.21,1.979-0.404,2.948-0.685c1.962-0.483,3.873-1.123,5.783-1.764c1.882-0.718,3.759-1.44,5.582-2.29
				c0.929-0.39,1.84-0.813,2.729-1.278c0.894-0.458,1.802-0.89,2.685-1.369c1.736-1.004,3.508-1.953,5.188-3.047
				c0.846-0.539,1.711-1.05,2.543-1.611l2.465-1.72c1.67-1.116,3.218-2.388,4.835-3.577c1.575-1.238,3.094-2.547,4.643-3.824
				c1.477-1.35,2.975-2.685,4.438-4.054l4.262-4.237l4.096-4.397l-3.949-0.762c0.468,1.465,0.964,2.736,1.491,4.061
				c0.521,1.31,1.088,2.597,1.675,3.873c1.179,2.548,2.425,5.066,3.798,7.521c2.745,4.906,5.86,9.644,9.55,13.996
				c1.831,2.188,3.85,4.236,6.005,6.158c2.166,1.912,4.531,3.639,7.087,5.097c2.571,1.423,5.335,2.607,8.262,3.226
				c2.918,0.627,5.954,0.795,8.879,0.347c0.959-0.147,1.615-1.042,1.468-2.001c-0.133-0.874-0.89-1.497-1.748-1.49l-0.03,0.002
				c-2.55,0.023-5.063-0.303-7.463-1.066c-2.392-0.777-4.689-1.868-6.838-3.253c-4.318-2.747-8.088-6.459-11.472-10.51
				c-1.699-2.025-3.283-4.165-4.795-6.361c-1.523-2.19-2.96-4.453-4.311-6.772c-1.353-2.316-2.664-4.667-3.868-7.07
				c-0.604-1.2-1.188-2.409-1.758-3.621c-0.558-1.199-1.125-2.463-1.554-3.596l-0.04-0.106c-0.449-1.186-1.773-1.783-2.96-1.333
				c-0.38,0.143-0.705,0.386-0.948,0.676l-3.741,4.484l-3.911,4.332l-4.096,4.16c-1.432,1.311-2.838,2.659-4.302,3.94l-2.231,1.877
				l-1.116,0.941l-1.167,0.871l-2.338,1.743c-0.787,0.57-1.607,1.089-2.41,1.639c-1.586,1.128-3.296,2.049-4.965,3.043
				c-0.846,0.473-1.718,0.898-2.575,1.351c-0.854,0.462-1.729,0.879-2.617,1.267c-1.753,0.833-3.573,1.493-5.383,2.175
				c-1.838,0.602-3.675,1.203-5.554,1.651c-0.93,0.264-1.879,0.44-2.824,0.634c-0.94,0.211-1.894,0.362-2.847,0.497
				c-0.952,0.16-1.907,0.273-2.868,0.351c-0.956,0.113-1.916,0.169-2.877,0.202c-1.921,0.105-3.845,0.055-5.762-0.055
				c-1.914-0.138-3.823-0.351-5.707-0.71c-1.886-0.337-3.749-0.792-5.564-1.374c-1.795-0.565-3.65-1.284-5.177-2.118l0.7,1.802
				c0.351-0.945,0.876-2.058,1.407-3.066c0.532-1.033,1.125-2.045,1.727-3.05c1.224-2.004,2.576-3.938,3.995-5.828
				c1.406-1.894,2.937-3.705,4.484-5.497l2.37-2.618l2.492-2.575c6.638-6.678,14.459-12.167,23.132-15.583
				c8.656-3.458,18.058-4.785,27.353-4.254c4.648,0.278,9.28,1.004,13.803,2.157c2.261,0.578,4.498,1.252,6.689,2.036
				c2.164,0.772,4.407,1.685,6.315,2.656c0.104,0.051,0.208,0.097,0.313,0.135l0.097,0.036c1.083,0.392,2.183,0.745,3.253,1.167
				c1.062,0.444,2.144,0.837,3.178,1.34l1.57,0.709l1.535,0.781c1.035,0.498,2.01,1.105,3.014,1.66
				c3.92,2.376,7.619,5.134,10.889,8.366c3.321,3.177,6.26,6.776,8.737,10.683c1.234,1.955,2.427,3.949,3.445,6.031
				c0.518,1.037,0.995,2.094,1.442,3.159c0.446,1.056,0.885,2.158,1.21,3.186l0.019,0.053c0.273,0.857,1.189,1.333,2.048,1.059
				C1230.729,951.94,1231.195,951.104,1231.02,950.291z"/>
		</g>
		<g>
			<path fill="#231F20" d="M1203.82,967.768c0,4.402-3.949,7.969-8.823,7.969c-4.87,0-8.825-3.567-8.825-7.969
				s3.955-7.97,8.825-7.97C1199.871,959.798,1203.82,963.366,1203.82,967.768z"/>
		</g>
		<g>
			<path fill="#231F20" d="M1123.554,967.768c0,4.402-3.949,7.969-8.825,7.969c-4.87,0-8.823-3.567-8.823-7.969
				s3.953-7.97,8.823-7.97C1119.604,959.798,1123.554,963.366,1123.554,967.768z"/>
		</g>
		<g>
			<ellipse fill="#FFFFFF" cx="1112.365" cy="967.055" rx="2.649" ry="2.892"/>
		</g>
		<g>
			<ellipse fill="#FFFFFF" cx="1192.633" cy="967.055" rx="2.648" ry="2.892"/>
		</g>
		<g>
			<path fill="#A15E33" d="M1222.315,962.289c0.015-0.022,0.192-0.327,0.618-0.927c0.419-0.606,1.084-1.486,2-2.524
				c0.907-1.047,2.096-2.234,3.569-3.384c1.469-1.149,3.282-2.215,5.344-2.72c2.057-0.523,4.321-0.429,6.6,0.414l0.86,0.317
				l0.216,0.077c0.17,0.08-0.2-0.098-0.149-0.074l0.03,0.018l0.06,0.034l0.121,0.067l0.483,0.272l0.978,0.548l0.492,0.275
				c0.146,0.095,0.221,0.191,0.336,0.283l0.644,0.545c0.216,0.181,0.448,0.324,0.646,0.591l0.623,0.713
				c0.215,0.232,0.434,0.459,0.586,0.75c1.478,2.086,2.278,4.81,2.482,7.742c0.201,2.936-0.121,6.055-0.787,9.117
				c-0.673,3.088-1.684,6.037-3.02,8.89c-1.326,2.857-2.791,5.65-4.413,8.119c-1.615,2.48-3.388,4.686-5.264,6.356
				c-1.872,1.668-3.793,2.822-5.593,3.234c-0.447,0.152-0.895,0.167-1.331,0.253c-0.44-0.014-0.874,0.068-1.3-0.005
				c-0.217-0.011-0.431-0.023-0.641-0.033c-0.213-0.039-0.422-0.077-0.631-0.114c-0.418-0.048-0.821-0.191-1.218-0.309
				c-1.596-0.499-2.998-1.272-4.144-1.977c-1.127-0.738-2.036-1.362-2.625-1.836c-0.614-0.452-0.941-0.693-0.941-0.693l-0.102-0.073
				c-0.708-0.522-1.702-0.371-2.223,0.337c-0.416,0.565-0.401,1.315-0.02,1.858c0,0,0.258,0.365,0.738,1.049
				c0.481,0.684,1.257,1.655,2.396,2.797c0.587,0.558,1.228,1.195,2.06,1.774c0.396,0.31,0.821,0.619,1.31,0.899
				c0.479,0.288,0.957,0.609,1.533,0.84c0.559,0.252,1.133,0.526,1.783,0.707c0.319,0.098,0.646,0.2,0.977,0.3
				c0.343,0.069,0.691,0.137,1.046,0.208c0.706,0.154,1.465,0.131,2.229,0.176c0.761-0.051,1.56-0.062,2.338-0.234
				c1.584-0.249,3.129-0.867,4.555-1.65c1.432-0.782,2.79-1.736,3.984-2.852c2.433-2.202,4.474-4.827,6.288-7.642
				c1.818-2.824,3.391-5.825,4.803-9.002c1.414-3.178,2.537-6.657,3.223-10.165c0.698-3.522,1.024-7.178,0.632-10.848
				c-0.377-3.644-1.539-7.386-3.827-10.396c-0.247-0.399-0.579-0.734-0.903-1.068l-0.971-0.996
				c-0.297-0.341-0.713-0.624-1.101-0.915c-0.396-0.284-0.788-0.566-1.179-0.846c-0.191-0.13-0.4-0.291-0.579-0.389l-0.505-0.254
				c-0.335-0.169-0.669-0.335-1.001-0.501l-0.496-0.249l-0.431-0.21l-0.303-0.101c-0.405-0.131-0.808-0.261-1.207-0.393
				c-3.191-1.047-6.637-0.946-9.412-0.01c-2.805,0.905-4.968,2.427-6.629,3.9c-1.664,1.492-2.94,2.923-3.855,4.189
				c-0.927,1.259-1.574,2.292-1.99,3.022c-0.428,0.73-0.639,1.173-0.628,1.149c-0.432,0.781-0.147,1.767,0.636,2.199
				C1220.897,963.355,1221.883,963.07,1222.315,962.289z"/>
		</g>
		<g>
			<path fill="#231F20" d="M1176.962,940.817c0,0,0.521,0.152,1.425,0.333c0.906,0.186,2.201,0.401,3.752,0.578
				c3.103,0.354,7.232,0.455,11.356,0.202c4.123-0.24,8.243-0.829,11.327-1.525c1.542-0.349,2.826-0.701,3.725-0.983
				c0.897-0.277,1.41-0.482,1.41-0.482c1.986-0.793,2.954-3.046,2.162-5.033c-0.427-1.067-1.287-1.845-2.287-2.209
				c0,0-0.519-0.187-1.426-0.434c-0.908-0.251-2.203-0.557-3.756-0.854c-3.107-0.588-7.242-1.034-11.373-1.133
				c-4.131-0.112-8.254,0.133-11.344,0.594c-1.544,0.231-2.829,0.489-3.729,0.707c-0.899,0.212-1.412,0.381-1.412,0.381
				c-2.708,0.903-4.171,3.83-3.27,6.537C1174.074,939.148,1175.412,940.347,1176.962,940.817z"/>
		</g>
		<g>
			<path fill="#231F20" d="M1086.525,941.134c0,0,0.543,0.171,1.5,0.395c0.958,0.228,2.325,0.527,3.971,0.782
				c3.288,0.572,7.69,0.983,12.107,1.119c4.415,0.137,8.843,0.002,12.176-0.334c1.666-0.147,3.057-0.343,4.032-0.499
				c0.976-0.157,1.534-0.285,1.534-0.285c2.215-0.505,3.602-2.709,3.097-4.924c-0.331-1.451-1.398-2.548-2.714-2.99
				c0,0-0.544-0.181-1.499-0.429c-0.956-0.251-2.321-0.582-3.965-0.886c-3.286-0.658-7.68-1.221-12.089-1.509
				c-4.407-0.292-8.829-0.307-12.158-0.056c-1.662,0.096-3.053,0.262-4.026,0.395c-0.975,0.131-1.534,0.249-1.534,0.249
				c-2.508,0.524-4.118,2.985-3.593,5.496C1083.721,939.357,1084.975,940.648,1086.525,941.134z"/>
		</g>
		<g>
			<g>
				<path fill="#211D1E" d="M1156.57,968.109c0,0,7.32-4.7,15.37-1.48c11.387,4.554,11.387,11.386,10.248,21.064
					c-1.197,10.191,15.939,12.522,23.34-0.57c2.276,7.97-6.183,21.285-17.079,22.771c-12.522,1.707-27.326-4.554-33.586-23.911
					c0,0-12.523,25.049-31.31,20.495c-18.787-4.554-16.736-21.062-16.736-21.062s4.558,12.286,13.319,6.26
					c9.109-6.26,0-11.597,8.73-20.873c6.07-6.452,13.094-5.502,13.094-5.502"/>
			</g>
			<g>
				<path fill="#231F20" d="M1157.18,969.072c0.24-0.116,0.54-0.245,0.822-0.356c0.289-0.113,0.582-0.221,0.878-0.318
					c0.589-0.2,1.191-0.369,1.795-0.506c1.208-0.272,2.43-0.423,3.629-0.44c2.405-0.041,4.7,0.512,6.684,1.557l0.106-0.265
					c1.059,0.565,1.949,1.069,2.876,1.656c0.909,0.578,1.714,1.241,2.438,1.904c1.469,1.327,2.396,2.858,2.836,4.69
					c0.24,0.908,0.399,1.895,0.453,2.944c0.056,1.048,0.044,2.146,0.008,3.276c-0.047,1.13-0.135,2.291-0.242,3.466l-0.041,0.441
					l-0.021,0.221l-0.016,0.18v0.028v0.057l-0.002,0.114v0.452c-0.002,0.149-0.006,0.283,0.013,0.544
					c0.028,0.959,0.227,1.759,0.51,2.539c0.597,1.571,1.712,2.899,2.959,3.798c1.258,0.919,2.662,1.373,3.983,1.702
					c1.334,0.318,2.652,0.459,3.961,0.457c1.306-0.01,2.592-0.211,3.83-0.53c1.243-0.315,2.434-0.791,3.57-1.354
					c1.151-0.543,2.221-1.243,3.218-2.021c1.007-0.775,1.896-1.682,2.766-2.604c0.876-0.924,1.578-1.981,2.325-3.019l0.001-0.001
					l-2.085-0.248c0.258,1.369,0.172,2.81-0.146,4.214c-0.31,1.405-0.869,2.768-1.506,4.08c-1.32,2.613-3.191,4.958-5.347,6.857
					c-2.151,1.896-4.641,3.361-7.21,3.993c-0.639,0.169-1.282,0.276-1.922,0.336l-0.238,0.029c0.029-0.005-0.161,0.027-0.227,0.073
					c-0.188,0.118-0.367,0.291-0.557,0.381c-0.413,0.118-0.711,0.091-1.069,0.145c-1.418,0.126-2.898,0.14-4.346,0.033
					c-2.907-0.213-5.784-0.915-8.477-2.078c-2.698-1.152-5.193-2.792-7.4-4.785c-2.206-1.993-4.134-4.343-5.694-6.94
					c-0.787-1.296-1.493-2.646-2.117-4.042c-0.648-1.383-1.176-2.826-1.689-4.274l-0.021-0.054
					c-0.314-0.888-1.288-1.351-2.173-1.038c-0.436,0.156-0.771,0.471-0.961,0.854l0,0c-0.7,1.131-1.535,2.319-2.336,3.457
					c-0.818,1.142-1.68,2.25-2.58,3.321c-1.802,2.135-3.663,4.197-5.737,5.971c-1.036,0.881-2.097,1.725-3.215,2.451
					c-0.548,0.384-1.125,0.701-1.675,1.07c-0.576,0.308-1.134,0.667-1.725,0.927c-2.328,1.164-4.806,1.825-7.298,1.93
					c-1.245,0.021-2.496-0.04-3.728-0.307l-0.863-0.17l-1.056-0.269c-0.757-0.171-1.254-0.376-1.886-0.557
					c-2.47-0.874-4.802-2.045-6.747-3.682c-0.975-0.81-1.888-1.705-2.665-2.726c-0.786-1.012-1.446-2.135-1.982-3.333
					c-0.509-1.205-1.015-2.449-1.315-3.768c-0.313-1.292-0.512-2.713-0.579-3.979l-2.198,0.254l0.001,0.001
					c0.496,1.202,1.069,2.238,1.747,3.282c0.692,1.02,1.438,2.025,2.369,2.905c0.932,0.871,2.038,1.644,3.338,2.071
					c1.291,0.454,2.738,0.467,4.043,0.167c1.312-0.306,2.479-0.915,3.524-1.615c0.984-0.638,2.062-1.462,2.924-2.425
					c0.876-0.977,1.602-2.212,1.963-3.531c0.375-1.319,0.428-2.626,0.457-3.812c0.021-1.191,0.028-2.297,0.161-3.333
					c0.119-1.041,0.38-2.008,0.768-2.931c0.387-0.922,0.917-1.794,1.545-2.619c0.621-0.819,1.368-1.619,2.122-2.326l0.628-0.605
					l0.575-0.464c0.36-0.319,0.804-0.607,1.228-0.902c0.866-0.565,1.776-1.062,2.733-1.427c0.951-0.384,1.943-0.662,2.947-0.834
					c0.499-0.095,1.004-0.165,1.504-0.205c0.472-0.037,1.057-0.039,1.378-0.015l0.097,0.007c1.05,0.072,1.96-0.719,2.033-1.769
					c0.069-0.997-0.648-1.87-1.62-2.018c-0.833-0.124-1.417-0.144-2.109-0.15c-0.665,0.003-1.325,0.043-1.981,0.117
					c-1.312,0.159-2.6,0.487-3.844,0.935c-1.252,0.435-2.447,1.031-3.58,1.719c-0.558,0.358-1.114,0.697-1.672,1.15l-0.831,0.65
					l-0.652,0.58c-1.008,0.886-1.874,1.821-2.721,2.902c-0.832,1.072-1.583,2.281-2.153,3.619c-0.577,1.326-0.971,2.78-1.148,4.168
					c-0.194,1.392-0.223,2.701-0.241,3.795c-0.026,1.099-0.111,1.962-0.315,2.571c-0.2,0.61-0.429,1.099-0.901,1.664
					c-0.231,0.274-0.514,0.59-0.805,0.857c-0.159,0.134-0.237,0.231-0.458,0.406l-0.608,0.473c-0.679,0.533-1.356,0.938-1.964,1.142
					c-0.604,0.192-1.138,0.339-1.769,0.225c-0.625-0.082-1.386-0.359-2.135-0.867c-0.782-0.474-1.525-1.158-2.287-1.898
					c-0.725-0.75-1.486-1.616-2.156-2.45l0,0c-0.185-0.593-0.815-0.924-1.409-0.739c-0.435,0.136-0.727,0.509-0.782,0.93
					l-0.008,0.066c-0.209,1.637-0.18,3.121-0.02,4.675c0.162,1.534,0.475,3.066,0.993,4.543c1.013,2.955,2.75,5.728,5.067,7.896
					c1.16,1.081,2.44,2.018,3.784,2.827c1.346,0.815,2.771,1.445,4.215,2.017c0.734,0.247,1.538,0.556,2.21,0.728l1.048,0.302
					c0.472,0.112,0.802,0.164,1.209,0.248c1.557,0.324,3.166,0.409,4.76,0.368c3.196-0.143,6.326-1.017,9.114-2.425
					c2.812-1.374,5.296-3.24,7.546-5.282c1.131-1.021,2.176-2.116,3.19-3.235c1.008-1.123,1.961-2.29,2.842-3.505
					c0.887-1.211,1.725-2.453,2.514-3.726c0.793-1.286,1.525-2.544,2.231-3.958h0.001l-3.152-0.239
					c0.528,1.558,1.077,3.113,1.759,4.621c0.658,1.516,1.409,2.998,2.253,4.429c1.681,2.865,3.694,5.578,6.131,7.904
					c2.422,2.333,5.226,4.312,8.299,5.744c3.068,1.443,6.382,2.366,9.756,2.725c1.691,0.179,3.379,0.221,5.095,0.124
					c0.426-0.025,0.9-0.073,1.28-0.081c0.203,0.026,0.413,0.115,0.619,0.165c0.125,0.013,0.154,0.022,0.35-0.006l0.336-0.064
					c0.899-0.167,1.78-0.4,2.629-0.703c3.415-1.187,6.305-3.301,8.672-5.767c2.36-2.487,4.22-5.387,5.468-8.559
					c0.614-1.592,1.046-3.266,1.218-4.995c0.174-1.723,0.073-3.518-0.479-5.237l-0.016-0.051c-0.19-0.594-0.828-0.922-1.425-0.729
					c-0.286,0.09-0.511,0.288-0.645,0.532l-0.002,0.003c-0.822,0.839-1.565,1.687-2.442,2.379c-0.868,0.693-1.729,1.345-2.656,1.858
					c-0.921,0.519-1.841,0.992-2.812,1.296c-0.955,0.328-1.92,0.572-2.883,0.686c-0.96,0.12-1.91,0.151-2.811,0.042
					c-0.899-0.112-1.74-0.322-2.488-0.588c-0.737-0.274-1.436-0.537-1.953-0.949c-0.521-0.396-0.971-0.848-1.229-1.481
					c-0.133-0.32-0.196-0.694-0.25-0.926c-0.027-0.035-0.023-0.205-0.021-0.359l0.002-0.453l0.001-0.114v-0.056v-0.03
					c0.004-0.036-0.025,0.281-0.012,0.14v-0.015l0.021-0.229l0.042-0.46c0.108-1.229,0.206-2.477,0.257-3.754
					c0.081-2.545,0.041-5.267-0.792-8.037c-0.405-1.377-1.038-2.73-1.863-3.944c-0.814-1.223-1.836-2.268-2.914-3.156
					c-1.082-0.888-2.223-1.636-3.392-2.267c-1.146-0.625-2.416-1.188-3.557-1.634l0.107-0.265c-2.967-0.931-6.113-1.054-9-0.478
					c-1.445,0.284-2.836,0.722-4.155,1.282c-0.66,0.28-1.303,0.592-1.927,0.937c-0.314,0.17-0.621,0.351-0.926,0.54
					c-0.31,0.193-0.595,0.379-0.921,0.615c-0.509,0.372-0.622,1.084-0.252,1.594c0.328,0.451,0.925,0.592,1.411,0.36
					L1157.18,969.072z"/>
			</g>
		</g>
		<g>
			<path fill="#231F20" d="M1145.157,1003.795c0,0,0.11,0.252,0.406,0.717c0.287,0.443,0.712,1.043,1.317,1.702
				c0.295,0.333,0.656,0.667,1.035,1.019c0.38,0.352,0.851,0.668,1.319,1.007c0.478,0.335,1.058,0.599,1.614,0.897
				c0.285,0.138,0.626,0.228,0.941,0.339l0.488,0.15l0.244,0.07l0.124,0.037l0.06,0.019l0.018,0.005l0.154,0.025l0.026,0.003
				l0.403,0.056c0.146,0.015,0.229,0.038,0.475,0.042c0.402,0.009,0.89,0.027,1.203-0.034c0.7-0.074,1.354-0.234,1.936-0.445
				c1.173-0.417,2.114-0.992,2.836-1.562c0.733-0.551,1.252-1.104,1.597-1.507c0.345-0.405,0.512-0.676,0.53-0.686
				c0.485-0.418,0.539-1.155,0.119-1.64s-1.154-0.538-1.641-0.12c0.02-0.008-0.225,0.074-0.646,0.234
				c-0.417,0.159-1.018,0.381-1.701,0.627c-0.348,0.118-0.717,0.238-1.098,0.345c-0.378,0.113-0.773,0.219-1.164,0.287
				c-0.39,0.087-0.774,0.124-1.138,0.145c-0.216,0.025-0.27-0.015-0.406,0.01c-0.025,0.019-0.213-0.018-0.334-0.032l-0.402-0.048
				l-0.026-0.003l-0.007-0.001c-0.13-0.021,0.172,0.029,0.138,0.023l-0.009-0.001l-0.035-0.012l-0.072-0.021l-0.145-0.045
				l-0.292-0.08c-0.195-0.056-0.392-0.071-0.591-0.151c-0.402-0.176-0.809-0.29-1.206-0.474c-0.391-0.204-0.794-0.346-1.163-0.55
				c-0.364-0.211-0.744-0.361-1.068-0.557c-0.674-0.374-1.233-0.686-1.628-0.904c-0.379-0.203-0.636-0.35-0.636-0.35
				c-0.539-0.312-1.229-0.125-1.539,0.416c-0.185,0.32-0.191,0.698-0.055,1.013L1145.157,1003.795z"/>
		</g>
		<g>
			<path fill="#A15E33" d="M1219.115,1001.483c0,0-0.429,0.608-1.228,1.75c-0.402,0.614-0.897,1.16-1.474,1.887
				c-0.539,0.723-1.338,1.509-2.153,2.412c-1.728,1.736-3.962,3.729-6.816,5.663c-2.847,1.936-6.301,3.809-10.282,5.42
				c-7.948,3.257-18.013,5.365-28.924,5.861c-5.452,0.264-11.123,0.154-16.846-0.367c-5.72-0.497-11.504-1.436-17.136-2.8
				c-5.611-1.394-11.132-3.33-16.299-5.724c-5.156-2.412-9.992-5.298-14.062-8.743c-4.071-3.424-7.352-7.456-9.193-11.801
				l-0.335-0.814l-0.042-0.101l-0.021-0.051c-0.03-0.083,0.017,0.054,0.004,0.019l-0.074-0.226l-0.152-0.447
				c-0.179-0.584-0.442-1.225-0.554-1.748c-0.136-0.542-0.271-1.081-0.405-1.616c-0.105-0.563-0.208-1.121-0.312-1.675
				c-0.343-2.235-0.444-4.44-0.395-6.565c0.144-4.257,0.899-8.165,1.818-11.563c0.913-3.403,1.974-6.315,2.931-8.678
				c0.836-2.451,1.58-4.242,2.126-5.517c0.569-1.243,0.873-1.907,0.873-1.907l0.021-0.044c0.288-0.629,0.012-1.373-0.617-1.66
				c-0.576-0.264-1.25-0.054-1.58,0.468c0,0-0.407,0.644-1.169,1.849c-0.723,1.209-1.823,3.076-2.977,5.436
				c-1.032,2.445-2.191,5.468-3.212,9.054c-1.027,3.579-1.909,7.742-2.14,12.413c-0.091,2.333-0.019,4.788,0.329,7.315
				c0.107,0.629,0.214,1.265,0.323,1.904c0.139,0.65,0.31,1.313,0.469,1.976c0.155,0.693,0.369,1.215,0.552,1.84l0.145,0.45
				l0.072,0.227l0.117,0.308l0.38,0.958c2.102,5.12,5.795,9.702,10.195,13.493c4.41,3.82,9.529,6.943,14.942,9.558
				c5.431,2.593,11.163,4.684,17.082,6.229c5.914,1.502,11.915,2.461,17.856,3.01c5.94,0.561,11.825,0.698,17.513,0.443
				c11.371-0.479,21.986-2.634,30.576-6.112c4.297-1.722,8.082-3.75,11.236-5.88c3.162-2.123,5.677-4.344,7.623-6.289
				c0.936-1.022,1.798-1.872,2.481-2.762c0.686-0.854,1.325-1.602,1.688-2.158c0.803-1.138,1.233-1.745,1.233-1.745
				c0.815-1.157,0.543-2.754-0.613-3.571c-1.154-0.817-2.753-0.542-3.571,0.613L1219.115,1001.483z"/>
		</g>
		<g>
			<path fill="#A15E33" d="M1155.574,938.098l-1.564,16.478l1.996-1.206l-0.004,0c-0.817-0.483-1.572-0.849-2.404-1.182
				c-0.821-0.322-1.672-0.609-2.557-0.814c-0.887-0.201-1.808-0.36-2.768-0.397c-0.963-0.033-1.967,0.021-2.996,0.245
				c-0.509,0.1-1.027,0.324-1.538,0.497c-0.51,0.192-0.993,0.524-1.482,0.799c-0.939,0.646-1.754,1.496-2.343,2.438
				c-0.355,0.456-0.537,0.945-0.758,1.431l-0.316,0.736l-0.077,0.184l-0.074,0.259l-0.08,0.294l-0.161,0.589
				c-0.055,0.194-0.105,0.522-0.154,0.777c-0.113,0.549-0.16,1.084-0.18,1.618c-0.033,1.073,0.072,2.257,0.542,3.406
				c0.448,1.14,1.211,2.18,2.101,2.948c1.805,1.514,3.805,2.081,5.628,2.396c0.923,0.17,1.828,0.22,2.72,0.252
				c0.895,0.03,1.771,0.006,2.64-0.061c0.869-0.065,1.726-0.156,2.575-0.299c0.86-0.133,1.668-0.306,2.561-0.534
				c0.957-0.243,1.533-1.214,1.29-2.169c-0.214-0.837-0.985-1.383-1.817-1.34l-0.089,0.005c-0.714,0.035-1.525,0.05-2.286,0.056
				c-0.771-0.003-1.541-0.006-2.302-0.05c-1.517-0.077-3.009-0.241-4.358-0.568c-1.354-0.309-2.53-0.859-3.22-1.474
				c-0.327-0.317-0.526-0.641-0.661-1.017c-0.157-0.362-0.213-0.838-0.196-1.383c0.009-0.281,0.031-0.556,0.085-0.805
				c0.03-0.144,0.018-0.224,0.071-0.424l0.159-0.588l0.08-0.295l0.021-0.074l0.011-0.037l0.005-0.019l0.001-0.009
				c0.008-0.028-0.059,0.203-0.03,0.101l0.043-0.096l0.157-0.389c0.104-0.258,0.176-0.555,0.341-0.735
				c0.243-0.466,0.585-0.792,0.938-1.126c0.215-0.125,0.381-0.312,0.625-0.423c0.254-0.093,0.473-0.248,0.757-0.325
				c0.293-0.06,0.555-0.192,0.87-0.242c0.32-0.04,0.625-0.124,0.964-0.144c0.668-0.046,1.372-0.08,2.095-0.037
				c0.722,0.056,1.469,0.103,2.211,0.233c0.737,0.097,1.528,0.256,2.214,0.4h0.001l0.105,0.041c0.723,0.271,1.527-0.092,1.801-0.813
				c0.053-0.141,0.082-0.292,0.089-0.433l0.716-16.537c0.025-0.554-0.404-1.021-0.957-1.044
				C1156.078,937.167,1155.623,937.571,1155.574,938.098z"/>
		</g>
		<g>
			<g>
				<path fill="#EECAB0" d="M1231.982,1098.45l2.53,12.66l1.368-1.002l2.236-4.997c0,0,4.253,4.67,4.143,10.847
					c2.683-0.07,5.048-2.007,5.048-2.007s0.054-4.246-0.77-9.109c-0.823-4.867-5.64-10.593-5.64-10.593L1231.982,1098.45z"/>
			</g>
			<g>
				<path fill="#FFFFFF" d="M1249.068,1087.959c0,0-18.321,9.449-23.731,16.717c-2.543-6.499-5.288-19.315-5.288-19.315
					s-18.393-1.219-22.514-22.17c-4.121-20.952,3.24-33.748,3.24-33.748s31.259,0.486,35.35,46.848
					C1240.391,1079.324,1249.068,1087.959,1249.068,1087.959z"/>
			</g>
			<g>
				<path fill="#D1C1B4" d="M1233.33,1095.984c-1.011-2.479-3.901-11.743-5.392-12.494c-18.474-9.368-24.204-21.868-29.155-41.008
					c-0.77-2.966-5.209-2.309-4.742,0.801c2.957,19.797,11.155,35.467,28.221,45.289c0.513,3.433,1.099,6.853,1.667,10.279
					c0.436,2.606,4.288,3.059,5.182,0.503c0.048-0.14,0.073-0.28,0.116-0.417C1231.195,1100.83,1234.384,1098.562,1233.33,1095.984z
					"/>
			</g>
			<g>
				<path fill="#A15E33" d="M1240.429,1093.909c0.596,1.3,1.158,2.657,1.675,4.004c0.535,1.345,1.033,2.703,1.473,4.067
					c0.438,1.365,0.818,2.739,1.088,4.104c0.264,1.354,0.432,2.731,0.32,3.916c-0.004,0.041-0.004,0.082-0.004,0.122l0.004,0.094
					c0.021,0.546,0.014,1.082-0.046,1.56c-0.052,0.476-0.184,0.896-0.3,1.107c-0.143,0.215-0.106,0.164-0.206,0.206
					c-0.06,0.015-0.169,0.033-0.318,0.011c-0.071-0.007-0.152-0.022-0.232-0.042c-0.061-0.013-0.2-0.067-0.172-0.047h0.001
					l0.918,1.214c-0.133-0.558-0.271-1.032-0.425-1.539c-0.149-0.498-0.313-0.992-0.486-1.48c-0.349-0.98-0.735-1.947-1.19-2.895
					c-0.453-0.95-0.967-1.881-1.591-2.773c-0.618-0.888-1.36-1.741-2.302-2.443l0,0c-0.422-0.355-1.033-0.338-1.437,0.014
					l-0.011,0.012c-0.484,0.425-0.794,0.932-1.013,1.422c-0.22,0.493-0.334,0.976-0.422,1.45c-0.087,0.475-0.126,0.938-0.142,1.398
					c-0.009,0.231-0.009,0.459-0.005,0.689c0.007,0.236,0.016,0.443,0.042,0.714l0,0l0.082-0.564
					c-0.167,0.387-0.469,0.882-0.661,1.058c-0.044,0.047-0.075,0.056-0.035,0.035c0.03-0.019,0.189-0.059,0.336-0.017
					c0.29,0.119,0.158,0.118,0.096-0.039c-0.08-0.138-0.167-0.354-0.238-0.583c-0.078-0.23-0.133-0.464-0.206-0.754l-0.416-1.672
					l-1.666-6.69c-0.15-0.609-0.77-0.982-1.379-0.83c-0.609,0.151-0.982,0.77-0.828,1.38l1.663,6.69l0.415,1.672
					c0.068,0.267,0.146,0.593,0.251,0.909c0.101,0.317,0.222,0.642,0.423,1.003c0.22,0.329,0.453,0.84,1.312,1.121
					c0.425,0.115,0.882,0.027,1.173-0.112c0.302-0.138,0.504-0.307,0.665-0.458c0.324-0.312,0.527-0.61,0.713-0.907
					c0.188-0.304,0.326-0.572,0.481-0.918c0.072-0.168,0.103-0.346,0.087-0.519l-0.005-0.045c-0.014-0.141-0.022-0.349-0.028-0.528
					c-0.004-0.186-0.001-0.372,0.004-0.558c0.013-0.369,0.046-0.735,0.109-1.076c0.062-0.34,0.143-0.674,0.267-0.937
					c0.118-0.268,0.261-0.474,0.403-0.603l-1.445,0.026v0.001c1.207,1.104,2.048,2.806,2.684,4.538
					c0.32,0.876,0.589,1.781,0.816,2.696c0.115,0.458,0.218,0.918,0.312,1.381c0.092,0.452,0.182,0.941,0.237,1.355
					c0.07,0.519,0.393,0.945,0.825,1.17l0.095,0.047l0,0c0.308,0.149,0.461,0.199,0.692,0.28c0.216,0.067,0.437,0.125,0.669,0.166
					c0.459,0.085,0.975,0.109,1.525,0.018c0.546-0.093,1.123-0.344,1.589-0.708c0.469-0.362,0.812-0.811,1.05-1.246
					c0.479-0.877,0.599-1.69,0.677-2.439c0.066-0.75,0.047-1.454,0-2.136v0.214c0.051-1.765-0.271-3.325-0.646-4.84
					c-0.393-1.507-0.888-2.952-1.431-4.367c-1.089-2.829-2.381-5.514-3.862-8.148c-0.311-0.548-1.004-0.742-1.553-0.433
					c-0.519,0.292-0.722,0.93-0.479,1.462L1240.429,1093.909z"/>
			</g>
			<g>
				<path fill="#A15E33" d="M1244.721,1114.576c0.257-0.044,0.459-0.262,0.473-0.533c0.361-7.108-3.587-12.601-3.756-12.832
					c-0.184-0.254-0.543-0.31-0.794-0.123c-0.253,0.184-0.31,0.539-0.125,0.793c0.039,0.055,3.88,5.409,3.538,12.105
					c-0.016,0.312,0.225,0.581,0.54,0.597C1244.64,1114.584,1244.68,1114.583,1244.721,1114.576z"/>
			</g>
			<g>
				<path fill="#818C8B" d="M1192.757,1038.832c0.55-3.703,1.684-10.72,5.554-12.126c7.164,0.056,14.387,3.016,20.027,7.315
					c9.21,7.042,13.688,17.549,16.412,28.477c0.726,3.345,1.178,6.752,1.491,10.157c0.469,5.107-2.05,2.509-2.509-1.107
					c-2.332-18.289-13.225-39.569-34.031-40.261c-6.887,12.837-2.095,28.54,4.517,40.315c5.41,7.672,12.046,11.118,21.112,13.28
					c3.266,2.685-0.439,3.392-2.963,2.876c-3.287-0.671-6.674-1.69-9.623-3.317c-3.422-1.887-6.387-4.219-8.951-7.147
					c-4.158-4.37-6.86-10.521-8.887-16.018C1192.254,1054.081,1191.631,1046.378,1192.757,1038.832z"/>
			</g>
			<g>
				<path fill="#818C8B" d="M1220.434,1087.101c1.479-0.434,2.037,0.875,2.365,1.989c0.412,1.402,0.822,2.805,1.234,4.207
					c0.715,2.427,1.426,4.854,2.139,7.284c3.112-2.243,5.998-4.672,8.982-7.066c3.45-2.767,7.325-4.871,11.374-6.647
					c-2.155-2.105-4.388-4.023-6.892-5.706c-1.129-0.757-2.557-1.436-3.521-2.403c-0.957-0.958-0.418-2.649,0.911-2.887
					c0.79-0.143,1.459,0.377,2.103,0.75c2.826,1.63,5.674,3.225,8.199,5.304c1.031,0.849,2.057,1.706,3.072,2.571
					c1.311,1.115,3.557,2.678,1.91,4.589c-0.827,0.961-2.561,1.331-3.695,1.839c-2.463,1.097-4.983,2.257-7.256,3.718
					c-2.524,1.627-4.652,3.639-6.991,5.512c-1.854,1.481-3.788,2.875-5.716,4.253c-0.974,0.697-2.115,1.855-3.33,2.121
					c-1.186,0.257-2.387-0.517-2.645-1.7c-0.562-2.582-1.128-5.165-1.691-7.747c-0.445-2.042-0.894-4.087-1.338-6.132
					C1219.367,1089.668,1218.61,1087.637,1220.434,1087.101C1221.338,1086.834,1219.568,1087.356,1220.434,1087.101z"/>
			</g>
		</g>
		<g>
			<g>
				<path fill="#E2253D" d="M1193.937,1021.197c0,0-1.423-1.236-28.37,3.702c-2.655-2.662-7.681-3.322-11.478-2.186
					c-3.794,1.141-7.21,3.417-7.21,3.417s-13.285-4.17-25.048-4.552c1.138,4.935,2.276,9.486,2.276,9.486s-6.074,9.112-0.382,13.665
					c7.592-3.417,13.663-6.83,22.774-9.872c4.173,3.042,8.348,6.835,14.041,3.042c5.692-3.799,5.692-3.799,5.692-3.799
					s-3.794-1.136,26.565,8.354c1.521-3.041-0.756-10.626-0.756-10.626L1193.937,1021.197z"/>
			</g>
			<g>
				<path fill="#F27E6A" d="M1193.104,1021.368c-8.721-1.175-19.964-0.784-27.315,4.601c-2.468,1.813-0.4,5.454,2.405,4.12
					c8.184-3.896,15.634-2.576,24.226-3.655C1195.013,1026.104,1196.246,1021.794,1193.104,1021.368z"/>
			</g>
			<g>
				<path fill="#F27E6A" d="M1162.084,1024.139c-3.975-2.804-10.627-2.065-14.157,1.476c-6.549-2.247-14.11-1.382-20.87-2.678
					c-3.172-0.604-4.541,4.19-1.343,4.866c6.387,1.36,13.354,2.175,19.973,2.409c0.054,1.966,2.442,3.524,4.026,1.788
					c1.449-1.589,2.312-3.317,4.45-4.115c2.085-0.777,4.118-0.158,6.143,0.475
					C1162.947,1029.186,1164.121,1025.569,1162.084,1024.139z"/>
			</g>
			<g>
				<path fill="#BD253D" d="M1191.449,1037.725c-5.605-5.142-15.569-5.783-22.716-7.327c-2.931-0.631-3.833,3.259-1.204,4.366
					c3.298,1.387,6.809,2.095,10.273,2.937c3.975,0.967,7.492,2.709,11.322,4.015
					C1191.394,1042.493,1193.186,1039.312,1191.449,1037.725z"/>
			</g>
			<g>
				<path fill="#BD253D" d="M1141.941,1031.804c-6.307,0.08-12.6,2.371-18.145,5.213c-2.126,1.086-0.636,4.67,1.631,3.87
					c5.627-1.993,11.377-2.958,17.175-4.204C1145.379,1036.093,1144.713,1031.77,1141.941,1031.804z"/>
			</g>
			<g>
				<path fill="#981B28" d="M1120.637,1036.251c-0.46,1.393-0.665,2.877-0.563,4.342c0.157,2.312,1.228,5.625,4.262,4.552
					c1.678-0.591,3.347-1.186,5.001-1.844c3.076-1.223,6.077-2.633,9.132-3.904c2.685-1.118,5.412-2.114,8.173-3.026
					c0.47-0.154,0.662-0.378,0.997,0c0.451,0.51,0.952,0.974,1.492,1.39c1.118,0.859,2.403,1.497,3.759,1.889
					c2.975,0.857,6.278,0.521,8.996-0.975c0.716-0.393,1.388-0.864,1.999-1.406c0.122-0.11,0.645-0.747,0.783-0.71
					c0.338,0.095,0.676,0.187,1.015,0.281c5.075,1.398,10.156,2.779,15.217,4.237c3.132,0.9,6.263,1.8,9.395,2.701
					c2.205,0.634,3.189-0.989,3.742-2.936c0.963-3.392,0.041-6.996-1.732-9.953c1.021-2.226,1.839-4.639,1.977-7.1
					c0.067-1.198,0.058-3.181-0.975-4.059c-0.918-0.779-2.394-0.466-3.498-0.423c-0.718,0.03-1.434,0.054-2.15,0.108
					c-2.739,0.208-5.458,0.476-8.177,0.876c-2.193,0.321-4.379,0.77-6.524,1.334c-1.244,0.329-2.512,0.638-3.676,1.202
					c-0.75,0.362-1.545,0.824-2.403,0.824l-1.028,1.84c-2.336-3.88-7.095-5.726-11.487-5.053c-2.172,0.333-4.251,1.275-5.887,2.748
					c-0.41,0.367-0.793,0.77-1.139,1.2c-0.346,0.427-0.913,0.048-1.443,0.322c-0.62,0.321-0.901,0.92-1.021,1.58
					c-0.561-0.552-1.12-1.103-1.681-1.654c-0.473-0.465-0.984-1.211-1.627-1.418c-3.827-1.235-7.898-2.01-11.858-2.672
					c-2.043-0.339-4.093-0.604-6.153-0.815c-1.327-0.135-2.61,0.376-2.81,1.846c-0.467,3.457,0.987,6.857,2.695,9.788
					C1122.208,1032.791,1121.22,1034.46,1120.637,1036.251C1120.279,1037.333,1120.99,1035.163,1120.637,1036.251z
					 M1166.688,1033.121c0.721-2.111,0.619-4.424-0.259-6.472c7.171-3.016,15.599-3.256,23.291-2.951
					c-0.122,1.709-0.714,3.391-1.399,4.948c-0.322,0.731-0.876,1.517-0.904,2.331c-0.041,1.16,0.963,2.114,1.455,3.105
					c0.744,1.506,1.176,3.189,0.908,4.869l-11.495-2.972L1166.688,1033.121z M1149.106,1030.207c0-3.7,3.714-6.036,7.099-6.036
					c3.384,0,7.098,2.335,7.098,6.036c0,3.702-3.713,6.036-7.098,6.036C1152.819,1036.243,1149.106,1033.909,1149.106,1030.207z
					 M1124.96,1026.426c-0.102-0.719-0.171-1.432-0.141-2.084c6.728,0.399,13.426,1.583,19.935,3.307
					c-0.042,1.945,0.391,3.917,1.07,5.733c-4.01,0.757-7.952,1.741-11.876,2.856c-2.891,0.82-5.798,1.781-8.749,2.355
					c-0.547-2.093-0.023-4.259,0.805-6.201c0.17-0.399,0.553-0.424,0.345-0.979c-0.154-0.402-0.306-0.806-0.445-1.212
					C1125.487,1028.974,1125.143,1027.708,1124.96,1026.426C1124.858,1025.708,1125.066,1027.173,1124.96,1026.426z"/>
			</g>
		</g>
	</g>
</g>
</svg>
