<?xml version="1.0" encoding="utf-8"?>
<!-- Generator: Adobe Illustrator 16.0.0, SVG Export Plug-In . SVG Version: 6.00 Build 0)  -->
<!DOCTYPE svg PUBLIC "-//W3C//DTD SVG 1.1//EN" "http://www.w3.org/Graphics/SVG/1.1/DTD/svg11.dtd">
<svg version="1.1" xmlns="http://www.w3.org/2000/svg" xmlns:xlink="http://www.w3.org/1999/xlink" x="0px" y="0px" width="140px"
	 height="140px" viewBox="0 0 140 140" enable-background="new 0 0 140 140" xml:space="preserve">
<g id="temp_x5F_gray">
	<rect x="-6552" y="-5828" fill="#B3B3B3" width="9615" height="7719"/>
</g>
<g id="art">
	<g id="Outfit-F-ModestSkirt-Arm-R">
		<path fill="#FDF1D3" d="M84.898,127.514c-3.828-0.917-7.709-1.644-11.6-2.237c-3.244-0.495-6.512-0.886-9.791-1.04
			c-2.878-0.134-5.883-0.16-8.695,0.556c-0.515-12.496-1.076-24.99-1.627-37.484c-0.533-12.096-1.069-24.192-1.607-36.288
			c-0.275-6.173-0.121-12.325,0.978-18.43c1.002-5.571,2.728-11.555,6.628-15.831c4.252-4.664,11.084-5.724,16.763-3.055
			c5.617,2.64,8.922,8.472,10.737,14.165c0.596,1.865,1.275,3.887,1.213,5.87c-0.254,7.94-0.508,15.88-0.762,23.821
			c-0.413,12.926-0.826,25.852-1.24,38.778c-0.302,9.461-0.604,18.922-0.906,28.384C84.958,125.653,84.928,126.583,84.898,127.514z"
			/>
		<path fill="#CABE9B" d="M84.221,120.167c2.002-10.114,2.525-20.242,2.185-30.524c-0.322-9.706-0.472-19.302,0.923-28.946
			c0.373-2.585,1.02-5.162,1.198-7.769c0.139-2.024,0.028-4.064-0.224-6.075c-0.415-3.295-1.079-7.119-2.941-9.95
			c-0.38-0.577-1.095-1.504-1.902-1.15c-1.125,0.492-1.439,2.399-1.726,3.409c-1.419,5.018-2.421,10.157-3.286,15.295
			c-1.781,10.59-2.645,21.296-3.072,32.021c-0.404,10.1-0.473,20.209-1.305,30.289c-0.131,1.59-0.278,3.179-0.441,4.767
			c-0.129,1.266-0.346,2.552-0.069,3.815c0.324,1.483,1.388,2.585,2.947,2.652C80.564,128.175,83.53,123.652,84.221,120.167
			C89.705,92.467,82.557,128.567,84.221,120.167z"/>
		<path fill="#8A8B7D" d="M56.217,33.224c0.697-4.395,1.821-8.966,4.428-12.652c2.273-3.218,6.022-5.656,10.062-5.632
			c6.775,0.039,10.23,7.59,11.898,13.104c1.195,3.955,1.928,8.138,1.996,12.274c0.143,8.559-0.026,17.127-0.273,25.682
			c1.207,0,2.413,0,3.619,0c0.531,0,1.061,0,1.591,0c0.193,0,0.265-3.555,0.284-3.988c0.311-6.639,0.502-13.284,0.467-19.93
			c-0.023-4.272-0.252-8.398-1.27-12.561c-0.912-3.732-2.271-7.389-4.2-10.719c-3.579-6.183-9.587-11.133-17.125-9.768
			c-4.364,0.791-8.487,3.213-11.447,6.492c-2.983,3.303-4.812,7.462-5.927,11.733c-1.605,6.143-1.905,12.598-1.967,18.917
			c-0.076,7.912,0.396,15.815,0.833,23.711c2.226-0.146,4.452-0.426,6.667-0.683c0.188-0.022,0.375-0.044,0.563-0.067
			c-0.019-0.347-0.038-0.693-0.057-1.04c-0.048-0.905-0.096-1.809-0.144-2.714c-0.104-1.931-0.221-3.86-0.338-5.79
			C55.344,50.819,54.834,41.95,56.217,33.224C57.254,26.694,54.631,43.235,56.217,33.224z"/>
		<path fill="#8A8B7D" d="M84.328,66c-0.557,19.218-1.789,38.407-2.889,57.6c-5.566-1.792-11.381-2.46-17.188-2.926
			c-1.518-0.122-3.035-0.232-4.553-0.349c-0.38-0.029-0.76-0.059-1.139-0.089c0.002-0.396,0.003-0.792,0.003-1.189
			c0.001-0.792-0.003-1.585-0.009-2.378c-0.027-3.174-0.105-6.348-0.218-9.52c-0.446-12.676-1.214-25.348-1.92-38.012
			c-1.53,0.189-3.06,0.384-4.591,0.561c-0.752,0.087-1.506,0.171-2.258,0.251c-0.589,0.063-0.362,0.306-0.334,0.815
			c0.027,0.517,0.055,1.034,0.082,1.55c0.172,3.271,0.3,6.542,0.436,9.814c0.275,6.655,0.563,13.31,0.811,19.966
			c0.243,6.525,0.247,13.048,0.43,19.574c0.031,1.104-0.3,2.03,0.231,3.093c0.454,0.909,1.285,1.565,2.184,2.004
			c2.327,1.137,5.26,1.082,7.786,1.28c6.153,0.484,12.414,0.692,18.336,2.605c1.145,0.37,2.238,0.948,3.471,0.686
			c1.039-0.22,1.945-0.917,2.465-1.836c0.498-0.881,0.612-1.94,0.28-2.899c-0.483-1.396-0.005-3.316,0.108-4.803
			c1.008-13.17,1.879-26.349,2.763-39.528C88.98,76.85,89.334,71.427,89.623,66C87.857,66,86.094,66,84.328,66z"/>
	</g>
</g>
<g id="staging">
</g>
</svg>
