<?xml version="1.0" encoding="utf-8"?>
<!-- Generator: Adobe Illustrator 16.0.0, SVG Export Plug-In . SVG Version: 6.00 Build 0)  -->
<!DOCTYPE svg PUBLIC "-//W3C//DTD SVG 1.1//EN" "http://www.w3.org/Graphics/SVG/1.1/DTD/svg11.dtd">
<svg version="1.1" id="Layer_1" xmlns="http://www.w3.org/2000/svg" xmlns:xlink="http://www.w3.org/1999/xlink" x="0px" y="0px"
	 width="250px" height="250px" viewBox="0 0 250 250" enable-background="new 0 0 250 250" xml:space="preserve">
<g>
	<g>
		<path fill="#E2A672" d="M122.143,129.805c0.992-0.414,1.838-1.043,2.535-1.889c0.602-0.871,1.68-1.254,2.648-0.695
			c4.168,2.404,8.654,2.329,11.559-1.889c1.408-2.043,4.768-0.107,3.346,1.958c-3.789,5.502-9.738,6.634-15.441,4.004
			c-0.766,0.73-1.619,1.304-2.689,1.855C121.881,134.292,119.92,130.948,122.143,129.805z"/>
		<path fill="#6C482F" d="M144.28,124.295c-0.733-1.907-2.28-3.287-3.919-4.418c-1.473-0.987-3.228-1.488-4.981-1.637
			c-1.655-0.14-3.468,0.145-5.069-0.382c-0.59-0.145-1.062-0.482-1.537-0.811c-0.451-0.414-0.902-0.84-1.246-1.352
			c-2.231-3.133-1.313-7.643-0.375-11.076c0.273-0.995-1.218-1.502-1.604-0.539c-1.632,4.067-2.743,9.112-0.295,13.101
			c0.43,0.756,1.041,1.402,1.643,2.021c1.642,1.42,3.607,1.898,5.736,2.015c2.026,0.112,4.102,0.163,5.83,1.375
			c1.081,0.76,2.238,1.646,2.695,2.939c0.826,2.137-0.746,4.127-2.454,5.249c-3.433,2.257-7.572,1.802-11.073,0.042
			c-0.575-0.289-1.248-0.141-1.682,0.313c-0.441,0.266-0.865,0.636-1.401,0.69c-0.333,0.052-0.594,0.015-0.911-0.175
			c-0.821-0.531-1.18-1.579-0.854-2.505c0.098-0.236,0.201-0.483,0.382-0.695c0.562-0.791,1.423-1.287,2.257-1.738
			c1.096-0.596,0.492-2.315-0.73-2.099c-2.013,0.35-3.79,1.28-4.867,3.072c-1.945,3.643,1.379,9.289,5.801,7.424
			c0.51-0.193,0.92-0.443,1.227-0.697c0.191-0.141,0.338-0.28,0.47-0.413c3.589,1.915,8.001,2.114,11.718,0.423
			C142.854,132.687,146.018,128.611,144.28,124.295C143.888,123.274,144.685,125.3,144.28,124.295z"/>
		<path fill="#66371C" d="M114.973,111.151c-4.684,2.203-10.367,2.002-15.438,1.969c-2.837-0.019-5.749-0.179-8.527,0.505
			c-1.695,0.417-3.355,1.464-5.15,0.856c-2.23-0.755-3.268-3.427-2.124-5.49c0.996-1.796,3.558-2.494,5.396-2.982
			c2.893-0.769,5.925-0.726,8.886-0.475c2.895,0.245,5.791,0.468,8.676,0.804c1.366,0.159,2.732,0.266,4.105,0.348
			c1.023,0.024,2.022-0.099,3.039-0.096C116.365,106.492,117.263,110.044,114.973,111.151z"/>
		<path fill="#66371C" d="M136.789,106.949c5.115,0.792,10.512-1.004,15.365-2.465c2.717-0.818,5.467-1.793,8.324-1.92
			c1.744-0.078,3.633,0.458,5.184-0.631c1.926-1.354,2.168-4.21,0.49-5.866c-1.463-1.442-4.119-1.389-6.02-1.339
			c-2.992,0.079-5.889,0.975-8.66,2.051c-2.707,1.05-5.422,2.082-8.096,3.218c-1.266,0.539-2.547,1.026-3.84,1.492
			c-0.977,0.312-1.969,0.476-2.943,0.765C134.139,102.871,134.279,106.533,136.789,106.949z"/>
		<path fill="#6C482F" d="M146.213,121.711c-0.43,0-0.846-0.23-1.065-0.635c-0.318-0.588-0.101-1.323,0.488-1.642
			c12.429-6.732,20.794-2.441,21.146-2.254c0.59,0.313,0.814,1.047,0.5,1.638c-0.312,0.588-1.043,0.815-1.633,0.503
			c-0.32-0.165-7.651-3.828-18.859,2.244C146.605,121.664,146.408,121.711,146.213,121.711z"/>
		<path fill="#6C482F" d="M92.213,132.96c-0.327,0-0.653-0.132-0.892-0.392c-0.452-0.492-0.421-1.256,0.071-1.709
			c0.409-0.377,10.17-9.18,23.189-5.013c0.637,0.204,0.988,0.886,0.783,1.522c-0.204,0.637-0.889,0.988-1.521,0.784
			c-11.652-3.728-20.722,4.406-20.812,4.489C92.799,132.855,92.506,132.96,92.213,132.96z"/>
	</g>
	<g>
		<path fill="#E2A672" d="M125.226,147.564c5.196,2.16,9.999,2.168,15.44,0.979c2.422-0.527,3.414,3,1.025,3.717
			c-5.979,1.787-12.432,2.119-17.96-1.154C121.902,150.021,123.147,146.699,125.226,147.564z"/>
		<path fill="#8F4B22" d="M149.355,143.184c-1.126,2.09-2.522,3.867-4.57,5.128c-0.712,0.428-1.507,0.818-2.361,1.092
			c-3.149,1.06-6.971,1.108-10.242,0.669c-3.09-0.414-5.98-1.605-8.758-2.971c-0.686-0.338-0.59-1.374,0.14-1.585
			c0.478-0.139,1.178,0.193,1.616,0.313c1.957,0.541,3.912,1.066,5.928,1.34c3.232,0.439,7.312,0.473,10.459-0.487
			c0.679-0.191,1.302-0.442,1.864-0.739c1.723-0.931,2.97-2.348,4.106-3.907C148.304,140.984,149.976,142.035,149.355,143.184z"/>
		<path fill="#8F4B22" d="M142.328,153.99c-1.856-0.24-3.666-0.188-5.511,0.174c-0.533,0.104-4.797,1.688-4.385-0.009
			c0.183-0.747,1.311-1.429,1.902-1.79c0.969-0.592,2.027-0.982,3.144-1.186c1.925-0.309,4.261,0.074,5.461,1.768
			C143.249,153.406,142.876,154.035,142.328,153.99z"/>
	</g>
</g>
</svg>
