<?xml version="1.0" encoding="utf-8"?>
<!-- Generator: Adobe Illustrator 16.0.0, SVG Export Plug-In . SVG Version: 6.00 Build 0)  -->
<!DOCTYPE svg PUBLIC "-//W3C//DTD SVG 1.1//EN" "http://www.w3.org/Graphics/SVG/1.1/DTD/svg11.dtd">
<svg version="1.1" id="Layer_1" xmlns="http://www.w3.org/2000/svg" xmlns:xlink="http://www.w3.org/1999/xlink" x="0px" y="0px"
	 width="250px" height="250px" viewBox="0 0 250 250" enable-background="new 0 0 250 250" xml:space="preserve">
<g>
	<g>
		<path fill="#FFFFFF" d="M114.615,131.832c0,0-5.972-12.092-15.626-7.189c-9.649,4.902-6.61,11.267-6.61,11.267
			S104.436,139.443,114.615,131.832z"/>
		<path fill="#FFFFFF" d="M166.161,124.109c0,0-2.403-14.263-12.787-11.768c-8.88,2.135-7.437,14-7.437,14
			S156.742,130.836,166.161,124.109z"/>
		<path fill="#E2A672" d="M122.68,133.389c0.992-0.414,1.839-1.043,2.535-1.889c0.602-0.871,1.681-1.254,2.649-0.695
			c4.167,2.404,8.654,2.328,11.558-1.889c1.408-2.043,4.768-0.107,3.346,1.957c-3.788,5.502-9.737,6.633-15.441,4.004
			c-0.765,0.73-1.619,1.303-2.689,1.855C122.418,137.875,120.457,134.531,122.68,133.389z"/>
		<path fill="#5F803D" d="M96.875,132.709c1.75,6,7.409,3.766,10.573,3.23c3.164-0.533,5.263-3.746,4.684-7.176
			c-0.577-3.43-3.569-5.213-6.777-5.242C98.125,123.458,95.902,129.371,96.875,132.709z"/>
		<path fill="#5F803D" d="M149.625,123.333c1.25,5.5,6.137,5.051,9.334,4.75c3.197-0.303,6.502-3.633,6.117-7.717
			c-0.386-4.083-3.274-6.993-6.483-6.848C151.625,113.833,148.716,119.333,149.625,123.333z"/>
		<path fill="#81AE52" d="M106.875,124.376c1.888,0.76,3.133,2.542,3.577,4.155c0.281,1.018-0.042,2.158-0.935,2.576
			c-1.023,0.475-2.048-0.027-2.578-0.939c-0.487-0.844-1.455-1.277-2.319-1.627C102.311,127.607,104.55,123.437,106.875,124.376z"/>
		<path fill="#81AE52" d="M158.28,113.474c3.335,0.661,5.812,3.588,5.78,6.602c-0.023,2.487-2.902,3.768-3.623,1.375
			c-0.586-1.949-1.804-3.461-3.869-3.871C154.121,117.097,155.817,112.989,158.28,113.474z"/>
		<path fill="#455A2D" d="M100.927,130.244c0.056-2.562,1.493-5.415,4.235-4.896c2.701,0.511,3.986,4.085,3.136,6.529
			c-0.746,2.145-2.334,3.65-4.555,2.871C101.852,134.084,100.885,132.154,100.927,130.244z"/>
		<path fill="#455A2D" d="M153.705,120.628c0.252-2.6,2.643-5.364,5.416-4.42c0.066,0.023,0.115,0.062,0.178,0.087
			c0.355,0.12,0.68,0.304,0.967,0.545c1.832,1.35,2.361,3.899,1.436,6.035c-0.9,2.083-3.357,3.392-5.518,2.45
			C154.348,124.527,153.523,122.53,153.705,120.628z"/>
		<path fill="#6C482F" d="M144.818,127.879c-0.734-1.907-2.281-3.287-3.92-4.418c-1.472-0.986-3.227-1.488-4.98-1.637
			c-1.655-0.141-3.469,0.145-5.07-0.383c-0.59-0.145-1.062-0.482-1.536-0.811c-0.451-0.413-0.903-0.84-1.247-1.352
			c-2.23-3.132-1.312-7.642-0.374-11.076c0.273-0.995-1.218-1.502-1.604-0.539c-1.632,4.067-2.743,9.112-0.296,13.101
			c0.43,0.756,1.041,1.401,1.643,2.021c1.643,1.42,3.608,1.897,5.736,2.015c2.027,0.112,4.103,0.164,5.83,1.375
			c1.082,0.76,2.238,1.646,2.696,2.939c0.825,2.137-0.747,4.127-2.454,5.248c-3.433,2.258-7.572,1.803-11.074,0.043
			c-0.574-0.289-1.248-0.141-1.682,0.312c-0.44,0.266-0.865,0.637-1.4,0.691c-0.334,0.051-0.594,0.014-0.911-0.176
			c-0.821-0.531-1.18-1.578-0.854-2.504c0.098-0.236,0.2-0.484,0.382-0.695c0.561-0.791,1.422-1.287,2.257-1.738
			c1.096-0.596,0.492-2.316-0.73-2.1c-2.013,0.35-3.79,1.279-4.868,3.072c-1.945,3.643,1.379,9.289,5.801,7.424
			c0.511-0.193,0.92-0.443,1.227-0.697c0.192-0.141,0.339-0.281,0.471-0.414c3.588,1.916,8,2.115,11.717,0.424
			C143.391,136.27,146.555,132.195,144.818,127.879C144.426,126.857,145.223,128.885,144.818,127.879z"/>
		<g>
			<path fill="#6C482F" d="M115.606,131.717c-1.533-4-4.588-7.586-8.829-8.764c-2.736-0.76-6.281-0.583-8.91,0.693
				c-1.141,0.454-2.158,1.031-3.054,1.738c-1.694,1.524-2.966,3.229-3.486,5.497c-0.235,1.025-0.321,2.07-0.284,3.119
				c0.018,0.537-0.059,2.107,0.346,2.512c0.178,0.656,0.891,0.963,1.49,0.684c3.5,0.879,7.289,0.533,10.785-0.211
				c3.699-0.785,7.338-1.92,10.786-3.479c0.828,0.227,1.584-0.568,1.298-1.383C115.748,132.123,115.699,131.982,115.606,131.717
				C115.503,131.447,115.699,131.982,115.606,131.717z M111.035,132.688c-5.612,1.631-11.75,3.246-17.639,2.797
				c-0.491-3.242,0.486-6.062,2.881-8.244c0.705-0.545,1.539-1,2.384-1.333c0.771-0.43,1.845-0.623,2.724-0.768
				c1.736-0.285,3.461-0.331,5.158,0.208c3.166,1.005,5.471,3.732,6.821,6.667C112.781,132.188,111.99,132.42,111.035,132.688
				C110.018,132.984,111.99,132.42,111.035,132.688z"/>
			<path fill="#6C482F" d="M167.648,124.474c-1.363-6.566-7.111-15.298-14.984-12.351c-6.166,2.307-8.482,8.531-7.479,14.717
				c0.109,0.678,0.781,1.066,1.418,0.881c3.178,1.105,6.781,1.033,10.074,0.543c3.283-0.449,6.553-1.273,9.648-2.458
				C167.104,125.96,167.81,125.253,167.648,124.474z M163.178,124.589C162.252,124.812,164.004,124.399,163.178,124.589
				c-5.013,1.201-10.716,2.387-15.848,1.322c-0.329-0.068-0.042-3.333,0.014-3.684c0.186-1.189,0.585-2.343,1.09-3.433
				c2.421-5.231,8.908-6.087,12.797-2.061c1.021,1.057,1.945,2.386,2.602,3.703c0.146,0.295,1.467,3.648,1.383,3.668
				C164.693,124.234,164.004,124.399,163.178,124.589z"/>
		</g>
		
			<ellipse transform="matrix(-0.9861 0.1662 -0.1662 -0.9861 235.6236 238.3635)" fill="#FFFFFF" cx="107.838" cy="129.041" rx="1.575" ry="1.967"/>
		
			<ellipse transform="matrix(-0.9956 0.094 -0.094 -0.9956 330.4359 221.6072)" fill="#FFFFFF" cx="160" cy="118.584" rx="1.574" ry="1.869"/>
		<path fill="#66371C" d="M115.51,107.401c-4.684,2.203-10.367,2.002-15.437,1.969c-2.837-0.019-5.749-0.179-8.527,0.505
			c-1.696,0.417-3.356,1.464-5.15,0.856c-2.23-0.756-3.269-3.427-2.124-5.49c0.996-1.796,3.558-2.494,5.396-2.982
			c2.893-0.769,5.924-0.726,8.886-0.475c2.894,0.245,5.79,0.468,8.675,0.804c1.367,0.159,2.732,0.266,4.105,0.348
			c1.023,0.024,2.023-0.099,3.039-0.096C116.902,102.742,117.801,106.294,115.51,107.401z"/>
		<path fill="#66371C" d="M137.327,103.199c5.115,0.792,10.512-1.004,15.365-2.465c2.717-0.818,5.466-1.793,8.324-1.92
			c1.744-0.078,3.633,0.458,5.183-0.631c1.927-1.354,2.169-4.21,0.49-5.866c-1.463-1.442-4.118-1.389-6.02-1.339
			c-2.991,0.079-5.888,0.975-8.659,2.051c-2.707,1.05-5.423,2.082-8.096,3.218c-1.267,0.539-2.547,1.026-3.841,1.492
			c-0.976,0.312-1.969,0.476-2.942,0.765C134.677,99.121,134.817,102.783,137.327,103.199z"/>
	</g>
	<g>
		<path fill="#E2A672" d="M125.764,151.148c5.196,2.16,9.999,2.168,15.44,0.979c2.422-0.527,3.414,3,1.025,3.717
			c-5.979,1.787-12.432,2.119-17.96-1.154C122.44,153.605,123.686,150.283,125.764,151.148z"/>
		<path fill="#8F4B22" d="M149.894,146.768c-1.126,2.09-2.522,3.867-4.57,5.128c-0.712,0.428-1.507,0.818-2.361,1.092
			c-3.149,1.06-6.971,1.108-10.242,0.669c-3.09-0.414-5.98-1.605-8.758-2.971c-0.686-0.338-0.59-1.374,0.14-1.585
			c0.478-0.139,1.178,0.193,1.616,0.313c1.957,0.541,3.912,1.066,5.928,1.34c3.232,0.439,7.312,0.473,10.459-0.487
			c0.679-0.191,1.302-0.442,1.864-0.739c1.723-0.931,2.97-2.348,4.106-3.907C148.842,144.568,150.514,145.619,149.894,146.768z"/>
		<path fill="#8F4B22" d="M142.866,157.574c-1.856-0.24-3.666-0.188-5.511,0.174c-0.533,0.104-4.797,1.688-4.385-0.009
			c0.183-0.747,1.311-1.429,1.902-1.79c0.969-0.592,2.027-0.982,3.144-1.186c1.925-0.309,4.261,0.074,5.461,1.768
			C143.787,156.99,143.414,157.619,142.866,157.574z"/>
	</g>
</g>
</svg>
