<?xml version="1.0" encoding="UTF-8" standalone="no"?>
<!-- Generator: Adobe Illustrator 16.2.0, SVG Export Plug-In . SVG Version: 6.00 Build 0)  -->

<svg
   xmlns:dc="http://purl.org/dc/elements/1.1/"
   xmlns:cc="http://creativecommons.org/ns#"
   xmlns:rdf="http://www.w3.org/1999/02/22-rdf-syntax-ns#"
   xmlns:svg="http://www.w3.org/2000/svg"
   xmlns="http://www.w3.org/2000/svg"
   xmlns:sodipodi="http://sodipodi.sourceforge.net/DTD/sodipodi-0.dtd"
   xmlns:inkscape="http://www.inkscape.org/namespaces/inkscape"
   version="1.1"
   id="Layer_1"
   x="0px"
   y="0px"
   width="314px"
   height="314px"
   viewBox="0 0 314 314"
   enable-background="new 0 0 314 314"
   xml:space="preserve"
   inkscape:version="0.48.2 r9819"
   sodipodi:docname="BBT_EACT5_Conversion_v2_parts_Puzzle_Piece_02.svg"><metadata
   id="metadata5113"><rdf:RDF><cc:Work
       rdf:about=""><dc:format>image/svg+xml</dc:format><dc:type
         rdf:resource="http://purl.org/dc/dcmitype/StillImage" /><dc:title></dc:title></cc:Work></rdf:RDF></metadata><defs
   id="defs5111" /><sodipodi:namedview
   pagecolor="#ffffff"
   bordercolor="#666666"
   borderopacity="1"
   objecttolerance="10"
   gridtolerance="10"
   guidetolerance="10"
   inkscape:pageopacity="0"
   inkscape:pageshadow="2"
   inkscape:window-width="640"
   inkscape:window-height="480"
   id="namedview5109"
   showgrid="false"
   inkscape:zoom="0.75159236"
   inkscape:cx="157"
   inkscape:cy="157"
   inkscape:window-x="0"
   inkscape:window-y="0"
   inkscape:window-maximized="0"
   inkscape:current-layer="Layer_1" />
<symbol
   id="fire"
   viewBox="-199 -295.348 402 582.161">
	<path
   fill="#BF3802"
   d="M-112.957,141.798c0,0-50.737-76.51-73.99-145.902c-68.522-204.488,170.991-398.98,328.483-221.989   c71.244,80.065,73.325,206.765,40.498,304.485c-16.694,49.697-60.075,123.015-98.367,159.94   C14.66,205.329-17.456,138.389,2.043,64.893C21.076-6.85-9.956-29.603-9.956-29.603s-51.711-52.731-65.711,71.269   C-83.405,110.204-112.957,141.798-112.957,141.798z"
   id="path5075" />
	<path
   fill="#BF3802"
   d="M-55.952,118.795c0,0-42.003,21.002-33.003,60.006s30.004,93.009,0,108.011   c60.006-12.001,81.008-42.004,63.006-78.008S-70.953,142.798-55.952,118.795z"
   id="path5077" />
	<path
   fill="#FE8A37"
   d="M-112.958,102.793c0,0-142.985-220.891,20.626-351.127C46.244-358.643,209.004-177.002,165.002,4.999   c-29.334,121.333-92.002,160-92.002,160S34.068,123.807,52.049,57.824c12.997-47.697-35.097-125.5-88.033-123.18   C-105.211-62.322-74.236,67.636-112.958,102.793z"
   id="path5079" />
	<path
   fill="#FFA54B"
   d="M-100.957-47.222c0,0,15.001-102.01,81.008-84.008s96.01,117.012,96.01,117.012   s123.471-203.644-48.392-250.116C-102.997-299.668-166.964-122.229-100.957-47.222z"
   id="path5081" />
	<polygon
   display="none"
   fill="none"
   points="-199,286 203,286 203,-295 -199,-295  "
   id="polygon5083" />
</symbol>
<g
   id="g5085">
	<g
   id="g5087">
		<rect
   x="3"
   y="3"
   fill="#2B98C4"
   width="308"
   height="308"
   id="rect5089" />
	</g>
	<g
   id="g5091">
		<g
   id="g5093">
			<path
   fill="#ECEECA"
   d="M3,57h54.527c-0.01,0,0.013,0.659,0.077,1.071l0.864,5.395c3.974,25.195,8.477,53.715,18.266,78.855     c11.48,29.479,28.523,50.02,52.102,62.839c30.736,16.709,65.018,20.519,98.022,24.211c29.795,3.334,58.142,6.495,84.142,18.335     v-14.544c-26-10.802-55.018-13.986-82.658-17.078c-33.186-3.714-64.607-7.222-93.047-22.683     c-46.73-25.404-55.707-81.932-63.59-131.94L70.939,57h90.631c-0.053,2-0.574,21.6,7.317,42.457     c11.026,29.152,33.077,45.212,63.479,46.591c25.37,1.15,52.633,2.989,78.633,8.928v-13.705c-26-5.626-52.921-7.508-78.028-8.646     c-24.886-1.128-42.226-13.814-51.382-37.708c-7.182-18.739-6.633-37.455-6.627-37.644c0.004-0.144-0.039-0.272-0.039-0.272H311     V44H3V57z"
   id="path5095" />
		</g>
		<g
   id="g5097">
			<path
   fill="#ECEECA"
   d="M42.912,138.282c0-18.032-14.378-32.702-32.447-32.702c-2.682,0-4.465,0.33-7.465,0.94v10.915     c3-0.902,4.729-1.399,7.465-1.399c12.304,0,22.152,9.979,22.152,22.246s-9.771,22.247-22.073,22.247     c-2.736,0-4.544-0.496-7.544-1.398v10.915c3,0.61,4.783,0.94,7.465,0.94C28.534,170.986,42.912,156.315,42.912,138.282z"
   id="path5099" />
		</g>
		<g
   id="g5101">
			<path
   fill="#ECEECA"
   d="M82.561,278.839c18.07,0,32.771-14.67,32.771-32.702c0-18.033-14.7-32.704-32.771-32.704     c-18.068,0-32.768,14.671-32.768,32.704C49.793,264.169,64.492,278.839,82.561,278.839z M82.561,223.89     c12.303,0,22.314,9.979,22.314,22.247c0,12.266-10.012,22.245-22.314,22.245c-12.304,0-22.312-9.979-22.312-22.245     C60.248,233.87,70.257,223.89,82.561,223.89z"
   id="path5103" />
		</g>
		<g
   id="g5105">
			<path
   fill="#ECEECA"
   d="M174.482,297.234c0-12.268,10.01-22.358,22.313-22.358s22.314,10.147,22.314,22.415     c0,5.093-1.73,9.709-4.632,13.709h12.133c1.892-4,2.955-8.936,2.955-13.766c0-18.033-14.699-32.815-32.771-32.815     c-18.07,0-32.77,14.838-32.77,32.872c0,4.829,1.062,9.709,2.952,13.709h12.133C176.213,307,174.482,302.328,174.482,297.234z"
   id="path5107" />
		</g>
	</g>
</g>
</svg>