<?xml version="1.0" encoding="UTF-8" standalone="no"?>
<!-- Generator: Adobe Illustrator 16.2.0, SVG Export Plug-In . SVG Version: 6.00 Build 0)  -->

<svg
   xmlns:dc="http://purl.org/dc/elements/1.1/"
   xmlns:cc="http://creativecommons.org/ns#"
   xmlns:rdf="http://www.w3.org/1999/02/22-rdf-syntax-ns#"
   xmlns:svg="http://www.w3.org/2000/svg"
   xmlns="http://www.w3.org/2000/svg"
   xmlns:sodipodi="http://sodipodi.sourceforge.net/DTD/sodipodi-0.dtd"
   xmlns:inkscape="http://www.inkscape.org/namespaces/inkscape"
   version="1.1"
   id="Layer_1"
   x="0px"
   y="0px"
   width="314px"
   height="314px"
   viewBox="0 0 314 314"
   enable-background="new 0 0 314 314"
   xml:space="preserve"
   inkscape:version="0.48.2 r9819"
   sodipodi:docname="BBT_EACT5_Conversion_v2_parts_Puzzle_Piece_05.svg"><metadata
   id="metadata3763"><rdf:RDF><cc:Work
       rdf:about=""><dc:format>image/svg+xml</dc:format><dc:type
         rdf:resource="http://purl.org/dc/dcmitype/StillImage" /><dc:title></dc:title></cc:Work></rdf:RDF></metadata><defs
   id="defs3761" /><sodipodi:namedview
   pagecolor="#ffffff"
   bordercolor="#666666"
   borderopacity="1"
   objecttolerance="10"
   gridtolerance="10"
   guidetolerance="10"
   inkscape:pageopacity="0"
   inkscape:pageshadow="2"
   inkscape:window-width="640"
   inkscape:window-height="480"
   id="namedview3759"
   showgrid="false"
   inkscape:zoom="0.75159236"
   inkscape:cx="157"
   inkscape:cy="157"
   inkscape:window-x="0"
   inkscape:window-y="0"
   inkscape:window-maximized="0"
   inkscape:current-layer="Layer_1" />
<symbol
   id="fire"
   viewBox="-199 -295.348 402 582.161">
	<path
   fill="#BF3802"
   d="M-112.957,141.798c0,0-50.737-76.51-73.99-145.902c-68.522-204.488,170.991-398.98,328.483-221.989   c71.244,80.065,73.325,206.765,40.498,304.485c-16.694,49.697-60.075,123.015-98.367,159.94   C14.66,205.329-17.456,138.389,2.043,64.893C21.076-6.85-9.956-29.603-9.956-29.603s-51.711-52.731-65.711,71.269   C-83.405,110.204-112.957,141.798-112.957,141.798z"
   id="path3725" />
	<path
   fill="#BF3802"
   d="M-55.952,118.795c0,0-42.003,21.002-33.003,60.006s30.004,93.009,0,108.011   c60.006-12.001,81.008-42.004,63.006-78.008S-70.953,142.798-55.952,118.795z"
   id="path3727" />
	<path
   fill="#FE8A37"
   d="M-112.958,102.793c0,0-142.985-220.891,20.626-351.127C46.244-358.643,209.004-177.002,165.002,4.999   c-29.334,121.333-92.002,160-92.002,160S34.068,123.807,52.049,57.824c12.997-47.697-35.097-125.5-88.033-123.18   C-105.211-62.322-74.236,67.636-112.958,102.793z"
   id="path3729" />
	<path
   fill="#FFA54B"
   d="M-100.957-47.222c0,0,15.001-102.01,81.008-84.008s96.01,117.012,96.01,117.012   s123.471-203.644-48.392-250.116C-102.997-299.668-166.964-122.229-100.957-47.222z"
   id="path3731" />
	<polygon
   display="none"
   fill="none"
   points="-199,286 203,286 203,-295 -199,-295  "
   id="polygon3733" />
</symbol>
<g
   id="g3735">
	<g
   id="g3737">
		<rect
   x="3"
   y="3"
   fill="#2B98C4"
   width="308"
   height="308"
   id="rect3739" />
	</g>
	<g
   id="g3741">
		<g
   id="g3743">
			<path
   fill="#ECEECA"
   d="M197.282,22.159c13.231,0,24.646-8.159,29.815-19.159h-12.133c-4.082,5-10.487,8.702-17.683,8.702     c-7.194,0-13.602-3.702-17.685-8.702h-12.133C172.636,14,184.052,22.159,197.282,22.159z"
   id="path3745" />
		</g>
		<g
   id="g3747">
			<path
   fill="#ECEECA"
   d="M295.908,38.097c0,11.538,6.092,21.692,15.092,27.517V51.649c-3-3.756-4.637-8.455-4.637-13.553     S308,28.301,311,24.545V10.583C302,16.406,295.908,26.56,295.908,38.097z"
   id="path3749" />
		</g>
		<g
   id="g3751">
			<path
   fill="#ECEECA"
   d="M147.989,263.588c49.794,0,90.308-40.421,90.308-90.105c0-49.684-40.514-90.104-90.308-90.104     c-49.798,0-90.31,40.421-90.31,90.104C57.68,223.167,98.191,263.588,147.989,263.588z M147.989,94.684     c43.562,0,79.003,35.35,79.003,78.799c0,43.451-35.44,78.8-79.003,78.8c-43.563,0-79.004-35.349-79.004-78.8     C68.985,130.033,104.426,94.684,147.989,94.684z"
   id="path3753" />
		</g>
		<g
   id="g3755">
			<path
   fill="#ECEECA"
   d="M142.625,160H165v20.607c0,3.122,2.879,5.653,6,5.653s6-2.531,6-5.653V160h21.125     c3.119,0,5.65-2.379,5.65-5.5s-2.531-5.5-5.65-5.5H177v-24.92c0-3.122-2.879-5.653-6-5.653s-6,2.531-6,5.653V149h-22.375     c-3.123,0-5.654,2.379-5.654,5.5S139.502,160,142.625,160z"
   id="path3757" />
		</g>
	</g>
</g>
</svg>