<?xml version="1.0" encoding="UTF-8" standalone="no"?>
<!-- Generator: Adobe Illustrator 16.2.0, SVG Export Plug-In . SVG Version: 6.00 Build 0)  -->

<svg
   xmlns:dc="http://purl.org/dc/elements/1.1/"
   xmlns:cc="http://creativecommons.org/ns#"
   xmlns:rdf="http://www.w3.org/1999/02/22-rdf-syntax-ns#"
   xmlns:svg="http://www.w3.org/2000/svg"
   xmlns="http://www.w3.org/2000/svg"
   xmlns:sodipodi="http://sodipodi.sourceforge.net/DTD/sodipodi-0.dtd"
   xmlns:inkscape="http://www.inkscape.org/namespaces/inkscape"
   version="1.1"
   id="Layer_1"
   x="0px"
   y="0px"
   width="2272px"
   height="2272px"
   viewBox="0 0 2272 2272"
   enable-background="new 0 0 2272 2272"
   xml:space="preserve"
   inkscape:version="0.48.2 r9819"
   sodipodi:docname="BBT_EACT5_Conversion_v2_parts_Background_counter.svg"><metadata
   id="metadata4385"><rdf:RDF><cc:Work
       rdf:about=""><dc:format>image/svg+xml</dc:format><dc:type
         rdf:resource="http://purl.org/dc/dcmitype/StillImage" /><dc:title></dc:title></cc:Work></rdf:RDF></metadata><defs
   id="defs4383" /><sodipodi:namedview
   pagecolor="#ffffff"
   bordercolor="#666666"
   borderopacity="1"
   objecttolerance="10"
   gridtolerance="10"
   guidetolerance="10"
   inkscape:pageopacity="0"
   inkscape:pageshadow="2"
   inkscape:window-width="640"
   inkscape:window-height="480"
   id="namedview4381"
   showgrid="false"
   inkscape:zoom="0.10387324"
   inkscape:cx="1136"
   inkscape:cy="1136"
   inkscape:window-x="0"
   inkscape:window-y="0"
   inkscape:window-maximized="0"
   inkscape:current-layer="Layer_1" />
<symbol
   id="fire"
   viewBox="-199 -295.348 402 582.161">
	<path
   fill="#BF3802"
   d="M-112.957,141.798c0,0-50.737-76.51-73.99-145.902c-68.522-204.488,170.991-398.98,328.483-221.989   c71.244,80.065,73.325,206.765,40.498,304.485c-16.694,49.697-60.075,123.015-98.367,159.94   C14.66,205.329-17.456,138.389,2.043,64.893C21.076-6.85-9.956-29.603-9.956-29.603s-51.711-52.731-65.711,71.269   C-83.405,110.204-112.957,141.798-112.957,141.798z"
   id="path4023" />
	<path
   fill="#BF3802"
   d="M-55.952,118.795c0,0-42.003,21.002-33.003,60.006s30.004,93.009,0,108.011   c60.006-12.001,81.008-42.004,63.006-78.008S-70.953,142.798-55.952,118.795z"
   id="path4025" />
	<path
   fill="#FE8A37"
   d="M-112.958,102.793c0,0-142.985-220.891,20.626-351.127C46.244-358.643,209.004-177.002,165.002,4.999   c-29.334,121.333-92.002,160-92.002,160S34.068,123.807,52.049,57.824c12.997-47.697-35.097-125.5-88.033-123.18   C-105.211-62.322-74.236,67.636-112.958,102.793z"
   id="path4027" />
	<path
   fill="#FFA54B"
   d="M-100.957-47.222c0,0,15.001-102.01,81.008-84.008s96.01,117.012,96.01,117.012   s123.471-203.644-48.392-250.116C-102.997-299.668-166.964-122.229-100.957-47.222z"
   id="path4029" />
	<polygon
   display="none"
   fill="none"
   points="-199,286 203,286 203,-295 -199,-295  "
   id="polygon4031" />
</symbol>
<g
   id="g4033">
	<g
   opacity="0.2"
   id="g4035">
		<path
   fill="#9E8A77"
   d="M327.683,1400.285c-39.425,0.211-78.781,2.701-118.176,4.229c-40.134,1.557-80.255,3.455-120.349,5.758    c-25.428,1.461-46.741,20.157-46.741,46.742c0,26.569,21.312,45.299,46.741,46.74c39.339,2.229,78.782,2.531,118.176,1.545    c40.142-1.006,80.313-1.873,120.349-4.997c13.642-1.064,25.434-4.72,35.361-14.647c9.336-9.336,14.647-22.15,14.647-35.361    C377.691,1423.144,354.944,1400.139,327.683,1400.285z"
   id="path4037" />
	</g>
	<g
   opacity="0.2"
   id="g4039">
		<path
   fill="#9E8A77"
   d="M351.683,1212.285c-39.425,0.211-78.781,2.701-118.176,4.229c-40.134,1.557-80.255,3.455-120.349,5.758    c-25.428,1.461-46.741,20.157-46.741,46.742c0,26.569,21.312,45.299,46.741,46.74c39.339,2.229,78.782,2.531,118.176,1.545    c40.142-1.006,80.313-1.873,120.349-4.997c13.642-1.064,25.434-4.72,35.361-14.647c9.336-9.336,14.647-22.15,14.647-35.361    C401.691,1235.144,378.944,1212.139,351.683,1212.285z"
   id="path4041" />
	</g>
	<g
   opacity="0.2"
   id="g4043">
		<path
   fill="#9E8A77"
   d="M743.683,1252.285c-39.425,0.211-78.781,2.701-118.176,4.229c-40.134,1.557-80.255,3.455-120.349,5.758    c-25.428,1.461-46.741,20.157-46.741,46.742c0,26.569,21.312,45.299,46.741,46.74c39.339,2.229,78.782,2.531,118.176,1.545    c40.142-1.006,80.313-1.873,120.349-4.997c13.642-1.064,25.434-4.72,35.361-14.647c9.336-9.336,14.647-22.15,14.647-35.361    C793.691,1275.144,770.944,1252.139,743.683,1252.285z"
   id="path4045" />
	</g>
	<g
   opacity="0.2"
   id="g4047">
		<path
   fill="#9E8A77"
   d="M1143.683,1212.285c-39.425,0.211-78.781,2.701-118.176,4.229c-40.134,1.557-80.255,3.455-120.349,5.758    c-25.428,1.461-46.741,20.157-46.741,46.742c0,26.569,21.312,45.299,46.741,46.74c39.339,2.229,78.782,2.531,118.176,1.545    c40.142-1.006,80.313-1.873,120.349-4.997c13.642-1.064,25.434-4.72,35.361-14.647c9.336-9.336,14.647-22.15,14.647-35.361    C1193.691,1235.144,1170.944,1212.139,1143.683,1212.285z"
   id="path4049" />
	</g>
	<g
   opacity="0.2"
   id="g4051">
		<path
   fill="#9E8A77"
   d="M581.006,1517.4c-20.791-0.947-41.377-1.477-62.179-0.876c-21.469,0.62-42.928,1.433-64.401,1.927    c-20.731,0.477-41.458,1.377-62.179,2.2c-10.356,0.411-20.777,0.569-31.09,1.628c-5.183,0.532-10.365,1.085-15.545,1.648    c-6.505,0.707-12.244,1.6-18.44,3.006c-2.891,0.656-5.635,1.601-8.341,2.671c0.705-0.298,1.41-0.595,2.115-0.893    c-4.047,1.589-8.09,3.189-12.128,4.802c-6.465,1.813-12.079,5.085-16.84,9.814c-7.125,7.125-11.178,16.904-11.178,26.986    c0,17.467,11.739,31.652,28.019,36.801c4.721,1.493,9.468,2.932,14.133,4.59c2.511,0.893,5.792,0.938,8.432,1.388    c6.192,1.056,12.407,1.827,18.67,2.21c11.12,0.68,22.17,1.107,33.311,1.296c22.203,0.375,44.415,1.215,66.621,1.282    c22.194,0.066,44.438,0.277,66.621-0.521c25.822-0.928,51.338-4.159,76.681-9.217c19.953-3.981,33.916-25.123,33.916-44.547    C627.203,1537.547,606.154,1518.546,581.006,1517.4z"
   id="path4053" />
	</g>
	<g
   opacity="0.2"
   id="g4055">
		<path
   fill="#9E8A77"
   d="M869.925,1399.772c-36.46-0.253-72.8,1.212-109.217,2.907c-39.39,1.832-79.061,4.281-118.139,9.557    c3.717-0.498,7.435-0.998,11.152-1.498c-5.199,0.699-10.4,1.386-15.603,2.06c-11.067,1.435-20.01,3.47-28.237,11.696    c-7.456,7.455-11.696,17.689-11.696,28.238s4.241,20.781,11.696,28.237c8.223,8.223,17.173,10.271,28.237,11.696    c38.52,4.96,77.118,5.607,115.903,6.342c38.625,0.73,77.279,0.264,115.903-0.035c27.035-0.21,49.6-22.404,49.6-49.601    C919.524,1422.192,896.96,1399.959,869.925,1399.772z"
   id="path4057" />
	</g>
	<g
   opacity="0.2"
   id="g4059">
		<path
   fill="#9E8A77"
   d="M920.317,1521.805c-31.999,0.989-63.898,2.914-95.866,4.593c-35.21,1.85-70.395,2.888-105.365,7.592    c3.954-0.531,7.907-1.063,11.861-1.595c-2.946,0.395-5.894,0.782-8.841,1.166c-12.049,1.568-21.78,3.773-30.74,12.733    c-8.116,8.116-12.733,19.257-12.733,30.74s4.618,22.624,12.733,30.74c8.953,8.954,18.694,11.179,30.74,12.733    c32.553,4.202,65.27,3.641,98.026,2.823c33.456-0.834,66.801-2.198,100.186-4.506c13.191-0.911,24.736-4.642,34.302-14.208    c9.057-9.057,14.208-21.488,14.208-34.303C968.828,1544.49,946.76,1520.985,920.317,1521.805z"
   id="path4061" />
	</g>
	<g
   opacity="0.2"
   id="g4063">
		<path
   fill="#9E8A77"
   d="M980.789,1645.698c-115.467-3.301-230.532,16.643-346.03,9.306c-25.231-1.604-46.333,22.288-46.333,46.332    c0,12.239,4.92,24.112,13.571,32.762c9.45,9.451,19.972,12.097,32.762,13.57c114.92,13.244,230.942-0.637,346.03-4.131    c26.647-0.81,48.919-21.641,48.919-48.92C1029.708,1667.375,1007.438,1646.461,980.789,1645.698z"
   id="path4065" />
	</g>
	<g
   opacity="0.2"
   id="g4067">
		<path
   fill="#9E8A77"
   d="M497.353,1658.588c-2.007-0.921-4.004-1.863-5.992-2.826c-3.486-1.961-7.144-3.563-10.974-4.811    c-1.197-0.17-2.398-0.313-3.597-0.478c-12.77-1.847-25.469-3.373-38.389-3.728c-10.537-0.289-21.077-0.948-31.603-1.489    c-21.946-1.128-43.749-3.757-65.637-5.571c-21.143-1.753-42.28-3.591-63.471-4.676c-10.506-0.538-21.024-0.83-31.544-0.859    c-14.591-0.043-29.512,2.749-43.861,4.924c-7.987,2.239-14.922,6.282-20.806,12.125c-8.802,8.802-13.81,20.885-13.81,33.34    c0,25.757,21.448,47.076,47.149,47.148c45.039,0.128,89.896,2.629,134.821,5.724c22.455,1.547,45.219,1.679,67.71,1.101    c14.313-0.368,29.25-2.127,43.22-4.923c5.517-1.103,10.666-2.402,15.921-4.398c7.998-3.04,14.995-5.755,21.458-11.722    c2.054-1.896,4.193-3.701,6.274-5.568C519.485,1698.21,516.806,1667.519,497.353,1658.588z"
   id="path4069" />
	</g>
	<g
   opacity="0.2"
   id="g4071">
		<path
   fill="#9E8A77"
   d="M555.598,1400.871c-8.954-8.953-19.439-12.077-31.704-13.131c-11.629-1-23.187-1.939-34.855-2.308    c-15.033-0.477-29.351,1.524-44.074,4.565c-19.062,3.936-32.416,23.912-32.416,42.576c0,18.665,13.354,38.642,32.416,42.577    c13.956,2.882,27.675,5.085,41.953,4.633c12.38-0.392,24.637-1.313,36.976-2.374c12.264-1.055,22.75-4.18,31.704-13.133    c8.37-8.37,13.131-19.859,13.131-31.703S563.968,1409.242,555.598,1400.871z"
   id="path4073" />
	</g>
	<g
   opacity="0.2"
   id="g4075">
		<path
   fill="#9E8A77"
   d="M195.552,1555.986c-8.895-8.895-19.021-11.654-31.125-12.892C114.253,1537.969,0,1533,0,1533v94.815    c0,0,114.305,8.338,164.426,3.315c12.097-1.213,22.243-4.01,31.125-12.893c8.218-8.219,12.893-19.497,12.893-31.125    C208.444,1575.484,203.77,1564.205,195.552,1555.986z"
   id="path4077" />
	</g>
	<g
   opacity="0.2"
   id="g4079">
		<path
   fill="#9E8A77"
   d="M1310.135,1353.796c-5.066-8.65-15.273-18.165-25.655-19.728c-23.907-3.602-47.512-6.178-71.678-5.633    c-21.759,0.49-43.479,1.997-65.219,2.986c-21.73,0.99-43.486,1.928-65.24,2.132c-21.525,0.202-43.091,1.891-64.6,1.431    c-17.943-0.384-34.334,12.635-39.033,29.718c-5.603,20.368,6.703,45.122,28.271,49.794c24.236,5.249,48.358,9.98,73.193,11.316    c21.73,1.168,43.474,1.462,65.23,1.153c21.743-0.31,43.512-0.679,65.229-1.771c24.827-1.247,49.263-4.584,73.845-8.337    c7.272-2.039,13.587-5.72,18.942-11.04c8.015-8.014,12.574-19.016,12.574-30.355    C1315.972,1367.714,1314.018,1360.492,1310.135,1353.796z"
   id="path4081" />
	</g>
	<g
   opacity="0.2"
   id="g4083">
		<path
   fill="#9E8A77"
   d="M1257.063,1465.377c-8.808-8.809-18.999-11.736-31.029-12.854c-13.264-1.231-26.437-2.499-39.762-2.394    c-13.257,0.104-26.507,0.722-39.763,0.996c-27.272,0.563-54.581,0.162-81.733-2.643c-19.435-2.008-38.121,15.084-42.97,32.716    c-3.164,11.502-1.537,24.047,4.492,34.338c5.218,8.908,15.887,18.958,26.632,20.479c30.391,4.305,60.69,6.669,91.371,7.306    c13.24,0.275,26.522,0.541,39.762,0.233c14.086-0.327,27.951-1.942,41.972-3.269c12.037-1.138,22.211-4.033,31.029-12.852    c8.192-8.193,12.853-19.438,12.853-31.029C1269.916,1484.813,1265.256,1473.568,1257.063,1465.377z"
   id="path4085" />
	</g>
	<g
   opacity="0.2"
   id="g4087">
		<path
   fill="#9E8A77"
   d="M1417.526,1573.922c-110.855-3.118-221.818,2.774-332.592,6.491    c-25.606,0.859-47.014,20.735-47.014,47.013c0,26.271,21.407,46.165,47.014,47.014c110.788,3.673,221.797,2.934,332.592-0.228    c27.316-0.779,50.144-22.221,50.144-50.145C1467.67,1596.15,1444.843,1574.691,1417.526,1573.922z"
   id="path4089" />
	</g>
	<g
   opacity="0.2"
   id="g4091">
		<path
   fill="#9E8A77"
   d="M1516.9,1457.502l-9.211-7.117c-7.1-4.117-14.758-6.188-22.974-6.214    c-9.196-1.196-18.798-2.653-28.075-2.052c-10.113,0.656-20.151,1.861-30.235,2.837c-20.045,1.938-40.453,2.258-60.472-0.21    c2.246,0.302,4.492,0.604,6.739,0.905c-11.323-1.381-21.173-1.218-31.734,4.97c-10.113,5.924-17.682,15.729-20.792,27.039    c-3.212,11.677-1.56,24.412,4.561,34.861c6.247,10.665,15.618,16.82,27.039,20.793c23.225,8.076,48.11,9.245,72.499,8.461    c10.1-0.324,20.173-0.941,30.236-1.832c14.288-1.266,28.164-4.396,42.334-6.367c7.712-2.162,14.405-6.063,20.085-11.705    c8.498-8.497,13.332-20.161,13.332-32.185S1525.398,1466,1516.9,1457.502z"
   id="path4093" />
	</g>
	<g
   opacity="0.2"
   id="g4095">
		<path
   fill="#9E8A77"
   d="M1946.64,1632.477c-10.019-10.02-21.587-13.322-35.265-14.607c-15.279-1.437-30.424-3.072-45.777-3.015    c-15.353,0.058-30.705,0.153-46.057,0.257c-30.932,0.211-61.859,0.855-92.789,1.288c-31.139,0.437-62.279,0.753-93.422,0.815    c-15.611,0.031-31.237,0.679-46.849,0.938c-18.993,0.314-38.277,1.1-56.608,6.225c-19.281,5.387-33.016,23.301-33.016,43.364    c0,20.874,13.896,36.913,33.016,43.364c17.829,6.016,37.783,7.208,56.608,8.095c15.597,0.733,31.236,1.684,46.849,1.884    c31.14,0.398,62.281,0.514,93.422,0.531c30.93,0.018,61.861,0.03,92.789-0.291c15.352-0.16,30.704-0.304,46.057-0.418    c15.353-0.116,30.498-1.853,45.777-3.294c13.68-1.289,25.244-4.586,35.265-14.606c9.312-9.312,14.606-22.091,14.606-35.265    C1961.246,1654.566,1955.951,1641.787,1946.64,1632.477z"
   id="path4097" />
	</g>
	<g
   opacity="0.2"
   id="g4099">
		<path
   fill="#9E8A77"
   d="M1855.635,1508.473c-8.881-8.879-19.41-12.13-31.607-13.092c-14.832-1.171-29.465-2.52-44.348-2.623    c-15.594-0.109-31.186-0.34-46.779-0.562c-31.213-0.444-62.429-0.84-93.646-0.448c-24.509,0.309-44.971,20.225-44.971,44.972    c0,24.77,20.462,44.634,44.971,44.971c31.231,0.431,62.44,1.646,93.646,2.913c14.887,0.604,29.772,1.206,44.663,1.72    c15.623,0.539,30.883-0.335,46.464-1.545c12.191-0.947,22.736-4.221,31.607-13.093c8.344-8.344,13.092-19.799,13.092-31.605    C1868.727,1528.271,1863.979,1516.817,1855.635,1508.473z"
   id="path4101" />
	</g>
	<g
   opacity="0.2"
   id="g4103">
		<path
   fill="#9E8A77"
   d="M1842.127,1335.523c-57.492-0.514-114.964-2.439-172.439-3.704c-28.714-0.632-57.499-1.766-86.222-1.356    c-32.124,0.459-63.809,2.532-95.638,6.896c-7.411,2.079-13.846,5.829-19.304,11.251c-8.167,8.166-12.813,19.377-12.813,30.933    c0,24.244,19.91,43.22,43.746,43.745c57.529,1.269,114.969,3.568,172.439,6.529c61.015,3.144,121.627,3.244,181.932-7.829    c19.029-3.494,32.317-24.167,32.317-42.445C1886.146,1355.385,1866.119,1335.738,1842.127,1335.523z"
   id="path4105" />
	</g>
	<g
   opacity="0.2"
   id="g4107">
		<path
   fill="#9E8A77"
   d="M2022.269,1443.455c-8.179-8.18-22.536-15.872-34.591-14.328c-17.81,2.281-35.816,2.74-53.752,2.814    c-26.963,0.113-49.464,22.416-49.464,49.465c0,27.045,22.501,49.355,49.464,49.464c22.569,0.089,44.509-1.293,66.757-5.652    c21.134-4.142,35.914-26.661,35.914-47.172C2036.597,1465.123,2031.401,1452.588,2022.269,1443.455z"
   id="path4109" />
	</g>
	<g
   opacity="0.2"
   id="g4111">
		<path
   fill="#9E8A77"
   d="M2046.786,1194.382c-82.862-1.395-165.796-5.657-248.604-0.229c-24.526,1.608-45.107,19.302-45.107,45.107    c0,24.359,20.517,45.411,45.107,45.107c82.942-1.023,165.677,7.765,248.604,6.491c26.288-0.404,48.237-21.637,48.237-48.239    C2095.023,1215.99,2073.073,1194.824,2046.786,1194.382z"
   id="path4113" />
	</g>
	<g
   opacity="0.2"
   id="g4115">
		<path
   fill="#9E8A77"
   d="M1603.786,1223.382c-82.862-1.395-165.796-5.657-248.604-0.229c-24.526,1.608-45.107,19.302-45.107,45.107    c0,24.359,20.517,45.411,45.107,45.107c82.942-1.023,165.677,7.765,248.604,6.491c26.288-0.404,48.237-21.637,48.237-48.239    C1652.023,1244.99,1630.073,1223.824,1603.786,1223.382z"
   id="path4117" />
	</g>
	<g
   opacity="0.2"
   id="g4119">
		<path
   fill="#9E8A77"
   d="M2272,1552.377c-19.152-1.021-20.216-2.379-39.393-2.758c-18.934-0.373-37.865-0.863-56.797-1.348    c-38.003-0.975-76.273-1.635-114.225,0.611c-13.769,0.814-25.992,4.94-35.938,14.887c-9.489,9.488-14.887,22.513-14.887,35.938    s5.397,26.45,14.887,35.938c9.953,9.953,22.165,14.06,35.938,14.887c37.99,2.279,76.166,3.254,114.225,3.971    c18.932,0.356,37.863,0.708,56.797,0.961c19.181,0.257,20.24-0.702,39.393-1.708V1552.377z"
   id="path4121" />
	</g>
	<g
   opacity="0.2"
   id="g4123">
		<path
   fill="#9E8A77"
   d="M2197.551,1348.104c-25.195,0.419-50.4,0.223-75.589,1.045c-25.199,0.821-50.393,1.699-75.589,2.506    c-20.215,0.646-37.112,16.392-37.112,37.111c0,20.748,16.898,36.426,37.112,37.111c25.302,0.858,50.404,3.365,75.589,5.864    c25.14,2.495,50.332,3.936,75.589,4.403c23.998,0.445,44.021-20.36,44.021-44.02    C2241.571,1368.43,2221.549,1347.705,2197.551,1348.104z"
   id="path4125" />
	</g>
	<g
   opacity="0.2"
   id="g4127">
		<path
   fill="#9E8A77"
   d="M2272,1232.148c0,0-50.412,1.699-75.607,2.506c-20.215,0.646-37.122,16.392-37.122,37.111    c0,20.748,16.913,36.426,37.126,37.111c25.303,0.858,75.604,5.864,75.604,5.864V1232.148z"
   id="path4129" />
	</g>
	<g
   id="g4131">
		<polygon
   fill="#A1A1A1"
   points="2272,2271 0,2271 0,1891 2272,1904   "
   id="polygon4133" />
	</g>
	<g
   id="g4135">
		<rect
   y="992"
   fill="#968881"
   width="2272"
   height="193"
   id="rect4137" />
	</g>
	<g
   id="g4139">
		<rect
   x="154"
   y="992"
   fill="#991B28"
   width="71"
   height="223"
   id="rect4141" />
	</g>
	<g
   id="g4143">
		<rect
   x="719"
   y="992"
   fill="#991B28"
   width="60"
   height="220"
   id="rect4145" />
	</g>
	<g
   id="g4147">
		<rect
   x="1259"
   y="992"
   fill="#991B28"
   width="72"
   height="207"
   id="rect4149" />
	</g>
	<g
   id="g4151">
		<rect
   x="1823"
   y="992"
   fill="#991B28"
   width="71"
   height="221"
   id="rect4153" />
	</g>
	<g
   opacity="0.3"
   id="g4155">
		<polygon
   fill="#544C45"
   points="2272,1155.498 0,1168.528 0,1249.327 2272,1330.791   "
   id="polygon4157" />
	</g>
	<g
   id="g4159">
		<rect
   y="1149"
   fill="#991B28"
   width="2272"
   height="64"
   id="rect4161" />
	</g>
	<g
   id="g4163">
		<path
   fill="#CCCCCC"
   d="M587.725,2028.639c-18.474-0.735-36.947-2.045-55.432-2.355c-18.479-0.311-36.956-0.734-55.432-1.154    c-36.83-0.837-74.14-0.988-110.864,2.082c-18.241,1.526-33.593,14.127-33.593,33.594c0,19.479,15.354,32.051,33.593,33.593    c36.855,3.115,73.911,4.013,110.864,5.442c36.975,1.43,73.9,1.285,110.864-0.151c19.345-0.751,35.525-15.591,35.525-35.524    C623.25,2044.216,607.069,2029.407,587.725,2028.639z"
   id="path4165" />
	</g>
	<g
   id="g4167">
		<path
   fill="#CCCCCC"
   d="M668.578,2132.166c-19.517-1.39-38.97,1.173-58.299,3.916c-2.956,0.32-5.913,0.55-8.892,0.66    c-13.784,0.51-26.003,9.045-29.746,22.647c-4.718,17.153,5.738,32.26,21.545,37.945c24.39,8.773,50.034,7.703,75.392,5.678    c19.24-1.537,35.423-14.95,35.423-35.423C704.001,2147.242,687.831,2133.537,668.578,2132.166z"
   id="path4169" />
	</g>
	<g
   id="g4171">
		<path
   fill="#CCCCCC"
   d="M1143.855,2004.061c-29.503-0.951-156.566,4.482-169.303,3.217c-23.716-2.357-41.608,25.336-31.497,45.974    c10.121,20.656,43.567,21.807,63.292,24.31c15.031,1.906,106.744,0.286,137.509-0.822c19.79-0.713,36.339-15.99,36.339-36.339    C1180.194,2020.107,1163.648,2004.699,1143.855,2004.061z"
   id="path4173" />
	</g>
	<g
   id="g4175">
		<path
   fill="#CCCCCC"
   d="M863.207,1943.227c-50.339-2.936-100.846,11.863-151.178,5.695c-19.249-2.361-34.097,19.619-30.67,37.012    c4.272,21.689,28.188,27.95,47.049,30.998c25.316,4.091,51.076,4.072,76.627,3.232c21.909-0.719,50.226,2.103,70.938-5.786    C914.364,1999.754,902.604,1945.521,863.207,1943.227C837.917,1941.752,883.306,1944.397,863.207,1943.227z"
   id="path4177" />
	</g>
	<g
   id="g4179">
		<path
   fill="#CCCCCC"
   d="M278.65,2126.166c-31.254-2.209-63.632,6.067-94.74,8.722c-16.299,1.392-32.575,2.097-48.93,2.306    c-9.721,0.124-19.445,0.222-29.157,0.704c1.614-0.08-29.763,2.991-15.771,1.113c-28.26,3.257-56.128,33.459-25.902,57.523    c28.229,22.475,83.649,15.686,117.074,14.195c34.357-1.533,88.282,0.655,117.79-20.152    C327.941,2170.18,311.355,2128.48,278.65,2126.166C263.23,2125.076,297.904,2127.528,278.65,2126.166z"
   id="path4181" />
	</g>
	<g
   id="g4183">
		<path
   fill="#CCCCCC"
   d="M497.366,2128.52c-13.507-0.684-27.026,2.081-40.353,4.091c-5.367,0.809-10.709,1.659-16.047,2.645    c-2.703,0.499-5.413,0.953-8.125,1.394c-1.049,0.167-2.101,0.323-3.152,0.479c-7.89,1.008-14.352,2.63-20.247,8.525    c-5.474,5.474-8.588,12.988-8.588,20.733s3.114,15.26,8.588,20.733c5.979,5.979,12.64,7.657,20.733,8.588    c22.04,2.533,45.053,3.141,67.19,1.827c18.77-1.113,34.508-14.854,34.508-34.508    C531.874,2143.498,516.146,2129.469,497.366,2128.52z"
   id="path4185" />
	</g>
	<g
   id="g4187">
		<path
   fill="#CCCCCC"
   d="M1369.414,2028.432c-21.294-0.199-42.484,0.783-63.776,0.831c-18.9,0.043-41.981-3.188-60.008,3.734    c-35.919,13.793-21.058,61.895,12.921,65.064c38.345,3.577,89.631,10.401,125.091-8.573    C1412.683,2073.948,1403.431,2028.75,1369.414,2028.432C1360.737,2028.351,1387.059,2028.597,1369.414,2028.432z"
   id="path4189" />
	</g>
	<g
   id="g4191">
		<path
   fill="#CCCCCC"
   d="M1471.638,2127.344c-40.967-0.756-90.607-4.8-130.605,4.587c-36.59,8.587-30.382,60.147,6.304,62.398    c44.482,2.727,88.871,3.868,132.799-4.196C1516.405,2183.479,1506.681,2127.984,1471.638,2127.344    C1462.056,2127.167,1489.057,2127.662,1471.638,2127.344z"
   id="path4193" />
	</g>
	<g
   id="g4195">
		<path
   fill="#CCCCCC"
   d="M964.638,2109.344c-40.967-0.756-90.607-4.8-130.605,4.587c-36.59,8.587-30.382,60.147,6.304,62.398    c44.482,2.727,88.871,3.868,132.799-4.196C1009.405,2165.479,999.681,2109.984,964.638,2109.344    C955.056,2109.167,982.057,2109.662,964.638,2109.344z"
   id="path4197" />
	</g>
	<g
   id="g4199">
		<path
   fill="#CCCCCC"
   d="M1773.957,2043.685c-15.211-15.214-44.51-12.605-64.14-12.79c-27.313-0.258-54.667,0.8-81.978,1.279    c-16.039,0.281-39.124-2.056-53.994,5.967c-15.964,8.612-26.932,31.979-14.649,48.154c13.083,17.23,28.851,18.631,49.446,19.427    c27.221,1.051,54.533,1.18,81.77,1.615c22.849,0.366,57.568,4.776,77.854-8.103    C1787.272,2087.168,1789.673,2059.398,1773.957,2043.685C1766.584,2036.311,1780.685,2050.411,1773.957,2043.685z"
   id="path4201" />
	</g>
	<g
   id="g4203">
		<path
   fill="#CCCCCC"
   d="M1687.479,2137.08c-22.093-0.471-44.176,0.564-66.26,1.012c-17.773,0.359-42.529-5.296-57.593,6.457    c-12.637,9.859-16.839,27.908-8.462,41.84c9.183,15.27,28.584,19.204,44.81,21.979c20.252,3.464,40.903,3.489,61.38,2.971    c16.738-0.424,35.892,1.893,49.687-9.578C1737.126,2180.07,1720.621,2137.786,1687.479,2137.08    C1652.749,2136.341,1707.5,2137.507,1687.479,2137.08z"
   id="path4205" />
	</g>
	<g
   id="g4207">
		<path
   fill="#CCCCCC"
   d="M1956.128,2043.338c-17.843-1.415-35.749-0.495-53.62-0.959c-16.55-0.431-35.09-7.146-50.619,1.191    c-25.709,13.803-21.359,56.078,7.772,62.672c31.085,7.037,78.985,13.19,109.253,0.343    C2002.646,2092.266,1990.314,2046.049,1956.128,2043.338C1932.317,2041.449,1974.154,2044.768,1956.128,2043.338z"
   id="path4209" />
	</g>
	<g
   id="g4211">
		<path
   fill="#CCCCCC"
   d="M2122.174,2111.321c-17.824-2.761-33.703-2.889-51.653-1.14c-14.892,1.451-32.726-0.596-46.138,7.188    c-25.902,15.035-22.197,53.74,5.584,64.275c23.151,8.78,75.963,4.969,98.348-5.267    C2154.953,2164.197,2153.539,2116.177,2122.174,2111.321C2114.034,2110.061,2137.194,2113.646,2122.174,2111.321z"
   id="path4213" />
	</g>
	<g
   id="g4215">
		<path
   fill="#CCCCCC"
   d="M2174.719,1972.669c-10.712-38.947-62.298-22.858-90.013-18.56c-27.346,3.133-99.555-6.788-82.13,44.931    c12.188,36.179,75.942,29.432,105.154,26.302C2135.703,2022.346,2185.628,2012.333,2174.719,1972.669    C2170.587,1957.646,2178.457,1986.261,2174.719,1972.669z"
   id="path4217" />
	</g>
	<g
   id="g4219">
		<path
   fill="#CCCCCC"
   d="M1518.312,1956.658c-24.514,0.6-66.06-5.684-86.87,10.399c-21.877,16.908-14.154,53.552,13.426,59.052    c22.384,4.463,67.599-1.775,87.64-12.452C1559.17,1999.453,1549.252,1955.897,1518.312,1956.658    C1506.701,1956.942,1534.795,1956.253,1518.312,1956.658z"
   id="path4221" />
	</g>
	<g
   id="g4223">
		<path
   fill="#CCCCCC"
   d="M1215.625,2130.578c-23.75,1.71-60.096-6.45-75.562,16.791c-16.268,24.443,3.499,51.27,28.612,56.864    c23.753,5.294,61.611,4.805,76.747-17.939C1260.183,2164.116,1244.073,2128.53,1215.625,2130.578    C1211.557,2130.871,1235.129,2129.174,1215.625,2130.578z"
   id="path4225" />
	</g>
	<g
   id="g4227">
		<path
   fill="#CCCCCC"
   d="M1862.533,2175.79c-27.666-0.146-76.729-13.641-95.684,12.071c-8.349,11.324-9.336,26.729-2.181,38.938    c9.093,15.525,23.98,17.085,40.345,18.943c26.852,3.048,72.087,13.199,88.927-15.226    C1908.011,2206.768,1889.928,2175.936,1862.533,2175.79C1840.101,2175.672,1882.396,2175.896,1862.533,2175.79z"
   id="path4229" />
	</g>
	<g
   id="g4231">
		<path
   fill="#CCCCCC"
   d="M792.068,2074.176c-7.838-28.495-30.799-21.427-51.996-22.499c-20.811-4.666-42.867,6.31-44.389,29.561    C692.071,2136.431,807.844,2131.526,792.068,2074.176C787.304,2056.854,797.08,2092.396,792.068,2074.176z"
   id="path4233" />
	</g>
	<g
   id="g4235">
		<g
   id="g4237">
			<path
   fill="#CCCCCC"
   d="M2237.232,2024.688c-5.157-0.201-10.189-0.099-15.347-0.02c-10.733,0.166-19.128,2.091-28.837,6.49     c-10.696,4.847-16.99,18.546-16.99,29.677c0,11.497,6.417,24.356,17.037,29.676c13.321,6.673,28.074,7.624,42.744,8.715     c11.473,0.854,23.16,1.806,34.16,2.738v-75.857C2259,2025.621,2248.24,2025.119,2237.232,2024.688z"
   id="path4239" />
		</g>
		<g
   id="g4241">
			<path
   fill="#CCCCCC"
   d="M2232.639,2182.22c-4.965,18.053,5.694,40.452,24.989,44.451c4.185,0.867,8.372,1.619,12.372,2.294     v-72.954c-1-0.103-1.762-0.204-2.766-0.32C2251.519,2153.88,2236.535,2168.059,2232.639,2182.22z"
   id="path4243" />
		</g>
	</g>
	<g
   opacity="0.3"
   id="g4245">
		<path
   fill="#544C45"
   d="M2272,1901.996c-308.938-4.186-427.699-7.586-736.6-3.461c-384.508,5.135-772.38,0.077-1156.15,27.58    c-13.807,0.989-27.681,1.977-41.383,4c-49.619,7.33-59.021,75.644-77.278,113.936c-16.146,33.867-15.909,63.237-55.616,63.35    c-46.625,0.133-93.217,0.387-139.85,0.262C41.645,2107.6,0,2108.051,0,2108.051s0.398,95.592,0,112.795    c89.523-0.721,151.263,0.111,240.78,1.007c82.373,0.823,93.619-47.412,113.01-118.508c18.052-66.187,9.061-70.994,69.05-71.756    c151.783-1.929,303.567-3.706,455.352-5.501c440.856-5.212,881.716-10.425,1322.581-14.854    c88.091-0.885-16.871-3.099,71.227-2.096C2270.138,1969.121,2272,1901.996,2272,1901.996S2271.949,1942.074,2272,1901.996z"
   id="path4247" />
	</g>
	<g
   id="g4249">
		<polygon
   fill="#968881"
   points="333.343,1805.791 353.666,1984 2272,1984 2272,1801.685   "
   id="polygon4251" />
	</g>
	<g
   id="g4253">
		<polygon
   fill="#968881"
   points="0,1960.18 0,2175 287,2175 287,1950.103   "
   id="polygon4255" />
	</g>
	<g
   id="g4257">
		<polygon
   fill="#968881"
   points="286.952,2175.246 279.992,1963.419 353.979,1792.044 353.666,1983.694   "
   id="polygon4259" />
	</g>
	<g
   opacity="0.4"
   id="g4261">
		<polygon
   fill="#544C45"
   points="0,1953.474 0,2027.441 279.112,2022.402 305.131,1956.076   "
   id="polygon4263" />
	</g>
	<g
   opacity="0.4"
   id="g4265">
		<path
   fill="#544C45"
   d="M2272,1818.928v-0.428c0,0-194.499-9.509-272.556-10.085c-323.186-2.377-646.491,9.664-969.617,13.528    c-111.555,1.336-223.131,2.078-334.697,1.512c-56.494-0.284-112.982-0.952-169.462-2.017    c-56.327-1.062-112.963-3.712-169.252-1.419c-19.796,0.806-36.561,12.748-36.815,30.152c-0.266,18.215,28.245,32.139,9.439,37.399    c-10.079,2.82,187.955,2.054,268.227,3.415c80.75,1.372,161.516,1.889,242.282,1.881c161.901-0.017,323.789-2.691,485.649-5.523    c352.21-6.165,946.801,2.47,946.801,2.47v-1.326V1818.928z"
   id="path4267" />
	</g>
	<g
   id="g4269">
		<path
   fill="#D1D1D1"
   d="M323.909,1947.134c0.441-0.339,0.914-0.601,1.399-0.824l50.759-107.233l-3.36-33.595l-218.014-57.111    L0,1919.717V1971l285.132-6.355C298.916,1960.713,312.356,1955.997,323.909,1947.134z"
   id="path4271" />
	</g>
	<g
   id="g4273">
		<polygon
   fill="#D1D1D1"
   points="2272,1784.198 12.055,1768.526 5.992,1854.212 2272,1840.998   "
   id="polygon4275" />
	</g>
	<g
   id="g4277">
		<path
   fill="#499D96"
   d="M0.007,1946.347l-0.014-8l205-0.347c0.06,0,0.12,0.001,0.179,0.004    c0.707,0.027,71.086,2.896,98.039-10.581c20.272-10.137,29.527-37.811,29.619-38.089c0.028-0.088,0.06-0.174,0.094-0.259    l25.369-62.578c0.609-1.503,2.066-2.489,3.688-2.497l1910-9.072l0.039,8l-1907.32,9.06l-24.314,59.977    c-0.86,2.562-10.933,31.282-33.596,42.614c-28.549,14.274-97.765,11.596-101.869,11.422L0.007,1946.347z"
   id="path4279" />
	</g>
	<g
   id="g4281">
		<path
   fill="#A17F58"
   d="M2272,1684.533c0,0-1879.836,0.055-2272,6.718c6.382,63.833,0,110.87,0,110.87l2272-0.438V1684.533z"
   id="path4283" />
	</g>
	<g
   id="g4285">
		<polygon
   fill="#A17F58"
   points="404.962,1685.453 331.712,1877.926 303.635,1903.578 257.147,1915.023 0,1919.717 0,1691.251       "
   id="polygon4287" />
	</g>
	<g
   id="g4289">
		
			<rect
   x="304.092"
   y="1931.906"
   transform="matrix(0.0292 0.9996 -0.9996 0.0292 2277.8196 1528.4724)"
   fill="#494D4A"
   width="95.854"
   height="10"
   id="rect4291" />
	</g>
	<g
   id="g4293">
		<path
   fill="#494D4A"
   d="M364.051,1853.764c-2.533,0-4.704-1.916-4.968-4.49l-4.78-46.642c-0.281-2.747,1.717-5.202,4.464-5.483    c2.748-0.274,5.202,1.717,5.484,4.464l4.78,46.642c0.281,2.747-1.717,5.202-4.464,5.483    C364.393,1853.755,364.221,1853.764,364.051,1853.764z"
   id="path4295" />
	</g>
	<g
   id="g4297">
		
			<rect
   x="1131"
   y="547.387"
   transform="matrix(0.0029 1 -1 0.0029 2816.0566 542.4652)"
   fill="#494D4A"
   width="10"
   height="2272.01"
   id="rect4299" />
	</g>
	<g
   id="g4301">
		<rect
   y="1207"
   fill="#5E1018"
   width="2272"
   height="12"
   id="rect4303" />
	</g>
	<g
   id="g4305">
		<path
   fill="#5E1018"
   d="M2272,1153h-380c-3.313,0-6-2.687-6-6V992h12v149h374V1153z"
   id="path4307" />
	</g>
	<g
   id="g4309">
		<path
   fill="#5E1018"
   d="M1822,1150h-495c-3.313,0-6-2.687-6-6V992h12v146h483V992h12v152C1828,1147.313,1825.313,1150,1822,1150z"
   id="path4311" />
	</g>
	<g
   id="g4313">
		<path
   fill="#5E1018"
   d="M1260,1156c-0.014,0-0.026,0-0.04,0l-479.921-3.165c-1.606-0.011-3.142-0.665-4.262-1.816    c-1.12-1.152-1.731-2.705-1.697-4.312l3.291-154.834l11.997,0.255l-3.161,148.748L1254,1143.96V992h12v158    c0,1.599-0.638,3.13-1.771,4.257C1263.104,1155.374,1261.584,1156,1260,1156z"
   id="path4315" />
	</g>
	<g
   id="g4317">
		<path
   fill="#5E1018"
   d="M716.386,1156H222c-3.313,0-6-2.687-6-6V992h12v152h482.376l-0.259-151.99l12-0.021l0.269,158    c0.002,1.593-0.628,3.121-1.754,4.249C719.507,1155.366,717.979,1156,716.386,1156z"
   id="path4319" />
	</g>
	<g
   id="g4321">
		<path
   fill="#5E1018"
   d="M152,1159H0v-12h146V992h12v161C158,1156.313,155.313,1159,152,1159z"
   id="path4323" />
	</g>
	<g
   id="g4325">
		<g
   opacity="0.2"
   id="g4327">
			<path
   fill="#9E8A77"
   d="M42.059,1365.385c0-23.729-19.143-41.139-42.059-42.236v84.471     C22.908,1406.383,42.059,1389.22,42.059,1365.385z"
   id="path4329" />
		</g>
		<g
   id="g4331">
			<g
   id="g4333">
				<path
   fill="#CCCCCC"
   d="M409.672,2231.841c-39.224-4.098-78.263-3.694-117.583-1.429c-19.215,1.107-35.322,19.48-35.322,39.572      c0,0.594,0.017,1.016,0.044,2.016h190.075c-0.402-10-4.293-22.42-10.872-28.998      C428.474,2235.462,419.922,2232.911,409.672,2231.841z"
   id="path4335" />
			</g>
			<g
   id="g4337">
				<path
   fill="#CCCCCC"
   d="M990.868,2225.121c-41.792-1.725-83.571-2.11-125.395-2.825c-20.418-0.35-40.871-0.089-61.292-0.022      c-23.853,0.078-46.993,1.086-70.415,6.168C715.27,2232.456,707.96,2255,711.812,2272h315.952c0.229-2,0.358-7.626,0.358-9.375      C1028.122,2241.684,1011.151,2225.957,990.868,2225.121z"
   id="path4339" />
			</g>
			<g
   id="g4341">
				<path
   fill="#CCCCCC"
   d="M1308.625,2240.256c-7.422-7.423-15.494-9.263-25.479-10.555c-25.938-3.354-51.822-3.203-77.879-1.428      c-12.892,0.878-25.778,1.845-38.611,3.362c-6.492,0.768-12.987,1.502-19.489,2.189c-5.168,0.547-10.312,1.295-15.453,2.058      c-2.147,0.231-4.313,0.36-6.465,0.53c-15.927,1.257-29.321,16.638-29.321,33.572c0,0.596,0.021,1.015,0.054,2.015h223.155      c0.028-1,0.044-1.425,0.044-2.015C1319.18,2260.467,1315.352,2246.983,1308.625,2240.256z"
   id="path4343" />
			</g>
			<g
   id="g4345">
				<path
   fill="#CCCCCC"
   d="M1545.188,2234.633c-13.432-0.884-26.866-0.023-40.315,0.328c-18.275,0.479-33.624,18.039-34.467,37.039      h109.453C1579.035,2253,1563.551,2235.842,1545.188,2234.633z"
   id="path4347" />
			</g>
			<g
   id="g4349">
				<path
   fill="#CCCCCC"
   d="M2154.723,2218.708c-27.574-1.367-55.131,0.005-82.728-0.2c-28.504-0.212-56.903-1.407-85.248-4.587      c-15.24-1.71-29.982,12.201-33.766,25.957c-2.593,9.425-0.815,23.122,4.161,32.122h232.581c1.255-4,1.947-11.882,1.947-16.094      C2191.671,2235.012,2174.832,2219.704,2154.723,2218.708z"
   id="path4351" />
			</g>
			<g
   id="g4353">
				<path
   fill="#CCCCCC"
   d="M555.213,2245.477c-11.954-6.78-24.467-8.902-38.037-8.783c-18.026,0.159-33.315,17.307-35.78,35.307      h90.235C569.454,2262,563.804,2250.35,555.213,2245.477z"
   id="path4355" />
			</g>
			<g
   id="g4357">
				<path
   fill="#CCCCCC"
   d="M83.798,2239.169c-13.771-1.158-27.162-1.251-40.949-0.438c-14.187,0.836-28.644,1.848-42.849,1.258      V2272h119.468c-1.548-7-4.907-16.997-9.759-21.849C102.402,2242.844,93.815,2240.012,83.798,2239.169z"
   id="path4359" />
			</g>
		</g>
		<g
   opacity="0.3"
   id="g4361">
			<path
   fill="#FFEB9C"
   d="M260.162,1913.509l46.473-15.931l25.077-19.652l27.564-75.804l81.746-2.418     c-39.249-64.665-140.215-98.877-262.299-98.877c-67.283,0-129.611,11.805-178.724,32.687v182.31L260.162,1913.509z"
   id="path4363" />
		</g>
	</g>
	<g
   id="g4365">
		<path
   fill="#494D4A"
   d="M0.099,1923.846l-0.198-14.998l207.637-2.741c0.113-0.004,0.229-0.001,0.344,0.003    c0.584,0.019,58.525,1.748,85.041-10.812c24.521-11.615,35.461-31.146,36.816-33.713l22.488-62.02    c1.074-2.962,3.885-4.938,7.036-4.943l1912.723-3.798l0.029,15l-1907.476,3.787l-20.857,57.523    c-0.085,0.235-0.182,0.466-0.291,0.691c-0.512,1.066-12.902,26.275-44.047,41.028c-29.299,13.878-87.442,12.385-91.778,12.253    L0.099,1923.846z"
   id="path4367" />
	</g>
	<g
   id="g4369">
		<path
   fill="#494D4A"
   d="M0.12,1974.675l-0.24-10.998l264.634-5.78c0.233-0.005,0.465,0.005,0.695,0.029    c0.121,0.013,12.99,1.268,27.551-2.395c18.76-4.72,31.509-15.067,37.894-30.76l28.256-74.948c0.802-2.127,2.831-3.542,5.104-3.56    l1907.943-14.683l0.084,11l-1904.17,14.653l-26.947,71.478c-0.016,0.042-0.032,0.084-0.049,0.126    c-7.7,18.996-23.53,31.945-45.779,37.447c-15.115,3.739-28.245,2.829-30.661,2.616L0.12,1974.675z"
   id="path4371" />
	</g>
	<g
   id="g4373">
		<path
   fill="#494D4A"
   d="M279.518,2188c-0.044,0-0.089,0-0.134,0l-279.517-4.783l0.267-14.9l274.241,4.931l72.592-191.431    c1.104-2.914,3.896-4.816,7.013-4.816H2272v15H359.156l-72.626,191.354C285.423,2186.271,282.629,2188,279.518,2188z"
   id="path4375" />
	</g>
	<g
   id="g4377">
		<path
   fill="none"
   d="M279.517,2180.766"
   id="path4379" />
	</g>
</g>
</svg>