<?xml version="1.0" encoding="utf-8"?>
<!-- Generator: Adobe Illustrator 16.0.0, SVG Export Plug-In . SVG Version: 6.00 Build 0)  -->
<!DOCTYPE svg PUBLIC "-//W3C//DTD SVG 1.1//EN" "http://www.w3.org/Graphics/SVG/1.1/DTD/svg11.dtd">
<svg version="1.1" id="Layer_1" xmlns="http://www.w3.org/2000/svg" xmlns:xlink="http://www.w3.org/1999/xlink" x="0px" y="0px"
	 width="250px" height="250px" viewBox="0 0 250 250" enable-background="new 0 0 250 250" xml:space="preserve">
<g>
	<g>
		<circle fill="#FFFFFF" cx="101.998" cy="151.333" r="7.121"/>
		<path fill="#373636" d="M101.991,160.456c-4.287,0-8.039-3.049-8.92-7.249c-1.033-4.922,2.131-9.768,7.053-10.801
			c0.619-0.13,1.251-0.196,1.879-0.196c4.288,0,8.04,3.049,8.921,7.249c1.033,4.922-2.131,9.767-7.052,10.801
			C103.252,160.39,102.62,160.456,101.991,160.456z M102.003,146.21c-0.353,0-0.708,0.037-1.058,0.11
			c-2.763,0.581-4.539,3.302-3.96,6.064c0.495,2.359,2.601,4.071,5.006,4.071c0.353,0,0.709-0.037,1.059-0.11
			c2.763-0.581,4.539-3.302,3.96-6.064C106.515,147.922,104.409,146.21,102.003,146.21z"/>
		<path fill="#FFFFFF" d="M96.502,98.174c0.048-3.564,2.708-5.734,6.189-5.687c3.394,0.047,6.077,2.375,6.029,5.854l-0.447,32.67
			c-0.049,3.479-2.796,5.732-6.191,5.686c-3.479-0.047-6.078-2.289-6.03-5.854L96.502,98.174z"/>
		<path fill="#373636" d="M102.186,138.698l-0.131-0.001c-4.697-0.063-8.063-3.378-8.003-7.88l0.45-32.67
			c0.061-4.51,3.383-7.66,8.078-7.66l0.139,0.001c4.623,0.065,8.062,3.453,8.002,7.881l-0.447,32.67
			C110.211,135.478,106.81,138.698,102.186,138.698z M102.662,94.488c-2.031,0-4.124,0.976-4.16,3.713l-0.45,32.67
			c-0.037,2.78,2.071,3.8,4.058,3.826l0.076,0.001c2.009,0,4.052-1.148,4.088-3.715l0.447-32.669
			C106.757,95.725,104.643,94.515,102.662,94.488L102.662,94.488z"/>
	</g>
	<g>
		<circle fill="#FFFFFF" cx="124.998" cy="151.333" r="7.121"/>
		<path fill="#373636" d="M124.991,160.456c-4.287,0-8.039-3.049-8.92-7.249c-1.033-4.922,2.131-9.768,7.053-10.801
			c0.619-0.13,1.251-0.196,1.879-0.196c4.288,0,8.04,3.049,8.921,7.249c1.033,4.922-2.131,9.767-7.052,10.801
			C126.252,160.39,125.62,160.456,124.991,160.456z M125.003,146.21c-0.353,0-0.708,0.037-1.058,0.11
			c-2.763,0.581-4.539,3.302-3.96,6.064c0.495,2.359,2.601,4.071,5.006,4.071c0.353,0,0.709-0.037,1.059-0.11
			c2.763-0.581,4.539-3.302,3.96-6.064C129.515,147.922,127.409,146.21,125.003,146.21z"/>
		<path fill="#FFFFFF" d="M119.502,98.174c0.048-3.564,2.708-5.734,6.189-5.687c3.394,0.047,6.077,2.375,6.029,5.854l-0.447,32.67
			c-0.049,3.479-2.796,5.732-6.191,5.686c-3.479-0.047-6.078-2.289-6.03-5.854L119.502,98.174z"/>
		<path fill="#373636" d="M125.186,138.698l-0.131-0.001c-4.697-0.063-8.063-3.378-8.003-7.88l0.45-32.67
			c0.061-4.51,3.383-7.66,8.078-7.66l0.139,0.001c4.623,0.065,8.062,3.453,8.002,7.881l-0.447,32.67
			C133.211,135.478,129.81,138.698,125.186,138.698z M125.662,94.488c-2.031,0-4.124,0.976-4.16,3.713l-0.45,32.67
			c-0.037,2.78,2.071,3.8,4.058,3.826l0.076,0.001c2.009,0,4.052-1.148,4.088-3.715l0.447-32.669
			C129.757,95.725,127.643,94.515,125.662,94.488L125.662,94.488z"/>
	</g>
	<g>
		<circle fill="#FFFFFF" cx="147.998" cy="151.333" r="7.121"/>
		<path fill="#373636" d="M147.991,160.456c-4.287,0-8.039-3.049-8.92-7.249c-1.033-4.922,2.131-9.768,7.053-10.801
			c0.619-0.13,1.251-0.196,1.879-0.196c4.288,0,8.04,3.049,8.921,7.249c1.033,4.922-2.131,9.767-7.052,10.801
			C149.252,160.39,148.62,160.456,147.991,160.456z M148.003,146.21c-0.353,0-0.708,0.037-1.058,0.11
			c-2.763,0.581-4.539,3.302-3.96,6.064c0.495,2.359,2.601,4.071,5.006,4.071c0.353,0,0.709-0.037,1.059-0.11
			c2.763-0.581,4.539-3.302,3.96-6.064C152.515,147.922,150.409,146.21,148.003,146.21z"/>
		<path fill="#FFFFFF" d="M142.502,98.174c0.048-3.564,2.708-5.734,6.189-5.687c3.394,0.047,6.077,2.375,6.029,5.854l-0.447,32.67
			c-0.049,3.479-2.796,5.732-6.191,5.686c-3.479-0.047-6.078-2.289-6.03-5.854L142.502,98.174z"/>
		<path fill="#373636" d="M148.186,138.698l-0.131-0.001c-4.697-0.063-8.063-3.378-8.003-7.88l0.45-32.67
			c0.061-4.51,3.383-7.66,8.078-7.66l0.139,0.001c4.623,0.065,8.062,3.453,8.002,7.881l-0.447,32.67
			C156.211,135.478,152.81,138.698,148.186,138.698z M148.662,94.488c-2.031,0-4.124,0.976-4.16,3.713l-0.45,32.67
			c-0.037,2.78,2.071,3.8,4.058,3.826l0.076,0.001c2.009,0,4.052-1.148,4.088-3.715l0.447-32.669
			C152.757,95.725,150.643,94.515,148.662,94.488L148.662,94.488z"/>
	</g>
</g>
</svg>
