<?xml version="1.0" encoding="UTF-8" standalone="no"?>
<!-- Generator: Adobe Illustrator 16.2.0, SVG Export Plug-In . SVG Version: 6.00 Build 0)  -->

<svg
   xmlns:dc="http://purl.org/dc/elements/1.1/"
   xmlns:cc="http://creativecommons.org/ns#"
   xmlns:rdf="http://www.w3.org/1999/02/22-rdf-syntax-ns#"
   xmlns:svg="http://www.w3.org/2000/svg"
   xmlns="http://www.w3.org/2000/svg"
   xmlns:sodipodi="http://sodipodi.sourceforge.net/DTD/sodipodi-0.dtd"
   xmlns:inkscape="http://www.inkscape.org/namespaces/inkscape"
   version="1.1"
   id="Layer_8"
   x="0px"
   y="0px"
   width="1100px"
   height="1100px"
   viewBox="0 0 1100 1100"
   enable-background="new 0 0 1100 1100"
   xml:space="preserve"
   inkscape:version="0.48.2 r9819"
   sodipodi:docname="BBT_EACT3__Veggie_Potato_Slice.svg"><metadata
   id="metadata4263"><rdf:RDF><cc:Work
       rdf:about=""><dc:format>image/svg+xml</dc:format><dc:type
         rdf:resource="http://purl.org/dc/dcmitype/StillImage" /><dc:title></dc:title></cc:Work></rdf:RDF></metadata><defs
   id="defs4261" /><sodipodi:namedview
   pagecolor="#ffffff"
   bordercolor="#666666"
   borderopacity="1"
   objecttolerance="10"
   gridtolerance="10"
   guidetolerance="10"
   inkscape:pageopacity="0"
   inkscape:pageshadow="2"
   inkscape:window-width="640"
   inkscape:window-height="480"
   id="namedview4259"
   showgrid="false"
   inkscape:zoom="0.21454545"
   inkscape:cx="550"
   inkscape:cy="550"
   inkscape:window-x="0"
   inkscape:window-y="0"
   inkscape:window-maximized="0"
   inkscape:current-layer="Layer_8" />
<symbol
   id="boy_head"
   viewBox="-32.722 -31.305 65.444 62.611">
	<g
   id="g4160">
		<path
   fill="#F8C78E"
   d="M29.234,13.538c-0.293,0.585-5.417,13.167-20.917,15.833c-14.66,2.522-31.86-4.115-34.5-11.667    c-0.096,0.046-9-17.167-4.667-29.833c4.332-12.667,11.332-16.667,22.332-17.333s21.334,2.333,24,5c2.668,2.667,5,7.333,5,7.333    l3.168,11.666l1.833,1.333c0,0,1.334,3,3.667,0c1.666,0.333,2.333,6.667,2.333,6.667L29.234,13.538z"
   id="path4162" />
		<path
   fill="#D6A871"
   d="M20.317-7.462c-1.75-19.25-26.292-24.752-40.25-16c-1.275,0.8-3.127,0.041-1.949-0.949    C-8.12-35.974,19.317-32.712,23.567-6.962C23.882-5.052,20.489-5.568,20.317-7.462z"
   id="path4164" />
		<path
   fill="#FFFFFF"
   d="M-28.517-1.796c0,0,2.793,6.873,7.668,5.333c6.332-2,5.832-5.167,5.832-5.167s-0.666-5.5-7-5.333    C-28.024-6.805-28.517-1.796-28.517-1.796z"
   id="path4166" />
		<path
   fill="#FFFFFF"
   d="M-2.517-1.796c0,0,2.793,6.873,7.668,5.333c6.332-2,5.832-5.167,5.832-5.167s-0.666-5.5-7-5.333    C-2.024-6.805-2.517-1.796-2.517-1.796z"
   id="path4168" />
		<path
   fill="#F8C78E"
   d="M30.067-3.212c-1.25,2.25-4.583-0.917-4.583-0.917l-1.395-0.958c0.047-0.098,0.076-0.206,0.083-0.319    c0,0,0.006-0.112,0.019-0.33c0.009-0.208,0.02-0.513,0.018-0.907c-0.005-0.789-0.045-1.942-0.247-3.399    c-0.224-1.454-0.564-3.216-1.364-5.164c-0.066-0.155-0.135-0.314-0.202-0.472l8.672,3.716    C31.067-11.962,31.317-5.462,30.067-3.212z"
   id="path4170" />
		<path
   fill="#D6A871"
   d="M28.509-9.737c-0.786-0.735-1.395-1.345-2.427-1.753c-0.799-0.316-1.652-0.508-2.511-0.598    c-0.215-0.939-0.506-1.95-0.94-3.026c0.287-0.04,0.582-0.07,0.887-0.083l7.274,3.117c0.104,0.163,0.199,0.332,0.285,0.508    c0.007,0.34,0.013,0.883,0.005,1.546C30.546-9.292,29.247-9.049,28.509-9.737z"
   id="path4172" />
		<path
   fill="#D6A871"
   d="M27.984,17.205c-1.294,2.151-7.025,8.713-5.834,6.666c5.333-9.167,5.99-19.267,1.917-28.083    c-0.786-1.702,2.089-0.125,3.169,0.951c0.819-1.099,2.09-0.928,2.582,0.799c0.577,2.029,0.757,3.93,1,6    C30.993,3.387,30.734,12.631,27.984,17.205z"
   id="path4174" />
		<g
   id="g4176">
			<path
   fill="#0071B5"
   d="M-19.016-1.796c0-2.946-1.269-5.333-2.833-5.333s-2.834,2.388-2.834,5.333     c0,2.945,1.27,5.333,2.834,5.333S-19.016,1.149-19.016-1.796z"
   id="path4178" />
			<path
   fill="#0071B5"
   d="M6.817-1.796c0-2.946-1.269-5.333-2.833-5.333c-1.565,0-2.833,2.388-2.833,5.333     c0,2.945,1.268,5.333,2.833,5.333C5.548,3.537,6.817,1.149,6.817-1.796z"
   id="path4180" />
			<g
   id="g4182">
				<path
   fill="#6C482F"
   d="M-28.408-1.603c-0.003-0.02,0.052,0.335,0.209,0.829c0.17,0.501,0.43,1.221,0.935,2.002      c0.504,0.772,1.231,1.643,2.261,2.304c0.514,0.325,1.089,0.595,1.7,0.788c0.612,0.175,1.251,0.295,1.884,0.316      c0.181,0.006,0.268,0.03,0.525,0.021l0.413-0.024c0.268-0.013,0.542-0.027,0.886-0.091c0.664-0.089,1.241-0.259,1.8-0.485      c0.558-0.219,1.075-0.503,1.513-0.837c0.452-0.315,0.828-0.68,1.146-1.031c0.648-0.701,0.995-1.416,1.218-1.91      c0.109-0.251,0.174-0.46,0.218-0.605c0.044-0.163,0.068-0.25,0.068-0.25c0.108-0.397-0.127-0.806-0.524-0.914      c-0.338-0.091-0.685,0.065-0.847,0.359l-0.062,0.114c0,0-0.024,0.043-0.068,0.124c-0.058,0.096-0.142,0.236-0.25,0.414      c-0.222,0.361-0.614,0.834-1.131,1.315c-0.263,0.236-0.562,0.477-0.913,0.669c-0.342,0.205-0.727,0.377-1.138,0.521      c-0.406,0.142-0.873,0.247-1.287,0.301c-0.19,0.044-0.465,0.058-0.747,0.065l-0.413,0.018l-0.302-0.017      c-0.942-0.029-1.831-0.276-2.574-0.699c-0.748-0.416-1.366-0.991-1.814-1.568c-0.452-0.574-0.781-1.116-0.972-1.509      c-0.203-0.404-0.28-0.588-0.284-0.607c-0.106-0.4-0.518-0.638-0.918-0.531C-28.277-2.415-28.515-2.003-28.408-1.603z"
   id="path4184" />
			</g>
			<g
   id="g4186">
				<path
   fill="#6C482F"
   d="M-2.574-1.603c-0.004-0.02,0.062,0.333,0.231,0.82c0.179,0.497,0.458,1.203,0.968,1.972      c0.509,0.76,1.241,1.61,2.262,2.249c1.014,0.64,2.287,1.02,3.533,1.073c0.176,0.006,0.269,0.031,0.512,0.021l0.413-0.025      c0.269-0.014,0.542-0.028,0.878-0.092c0.648-0.092,1.22-0.251,1.773-0.466c0.552-0.209,1.065-0.482,1.502-0.806      c0.451-0.305,0.827-0.661,1.146-1.003c0.648-0.687,1.016-1.382,1.248-1.871c0.114-0.248,0.186-0.454,0.234-0.596      c0.048-0.161,0.074-0.247,0.074-0.247c0.119-0.395-0.105-0.811-0.5-0.929c-0.355-0.107-0.728,0.064-0.885,0.387l-0.049,0.101      c0,0-0.021,0.044-0.062,0.126c-0.048,0.098-0.129,0.24-0.235,0.423c-0.213,0.366-0.584,0.858-1.102,1.354      C9.108,1.131,8.81,1.381,8.458,1.583C8.114,1.798,7.726,1.982,7.309,2.135c-0.412,0.153-0.884,0.268-1.313,0.32      C5.797,2.5,5.522,2.512,5.241,2.519L4.828,2.536L4.514,2.52c-0.961-0.022-1.876-0.28-2.625-0.73      C1.132,1.351,0.518,0.756,0.076,0.166C-0.37-0.421-0.68-0.976-0.862-1.374C-1.053-1.784-1.12-1.971-1.125-1.99      c-0.106-0.4-0.518-0.638-0.918-0.531C-2.442-2.415-2.681-2.003-2.574-1.603z"
   id="path4188" />
			</g>
			<g
   id="g4190">
				<path
   fill="#5C1919"
   d="M-0.098,11.335c-0.017-0.015,0.215,0.159,0.607,0.356c0.388,0.206,0.951,0.468,1.668,0.693      c0.715,0.227,1.587,0.395,2.548,0.448c0.481-0.005,0.984,0.003,1.492-0.072c0.509-0.075,1.022-0.167,1.521-0.347      c0.512-0.128,0.978-0.381,1.439-0.613c0.466-0.223,0.854-0.558,1.251-0.835c0.379-0.301,0.682-0.656,0.998-0.96      c0.322-0.301,0.519-0.661,0.755-0.953c0.216-0.306,0.422-0.582,0.543-0.855c0.136-0.265,0.254-0.496,0.353-0.687      c0.185-0.382,0.291-0.601,0.291-0.601c0.194-0.4,0.027-0.881-0.373-1.075C12.642,5.664,12.226,5.774,12,6.076l-0.066,0.088      c0,0-0.129,0.172-0.354,0.473c-0.108,0.151-0.239,0.335-0.389,0.546c-0.135,0.223-0.347,0.418-0.557,0.647      c-0.217,0.218-0.403,0.51-0.683,0.716c-0.274,0.21-0.533,0.473-0.844,0.672C8.779,9.386,8.491,9.646,8.132,9.781      c-0.353,0.144-0.694,0.324-1.076,0.405c-0.365,0.127-0.751,0.179-1.132,0.229c-0.377,0.062-0.766,0.053-1.135,0.064      c-0.747-0.016-1.458-0.099-2.065-0.219c-0.606-0.12-1.118-0.244-1.462-0.354C0.917,9.801,0.75,9.75,0.731,9.739      c-0.44-0.229-0.983-0.057-1.212,0.383S-0.538,11.106-0.098,11.335z"
   id="path4192" />
			</g>
			<g
   id="g4194">
				<path
   fill="#5C1919"
   d="M-28.653,8.138c0.004,0.003,0.013,0.026,0.081,0.11c0.067,0.086,0.148,0.186,0.26,0.306      c0.225,0.233,0.544,0.57,0.988,0.886c0.439,0.322,0.987,0.653,1.614,0.915c0.31,0.142,0.646,0.247,0.986,0.352      c0.337,0.118,0.698,0.162,1.049,0.244c0.355,0.056,0.713,0.096,1.064,0.126c0.351,0.004,0.697,0.009,1.031,0.013      c0.664-0.055,1.276-0.121,1.788-0.236c0.518-0.092,0.922-0.255,1.211-0.338c0.284-0.1,0.447-0.156,0.447-0.156      c0.444-0.155,0.678-0.641,0.523-1.084c-0.13-0.373-0.494-0.598-0.871-0.568l-0.085,0.007c0,0-0.153,0.012-0.419,0.033      c-0.264,0.024-0.638,0.088-1.085,0.088c-0.445,0.046-0.96,0.034-1.505,0.015c-0.27-0.023-0.548-0.047-0.831-0.071      c-0.278-0.045-0.56-0.09-0.842-0.135c-0.553-0.13-1.105-0.262-1.598-0.456c-0.502-0.171-0.951-0.381-1.332-0.57      c-0.383-0.188-0.688-0.366-0.897-0.493c-0.099-0.067-0.183-0.115-0.222-0.136c-0.042-0.02-0.085-0.058-0.082-0.054      c-0.369-0.312-0.92-0.266-1.231,0.103c-0.232,0.275-0.266,0.652-0.114,0.955L-28.653,8.138z"
   id="path4196" />
			</g>
			<g
   id="g4198">
				<path
   fill="#6C482F"
   d="M-12.058-20.447c0,0,0.215-0.182,0.59-0.405c0.383-0.232,0.963-0.519,1.71-0.711      c0.746-0.195,1.647-0.293,2.62-0.272c0.487,0.011,0.989,0.071,1.501,0.117c0.512,0.061,1.031,0.146,1.548,0.255l0.756,0.191      l0.711,0.223c0.472,0.163,0.987,0.308,1.454,0.49c0.956,0.332,1.838,0.697,2.563,1.063c0.375,0.166,0.688,0.363,0.974,0.527      c0.287,0.163,0.533,0.31,0.723,0.446c0.384,0.27,0.604,0.423,0.604,0.423l0.031,0.021c0.209,0.147,0.498,0.096,0.645-0.113      c0.144-0.205,0.098-0.485-0.1-0.635c0,0-0.228-0.172-0.626-0.473c-0.391-0.315-0.982-0.705-1.694-1.169      c-0.712-0.465-1.555-0.987-2.499-1.494c-0.479-0.248-0.963-0.494-1.513-0.708c-0.278-0.104-0.572-0.216-0.85-0.297      c-0.289-0.073-0.485-0.139-0.854-0.201c-0.572-0.097-1.149-0.167-1.722-0.212c-0.575-0.044-1.145-0.021-1.696,0.011      c-0.552,0.046-1.084,0.118-1.581,0.236c-0.497,0.12-0.961,0.255-1.375,0.427c-0.834,0.323-1.473,0.724-1.885,1.041      c-0.205,0.154-0.371,0.299-0.469,0.387c-0.097,0.086-0.148,0.133-0.148,0.133l-0.015,0.013      c-0.187,0.167-0.203,0.455-0.036,0.643C-12.526-20.307-12.245-20.288-12.058-20.447z"
   id="path4200" />
			</g>
		</g>
		<g
   id="g4202">
			<path
   fill="#9C6C4E"
   d="M-28.103,11.791c0,0-0.122-0.367-0.351-1.054c-0.106-0.339-0.238-0.758-0.392-1.25     c-0.073-0.243-0.151-0.505-0.234-0.784c-0.064-0.266-0.144-0.458-0.193-0.825c-0.247-1.366-0.464-2.911-0.633-4.78     c-0.161-1.849-0.249-3.941-0.148-6.209c0.127-2.262,0.379-4.711,1.018-7.201c0.616-2.491,1.603-5.03,3.076-7.366     c1.464-2.34,3.436-4.454,5.824-6.1c2.369-1.661,5.154-2.863,8.021-3.626c1.549-0.409,2.934-0.721,4.437-0.923     c1.482-0.235,2.976-0.327,4.455-0.37c2.953-0.054,5.91,0.27,8.582,0.94c2.677,0.713,5.123,1.883,7.164,3.396     c2.06,1.489,3.736,3.269,5.104,5.054c1.341,1.788,2.478,3.614,3.159,5.216c0.691,1.659,1.094,3.206,1.322,4.498     c0.228,1.292,0.307,2.328,0.339,3.027c0.016,0.351,0.018,0.617,0.019,0.794c-0.002,0.167-0.003,0.253-0.003,0.253l-0.001,0.049     c-0.006,0.473,0.372,0.861,0.845,0.868c0.459,0.006,0.839-0.352,0.866-0.806c0,0,0.006-0.109,0.019-0.319     c0.008-0.201,0.019-0.495,0.018-0.876c-0.002-0.762-0.04-1.875-0.227-3.283c-0.19-1.405-0.542-3.11-1.248-4.993     c-0.765-1.919-1.874-3.789-3.28-5.784c-1.417-1.97-3.207-3.975-5.484-5.657c-2.246-1.713-4.975-3.068-7.941-3.9     c-0.74-0.198-1.56-0.402-2.265-0.521l-0.549-0.103c-0.249-0.044-0.399-0.055-0.604-0.083l-1.156-0.148     c-0.773-0.096-1.559-0.127-2.345-0.192c-0.788-0.014-1.581-0.049-2.376-0.033c-1.59,0.042-3.196,0.14-4.786,0.388     c-1.58,0.205-3.247,0.583-4.714,0.97c-3.16,0.835-6.201,2.138-8.874,3.999c-2.681,1.838-4.92,4.231-6.563,6.849     c-1.656,2.616-2.744,5.422-3.419,8.13c-0.702,2.711-0.977,5.337-1.073,7.747c-0.081,2.413,0.037,4.617,0.227,6.555     c0.191,1.917,0.459,3.657,0.714,4.976c0.043,0.312,0.167,0.736,0.252,1.059c0.092,0.303,0.178,0.587,0.258,0.852     c0.166,0.52,0.307,0.961,0.421,1.32c0.236,0.7,0.362,1.074,0.362,1.074c0.221,0.654,0.93,1.005,1.584,0.785     s1.005-0.93,0.785-1.583L-28.103,11.791z"
   id="path4204" />
		</g>
		<g
   id="g4206">
			<path
   fill="#9C6C4E"
   d="M28.059-1.737c0.177,0.58,0.317,1.096,0.44,1.619c0.125,0.539,0.229,1.082,0.317,1.629     c0.157,1.095,0.282,2.198,0.279,3.306c0.024,1.107-0.057,2.212-0.19,3.31c-0.158,1.095-0.372,2.182-0.678,3.246     c-0.3,1.065-0.686,2.107-1.128,3.125c-0.242,0.5-0.461,1.011-0.72,1.503l-0.82,1.457l-0.921,1.4l-0.231,0.35     c-0.019,0.033-0.16,0.208-0.234,0.306l-0.539,0.694c-0.365,0.419-0.687,0.785-1.072,1.173c-0.396,0.374-0.776,0.764-1.208,1.101     c-3.355,2.833-7.697,4.43-12.123,5.298c-2.227,0.426-4.498,0.671-6.778,0.765c-1.141,0.049-2.284,0.054-3.425,0.026     c-1.13-0.03-2.303-0.095-3.373-0.215l-0.066-0.007l-0.091-0.003c-0.562-0.02-1.24-0.076-1.869-0.163     c-0.642-0.078-1.28-0.196-1.919-0.321c-0.639-0.121-1.266-0.301-1.9-0.447l-1.865-0.581l-1.823-0.7l-1.766-0.829     c-0.576-0.299-1.129-0.641-1.696-0.957c-0.58-0.297-1.078-0.72-1.62-1.076l-0.798-0.556l-0.74-0.63     c-0.481-0.433-1.01-0.816-1.456-1.287l-1.34-1.409c-0.468-0.452-0.807-1.016-1.218-1.517c-0.381-0.526-0.827-1.005-1.133-1.584     l-1.008-1.674c-0.368-0.541-0.588-1.165-0.876-1.751l-0.823-1.782l-0.056-0.122c-0.289-0.625-1.031-0.898-1.656-0.609     c-0.623,0.288-0.896,1.023-0.614,1.646l0.874,1.935c0.307,0.638,0.545,1.308,0.939,1.904l1.087,1.833     c0.333,0.629,0.813,1.166,1.228,1.744c0.446,0.555,0.82,1.17,1.328,1.673l1.465,1.561c0.489,0.52,1.063,0.95,1.593,1.429     l0.812,0.698l0.872,0.62c0.591,0.398,1.143,0.861,1.773,1.195c0.619,0.353,1.226,0.73,1.855,1.062l1.927,0.92l1.986,0.778     l2.031,0.647c0.691,0.166,1.375,0.364,2.073,0.502c0.697,0.142,1.397,0.275,2.107,0.367c0.72,0.101,1.4,0.169,2.199,0.2     l-0.157-0.011c1.26,0.141,2.43,0.201,3.642,0.235c1.202,0.029,2.404,0.024,3.605-0.028c2.402-0.098,4.804-0.356,7.182-0.812     c2.374-0.471,4.735-1.113,6.998-2.076c1.138-0.462,2.235-1.036,3.31-1.651c1.056-0.65,2.098-1.337,3.046-2.157     c0.96-0.781,1.853-1.709,2.683-2.691l0.539-0.695l0.299-0.393l0.254-0.383l1.01-1.537l0.904-1.607     c0.286-0.544,0.532-1.111,0.798-1.666c0.492-1.13,0.921-2.291,1.257-3.481c0.342-1.188,0.583-2.405,0.758-3.63     c0.15-1.229,0.239-2.466,0.213-3.703c0.001-1.238-0.135-2.471-0.312-3.693c-0.098-0.611-0.214-1.218-0.355-1.821     C31-1.353,30.83-1.968,30.664-2.508l-0.007-0.025c-0.22-0.717-0.98-1.12-1.698-0.9S27.838-2.454,28.059-1.737z"
   id="path4208" />
		</g>
		<g
   id="g4210">
			<path
   fill="#9C6C4E"
   d="M22.956-4.828c0,0,0.068,0.087,0.196,0.251c0.132,0.166,0.323,0.391,0.591,0.664     c0.265,0.274,0.604,0.594,1.026,0.943c0.442,0.331,0.951,0.704,1.655,0.996c0.666,0.288,1.623,0.551,2.69,0.255     c1.054-0.273,1.968-1.106,2.389-1.928c0.28-0.418,0.436-0.837,0.594-1.261l0.122-0.32l0.061-0.161l0.004-0.01l0.03-0.116     l0.004-0.018l0.007-0.036l0.015-0.072l0.119-0.576l0.12-0.581c0.04-0.195,0.089-0.373,0.092-0.642     c0.028-0.496,0.045-0.996,0.051-1.492c-0.057-0.482-0.15-0.958-0.235-1.432c-0.114-0.468-0.336-0.915-0.51-1.361     c-0.206-0.433-0.506-0.811-0.761-1.204c-0.287-0.364-0.634-0.66-0.945-0.977c-0.335-0.282-0.69-0.514-1.025-0.759     c-0.346-0.219-0.701-0.392-1.038-0.579c-0.689-0.324-1.35-0.585-1.97-0.764c-0.621-0.181-1.193-0.304-1.703-0.39     c-0.508-0.094-0.955-0.142-1.321-0.185c-0.37-0.027-0.658-0.046-0.862-0.05c-0.21-0.004-0.322-0.007-0.322-0.007     c-0.464-0.01-0.849,0.358-0.858,0.823c-0.009,0.421,0.293,0.777,0.697,0.846l0.067,0.012c0,0,0.087,0.015,0.251,0.043     c0.173,0.035,0.427,0.087,0.75,0.152c0.324,0.076,0.717,0.163,1.157,0.296c0.441,0.125,0.934,0.291,1.445,0.504     c0.521,0.195,1.055,0.453,1.59,0.751c0.251,0.168,0.525,0.323,0.775,0.508c0.229,0.204,0.485,0.392,0.708,0.607     c0.192,0.238,0.416,0.458,0.597,0.704c0.144,0.266,0.344,0.505,0.463,0.785c0.086,0.294,0.233,0.564,0.295,0.87l0.128,0.936     c-0.027,0.304-0.044,0.603-0.049,0.903c0.016,0.132-0.043,0.34-0.088,0.532l-0.137,0.577l-0.135,0.572L29.67-6.144l-0.008,0.035     l-0.004,0.018c-0.026,0.098,0.032-0.124,0.025-0.099L29.68-6.182l-0.043,0.111l-0.085,0.222     c-0.106,0.302-0.212,0.601-0.361,0.805c-0.266,0.507-0.539,0.703-0.799,0.8c-0.256,0.105-0.659,0.103-1.091-0.056     c-0.427-0.116-0.849-0.35-1.217-0.555c-0.371-0.218-0.692-0.433-0.95-0.625c-0.253-0.195-0.453-0.349-0.588-0.454     c-0.13-0.107-0.2-0.165-0.2-0.165L24.3-6.135c-0.402-0.331-0.997-0.273-1.328,0.128C22.687-5.659,22.691-5.168,22.956-4.828z"
   id="path4212" />
		</g>
		<path
   fill="#003C61"
   d="M-19.933-2.08c0-1.73-0.588-3.133-1.312-3.133s-1.312,1.403-1.312,3.133s0.588,3.133,1.312,3.133    S-19.933-0.35-19.933-2.08z"
   id="path4214" />
		<path
   fill="#003C61"
   d="M5.483-2.08c0-1.73-0.587-3.133-1.312-3.133c-0.725,0-1.312,1.403-1.312,3.133S3.446,1.053,4.17,1.053    C4.896,1.053,5.483-0.35,5.483-2.08z"
   id="path4216" />
		<path
   fill="#FFFFFF"
   d="M-21.909-1.087c0-0.906-0.44-1.641-0.984-1.641s-0.984,0.734-0.984,1.641s0.44,1.641,0.984,1.641    S-21.909-0.181-21.909-1.087z"
   id="path4218" />
		<path
   fill="#FFFFFF"
   d="M3.966-1.087c0-0.906-0.44-1.641-0.984-1.641S1.998-1.994,1.998-1.087s0.44,1.641,0.984,1.641    S3.966-0.181,3.966-1.087z"
   id="path4220" />
	</g>
	<g
   id="g4222">
		<g
   id="g4224">
			<path
   fill="#6C482F"
   d="M-11.522-1.623c-0.001,0.005,0.036-0.069,0.107-0.263c0.054-0.165,0.132-0.398,0.191-0.693     c0.118-0.59,0.264-1.43,0.294-2.43c0.036-0.502,0.019-1.04,0.029-1.613c0.002-0.054,0-0.167-0.004-0.234l-0.014-0.221     c-0.017-0.176-0.039-0.348-0.068-0.507c-0.058-0.325-0.141-0.647-0.243-0.964c-0.426-1.26-1.136-2.425-1.755-3.54     c-0.3-0.543-0.604-1.135-0.662-1.535c-0.015-0.1-0.005-0.143,0.003-0.186l0.03-0.116l0.02-0.041     c0.003-0.018,0.033-0.066,0.051-0.105c0.085-0.161,0.229-0.315,0.404-0.448c0.357-0.266,0.831-0.439,1.296-0.528     c0.469-0.083,0.937-0.101,1.365-0.062c0.859,0.088,1.548,0.369,2.004,0.604c0.45,0.25,0.693,0.431,0.693,0.43l0.012,0.009     c0.211,0.157,0.509,0.113,0.666-0.098c0.144-0.193,0.12-0.458-0.047-0.623c0,0-0.063-0.062-0.182-0.18s-0.304-0.28-0.559-0.464     c-0.504-0.371-1.317-0.819-2.403-1.004c-0.539-0.092-1.143-0.133-1.781-0.037c-0.635,0.095-1.319,0.294-1.951,0.755     c-0.312,0.231-0.616,0.53-0.832,0.924c-0.051,0.103-0.101,0.191-0.146,0.325l-0.061,0.183l-0.028,0.116     c-0.064,0.267-0.061,0.549-0.023,0.766c0.172,0.872,0.542,1.431,0.862,2.025c0.666,1.148,1.331,2.223,1.706,3.282     c0.096,0.262,0.173,0.52,0.23,0.771c0.03,0.13,0.048,0.246,0.066,0.355l0.021,0.206l0.014,0.189     c0.024,0.547,0.073,1.069,0.068,1.544c0.029,0.957-0.004,1.743-0.063,2.278c-0.03,0.268-0.062,0.47-0.087,0.601     c-0.019,0.098-0.041,0.176-0.045,0.18c-0.075,0.235,0.054,0.487,0.289,0.562C-11.845-1.338-11.621-1.434-11.522-1.623z"
   id="path4226" />
		</g>
	</g>
</symbol>
<symbol
   id="fire"
   viewBox="-247 -304.032 545 590.845">
	<path
   fill="#E34202"
   d="M-64.896-293.09c90.598-27.231,225.488-3.499,302.298,69.65c19.06,18.15,36.939,43.105,47.284,67.452   c28.415,66.877,5.562,150.72-32.6,209.382c-16.075,24.71-6.901,81.784-5.098,84.14c-53.399-28.644-51.34-67.331-47.4-96.14   c7.843-57.357-1.474-80.81-20.998-137.993c-14.584-42.713-43.498-59.997-85.496-98.995c-21.443-19.911-30.852-32.154-58.951-39.003   c-35.887-8.747-91.123-27.636-119.541-50.492C-85.398-285.089-64.898-293.089-64.896-293.09z"
   id="path4229" />
	<path
   fill="#E34202"
   d="M-46.397-294c-42.42-1-94.153,28.323-122.492,56.914c-48.403,48.834-75.884,115.583-77.105,184.243   c-0.617,34.692,12.718,71.951,26.738,103.526c3.608,8.127,9.431,22.829,18.183,25.522C-217.491,20.154-171.461-1.239-136.393-31.6   c48.356-41.866,55.833-88.375,56.89-150.736c0.534-31.496,17.233-55.95,37.6-78.71C-32.261-271.82-22.955-284-23.898-294H-46.397z"
   id="path4231" />
	<path
   fill="#E34202"
   d="M-112.957,141.798c0,0-50.737-76.51-73.99-145.902c-68.522-204.488,170.991-398.98,328.483-221.989   c71.244,80.065,73.325,206.765,40.498,304.485c-16.694,49.697-60.075,123.015-98.367,159.94   C14.66,205.329-35.456,134.389-15.957,60.893C3.076-10.85-27.956-33.603-27.956-33.603s-33.711-48.731-47.711,75.269   C-83.405,110.204-112.957,141.798-112.957,141.798z"
   id="path4233" />
	<path
   fill="#E34202"
   d="M-55.952,118.795c0,0-42.003,21.002-33.003,60.006s30.004,93.009,0,108.011   c60.006-12.001,81.008-42.004,63.006-78.008S-70.953,142.798-55.952,118.795z"
   id="path4235" />
	<path
   fill="#FE8A37"
   d="M244.588-13.104c-41.998-12-52.498-34.499-67.497-89.996c-2.822-10.44-8.481-18.84-14.696-25.368   c11.627,41.31,13.751,87.375,2.607,133.466c-29.334,121.333-92.002,160-92.002,160S11.014,128.076,32,52C48-6,28-76-36-76   c-69.293,0-38.236,143.636-76.958,178.793c0,0-52.634-81.321-57.489-174.37c-11,19.108-22.255,32.821-34.941,37.474   c-0.232,0.085-1.64-26.417-1.608-27.727c0.55-22.712,4.435-45.525,11.278-67.176c18.971-60.015,56.244-114.549,115.33-137.577   c78.676-30.663,190.621-17.985,257.764,36.761c18.205,14.844,36.029,36.437,46.212,57.727   C256.587-103.1,201.09-80.6,244.588-13.104z"
   id="path4237" />
	<path
   fill="#E34202"
   d="M190,112c0,0-53.725,49.658,2,86c23,15,4,39,4,39s69-35,13-73C196,152,184,135,190,112z"
   id="path4239" />
	<path
   fill="#FFC642"
   d="M-100.957-47.222c0,0,12.807-89.448,81.008-84.008c89.548,7.142,96.01,117.012,96.01,117.012   s150.65-211.73-58.959-244.863C-129.959-282.328-166.964-122.229-100.957-47.222z"
   id="path4241" />
	<polygon
   display="none"
   fill="none"
   points="-247,286 298,286 298,-304 -247,-304  "
   id="polygon4243" />
</symbol>
<g
   id="orphan_shoot">
	<g
   id="bucket">
	</g>
</g>
<g
   id="g4247">
	<g
   id="g4249">
		<g
   id="g4251">
			<path
   fill="#DE8A47"
   d="M697.451,508.525c0.445,3.988,0.681,8.04,0.681,12.151c0,69.571-44.545,138.97-144.802,140.499     c-97.076,1.48-155.481-71.184-149.273-140.499c2.348-26.214,12.893-50.547,29.663-70.513     c-35.454,21.293-36.346,71.258-36.346,123.821c0,69.571,72.513,119.515,153.72,119.515c81.207,0,134.425-49.014,147.038-117.52     C702.593,551.746,702.958,528.316,697.451,508.525z"
   id="path4253" />
			<path
   fill="#FFDDC2"
   d="M553.33,661.176c100.257-1.529,144.802-70.928,144.802-140.499c0-4.111-0.235-8.163-0.681-12.151     c-7.089-63.499-69.305-110.446-145.713-110.446c-49.684,0-91.586,20.616-118.018,52.085     c-16.77,19.966-27.315,44.299-29.663,70.513C397.849,589.992,456.254,662.656,553.33,661.176z"
   id="path4255" />
		</g>
		<path
   fill="#4B3A2E"
   d="M551.094,719.428c-30.803,0-62.112-7.11-88.158-20.021c-30.062-14.901-52.719-37.094-65.52-64.18    c-13.934-29.484-20.118-64.815-17.414-99.486c2.914-37.355,15.582-70.149,36.634-94.834    c32.224-37.78,82.489-60.335,134.458-60.335c40.482,0,78.263,14.683,109.258,42.46c28.802,25.812,48.946,60.917,56.724,98.845    c9.675,47.187-0.614,93.916-28.972,131.58c-15.229,20.227-36.337,37.074-61.044,48.722    C603.124,713.463,576.855,719.428,551.094,719.428z M551.094,408.572c-43.224,0-86.583,19.353-113.154,50.505    c-16.945,19.868-27.607,47.868-30.023,78.842c-2.331,29.888,2.93,60.197,14.814,85.345c10.08,21.328,28.283,38.983,52.639,51.056    c22.257,11.032,49.15,17.108,75.723,17.108c44.573,0,89.572-21.515,114.641-54.812c23.459-31.156,31.95-69.906,23.911-109.113    c-6.579-32.089-23.619-61.784-47.981-83.618C615.887,420.783,584.569,408.572,551.094,408.572z"
   id="path4257" />
	</g>
</g>
</svg>