<?xml version="1.0" encoding="utf-8"?>
<!-- Generator: Adobe Illustrator 16.0.0, SVG Export Plug-In . SVG Version: 6.00 Build 0)  -->
<!DOCTYPE svg PUBLIC "-//W3C//DTD SVG 1.1//EN" "http://www.w3.org/Graphics/SVG/1.1/DTD/svg11.dtd">
<svg version="1.1" xmlns="http://www.w3.org/2000/svg" xmlns:xlink="http://www.w3.org/1999/xlink" x="0px" y="0px" width="2272px"
	 height="2272px" viewBox="0 0 2272 2272" enable-background="new 0 0 2272 2272" xml:space="preserve">
<g id="parts">
</g>
<g id="BGs">
	<g>
		<g>
			<rect y="990" fill="#C4E0F8" width="2272" height="1282"/>
			<g>
				<polygon fill="#68929E" points="2233.311,1475.331 2233.311,1653.209 2145.729,1652.432 2158.812,1554.482 2101.508,1550.044 
					2111.031,1430.085 2051.867,1430.085 2054.52,1550.044 2027.525,1550.548 2030.172,1522.889 1946.725,1533.442 
					1949.684,1483.398 1825.836,1483.398 1825.836,1542.635 1764.9,1544.896 1764.9,1526.806 1687.693,1474.629 1602.764,1517.319 
					1602.764,1550.909 1555.049,1547.549 1552.895,1418.237 1543.031,1418.237 1543.031,1372.823 1521.338,1372.823 
					1521.338,1418.237 1505.561,1418.237 1505.561,1372.823 1482.303,1372.823 1482.303,1422.186 1466.116,1422.186 
					1466.116,1475.499 1418.811,1483.631 1428.645,1607.796 1407.66,1607.728 1407.66,1549.995 1308.148,1474.629 1197.66,1548.413 
					1197.66,1582.08 1168.668,1582.045 1170.781,1555.579 1038.781,1451.823 902.58,1555.047 902.504,1622.544 865.66,1622.544 
					864.568,1504.142 836.182,1504.142 836.182,1611.744 809.656,1611.744 809.656,1474.942 696.949,1474.942 696.949,1520.358 
					663.422,1520.358 663.422,1474.789 587.164,1474.789 587.164,1612.975 567.309,1612.975 567.309,1592.685 530.458,1552.103 
					489.926,1585.306 489.926,1612.975 471.499,1612.975 471.499,1581.616 434.652,1552.103 394.116,1585.306 394.116,1612.975 
					365.616,1612.975 365.616,1496.763 283.57,1445.115 202.58,1507.831 207.182,1566.668 72.766,1569.415 65.838,1475.331 
					0,1475.331 0,1772.893 0,2272 2272,2272 2272,1475.331 				"/>
				<polygon fill="#4F6E78" points="0,1668.655 47.799,1667.914 39.625,1598.158 90.4,1598.158 88.124,1667.914 143.262,1668.348 
					140.991,1644.61 212.605,1653.666 210.066,1610.719 316.354,1610.719 316.354,1661.557 368.648,1663.496 368.648,1647.972 
					434.908,1603.194 507.795,1639.83 507.795,1668.657 548.744,1665.774 550.594,1554.798 559.059,1554.798 559.059,1515.823 
					577.676,1515.823 577.676,1554.798 591.215,1554.798 591.215,1515.823 611.176,1515.823 611.176,1558.186 625.066,1558.186 
					625.066,1603.94 665.664,1610.919 657.225,1717.478 675.234,1717.419 675.234,1667.873 760.635,1603.194 855.457,1666.516 
					855.457,1695.408 880.338,1695.379 878.524,1672.665 991.808,1583.621 1108.695,1672.209 1108.762,1730.135 1140.381,1730.135 
					1141.316,1628.522 1165.68,1628.522 1165.68,1720.866 1188.443,1720.866 1188.443,1603.463 1285.17,1603.463 1285.17,1642.438 
					1313.943,1642.438 1313.943,1603.331 1379.387,1603.331 1379.387,1688.942 1396.428,1688.942 1396.428,1671.529 
					1428.053,1636.702 1462.838,1665.197 1462.838,1688.942 1478.65,1688.942 1478.65,1662.031 1510.273,1636.702 
					1545.061,1665.197 1545.061,1688.942 1569.52,1688.942 1569.52,1622.188 1639.934,1577.863 1709.439,1631.688 1705.49,1682.182 
					1820.848,1684.539 1826.793,1603.796 2272,1603.796 2272,1859.164 2272,2272 0,2272 				"/>
			</g>
		</g>
		<path fill="#B5C25F" d="M2272,1801.801c-196-6.046-430.318-21.168-499.307-19.609c-177.313,4.004-606.077-29.687-931.994-27.811
			C737.952,1756.892,337,1815.739,0,1850.082V2272h2272V1801.801z"/>
		<path fill="#BDB1A8" d="M1451.309,2041c143.688,0,257.425,0,273.635,0c48.094,0,72.141-31.094,50.499-55.141
			c33.398-2.618,80.29-20.367,103.684-44.94c43.342-45.528,23.007-125.662-20.774-156.062c-36.968-1.397-66.274-2.098-84.271-1.692
			c-178.576,4.034-610.629-29.888-938.867-27.998c-67.854,1.659-254.863,18.048-477.585,45.543
			c-24.622,30.231-40.882,79.238-7.944,113.838c23.394,24.573,64.273,68.689,97.671,71.309
			c-21.642,24.047,2.405,55.143,50.499,55.143c16.209,0,129.947,0,273.635,0C798.258,2041,1178.691,2041,1451.309,2041z"/>
		<polygon fill="#E6CAA3" points="0,2272 2272,2272 2272,2068.712 1673.732,2074.714 905.455,2100.783 0,2068.712 		"/>
		<path fill="#C4AE8C" d="M1163.898,2127.714c1.859-0.795,4.134-1.52,6.914-2.154c15.535-3.538,40.715-0.383,57.814-0.541
			c47.166-0.442,94.49-0.557,141.688-0.264c19.236,0.117,46.113-0.296,47.189,8.433c1.428,11.582,1.428,27.14-2.854,38.668
			c-7.537,20.252-176.119,7.237-212.82,7.259c-13.42,0.008-31.188,1.122-40.162-3.996c-10.634-6.063-3.884-19.752-3.863-26.657
			C1157.825,2141.683,1151.385,2133.062,1163.898,2127.714z"/>
		<path fill="#C4AE8C" d="M1543.996,2116.554c1.861-0.795,4.137-1.518,6.916-2.151c15.535-3.541,40.715-0.384,57.812-0.544
			c47.168-0.439,94.492-0.555,141.688-0.262c19.236,0.117,46.113-0.295,47.189,8.43c1.43,11.583,1.43,27.143-2.854,38.669
			c-7.535,20.254-176.119,7.239-212.818,7.259c-13.422,0.01-31.189,1.122-40.162-3.994c-10.635-6.063-3.885-19.754-3.863-26.656
			C1537.924,2130.522,1531.484,2121.902,1543.996,2116.554z"/>
		<path fill="#C4AE8C" d="M2272,2176.333c0,0,2.779,1.521,0,2.152c-0.012,0.003,0.012,0.005,0,0.01
			c-19.777,4.489-92.707,0.703-115.143,0.661c-24.684-0.049-164.752,7.398-166.688-8.296c-1.426-11.58-1.426-27.14,2.854-38.666
			c7.523-20.254,176.078-7.239,212.82-7.261c13.422-0.008,66.156,3.994,66.156,3.994s0.021,19.754,0,26.656
			C2271.98,2162.364,2272,2176.333,2272,2176.333z"/>
		<path fill="#C4AE8C" d="M1775.902,2206.726c1.859-0.795,4.135-1.52,6.914-2.154c15.535-3.538,40.715-0.383,57.816-0.541
			c47.166-0.442,94.49-0.557,141.688-0.264c19.236,0.117,46.113-0.296,47.189,8.433c1.428,11.582,1.428,27.14-2.854,38.668
			c-7.537,20.252-176.119,7.237-212.822,7.259c-13.42,0.008-31.188,1.122-40.162-3.996c-10.633-6.063-3.883-19.752-3.863-26.657
			C1769.83,2220.694,1763.389,2212.074,1775.902,2206.726z"/>
		<path fill="#C4AE8C" d="M360.328,2196.378c1.982-0.848,4.408-1.62,7.369-2.297c16.559-3.771,43.395-0.407,61.619-0.576
			c50.27-0.472,100.707-0.593,151.009-0.281c20.501,0.125,49.147-0.315,50.294,8.987c1.521,12.345,1.521,28.926-3.042,41.212
			c-8.032,21.584-187.704,7.714-226.821,7.736c-14.303,0.009-33.238,1.196-42.805-4.259c-11.332-6.462-4.137-21.052-4.117-28.411
			C353.857,2211.266,346.992,2202.078,360.328,2196.378z"/>
		<path fill="#C4AE8C" d="M71.852,2118.564c1.861-0.795,4.137-1.518,6.916-2.152c15.535-3.541,40.715-0.383,57.812-0.543
			c47.168-0.439,94.492-0.555,141.688-0.262c19.236,0.117,46.113-0.295,47.189,8.43c1.43,11.582,1.43,27.143-2.854,38.668
			c-7.535,20.254-176.119,7.24-212.818,7.26c-13.422,0.01-31.189,1.121-40.162-3.994c-10.635-6.064-3.885-19.754-3.863-26.656
			C65.779,2132.533,59.34,2123.912,71.852,2118.564z"/>
		<path fill="#C4AE8C" d="M922.029,2188.338c0,0,2.779,1.521,0,2.152c-0.012,0.003,0.012,0.005,0,0.01
			c-19.777,4.489-90.805,0.703-113.24,0.661c-24.684-0.049-164.752,7.398-166.688-8.296c-1.426-11.58-1.426-27.14,2.854-38.666
			c7.523-20.254,176.077-7.239,212.82-7.261c13.422-0.008,64.254,3.994,64.254,3.994s0.021,19.754,0,26.656
			C922.01,2174.369,922.029,2188.338,922.029,2188.338z"/>
		<ellipse fill="#948B83" cx="1748.989" cy="1836.937" rx="15.631" ry="9.619"/>
		<ellipse fill="#948B83" cx="1827.142" cy="1853.77" rx="15.629" ry="9.619"/>
		<ellipse fill="#948B83" cx="1747.788" cy="1897.054" rx="15.63" ry="9.618"/>
		<ellipse fill="#948B83" cx="1709.313" cy="1966.79" rx="15.63" ry="9.618"/>
		<ellipse fill="#948B83" cx="1356.109" cy="2010.589" rx="17.451" ry="10.74"/>
		<polygon fill="#635438" points="887.458,2103.787 887.257,2103.779 0,2074.709 0,2062.715 887.449,2091.89 1676.42,2065 
			1676.512,2065 2272,2062.822 2272,2074.767 1676.645,2076.807 		"/>
	</g>
</g>
<g id="Compositions">
	<g id="PC_1_">
	</g>
	<g id="fire">
	</g>
	<g id="fire_1_">
	</g>
</g>
<g id="New_Stuff">
</g>
<g id="Find_Elsewhere">
</g>
<g id="Text_Box">
</g>
<g id="labels_x2F_divider">
</g>
<g id="_x34_:3_border">
</g>
</svg>
