<?xml version="1.0" encoding="utf-8"?>
<!-- Generator: Adobe Illustrator 16.0.0, SVG Export Plug-In . SVG Version: 6.00 Build 0)  -->
<!DOCTYPE svg PUBLIC "-//W3C//DTD SVG 1.1//EN" "http://www.w3.org/Graphics/SVG/1.1/DTD/svg11.dtd">
<svg version="1.1" id="Layer_1" xmlns="http://www.w3.org/2000/svg" xmlns:xlink="http://www.w3.org/1999/xlink" x="0px" y="0px"
	 width="2722px" height="2722px" viewBox="0 0 2722 2722" enable-background="new 0 0 2722 2722" xml:space="preserve">
<g>
	<path fill="#8D7F75" d="M1470.105,1697.738c30.805-59.297,35.383-96.734,35.383-96.734l6.68-458.898
		c0,0,0.305-148.836-149.031-148.836s-154.664,149.32-154.664,149.32l144,538.664c0,0,15.992,45.344,58.656,48.016
		C1453.801,1731.926,1470.105,1697.738,1470.105,1697.738z"/>
	<path fill="#716359" d="M1425.066,1003.988c32.375,181.148,31.531,367.734,27.359,551.016
		c-1.266,55.562-3.469,111.062-5.859,166.547c16.578-9.375,23.539-23.812,23.539-23.812c30.805-59.297,35.383-96.734,35.383-96.734
		l6.68-458.898C1512.168,1142.105,1512.316,1038.082,1425.066,1003.988z"/>
	<path fill="#4B311E" d="M1352.457,1705.27c-10.609,0-20.305-7.086-23.172-17.812l-144-538.672
		c-3.422-12.797,4.18-25.953,16.984-29.383c12.828-3.422,25.961,4.188,29.391,16.992l144,538.664
		c3.422,12.805-4.188,25.961-16.992,29.383C1356.59,1705.004,1354.504,1705.27,1352.457,1705.27z"/>
	<path fill="#4B311E" d="M1470.082,1721.746c-3.719,0-7.5-0.867-11.039-2.711c-11.758-6.109-16.344-20.594-10.234-32.359
		c25.273-48.656,31.664-81.453,32.703-87.648l6.664-456.822c0.188-13.141,10.891-23.205,23.984-23.205c0.125,0,0.234,0,0.359,0
		c13.25,0,23.844,10.65,23.641,23.9l-6.68,458.673c-0.008,0.859-0.07,1.606-0.172,2.458c-0.211,1.703-5.477,42.404-37.906,104.826
		C1487.129,1717.092,1478.754,1721.746,1470.082,1721.746z"/>
</g>
</svg>
