<?xml version="1.0" encoding="utf-8"?>
<!-- Generator: Adobe Illustrator 16.0.0, SVG Export Plug-In . SVG Version: 6.00 Build 0)  -->
<!DOCTYPE svg PUBLIC "-//W3C//DTD SVG 1.1//EN" "http://www.w3.org/Graphics/SVG/1.1/DTD/svg11.dtd">
<svg version="1.1" xmlns="http://www.w3.org/2000/svg" xmlns:xlink="http://www.w3.org/1999/xlink" x="0px" y="0px" width="430px"
	 height="430px" viewBox="0 0 430 430" enable-background="new 0 0 430 430" xml:space="preserve">
<g id="temp_x5F_gray">
	<rect x="-1779" y="-762" fill="#B3B3B3" width="9615" height="7719"/>
</g>
<g id="art">
	<g>
		<g id="PC_Face_Female_10_">
			<path id="Eye_Highlight_L_-F_8_" fill="#FFFFFF" d="M121.809,183.071c0,1.845-0.772,5.343-3.206,5.343
				c-2.436,0-3.205-3.496-3.205-5.343s0.769-5.342,3.205-5.342C121.037,177.729,121.809,181.226,121.809,183.071z"/>
			<path id="Eye_Highlight_R_-F_8_" fill="#FFFFFF" d="M206.067,183.071c0,1.845-0.772,5.343-3.206,5.343
				c-2.436,0-3.205-3.496-3.205-5.343s0.769-5.342,3.205-5.342C205.294,177.729,206.067,181.227,206.067,183.071z"/>
			<path id="Female_Lid_L_7_" fill="#6B482E" d="M144.048,182.777c0.595,0.945,1.409,1.781,2.617,1.66
				c1.15-0.115,2.079-1.09,2.167-2.238c0.081-1.051-0.505-2.272-0.889-3.229c-0.448-1.118-0.988-2.198-1.615-3.227
				c-2.365-3.883-5.932-6.936-10.036-8.861c-8.659-4.062-19.611-3.153-27.061,3.02c-1.832,1.518-3.416,3.325-4.686,5.336
				c-2.587,0.276-4.592-1.433-6.8-2.426c-0.684-0.308-1.729-0.65-2.256,0.106c-0.591,0.846-0.016,1.918,0.495,2.646
				c1.473,2.095,3.612,3.627,5.896,4.729c0.003-0.002-0.429,0.342-0.352,0.353c0.069-0.003,0.137,0,0.206,0.01
				c0.089,0.055-0.977,0.588-1.079,0.613c-0.494,0.122-1.013,0.112-1.514,0.043c-1.138-0.157-2.186-0.614-3.199-1.133
				c-0.765-0.392-2.411-1.611-3.002-0.333c-0.43,0.929,1.3,2.529,1.85,3.18c1.771,2.098,3.831,3.585,6.515,4.249
				c1.124,0.278,2.247,0.593,3.254-0.18c0.993-0.762,1.308-2.356,1.864-3.435c2.385-4.626,6.186-8.686,11.064-10.671
				c4.14-1.685,8.77-1.752,13.035-0.495C136.072,174.13,140.968,177.886,144.048,182.777
				C144.658,183.746,137.596,172.532,144.048,182.777z"/>
			<path id="Female_Lid_R_7_" fill="#6B482E" d="M240.481,177.268c-0.021-0.047-0.042-0.094-0.063-0.141
				c0.032,0.072,0.065,0.144,0.097,0.216c-0.451-1.028-1.441-0.417-2.147-0.071c-0.905,0.444-1.789,0.75-2.768,0.974
				c-1.103,0.253-3.447,0.942-4.126-0.408c0.155-0.083-0.247-0.473-0.36-0.682c2.53-1.255,4.63-2.968,6.697-4.865
				c0.77-0.706,1.493-1.78,0.579-2.709c-1.03-1.048-2.337-0.019-3.369,0.458c-1.244,0.575-2.525,1.076-3.847,1.443
				c-0.662,0.184-1.334,0.334-2.012,0.446c-0.345,0.057-0.691,0.104-1.039,0.141c-0.627,0.066-0.707,0.046-1.145-0.39
				c-1.841-1.835-4.019-3.314-6.37-4.416c-8.92-4.177-19.974-3.162-27.493,3.338c-3.507,3.032-6.167,7.025-7.617,11.428
				c-0.527,1.601-1.523,3.96,0.247,5.14c1.333,0.889,3.196,0.427,3.734-1.139c1.738-5.006,5.238-9.764,9.929-12.35
				c4.471-2.465,9.868-2.928,14.808-1.836c5.972,1.32,11.041,5.085,13.8,10.592c0.306,0.61,0.68,0.996,1.083,1.53
				c0.371,0.491,1.481,0.421,2.072,0.379c1.538-0.111,3.042-0.673,4.359-1.456c1.392-0.828,2.472-1.908,3.542-3.106
				C239.586,179.206,240.884,178.177,240.481,177.268C240.281,176.82,240.868,178.139,240.481,177.268z"/>
			<path id="Female_Nose_10_" fill="#6B482E" d="M167.81,229.461c0.759-0.637,1.695-1.137,2.241-1.993
				c0.59-0.925,0.093-2.151-0.989-2.397c-0.975-0.222-1.935,0.745-2.731,1.187c-1.065,0.591-2.181,1.094-3.329,1.501
				c-4.112,1.46-10.134,2.028-13.399-1.583c-1.796-1.986-0.125-4.649,0.901-6.572c1.432-2.682,3.019-5.282,4.34-8.022
				c2.665-5.524,3.331-11.413,2.724-17.472c-0.217-2.168-0.512-4.356-0.95-6.493c-0.227-1.106-0.622-3.31-1.978-3.603
				c-2.752-0.594-1.221,3.828-1.131,4.971c0.233,2.968,0.205,6.03,0.103,9.004c-0.103,2.996-0.521,5.93-1.626,8.73
				c-1.033,2.619-2.471,5.056-3.907,7.468c-2.146,3.608-5.181,8.271-3.65,12.651c1.672,4.787,7.275,6.146,11.777,6.328
				C160.479,233.34,164.475,232.261,167.81,229.461C168.607,228.792,165.083,231.75,167.81,229.461z"/>
		</g>
		<path fill="#6B482E" d="M160.25,249.438c0.145-1.127,1.108-1.939,1.802-2.755c0.872-1.024,1.829-1.979,2.874-2.828
			c1.999-1.623,4.355-2.864,6.92-3.258c5.88-0.903,10.927,2.864,14.782,6.847c0.919,0.949,1.198,1.869,0.498,3.066
			c-0.759,1.295-1.803,2.498-2.885,3.531c-2.104,2.009-4.719,3.427-7.583,3.978c-5.738,1.103-11.317-1.341-15.002-5.718
			C161.019,251.547,160.117,250.504,160.25,249.438C160.389,248.354,160.104,250.611,160.25,249.438z"/>
		<path id="Female_Brow_R_7_" fill="#440705" d="M199.492,137.986c-0.217,0.072-0.485,0.069-0.712,0.103
			c2.644-0.392,5.074-0.876,7.774-0.617c2.838,0.273,5.616,1.052,8.243,2.149c4.848,2.025,9.041,5.047,12.044,9.397
			c1.406,2.036,2.541,4.247,3.509,6.521c0.48,1.128,0.921,2.273,1.335,3.427c0.289,0.805,0.931,1.42,1.771,1.614
			c1.512,0.349,3.216-0.661,3.334-2.273c0.079-1.073-0.303-2.281-0.53-3.322c-0.276-1.27-0.609-2.527-1.006-3.765
			c-1.468-4.586-3.847-8.896-7.277-12.309c-3.658-3.64-8.346-6.091-13.359-7.253c-5.085-1.178-10.487-1.079-15.513,0.344
			c-1.714,0.485-3.157,1.437-2.866,3.446C196.473,137.054,197.852,138.221,199.492,137.986
			C199.485,137.988,196.027,138.482,199.492,137.986z"/>
		<path id="Female_Brow_L_7_" fill="#440705" d="M104.418,156.479c-0.089,0.215-0.25,0.4-0.343,0.614
			c0.86-1.982,2.77-3.445,4.5-4.625c2.018-1.377,4.174-2.642,6.335-3.78c2.583-1.359,5.328-2.383,8.137-3.164
			c1.348-0.375,2.71-0.695,4.081-0.979c1.392-0.289,2.907-0.388,4.26-0.813c1.525-0.479,2.307-2.212,1.788-3.7
			c-0.756-2.171-3.613-1.856-5.448-1.896c-5.799-0.123-11.654,0.96-16.805,3.701c-4.136,2.201-7.812,5.396-10.253,9.422
			c-1.029,1.696-2.52,4.259-0.658,5.94C101.335,158.391,103.548,158.035,104.418,156.479
			C104.413,156.493,103.44,158.229,104.418,156.479z"/>
	</g>
</g>
<g id="staging">
</g>
</svg>
