<?xml version="1.0" encoding="utf-8"?>
<!-- Generator: Adobe Illustrator 16.0.0, SVG Export Plug-In . SVG Version: 6.00 Build 0)  -->
<!DOCTYPE svg PUBLIC "-//W3C//DTD SVG 1.1//EN" "http://www.w3.org/Graphics/SVG/1.1/DTD/svg11.dtd">
<svg version="1.1" xmlns="http://www.w3.org/2000/svg" xmlns:xlink="http://www.w3.org/1999/xlink" x="0px" y="0px" width="430px"
	 height="430px" viewBox="0 0 430 430" enable-background="new 0 0 430 430" xml:space="preserve">
<g id="temp_x5F_gray">
	<rect x="-2821" y="-225" fill="#B3B3B3" width="9615" height="7719"/>
</g>
<g id="art">
</g>
<g id="staging">
	<g>
		<g id="PC_Face_Female_7_">
			<path id="Eye_Highlight_L_-F_7_" fill="#FFFFFF" d="M121.81,183.071c0,1.845-0.772,5.343-3.206,5.343
				c-2.437,0-3.205-3.496-3.205-5.343s0.769-5.343,3.205-5.343C121.037,177.729,121.81,181.226,121.81,183.071z"/>
			<path id="Eye_Highlight_R_-F_7_" fill="#FFFFFF" d="M206.067,183.071c0,1.845-0.772,5.343-3.206,5.343
				c-2.437,0-3.205-3.496-3.205-5.343s0.769-5.343,3.205-5.343C205.295,177.729,206.067,181.227,206.067,183.071z"/>
			<path fill="#6B482E" d="M184.656,179.621c7.615-7.312,17.805-10.661,28.275-9.36c2.856,0.355,5.673,1.014,8.407,1.909
				c0.639,0.209,1.274,0.432,1.904,0.666c0.302,0.113,0.604,0.228,0.903,0.346c0.422,0.166,0.334,0.032,0.523-0.313
				c0.401,0.205,0.542,0.391,0.976,0.212c0.311-0.128,0.616-0.265,0.919-0.41c0.691-0.332,1.361-0.706,2.009-1.117
				c1.102-0.7,2.134-1.505,3.11-2.37c0.808-0.715,1.753-2.176,2.974-2.026c3.176,0.391-0.25,4.97-1.049,6.117
				c-0.787,1.13-1.666,2.196-2.629,3.182c0.688,0.396,1.37,0.805,2.028,1.249c0.867-0.284,1.644-0.772,2.429-1.225
				c0.831-0.479,1.524-1.063,2.215-1.726c0.507-0.486,1.276-1.361,1.976-0.6c-0.032-0.036-0.064-0.071-0.097-0.107
				c0.055,0.06,0.108,0.12,0.162,0.181c0.403,0.426-0.085,1.633-0.385,2.26c-0.547,1.148-1.009,2.312-1.729,3.372
				c-1.459,2.149-3.757,4.163-6.428,4.47c-0.948,0.109-1.965-1.211-2.599-1.808c-0.675-0.411-1.364-0.8-2.062-1.17
				c-2.125-1.126-4.339-2.087-6.614-2.864c-5.111-1.745-10.632-2.586-16.004-1.749c-4.953,0.772-9.527,3.01-13.328,6.256
				c-0.778,0.666-1.495,1.576-2.466,1.958c-1.008,0.397-2.182,0.255-3.062-0.376C183.397,183.417,183.219,181.002,184.656,179.621
				C193.484,171.144,183.371,180.856,184.656,179.621z"/>
			<path fill="#440705" d="M196.957,145.925c-0.229,0.086-0.451,0.194-0.676,0.29c2.363-1.011,4.491-2.119,7.056-2.607
				c2.684-0.511,5.444-0.558,8.157-0.282c5.139,0.523,10.096,2.1,14.236,5.248c1.944,1.478,3.678,3.214,5.254,5.075
				c0.779,0.919,1.521,1.87,2.237,2.84c0.639,0.866,1.197,2.043,2.26,2.451c1.586,0.609,3.554-0.583,3.702-2.287
				c0.089-1.031-0.557-2.031-0.994-2.919c-0.563-1.142-1.173-2.261-1.833-3.35c-2.487-4.097-5.736-7.762-9.779-10.378
				c-4.364-2.824-9.48-4.285-14.667-4.382c-5.381-0.101-10.798,1.197-15.55,3.723c-1.707,0.908-3.961,1.965-3.495,4.283
				c0.334,1.66,1.948,2.913,3.649,2.45C196.666,146.039,196.813,145.987,196.957,145.925
				C196.949,145.928,193.675,147.34,196.957,145.925z"/>
			<path fill="#440705" d="M109.93,165.157c-0.151,0.182-0.328,0.346-0.49,0.519c3.08-3.279,7.944-4.344,12.155-5.45
				c3.001-0.789,6.093-1.169,9.191-1.263c1.483-0.045,2.968-0.027,4.45,0.032c1.502,0.061,3.079,0.35,4.577,0.265
				c1.63-0.093,2.833-1.615,2.691-3.217c-0.212-2.382-3.241-2.781-5.073-3.277c-6.008-1.625-12.397-1.928-18.422-0.214
				c-4.381,1.248-8.528,3.481-11.736,6.747c-1.375,1.4-3.239,3.439-1.884,5.469C106.399,166.28,108.68,166.479,109.93,165.157
				C109.92,165.169,108.523,166.644,109.93,165.157z"/>
			<path fill="#6B482E" d="M149.321,182.204c-7.614-7.312-17.804-10.661-28.274-9.36c-2.856,0.355-5.673,1.014-8.407,1.909
				c-0.64,0.209-1.274,0.432-1.905,0.666c-0.302,0.112-0.604,0.228-0.903,0.346c-0.425,0.167-0.33,0.031-0.524-0.312
				c-0.4,0.205-0.542,0.39-0.975,0.211c-0.311-0.128-0.616-0.265-0.919-0.41c-0.691-0.332-1.361-0.706-2.009-1.118
				c-1.102-0.7-2.133-1.505-3.109-2.37c-0.787-0.697-1.706-2.114-2.884-2.035c-3.23,0.216-0.001,4.711,0.764,5.842
				c0.836,1.236,1.781,2.398,2.824,3.466c-0.688,0.396-1.368,0.808-2.029,1.248c-0.866-0.284-1.644-0.771-2.428-1.224
				c-0.831-0.479-1.524-1.063-2.215-1.726c-0.506-0.486-1.277-1.362-1.977-0.6c0.032-0.036,0.065-0.072,0.097-0.108
				c-0.054,0.06-0.107,0.121-0.161,0.181c-0.406,0.422,0.088,1.636,0.386,2.26c0.547,1.148,1.007,2.312,1.727,3.371
				c1.46,2.149,3.756,4.164,6.427,4.471c0.947,0.109,1.97-1.209,2.601-1.809c0.675-0.411,1.364-0.799,2.062-1.17
				c2.124-1.125,4.339-2.086,6.614-2.863c5.11-1.745,10.631-2.586,16.003-1.748c4.954,0.772,9.527,3.01,13.328,6.256
				c0.779,0.665,1.496,1.575,2.467,1.958c1.008,0.396,2.181,0.255,3.062-0.376C150.581,186,150.76,183.584,149.321,182.204
				C140.493,173.726,150.608,183.438,149.321,182.204z"/>
			<path id="Female_Nose_7_" fill="#6B482E" d="M167.811,229.461c0.759-0.638,1.694-1.137,2.241-1.993
				c0.59-0.925,0.093-2.151-0.989-2.397c-0.976-0.222-1.936,0.745-2.731,1.187c-1.066,0.591-2.182,1.094-3.329,1.501
				c-4.113,1.46-10.134,2.028-13.399-1.583c-1.796-1.986-0.125-4.649,0.901-6.572c1.432-2.682,3.019-5.282,4.341-8.022
				c2.664-5.524,3.33-11.413,2.724-17.472c-0.217-2.168-0.512-4.356-0.95-6.493c-0.227-1.106-0.622-3.31-1.978-3.603
				c-2.753-0.595-1.222,3.828-1.132,4.971c0.233,2.968,0.205,6.03,0.103,9.004c-0.103,2.996-0.521,5.93-1.626,8.73
				c-1.033,2.619-2.471,5.056-3.906,7.468c-2.147,3.608-5.181,8.271-3.651,12.652c1.672,4.787,7.276,6.146,11.777,6.328
				C160.479,233.34,164.475,232.261,167.811,229.461C168.607,228.792,165.084,231.75,167.811,229.461z"/>
		</g>
		<path fill="#6B482E" d="M167.255,253.582c0,2.866,5.058,2.04,6.797,2.04c1.717,0,7.25,0.846,7.25-2.04
			c0-3.232-4.545-4.305-7.023-4.305S167.255,250.349,167.255,253.582z"/>
	</g>
</g>
</svg>
