<?xml version="1.0" encoding="utf-8"?>
<!-- Generator: Adobe Illustrator 16.0.0, SVG Export Plug-In . SVG Version: 6.00 Build 0)  -->
<!DOCTYPE svg PUBLIC "-//W3C//DTD SVG 1.1//EN" "http://www.w3.org/Graphics/SVG/1.1/DTD/svg11.dtd">
<svg version="1.1" xmlns="http://www.w3.org/2000/svg" xmlns:xlink="http://www.w3.org/1999/xlink" x="0px" y="0px" width="430px"
	 height="430px" viewBox="0 0 430 430" enable-background="new 0 0 430 430" xml:space="preserve">
<g id="temp_x5F_gray">
	<rect x="-2821" y="-1297" fill="#B3B3B3" width="9615" height="7719"/>
</g>
<g id="art">
	<g id="PC_Face_Female_3_">
		<path id="Eye_Highlight_L_-F_3_" fill="#FFFFFF" d="M121.81,183.071c0,1.845-0.772,5.343-3.206,5.343
			c-2.437,0-3.205-3.496-3.205-5.343s0.769-5.342,3.205-5.342C121.037,177.729,121.81,181.226,121.81,183.071z"/>
		<path id="Eye_Highlight_R_-F_3_" fill="#FFFFFF" d="M206.067,183.071c0,1.845-0.772,5.343-3.206,5.343
			c-2.437,0-3.205-3.496-3.205-5.343s0.769-5.342,3.205-5.342C205.295,177.729,206.067,181.227,206.067,183.071z"/>
		<path id="Female_Lid_L_3_" fill="#6B482E" d="M144.049,182.777c0.595,0.945,1.409,1.78,2.617,1.66
			c1.149-0.115,2.078-1.09,2.167-2.238c0.08-1.051-0.506-2.272-0.89-3.229c-0.447-1.118-0.988-2.198-1.614-3.227
			c-2.365-3.883-5.932-6.936-10.036-8.861c-8.659-4.062-19.61-3.153-27.06,3.02c-1.832,1.518-3.416,3.325-4.687,5.336
			c-2.588,0.276-4.592-1.433-6.801-2.426c-0.684-0.308-1.729-0.649-2.256,0.107c-0.591,0.846-0.017,1.918,0.494,2.646
			c1.474,2.095,3.612,3.627,5.896,4.729c0.003-0.002-0.43,0.342-0.353,0.353c0.069-0.003,0.138,0,0.206,0.01
			c0.09,0.055-0.978,0.588-1.078,0.613c-0.494,0.122-1.014,0.112-1.514,0.043c-1.138-0.157-2.187-0.614-3.199-1.133
			c-0.765-0.392-2.411-1.611-3.003-0.333c-0.43,0.929,1.301,2.529,1.851,3.18c1.771,2.098,3.83,3.584,6.515,4.249
			c1.124,0.278,2.247,0.593,3.254-0.18c0.992-0.762,1.308-2.356,1.863-3.435c2.386-4.626,6.187-8.686,11.064-10.671
			c4.14-1.685,8.77-1.752,13.034-0.495C136.072,174.13,140.969,177.886,144.049,182.777
			C144.658,183.746,137.597,172.532,144.049,182.777z"/>
		<path id="Female_Brow_R_3_" fill="#440705" d="M195.553,141.136c-0.205,0.117-0.444,0.191-0.66,0.286
			c2.341-1.021,4.464-2.101,7.012-2.573c2.672-0.496,5.419-0.526,8.115-0.232c5.146,0.561,10.053,2.208,14.14,5.446
			c1.932,1.53,3.646,3.318,5.205,5.222c0.772,0.943,1.509,1.916,2.219,2.907c0.606,0.845,1.149,1.701,2.271,1.834
			c1.665,0.199,3.328-1.291,3.028-3.004c-0.184-1.052-0.876-2.122-1.362-3.06c-0.585-1.128-1.219-2.231-1.905-3.3
			c-5.404-8.411-14.152-13.712-24.275-13.614c-5.178,0.05-10.357,1.408-14.883,3.928c-1.638,0.912-3.479,1.999-2.847,4.176
			C192.104,140.85,193.882,141.857,195.553,141.136C195.546,141.14,192.339,142.523,195.553,141.136z"/>
		<path id="Female_Brow_L_3_" fill="#440705" d="M103.994,148.942c-0.132,0.191-0.34,0.328-0.482,0.512
			c1.291-1.673,3.433-2.618,5.353-3.334c2.253-0.841,4.612-1.521,6.944-2.105c3.003-0.752,6.093-1.091,9.185-1.151
			c1.484-0.029,2.97,0.004,4.452,0.076c1.337,0.065,2.919,0.45,4.237,0.173c1.559-0.327,2.549-2.037,2.134-3.562
			c-0.209-0.768-0.775-1.362-1.5-1.674c-1.429-0.614-3.018-0.998-4.525-1.362c-6.006-1.449-12.348-1.488-18.239,0.495
			c-4.07,1.37-7.92,3.651-10.794,6.876c-1.242,1.394-2.51,3.375-0.914,5.046C100.945,150.087,102.894,150.108,103.994,148.942
			C103.985,148.955,102.618,150.4,103.994,148.942z"/>
		<path id="Female_Lid_R_3_" fill="#6B482E" d="M240.481,177.268c-0.021-0.047-0.042-0.094-0.063-0.141
			c0.032,0.072,0.065,0.144,0.097,0.216c-0.45-1.028-1.44-0.417-2.146-0.071c-0.905,0.444-1.789,0.75-2.768,0.974
			c-1.104,0.253-3.447,0.942-4.127-0.408c0.155-0.083-0.246-0.473-0.36-0.682c2.53-1.255,4.63-2.968,6.697-4.865
			c0.769-0.706,1.492-1.78,0.578-2.71c-1.029-1.047-2.336-0.019-3.368,0.459c-1.244,0.575-2.525,1.076-3.848,1.443
			c-0.662,0.184-1.333,0.334-2.012,0.446c-0.345,0.057-0.691,0.104-1.038,0.141c-0.627,0.066-0.708,0.046-1.145-0.39
			c-1.841-1.835-4.02-3.314-6.37-4.416c-8.921-4.177-19.975-3.162-27.493,3.338c-3.508,3.032-6.167,7.025-7.617,11.428
			c-0.527,1.601-1.523,3.96,0.246,5.14c1.333,0.889,3.196,0.427,3.734-1.139c1.737-5.006,5.238-9.764,9.929-12.35
			c4.472-2.465,9.869-2.928,14.809-1.836c5.973,1.32,11.038,5.085,13.8,10.592c0.306,0.61,0.681,0.997,1.083,1.53
			c0.37,0.491,1.48,0.421,2.071,0.379c1.538-0.111,3.042-0.673,4.359-1.456c1.393-0.828,2.472-1.908,3.541-3.106
			C239.587,179.206,240.885,178.177,240.481,177.268C240.281,176.82,240.868,178.139,240.481,177.268z"/>
		<path id="Female_Smile_4_" fill="#6B482E" d="M198.25,264.25c-4.443-3.277-9.478-5.548-14.811-6.938
			c-5.7-1.485-11.863-2.511-17.76-1.942c-2.958,0.286-5.924,1.029-8.579,2.382c-1.218,0.62-2.263,1.464-3.432,2.147
			c-1.05,0.613-2.347-0.163-2.219-1.399c0.11-1.063,1.515-1.824,2.29-2.397c1.1-0.813,2.259-1.546,3.463-2.194
			c2.29-1.232,4.741-2.153,7.265-2.774c7.249-1.783,15.464-1.323,22.382,1.536c3.424,1.415,6.54,3.457,9.401,5.794
			c0.734,0.6,1.453,1.219,2.16,1.852c0.637,0.57,1.547,1.18,1.979,1.926C201.174,263.599,199.561,265.216,198.25,264.25
			C192.27,259.839,199.798,265.392,198.25,264.25z"/>
		<path id="Female_Nose_3_" fill="#6B482E" d="M167.811,229.461c0.76-0.637,1.695-1.137,2.241-1.993
			c0.59-0.925,0.093-2.151-0.989-2.397c-0.976-0.222-1.936,0.745-2.731,1.187c-1.066,0.591-2.182,1.094-3.329,1.501
			c-4.113,1.46-10.134,2.028-13.399-1.583c-1.796-1.986-0.125-4.649,0.901-6.572c1.432-2.682,3.019-5.282,4.341-8.022
			c2.664-5.524,3.33-11.413,2.724-17.472c-0.217-2.168-0.512-4.356-0.95-6.493c-0.227-1.106-0.622-3.31-1.978-3.603
			c-2.753-0.594-1.222,3.828-1.132,4.971c0.233,2.968,0.205,6.03,0.103,9.004c-0.103,2.996-0.521,5.93-1.626,8.731
			c-1.033,2.618-2.471,5.055-3.906,7.468c-2.147,3.608-5.181,8.271-3.651,12.651c1.672,4.787,7.276,6.146,11.777,6.328
			C160.479,233.34,164.475,232.261,167.811,229.461C168.607,228.792,165.084,231.75,167.811,229.461z"/>
	</g>
</g>
<g id="staging">
</g>
</svg>
