<?xml version="1.0" encoding="utf-8"?>
<!-- Generator: Adobe Illustrator 16.0.0, SVG Export Plug-In . SVG Version: 6.00 Build 0)  -->
<!DOCTYPE svg PUBLIC "-//W3C//DTD SVG 1.1//EN" "http://www.w3.org/Graphics/SVG/1.1/DTD/svg11.dtd">
<svg version="1.1" id="Layer_1" xmlns="http://www.w3.org/2000/svg" xmlns:xlink="http://www.w3.org/1999/xlink" x="0px" y="0px"
	 width="2272px" height="2272px" viewBox="0 0 2272 2272" enable-background="new 0 0 2272 2272" xml:space="preserve">
<g>
	<path fill="#901C23" d="M929.672,1405.381c0,0,250.961-32.232,467.387-11.514c-4.604-57.562,4.605-511.135,4.605-511.135
		l-448.973-20.72l-82.884,547.97L929.672,1405.381z"/>
	<path fill="#981B29" d="M869.809,1421.5c-3.19,0-6.25-1.318-8.434-3.678c-2.389-2.568-3.477-6.09-2.951-9.553l82.889-547.976
		c0.88-5.828,5.953-10.072,11.914-9.785l448.97,20.72c6.237,0.289,11.108,5.491,10.973,11.737
		c-0.09,4.478-8.94,444.005-4.771,508.021c0.234,0.934,0.359,1.891,0.359,2.881c0,6.357-5.164,11.514-11.512,11.514
		c-0.088,0-0.135,0-0.188,0c-0.367,0-0.73-0.02-1.097-0.055c-47.789-4.578-101.235-6.889-158.856-6.889
		c-161.023,0-304.539,18.176-305.969,18.364l-60.443,4.656C870.398,1421.488,870.098,1421.5,869.809,1421.5z M962.523,873.99
		l-79.172,523.406l45.438-3.484c0.859-0.129,145.754-18.492,308.314-18.492c53.098,0,102.748,1.937,147.813,5.801
		c-2.711-85.312,3.676-420.19,5.01-487.5L962.523,873.99z"/>
</g>
</svg>
