%YAML 1.1
%TAG !u! tag:unity3d.com,2011:
--- !u!1 &100000
GameObject:
  m_ObjectHideFlags: 0
  m_PrefabParentObject: {fileID: 0}
  m_PrefabInternal: {fileID: 100100000}
  serializedVersion: 4
  m_Component:
  - 4: {fileID: 400000}
  - 114: {fileID: 11400000}
  m_Layer: 0
  m_Name: Satchel1
  m_TagString: Untagged
  m_Icon: {fileID: 0}
  m_NavMeshLayer: 0
  m_StaticEditorFlags: 0
  m_IsActive: 1
--- !u!4 &400000
Transform:
  m_ObjectHideFlags: 1
  m_PrefabParentObject: {fileID: 0}
  m_PrefabInternal: {fileID: 100100000}
  m_GameObject: {fileID: 100000}
  m_LocalRotation: {x: 0, y: 0, z: 0, w: 1}
  m_LocalPosition: {x: 0, y: 0, z: 0}
  m_LocalScale: {x: 1, y: 1, z: 1}
  m_Children: []
  m_Father: {fileID: 0}
--- !u!114 &11400000
MonoBehaviour:
  m_ObjectHideFlags: 1
  m_PrefabParentObject: {fileID: 0}
  m_PrefabInternal: {fileID: 100100000}
  m_GameObject: {fileID: 100000}
  m_Enabled: 1
  m_EditorHideFlags: 0
  m_Script: {fileID: 11500000, guid: 4d0c51bb0b6e93049af5e88f93826e3b, type: 3}
  m_Name: 
  material: {fileID: 2100000, guid: d48db07ec1a51463eb1ec81277fe566c, type: 2}
  sprites:
  - name: ic_home
    outer:
      serializedVersion: 2
      x: 756
      y: 363
      width: 160
      height: 148
    inner:
      serializedVersion: 2
      x: 756
      y: 363
      width: 160
      height: 148
    rotated: 0
    paddingLeft: 0
    paddingRight: 0
    paddingTop: 0
    paddingBottom: 0
  - name: ic_map
    outer:
      serializedVersion: 2
      x: 527
      y: 188
      width: 155
      height: 150
    inner:
      serializedVersion: 2
      x: 527
      y: 188
      width: 155
      height: 150
    rotated: 0
    paddingLeft: 0
    paddingRight: 0
    paddingTop: 0
    paddingBottom: 0
  - name: ribbon_red
    outer:
      serializedVersion: 2
      x: 0
      y: 334
      width: 526
      height: 177
    inner:
      serializedVersion: 2
      x: 0
      y: 334
      width: 526
      height: 177
    rotated: 0
    paddingLeft: 0
    paddingRight: 0
    paddingTop: 0
    paddingBottom: 0
  - name: pagenationdot_inactive
    outer:
      serializedVersion: 2
      x: 483
      y: 260
      width: 36
      height: 36
    inner:
      serializedVersion: 2
      x: 483
      y: 260
      width: 36
      height: 36
    rotated: 0
    paddingLeft: 0
    paddingRight: 0
    paddingTop: 0
    paddingBottom: 0
  - name: pagenationdot_active
    outer:
      serializedVersion: 2
      x: 483
      y: 297
      width: 36
      height: 36
    inner:
      serializedVersion: 2
      x: 483
      y: 297
      width: 36
      height: 36
    rotated: 0
    paddingLeft: 0
    paddingRight: 0
    paddingTop: 0
    paddingBottom: 0
  - name: text_letters
    outer:
      serializedVersion: 2
      x: 0
      y: 11
      width: 311
      height: 98
    inner:
      serializedVersion: 2
      x: 0
      y: 11
      width: 311
      height: 98
    rotated: 0
    paddingLeft: 0
    paddingRight: 0
    paddingTop: 0
    paddingBottom: 0
  - name: text_buffs
    outer:
      serializedVersion: 2
      x: 683
      y: 256
      width: 227
      height: 82
    inner:
      serializedVersion: 2
      x: 683
      y: 256
      width: 227
      height: 82
    rotated: 0
    paddingLeft: 0
    paddingRight: 0
    paddingTop: 0
    paddingBottom: 0
  - name: satchel_flap_back
    outer:
      serializedVersion: 2
      x: 0
      y: 512
      width: 1024
      height: 1536
    inner:
      serializedVersion: 2
      x: 0
      y: 512
      width: 1024
      height: 1536
    rotated: 0
    paddingLeft: 0
    paddingRight: 0
    paddingTop: 0
    paddingBottom: 0
  - name: ic_newbadge
    outer:
      serializedVersion: 2
      x: 917
      y: 360
      width: 79
      height: 73
    inner:
      serializedVersion: 2
      x: 917
      y: 360
      width: 79
      height: 73
    rotated: 0
    paddingLeft: 0
    paddingRight: 0
    paddingTop: 0
    paddingBottom: 0
  - name: satchel_pocket
    outer:
      serializedVersion: 2
      x: 1025
      y: 512
      width: 1000
      height: 1536
    inner:
      serializedVersion: 2
      x: 1025
      y: 512
      width: 1000
      height: 1536
    rotated: 0
    paddingLeft: 0
    paddingRight: 0
    paddingTop: 0
    paddingBottom: 0
  - name: satchel hookclip
    outer:
      serializedVersion: 2
      x: 401
      y: 10
      width: 59
      height: 32
    inner:
      serializedVersion: 2
      x: 401
      y: 10
      width: 59
      height: 32
    rotated: 0
    paddingLeft: 0
    paddingRight: 0
    paddingTop: 0
    paddingBottom: 0
  - name: satchel_hook
    outer:
      serializedVersion: 2
      x: 527
      y: 339
      width: 228
      height: 172
    inner:
      serializedVersion: 2
      x: 527
      y: 339
      width: 228
      height: 172
    rotated: 0
    paddingLeft: 0
    paddingRight: 0
    paddingTop: 0
    paddingBottom: 0
  - name: text_characters
    outer:
      serializedVersion: 2
      x: 0
      y: 211
      width: 482
      height: 122
    inner:
      serializedVersion: 2
      x: 0
      y: 211
      width: 482
      height: 122
    rotated: 0
    paddingLeft: 0
    paddingRight: 0
    paddingTop: 0
    paddingBottom: 0
  - name: satchel_pocket_back
    outer:
      serializedVersion: 2
      x: 0
      y: 110
      width: 400
      height: 100
    inner:
      serializedVersion: 2
      x: 0
      y: 110
      width: 400
      height: 100
    rotated: 0
    paddingLeft: 0
    paddingRight: 0
    paddingTop: 0
    paddingBottom: 0
  - name: ic_satchel_music_off
    outer:
      serializedVersion: 2
      x: 312
      y: 22
      width: 88
      height: 87
    inner:
      serializedVersion: 2
      x: 312
      y: 22
      width: 88
      height: 87
    rotated: 0
    paddingLeft: 0
    paddingRight: 0
    paddingTop: 0
    paddingBottom: 0
  - name: ic_satchel_sound_on
    outer:
      serializedVersion: 2
      x: 917
      y: 434
      width: 80
      height: 77
    inner:
      serializedVersion: 2
      x: 917
      y: 434
      width: 80
      height: 77
    rotated: 0
    paddingLeft: 0
    paddingRight: 0
    paddingTop: 0
    paddingBottom: 0
  - name: ic_satchel_music_on
    outer:
      serializedVersion: 2
      x: 401
      y: 123
      width: 76
      height: 87
    inner:
      serializedVersion: 2
      x: 401
      y: 123
      width: 76
      height: 87
    rotated: 0
    paddingLeft: 0
    paddingRight: 0
    paddingTop: 0
    paddingBottom: 0
  - name: ic_satchel_sound_off
    outer:
      serializedVersion: 2
      x: 401
      y: 43
      width: 83
      height: 79
    inner:
      serializedVersion: 2
      x: 401
      y: 43
      width: 83
      height: 79
    rotated: 0
    paddingLeft: 0
    paddingRight: 0
    paddingTop: 0
    paddingBottom: 0
  - name: text_tips
    outer:
      serializedVersion: 2
      x: 683
      y: 173
      width: 168
      height: 82
    inner:
      serializedVersion: 2
      x: 683
      y: 173
      width: 168
      height: 82
    rotated: 0
    paddingLeft: 0
    paddingRight: 0
    paddingTop: 0
    paddingBottom: 0
  mCoordinates: 0
  mPixelSize: 1
  mReplacement: {fileID: 0}
--- !u!1001 &100100000
Prefab:
  m_ObjectHideFlags: 1
  serializedVersion: 2
  m_Modification:
    m_TransformParent: {fileID: 0}
    m_Modifications: []
    m_RemovedComponents: []
  m_ParentPrefab: {fileID: 0}
  m_RootGameObject: {fileID: 100000}
  m_IsPrefabParent: 1
  m_IsExploded: 1
